runner id,name,lastname,time,rank,checkpt0,checkpt1,checkpt2,checkpt3,nationality,finished,age,city,team,pace,speed,category,sex
7129,Gert,BRESSELEERS,2:57:31,22501,1:13:01,2:10:39,2:27:44,2:57:31,BEL,1,43,Zoersel,11:02,5.44,M40,m
7158,Jeff,VAN CAMP,2:57:32,22502,1:13:02,2:10:39,2:27:44,2:57:32,BEL,1,32,Borsbeek,11:02,5.44,SEH,m
15221,Evelien,BOES,3:13:34,22503,0,0,0,3:13:34,BEL,1,28,Gent,12:02,4.99,SEF,f
37,Tom,DE COSTER,3:24:12,22504,2:30:52,3:04:28,3:17:23,3:24:12,BEL,1,29,,12:42,4.73,SEH,m
56,Kenny,AELBRECHT,0,0,0,0,0,0,BEL,0,38,Moorsel,-,0,M35,m
20409,Jef,AERTS,0,0,43:02,0,0,0,BEL,0,34,Westerlo,-,0,SEH,m
1,Mohamed,AGOURRAM,0,0,25:11,0,0,0,MAR,0,28,Casablanca,-,0,SEH,m
30212,Ellis,BIJNENS,0,0,1:04:58,0,0,0,BEL,0,30,Wilrijk,-,0,SEF,f
35242,Suzanne,BIK,0,0,1:17:37,0,0,0,BEL,0,28,,-,0,SEF,f
18857,Tim,BOGAERT,0,0,0,0,0,0,BEL,0,23,Leefdaal,-,0,SEH,m
6,Lahsene,BOUCHIKHI,0,0,25:11,0,0,0,BEL,0,26,Antwerpen,-,0,SEH,m
134,Jorse,BOWLAND,0,0,0,0,0,0,BEL,0,15,Kampenhout,-,0,SEH,m
19068,Karen,BRAECKMANS,0,0,53:12,1:29:35,1:43:39,0,BEL,0,52,Wilrijk,-,0,F50,f
2756,Cedric,BUYLE,0,0,0,0,0,0,BEL,0,27,Sint-Blasius-Boekel,-,0,SEH,m
29304,Laurence,CABAY,0,0,0,0,0,0,BEL,0,44,Uccle,-,0,F40,f
22488,Jean,CAREME,0,0,0,0,0,0,BEL,0,53,Berchem,-,0,F50,f
15388,Laurens,CAUBERGS,0,0,42:33,0,0,0,BEL,0,22,Boechout,-,0,SEH,m
35275,Ibrahim,CHIHABI,0,0,40:15,1:11:41,1:24:27,0,BEL,0,23,,-,0,SEH,m
2072,Koen,COLE,0,0,44:47,1:13:19,1:23:24,0,BEL,0,60,Hove,-,0,M60,m
30608,Elia,COOLS,0,0,1:06:21,0,0,0,BEL,0,24,Lille,-,0,SEH,m
22243,Alain,CORBIAU,0,0,0,0,0,0,BEL,0,48,Zoersel,-,0,M45,m
2844,Gianni,CRESENS,0,0,0,0,0,0,BEL,0,24,Hemiksem,-,0,SEH,m
15559,Tim,DAMS,0,0,38:50,1:05:05,1:13:43,0,BEL,0,37,Geel,-,0,M35,m
7396,Jan,DE BAUW,0,0,55:44,1:32:06,1:45:06,0,BEL,0,58,Antwerpen,-,0,M55,m
36961,Anneleen,DE COCK,0,0,1:03:44,0,0,0,BEL,0,28,Antwerpen,-,0,SEF,f
30960,Wim,DE JONGH,0,0,0,0,0,0,BEL,0,43,Vosselaar,-,0,M40,m
15736,Patricia,DE KEIJZER,0,0,43:19,0,0,0,NLD,0,46,Nijmegen,-,0,F45,f
37768,Ann,DE PLECKER,0,0,59:02,0,0,0,BEL,0,52,Londerzeel,-,0,F50,f
35352,Laure,DE RAEYMAEKER,0,0,0,0,0,0,BEL,0,30,,-,0,SEF,f
15852,Cathérine,DE RIDDER,0,0,58:51,0,0,0,BEL,0,36,Vinderhoute,-,0,F35,f
31185,Nikki,DE SCHUTTER,0,0,0,0,0,0,BEL,0,23,Lille,-,0,SEF,f
21025,Maïté,DE WAEGENAERE,0,0,55:43,0,0,0,BEL,0,0,Machelen,-,0,-,f
22504,Adriaan,DEFRANCQ,0,0,0,0,0,0,BEL,0,16,Berchem,-,0,SEH,m
3088,Tim,DEWIT,0,0,39:07,0,0,0,BEL,0,45,Lommel,-,0,M45,m
15997,Steven,DHONDT,0,0,37:58,1:03:59,1:12:54,0,BEL,0,39,Zele,-,0,M35,m
38759,Tamara,DHULSTER,0,0,0,0,0,0,BEL,0,37,Oostrozebeke,-,0,F35,f
21416,Frank,DOBBELAERE,0,0,0,0,1:06:59,0,BEL,0,56,Zaventem,-,0,M55,m
37772,Anne,FROYEN,0,0,0,0,0,0,BEL,0,39,Roeselare,-,0,F35,f
37624,Leen,GERITS,0,0,0,0,0,0,BEL,0,40,Beerzel,-,0,F40,f
31590,Lars,GERNAEY,0,0,0,0,0,0,BEL,0,21,Deurne,-,0,SEH,m
31705,Daan,GOVAERT,0,0,0,0,0,0,BEL,0,32,Vlierzele,-,0,SEH,m
16302,Ridesh,GURUNG,0,0,0,0,0,0,BEL,0,30,Antwerpen,-,0,SEH,m
18748,Pieter,HAESAERT,0,0,49:38,1:34:29,1:53:16,0,BEL,0,49,Zemst,-,0,M45,m
2202,Olivier,HEFFINCK,0,0,50:41,0,0,0,BEL,0,31,Oostende,-,0,SEH,m
477,Joren,HENDRIKX,0,0,0,0,0,0,BEL,0,36,Brasschaat,-,0,M35,m
20953,Jill,HEYVAERT,0,0,0,0,0,0,BEL,0,35,Deurne,-,0,F35,f
16393,Sven,HEYVAERT,0,0,45:29,0,1:23:27,0,BEL,0,46,Hamme,-,0,M45,m
29682,Geert,HOEBEECK,0,0,0,0,0,0,BEL,0,64,Aalst,-,0,M60,m
7054,Myriam,ILEGEMS,0,0,56:22,0,0,0,BEL,0,56,Wuustwezel,-,0,F55,f
23128,Eva,JACOBS,0,0,0,0,1:57:58,0,BEL,0,32,Brasschaat,-,0,SEF,f
19480,Lennart,JACOBSEN,0,0,0,0,0,0,BEL,0,41,Zwijndrecht,-,0,M40,m
36101,Mireille,JAMBON,0,0,0,0,0,0,BEL,0,42,,-,0,F40,f
31981,Daisy,JANSEN,0,0,1:05:50,0,0,0,BEL,0,35,Vosselaar,-,0,F35,f
5348,Antonio,JUAREZ MERINO Fernando,0,0,0,0,0,0,SLV,0,33,,-,0,SEH,m
38022,Mukanga,KALEMA,0,0,0,0,0,0,BEL,0,18,Antwerpen,-,0,SEF,f
16621,Guillaume,LAGAST,0,0,58:50,0,2:14:44,0,BEL,0,36,Gent,-,0,M35,m
16759,An,LOYAERTS,0,0,43:50,1:12:36,1:22:42,0,BEL,0,47,Bonheiden,-,0,F45,f
32343,Leonie,MAAS,0,0,52:56,0,0,0,NLD,0,49,Alphen Nb,-,0,F45,f
16793,Inge,MAES,0,0,50:52,0,0,0,BEL,0,34,Willebroek,-,0,SEF,f
38118,Schrey,MARC,0,0,0,0,0,0,BEL,0,74,Mortsel,-,0,M70,m
32426,Daniel,MARTENS,0,0,0,0,0,0,BEL,0,39,Walshoutem,-,0,M35,m
2300,Luc,MASSON,0,0,0,0,0,0,BEL,0,55,Gentbrugge,-,0,M55,m
21198,Benjamin,MEEUWSEN,0,0,0,0,0,0,BEL,0,0,Berchem,-,0,-,m
16893,Frank,MENTINK,0,0,0,0,0,0,BEL,0,54,Antwerpen,-,0,M50,m
16912,Thomas,MESTDAGH,0,0,54:44,0,3:02:25,0,BEL,0,28,Gent,-,0,SEH,m
44359,Wim,MEUL,0,0,53:35,1:27:39,1:38:39,0,BEL,0,36,Beveren-Waas,-,0,M35,m
5040,Suresh,MODI Kunal,0,0,0,0,0,0,BEL,0,32,Antwerp,-,0,SEH,m
32592,Sofie,MOORKENS,0,0,0,0,0,0,BEL,0,21,Schoten,-,0,SEF,f
32602,Mark,MORREN,0,0,1:01:25,1:52:15,0,0,BEL,0,58,Antwerpen,-,0,M55,m
18946,Esteban,MUNICIO,0,0,0,0,0,0,ESP,0,31,Antwerpen,-,0,SEH,m
2331,Koen,NECKEBROECK,0,0,1:03:36,0,0,0,BEL,0,38,Meerbeke,-,0,M35,m
14502,,NR 14502,-,0,None,None,None,-,BEL,0,0,,-,0,-,m
6272,Caroline,ORBAN,0,0,0,0,0,0,BEL,0,26,Saint-Gilles,-,0,SEF,f
21798,Laurent,PAREZYS,0,0,45:57,1:15:36,1:25:20,0,BEL,0,51,Deurne,-,0,M50,m
35116,Runa,PEERSMANS,0,0,53:58,0,0,0,BEL,0,18,,-,0,SEF,f
17111,Bart,PEETERS,0,0,43:06,0,0,0,BEL,0,58,Oberstdorf,-,0,M55,m
14602,Wess,PEETERS,0,0,0,0,0,0,BEL,0,32,Merksem,-,0,SEH,m
20536,Jurgen,PIEPERS,0,0,45:43,0,0,0,BEL,0,48,Izegem,-,0,M45,m
22540,Kenny,POSTIAUX,0,0,49:56,0,0,0,BEL,0,31,Antwerpen,-,0,SEH,m
5052,Karin,PREUD'HOMME,0,0,55:20,0,0,0,BEL,0,55,Antwerpen,-,0,F55,f
32918,Margit,PROFESSOR KOCH,0,0,1:08:21,0,0,0,DEU,0,51,Köln,-,0,F50,f
18950,Luis,RAMIREZ Jose,0,0,0,0,0,0,BRA,0,33,Leuven,-,0,SEH,m
7297,Yannick,REMERY,0,0,37:38,1:03:33,1:12:56,0,BEL,0,26,Schoten,-,0,SEH,m
21653,Ivan,RISALDI,0,0,55:44,0,0,0,IDN,0,30,Melsele,-,0,SEH,m
35619,Liesbet,ROSE,0,0,1:01:57,0,0,0,BEL,0,24,,-,0,SEF,f
33050,Joanna,ROWKI,0,0,1:00:01,0,0,0,BEL,0,28,Antwerpen,-,0,SEF,f
742,Dirk,RUMMENS,0,0,0,0,0,0,BEL,0,59,Wilrijk,-,0,M55,m
33068,Esmee,SANDERS,0,0,1:12:21,0,0,0,NLD,0,18,Arendonk,-,0,SEF,f
35633,Ghofrane,SBAI,0,0,1:03:05,0,0,0,BEL,0,22,,-,0,SEF,f
35651,Anke,SIPS,0,0,49:23,1:25:11,1:40:08,0,BEL,0,19,,-,0,SEF,f
20796,Wouter,SLEECKX,0,0,46:08,0,1:23:58,0,BEL,0,32,Kortrijk,-,0,SEH,m
20237,Pareit,SOFIE,0,0,0,0,0,0,BEL,0,44,Pulderbos,-,0,F40,f
7180,Caspar,SPAEPEN,0,0,48:38,0,0,0,BEL,0,28,Broechem,-,0,SEH,m
44309,Louis,STANDER,0,0,50:48,0,0,0,BEL,0,14,Edegem,-,0,SEH,m
20223,Charlotte,STEVENS,0,0,51:13,1:25:28,1:37:19,0,BEL,0,30,Gentbrugge,-,0,SEF,f
20666,Kevin,STEVENS,0,0,0,0,0,0,BEL,0,42,Boom,-,0,M40,m
33340,Carlo,STEYAERT,0,0,0,0,0,0,BEL,0,26,Ieper,-,0,SEH,m
5360,Marcella,TEPATA DE JUAREZ,0,0,0,0,0,0,SLV,0,33,,-,0,SEF,f
1507,Stijn,TRUYENS,0,0,57:58,0,1:48:41,0,BEL,0,25,Laakdal,-,0,SEH,m
37253,Patrik,TUTELEERS,0,0,0,0,0,0,BEL,0,48,Antwerpen,-,0,M45,m
37741,Jeroen,VAN BRUYSSEL,0,0,46:52,1:21:19,1:35:00,0,BEL,0,25,Ledeberg,-,0,SEH,m
5503,Mike,VAN CLEVEN,0,0,0,0,0,0,BEL,0,43,St-Niklaas,-,0,M40,m
22550,Anne,VAN DE VEN,0,0,0,0,0,0,NLD,0,24,Berchem,-,0,SEF,f
22551,Bart,VAN DE VEN,0,0,0,0,0,0,NLD,0,58,Berchem,-,0,M55,m
33866,Thomas,VAN DE VONDEL,0,0,0,0,2:49:31,0,BEL,0,39,Erembodegem,-,0,M35,m
892,Adri,VAN DENDEREN,0,0,53:51,1:30:32,1:43:32,0,NLD,0,64,Monster,-,0,M60,m
37830,Matthew,VAN DER DONCK,0,0,39:45,0,0,0,BEL,0,29,Brasschaat,-,0,SEH,m
33807,Glenn,VAN DER MERCKEN,0,0,0,0,0,0,BEL,0,45,Beerzel,-,0,M45,m
21319,Hans,VAN DER POLL,0,0,0,0,0,0,NLD,0,56,Et Teteringen,-,0,M55,m
33828,Valerie,VAN DER VEEKEN,0,0,0,0,0,0,BEL,0,52,Antwerpen,-,0,F50,f
17862,Sofie,VAN DER ZANDEN,0,0,0,0,0,0,BEL,0,42,Kasterlee,-,0,F40,f
4819,Kelly,VAN DER ZEYP,0,0,1:05:42,0,0,0,BEL,0,38,Lint,-,0,F35,f
36091,Bjarne,VAN DONINCK,0,0,42:20,0,0,0,BEL,0,18,,-,0,SEH,m
6489,Annelies,VAN DOREN,0,0,55:09,0,0,0,BEL,0,32,Londerzeel,-,0,SEF,f
933,Ghenia,VAN EETVELDT,0,0,0,0,0,0,BEL,0,42,De Haan,-,0,F40,f
17974,Romy,VAN GORP,0,0,55:34,0,0,0,BEL,0,23,Herentals,-,0,SEF,f
1217,Veerle,VAN HOECK,0,0,44:20,1:10:48,1:19:58,0,BEL,0,35,Wommelgem,-,0,F35,f
18088,Berten,VAN LOOVEREN,0,0,37:54,1:07:15,0,0,BEL,0,29,Kontich,-,0,SEH,m
4261,Julie,VAN LOOY,0,0,57:43,0,0,0,BEL,0,28,Antwerpen,-,0,SEF,f
4273,Dax,VAN NOTEN,0,0,0,0,0,0,BEL,0,24,Deurne,-,0,SEH,m
5945,Michel,VAN NOTEN,0,0,0,0,0,0,BEL,0,30,Brussel,-,0,SEH,m
20881,Kim,VAN VAERENBERGH,0,0,56:02,0,0,0,BEL,0,37,Herentals,-,0,F35,f
21671,Erik,VAN WOLVELAER,0,0,0,0,0,0,BEL,0,46,Merksem,-,0,M45,m
4066,Bram,VANDECAPELLE,0,0,0,0,0,0,BEL,0,30,Antwerpen,-,0,SEH,m
29334,Veerle,VANHOOYDONCK,0,0,0,0,0,0,BEL,0,47,Zoersel,-,0,F45,f
21231,Arthur,VANHOVE,0,0,0,0,0,0,BEL,0,29,Antwerpen,-,0,SEH,m
23412,Youri,VANLOMMEL,0,0,41:57,0,0,0,BEL,0,29,Antwerpen,-,0,SEH,m
1011,David,VELLA,0,0,0,0,0,0,BEL,0,42,De Haan,-,0,M40,m
20518,Tim,VERBOVEN,0,0,58:48,0,0,0,BEL,0,26,Booischot,-,0,SEH,m
1024,Wouter,VERHAEGEN,0,0,0,0,0,0,BEL,0,43,Ledeberg,-,0,M40,m
18601,Ann,VERMOESEN,0,0,49:21,1:21:11,1:31:45,0,BEL,0,47,Opwijk,-,0,F45,f
18428,Kim,VERWIMP,0,0,45:23,1:15:48,1:26:46,0,BEL,0,33,Borgerhout,-,0,SEF,f
19200,George,VILARNAU Y BONA,0,0,0,0,0,0,BEL,0,44,Wilrijk,-,0,M40,m
18969,Amalia,VILLA,0,0,0,0,0,0,ESP,0,27,Leuven,-,0,SEF,f
34540,Philippe,VOET,0,0,0,0,0,0,BEL,0,44,Vlezenbeek,-,0,M40,m
4453,Goinga,WESSEL,0,0,0,0,0,0,NLD,0,28,Opsterland,-,0,SEH,m
1103,Talat,YIKILMAZ,0,0,44:48,1:16:38,1:27:50,0,BEL,0,0,Waarschoot,-,0,-,m
7123,Ahmed,ZIZAOUI,0,0,0,0,0,0,BEL,0,49,Antwerpen,-,0,M45,m
