runner id,name,lastname,time,rank,checkpt0,checkpt1,checkpt2,checkpt3,nationality,finished,age,city,team,pace,speed,category,sex
22799,Olivier,VAN BORSEL,1:35:17,13001,48:37,1:19:39,1:30:16,1:35:17,BEL,1,33,Hombeek,5:56,10.14,SEH,m
19206,Frederik,HEEREN,1:35:17,13002,47:55,1:19:07,1:29:41,1:35:17,BEL,1,42,Antwerpen,5:56,10.14,M40,m
16140,Louise,FINNSDATTER,1:35:17,13003,46:28,1:18:13,1:29:49,1:35:17,DNK,1,28,Houten,5:56,10.14,SEF,f
32045,Lieselot,JONNAERT,1:35:17,13004,48:07,1:18:58,1:29:52,1:35:17,BEL,1,27,Wetteren,5:56,10.14,SEF,f
18278,Dries,VERCAEMER,1:35:17,13005,46:35,1:18:12,1:29:30,1:35:17,BEL,1,29,Gentbrugge,5:56,10.14,SEH,m
19207,Karolien,UYTTERSPROT,1:35:17,13006,47:56,1:19:08,1:30:01,1:35:17,BEL,1,42,Antwerpen,5:56,10.14,F40,f
5562,Lieselot,HEYNDERICKX,1:35:17,13007,47:24,1:19:04,1:29:51,1:35:17,BEL,1,30,Oostakker,5:56,10.14,SEF,f
34762,Erik,VAN DE SOMPEL,1:35:18,13008,48:26,1:19:25,1:29:58,1:35:18,BEL,1,32,Antwerpen,5:56,10.13,SEH,m
22533,Christophe,MORRE,1:35:18,13009,49:03,1:19:43,1:30:09,1:35:18,BEL,1,31,Antwerpen,5:56,10.13,SEH,m
30900,Lore,DE DEYN,1:35:18,13010,48:07,1:18:58,1:29:52,1:35:18,BEL,1,28,Hofstade,5:56,10.13,SEF,f
18486,Charlotte,WALLAYS,1:35:18,13011,48:07,1:19:27,1:30:17,1:35:18,BEL,1,26,Gent,5:56,10.13,SEF,f
37404,Matthias,VANHOECKE,1:35:18,13012,47:31,1:18:42,1:29:44,1:35:18,BEL,1,25,Merelbeke,5:56,10.13,SEH,m
18781,Faical,OUBAIDA,1:35:19,13013,47:11,1:19:00,1:30:14,1:35:19,BEL,1,41,Borgerhout,5:56,10.13,M40,m
36999,Raf,VAN HOOF,1:35:19,13014,48:05,1:20:03,1:30:19,1:35:19,BEL,1,28,Antwerpen,5:56,10.13,SEH,m
21342,Anais,VOLKERS,1:35:19,13015,47:05,1:18:52,1:29:57,1:35:19,BEL,1,32,Antwerpen,5:56,10.13,SEF,f
17091,Casper,PARTOENS,1:35:19,13016,50:07,1:21:02,1:31:19,1:35:19,BEL,1,14,Mortsel,5:56,10.13,SEH,m
32295,An,LIPPENS,1:35:19,13017,46:39,1:18:36,1:29:49,1:35:19,BEL,1,40,Assenede,5:56,10.13,F40,f
21779,Kevin,ENGELEN,1:35:20,13018,47:48,1:19:38,1:30:15,1:35:20,BEL,1,35,Deurne,5:56,10.13,M35,m
33717,Jonas,VANDENBRUAENE,1:35:20,13019,50:05,1:21:04,1:30:50,1:35:20,BEL,1,25,Borgerhout,5:56,10.13,SEH,m
37330,Peter,KIPS,1:35:20,13020,47:31,1:18:43,1:29:44,1:35:20,BEL,1,39,Assenede,5:56,10.13,M35,m
6316,Miodrag,NESOVANOVIC,1:35:20,13021,45:42,1:17:59,1:29:26,1:35:20,SCG,1,36,Steenokkerzeel,5:56,10.13,M35,m
16582,Gosia,KLAPPER,1:35:20,13022,48:24,1:19:39,1:30:06,1:35:20,BEL,1,49,Vosselaar,5:56,10.13,F45,f
2548,Katrien,VISSENBERG,1:35:20,13023,47:34,1:19:04,1:29:58,1:35:20,BEL,1,42,Wolvertem,5:56,10.13,F40,f
18666,Eva,VAN HECKE,1:35:20,13024,47:49,1:18:45,1:29:47,1:35:20,BEL,1,34,Serskamp,5:56,10.13,SEF,f
23309,Leen,MARTENS,1:35:20,13025,46:40,1:17:44,1:29:22,1:35:20,BEL,1,43,Antwerpen,5:56,10.13,F40,f
17085,Tom,PANNUS,1:35:20,13026,46:29,1:18:18,1:29:41,1:35:20,BEL,1,38,Pepingen,5:56,10.13,M35,m
31603,Margot,GEVAERT,1:35:20,13027,47:55,1:19:26,1:30:02,1:35:20,BEL,1,23,De Haan,5:56,10.13,SEF,f
34141,Tom,VANORMELINGEN,1:35:20,13028,47:54,1:18:50,1:29:24,1:35:20,BEL,1,43,Hasselt,5:56,10.13,M40,m
31390,Dorien,DRIESEN,1:35:20,13029,48:17,1:19:51,1:30:19,1:35:20,BEL,1,38,Balen,5:56,10.13,F35,f
15011,Kim,ADRIAENS,1:35:20,13030,46:48,1:18:43,1:29:57,1:35:20,BEL,1,25,Duffel,5:56,10.13,SEF,f
16776,Anne,LYEN,1:35:20,13031,48:16,1:19:52,1:30:19,1:35:20,BEL,1,26,Mol,5:56,10.13,SEF,f
30432,Sofie,CAERS,1:35:20,13032,48:18,1:19:53,1:30:20,1:35:20,BEL,1,25,Balen,5:56,10.13,SEF,f
15500,Nicolas,CORREWYN,1:35:20,13033,48:45,1:19:40,1:30:08,1:35:20,BEL,1,42,Deurne,5:56,10.13,M40,m
44533,Bert,SCHANDEVYL,1:35:20,13034,46:35,1:18:19,1:29:26,1:35:20,BEL,1,36,Edegem,5:56,10.13,M35,m
21837,Yvan,WILLEMS,1:35:21,13035,46:08,1:17:30,1:29:27,1:35:21,BEL,1,33,Brasschaat,5:56,10.13,SEH,m
22743,Tom,VERGAUWEN,1:35:21,13036,47:59,1:18:56,1:29:38,1:35:21,BEL,1,45,Nijlen,5:56,10.13,M45,m
1958,Sabrina,CARLIER,1:35:21,13037,46:36,1:18:39,1:29:57,1:35:21,BEL,1,34,Antwerpen,5:56,10.13,SEF,f
33132,Emilie,SCHOORS,1:35:21,13038,46:48,1:18:43,1:29:57,1:35:21,BEL,1,25,Duffel,5:56,10.13,SEF,f
4114,Christelle,VANDENNEUCKER,1:35:21,13039,48:23,1:19:45,1:30:06,1:35:21,BEL,1,52,Aalst,5:56,10.13,F50,f
37921,Yvonne,KOOLEN,1:35:21,13040,47:21,1:19:01,1:29:44,1:35:21,NLD,1,28,Utrecht,5:56,10.13,SEF,f
590,Cindy,MAI,1:35:21,13041,46:13,1:18:21,1:29:49,1:35:21,BEL,1,34,Wilrijk,5:56,10.13,SEF,f
29949,Koen,VERDICKT,1:35:21,13042,46:39,1:18:22,1:29:54,1:35:21,BEL,1,50,Sint-Pauwels,5:56,10.13,M50,m
283,Pat,DE JONGE,1:35:21,13043,45:34,1:18:22,1:29:35,1:35:21,BEL,1,56,Putte,5:56,10.13,M55,m
18026,Lynn,VANHOOF,1:35:22,13044,48:18,1:19:52,1:30:18,1:35:22,BEL,1,28,Mol,5:56,10.13,SEF,f
22205,Nina,DEJAEGER,1:35:22,13045,46:31,1:18:53,1:29:55,1:35:22,BEL,1,28,Antwerpen,5:56,10.13,SEF,f
33478,Paulien,TIMMERMANS,1:35:22,13046,47:00,1:19:05,1:29:57,1:35:22,BEL,1,22,Ninove,5:56,10.13,SEF,f
16323,Khalil,HAMID,1:35:22,13047,44:37,1:17:22,1:28:55,1:35:22,IRN,1,37,Leuven,5:56,10.13,M35,m
1019,Mieke,VERCAMMEN,1:35:22,13048,47:34,1:18:38,1:30:02,1:35:22,BEL,1,44,Herentals,5:56,10.13,F40,f
37356,Mark,PAUWELS,1:35:22,13049,46:21,1:18:42,1:30:07,1:35:22,BEL,1,58,Sint-Lenaarts,5:56,10.13,M55,m
5107,Isabel,DE BRABANDER,1:35:23,13050,47:28,1:18:59,1:29:47,1:35:23,BEL,1,45,Strijpen,5:56,10.13,F45,f
31226,Lara,DE TAEYE,1:35:23,13051,47:00,1:19:05,1:29:21,1:35:23,BEL,1,22,Zarlardinge,5:56,10.13,SEF,f
32975,Linn,REYNIERS,1:35:23,13052,47:35,1:19:13,1:29:55,1:35:23,BEL,1,28,Boom,5:56,10.13,SEF,f
34545,Kathleen,VONCKX,1:35:23,13053,48:00,1:19:19,1:30:10,1:35:23,BEL,1,22,Schriek,5:56,10.13,SEF,f
31902,Rita,HOOIJMANS,1:35:23,13054,46:31,1:19:06,1:30:05,1:35:23,NLD,1,39,Bovenkarspel,5:56,10.13,F35,f
23461,Lizzy,UYTTENDAELE,1:35:23,13055,49:57,1:20:01,1:30:21,1:35:23,BEL,1,30,Baasrode,5:56,10.13,SEF,f
32067,Simone,KATH,1:35:23,13056,47:14,1:18:23,1:29:39,1:35:23,AUT,1,45,Wien,5:56,10.13,F45,f
33985,Dominique,VANHEDE,1:35:23,13057,48:39,1:19:56,1:30:27,1:35:23,BEL,1,60,Zwevegem,5:56,10.13,M60,m
32525,Els,MERVILLIE,1:35:23,13058,48:44,1:19:56,1:30:27,1:35:23,BEL,1,41,Oeselgem,5:56,10.13,F40,f
31991,Jules,JANSSEN,1:35:23,13059,46:27,1:18:24,1:29:52,1:35:23,BEL,1,67,Tervuren,5:56,10.13,M65,m
29803,Rainer,VEKEMANS,1:35:23,13060,50:49,1:21:23,1:31:05,1:35:23,BEL,1,30,Diepenbeek,5:56,10.12,SEH,m
18499,Steven,WENSELAERS,1:35:23,13061,47:29,1:18:52,1:30:08,1:35:23,BEL,1,34,Beveren,5:56,10.12,SEH,m
4565,Matti,LAMMERS,1:35:24,13062,46:32,1:18:56,1:29:53,1:35:24,BEL,1,60,Beerse,5:56,10.12,M60,m
3158,Joeri,ERREGEERTS,1:35:24,13063,47:55,1:19:37,1:30:22,1:35:24,BEL,1,43,Heusden-Zolder,5:56,10.12,M40,m
37233,Frederic,D'HAENENS,1:35:24,13064,46:35,1:18:36,1:29:43,1:35:24,BEL,1,46,De Pinte,5:56,10.12,M45,m
2641,Kelly,BECK,1:35:24,13065,47:28,1:18:45,1:29:39,1:35:24,BEL,1,31,Sint-Gillis-Waas,5:56,10.12,SEF,f
15192,Sara,BILLEN,1:35:24,13066,47:28,1:19:09,1:29:53,1:35:24,BEL,1,26,Runkelen,5:56,10.12,SEF,f
31987,Daan,JANSSEN,1:35:24,13067,46:02,1:18:11,1:29:44,1:35:24,BEL,1,32,Gent,5:56,10.12,SEH,m
21864,Jeff,MESENS,1:35:24,13068,47:28,1:19:09,1:29:53,1:35:24,BEL,1,29,Leuven,5:56,10.12,SEH,m
21693,Arno,DE VILDER,1:35:25,13069,47:49,1:19:14,1:29:58,1:35:25,BEL,1,27,Sleidinge,5:56,10.12,SEH,m
22651,Eveline,DEBAES,1:35:25,13070,47:25,1:18:43,1:29:55,1:35:25,BEL,1,42,Waasmunster,5:56,10.12,F40,f
38714,Julie,JACOBS,1:35:25,13071,47:25,1:17:50,1:30:01,1:35:25,BEL,1,34,Hamme,5:56,10.12,SEF,f
6742,Sandra,ONZIA,1:35:25,13072,48:27,1:19:19,1:30:15,1:35:25,BEL,1,47,Burcht,5:56,10.12,F45,f
19435,Glenda,GILLE,1:35:25,13073,49:35,1:20:02,1:30:18,1:35:25,BEL,1,29,Erps-Kwerps,5:56,10.12,SEF,f
18460,Iris,VOGEL,1:35:25,13074,47:11,1:18:28,1:29:52,1:35:25,NLD,1,41,Berchem,5:56,10.12,F40,f
23119,Stein,DE GROOF,1:35:25,13075,48:06,1:19:35,1:30:25,1:35:25,BEL,1,36,Antwerpen,5:56,10.12,M35,m
6723,Farah,DUYM,1:35:25,13076,48:27,1:19:19,1:30:14,1:35:25,BEL,1,18,Burcht,5:56,10.12,SEF,f
31284,Brecht,DE WINNE,1:35:25,13077,46:48,1:18:54,1:30:00,1:35:25,BEL,1,28,Gent,5:56,10.12,SEH,m
38712,Bart,VAN DAELE,1:35:26,13078,47:24,1:17:49,1:30:01,1:35:26,BEL,1,42,Waasmunster,5:56,10.12,M40,m
22162,Jeroen,CELIS,1:35:26,13079,46:01,1:16:44,1:29:19,1:35:26,BEL,1,28,Borsbeek,5:56,10.12,SEH,m
33194,Sandy,SILVERSMET,1:35:26,13080,46:01,1:18:12,1:29:43,1:35:26,BEL,1,41,Ertvelde,5:56,10.12,M40,m
17869,Nick,VAN DEUN,1:35:26,13081,48:21,1:19:15,1:30:15,1:35:26,BEL,1,22,Weelde,5:56,10.12,SEH,m
6521,Donovan,DECREM,1:35:26,13082,47:49,1:19:14,1:29:58,1:35:26,BEL,1,27,Lievegem,5:56,10.12,SEH,m
17588,Johan,THIELENS,1:35:26,13083,47:07,1:19:08,1:30:13,1:35:26,BEL,1,41,Borgloon,5:56,10.12,M40,m
34989,Senne,SCHRICKX,1:35:26,13084,43:13,1:08:22,1:22:43,1:35:26,BEL,1,18,,5:56,10.12,SEH,m
22709,Conny,HUBERT,1:35:26,13085,46:17,1:18:15,1:29:30,1:35:26,BEL,1,55,Antwerpen,5:56,10.12,F55,f
22052,Bart,REYNDERS,1:35:26,13086,48:09,1:19:32,1:30:25,1:35:26,BEL,1,38,Boechout,5:56,10.12,M35,m
15418,Dina,CLAASSEN,1:35:26,13087,47:07,1:19:08,1:30:12,1:35:26,BEL,1,40,Borgloon,5:56,10.12,F40,f
23359,Annelore,VAN AERT,1:35:26,13088,48:16,1:19:10,1:30:00,1:35:26,BEL,1,27,Essen,5:56,10.12,SEF,f
21765,Karina,DE FRÉ,1:35:27,13089,47:16,1:18:52,1:30:00,1:35:27,BEL,1,62,Boechout,5:56,10.12,F60,f
18999,Houssynatou,SY,1:35:27,13090,45:31,1:18:29,1:29:57,1:35:27,BEL,1,41,Berchem,5:56,10.12,F40,f
37144,Nancy,NEES,1:35:27,13091,50:13,1:21:30,1:30:52,1:35:27,BEL,1,52,Heffen,5:56,10.12,F50,f
32022,Ruta,JASAITYTE,1:35:27,13092,47:38,1:19:34,1:30:06,1:35:27,LTU,1,37,Berlin,5:56,10.12,F35,f
31552,Carmen,GARCIA,1:35:27,13093,47:38,1:19:33,1:30:06,1:35:27,DEU,1,37,Berlin,5:56,10.12,F35,f
21729,Olivier,VAN BULCK,1:35:27,13094,48:56,1:20:11,1:30:14,1:35:27,BEL,1,26,Antwerpen,5:56,10.12,SEH,m
16402,Emile,HOFMANS,1:35:27,13095,48:01,1:18:50,1:29:47,1:35:27,BEL,1,17,Oelegem,5:56,10.12,SEH,m
44509,Mounhir,BOUTAGRAD,1:35:27,13096,47:04,1:19:12,1:29:51,1:35:27,BEL,1,40,Hemiksem,5:56,10.12,M40,m
5927,Marieke,VIVEEN,1:35:27,13097,48:56,1:20:27,1:30:23,1:35:27,BEL,1,27,Antwerpen,5:56,10.12,SEF,f
