runner id,name,lastname,time,rank,checkpt0,checkpt1,checkpt2,checkpt3,nationality,finished,age,city,team,pace,speed,category,sex
22986,Reggy,CARLIER,1:36:10,13501,47:57,1:19:33,1:30:41,1:36:10,BEL,1,31,Liedekerke,5:59,10.04,SEH,m
23152,Tine,VOORSPOELS,1:36:10,13502,46:44,1:19:26,1:30:36,1:36:10,BEL,1,30,Borgerhout,5:59,10.04,SEF,f
21720,Anneleen,VAN MECHELEN,1:36:10,13503,50:00,1:20:48,1:31:22,1:36:10,BEL,1,31,Lokeren,5:59,10.04,SEF,f
38727,Sabben,HUBERT Van,1:36:10,13504,48:28,1:20:04,1:30:43,1:36:10,BEL,1,36,Goes,5:59,10.04,M35,m
36364,Eline,VAN WICHELEN,1:36:10,13505,50:10,1:21:19,1:31:20,1:36:10,BEL,1,31,Schilde,5:59,10.04,SEF,f
7083,Alexander,SEBREGTS,1:36:10,13506,49:34,1:20:30,1:30:53,1:36:10,NLD,1,41,Antwerpen,5:59,10.04,M40,m
32445,Daglinde,MASURE,1:36:10,13507,49:13,1:21:07,1:31:30,1:36:10,BEL,1,34,Berchem,5:59,10.04,SEF,f
22468,Jasmine,VAN GOOL,1:36:10,13508,46:47,1:19:04,1:30:16,1:36:10,BEL,1,30,Vosselaar,5:59,10.04,SEF,f
36362,Michaël,STERCKX,1:36:10,13509,46:29,1:18:50,1:30:30,1:36:10,BEL,1,33,Kalmthout,5:59,10.04,SEH,m
19703,Lucie,MICHELLOD,1:36:10,13510,47:02,1:19:03,1:30:33,1:36:10,BEL,1,46,Zwijndrecht,5:59,10.04,F45,f
20499,Stefan,VAN DEN BOSSCHE,1:36:11,13511,48:21,1:19:40,1:30:25,1:36:11,BEL,1,47,Mol,5:59,10.04,M45,m
22008,Damien,VAN OUTRYVE D'YDEWAL,1:36:11,13512,46:54,1:19:02,1:30:35,1:36:11,BEL,1,33,Outgaarden,5:59,10.04,SEH,m
4836,Lynsey,VERVOORT,1:36:11,13513,48:54,1:20:05,1:31:00,1:36:11,BEL,1,45,Mortsel,5:59,10.04,F45,f
18643,Annelies,ROGGEN,1:36:11,13514,50:22,1:20:42,1:31:13,1:36:11,BEL,1,35,Edegeù,5:59,10.04,F35,f
32387,Tom,MALFAIT,1:36:11,13515,49:43,1:21:32,1:30:55,1:36:11,BEL,1,45,Ham,5:59,10.04,M45,m
1804,Stephanie,VAN SABBEN,1:36:11,13516,48:28,1:20:04,1:30:43,1:36:11,NLD,1,29,Sheerarendskerke,5:59,10.04,SEF,f
431,Joris,GEUBBELMANS,1:36:11,13517,48:47,1:20:44,1:31:33,1:36:11,BEL,1,32,Leuven,5:59,10.04,SEH,m
17016,Geer,NICKY Van,1:36:11,13518,46:09,1:18:20,1:30:09,1:36:11,NLD,1,42,Rotterdam,5:59,10.04,M40,m
33712,Sander,VAN DEN BROECK,1:36:11,13519,46:15,1:18:25,1:30:10,1:36:11,BEL,1,26,Mechelen,5:59,10.04,SEH,m
6528,Jansen,BEN,1:36:11,13520,48:27,1:19:21,1:30:33,1:36:11,NLD,1,33,Hoevenen,5:59,10.04,SEH,m
5387,Ronny,ANDRIESSEN,1:36:11,13521,49:35,1:22:12,1:31:42,1:36:11,BEL,1,40,Wilrijk,5:59,10.04,M40,m
20644,Alexander,BILLIET,1:36:11,13522,48:07,1:19:47,1:31:04,1:36:11,BEL,1,27,Leuven,5:59,10.04,SEH,m
7051,Jorgen,HOEFNAGELS,1:36:11,13523,49:36,1:20:31,1:30:55,1:36:11,BEL,1,34,Antwerpen,5:59,10.04,SEH,m
32940,Griet,RAECKELBOOM,1:36:11,13524,48:21,1:20:19,1:30:56,1:36:11,BEL,1,45,Bazel,5:59,10.04,F45,f
32642,Clara,NEELS,1:36:11,13525,49:07,1:20:47,1:31:11,1:36:11,BEL,1,26,Lommel,5:59,10.04,SEF,f
33665,Frederic,VAN DELM,1:36:11,13526,48:17,1:19:59,1:30:48,1:36:11,BEL,1,45,Bornem,5:59,10.04,M45,m
35817,Chloë,VERLINDEN,1:36:11,13527,48:41,1:20:00,1:30:51,1:36:11,BEL,1,20,,5:59,10.04,SEF,f
19101,Wendy,VERHELST,1:36:12,13528,45:47,1:19:07,1:30:36,1:36:12,BEL,1,39,Stabroek,5:59,10.04,F35,f
34699,Reno,WOUTERS,1:36:12,13529,47:03,1:18:50,1:30:37,1:36:12,BEL,1,39,Geel,5:59,10.04,M35,m
29394,Petra,CANT,1:36:12,13530,47:01,1:19:45,1:30:47,1:36:12,BEL,1,43,Bazel,5:59,10.04,F40,f
33705,Guido,VAN DEN BRANDE,1:36:12,13531,47:57,1:19:33,1:30:28,1:36:12,BEL,1,58,Vremde,5:59,10.04,M55,m
3894,Dimitri,SLEECKX,1:36:12,13532,47:18,1:19:15,1:30:22,1:36:12,BEL,1,23,'S-Gravenwezel,5:59,10.04,SEH,m
19353,Erik,KALFUS,1:36:12,13533,47:19,1:19:15,1:30:23,1:36:12,BEL,1,22,Schoten,5:59,10.04,SEH,m
30978,Caroline,DE KINDER,1:36:12,13534,48:51,1:20:24,1:30:49,1:36:12,BEL,1,37,Stekene,5:59,10.04,F35,f
4803,Joyce,TEUGHELS,1:36:12,13535,48:56,1:20:07,1:31:02,1:36:12,BEL,1,26,Lier,5:59,10.04,SEF,f
21999,Thomas,INGELAERE,1:36:12,13536,47:19,1:19:02,1:30:34,1:36:12,BEL,1,24,Ertvelde,5:59,10.04,SEH,m
33296,Besiana,STAMBOLLIU,1:36:12,13537,49:10,1:20:35,1:31:08,1:36:12,ALB,1,38,Lille,5:59,10.04,F35,f
20656,Margot,WEGGE,1:36:12,13538,48:08,1:19:48,1:31:05,1:36:12,BEL,1,28,Leuven,5:59,10.04,SEF,f
18837,Sophie,JANSEN,1:36:12,13539,46:54,1:19:31,1:30:49,1:36:12,BEL,1,34,Antwerpen,5:59,10.04,SEF,f
4878,Hannes,DEWOLF,1:36:12,13540,46:57,1:18:58,1:30:20,1:36:12,BEL,1,26,Antwerpen,5:59,10.04,SEH,m
16516,Broekmate,JOHAN,1:36:12,13541,46:09,1:18:20,1:30:09,1:36:12,NLD,1,40,Rotterdam,5:59,10.04,M40,m
4945,Dimitri,SOEBERT,1:36:12,13542,50:20,1:20:34,1:31:21,1:36:12,BEL,1,38,Edegem,5:59,10.04,M35,m
22593,Glen,REGIER,1:36:12,13543,45:33,1:18:00,1:30:32,1:36:12,DEU,1,47,Larkspur,5:59,10.04,M45,m
18774,Christina,CLAUS,1:36:13,13544,48:03,1:19:44,1:30:54,1:36:13,NLD,1,27,Antwerpen,5:59,10.04,SEF,f
18344,Marieke,VERHULSDONCK,1:36:13,13545,45:44,1:18:36,1:30:48,1:36:13,NLD,1,24,Leuven,5:59,10.04,SEF,f
19007,Sophie,APPELMANS,1:36:13,13546,48:52,1:20:24,1:30:49,1:36:13,BEL,1,42,Moerbeke,5:59,10.04,F40,f
457,Sam,GUETENS,1:36:13,13547,47:35,1:20:10,1:31:06,1:36:13,DNK,1,13,Schoten,5:59,10.04,SEH,m
21604,Veronique,DECROOCK,1:36:13,13548,46:31,1:18:58,1:30:20,1:36:13,BEL,1,35,Wommelgem,5:59,10.04,F35,f
29991,Lumbes,SHIMABUKURO Shirlene,1:36:13,13549,48:03,1:19:44,1:30:54,1:36:13,BEL,1,27,,5:59,10.04,SEF,f
32552,Freya,MICHIELS,1:36:13,13550,46:48,1:18:52,1:30:22,1:36:13,BEL,1,47,Mechelen,5:59,10.04,F45,f
36933,Albert,VAN UFFELEN,1:36:13,13551,49:21,1:20:54,1:31:09,1:36:13,BEL,1,59,Schoten,5:59,10.04,M55,m
21320,Nik,VAN ELSACKER,1:36:13,13552,45:58,1:18:40,1:30:33,1:36:13,BEL,1,39,Westmalle,5:59,10.04,M35,m
32494,Martin,MEIRLAEN,1:36:13,13553,45:08,1:18:39,1:30:26,1:36:13,BEL,1,66,Waregem,5:59,10.04,M65,m
22318,Koen,VAN DEN ABEELE,1:36:13,13554,47:27,1:19:31,1:30:48,1:36:13,DEU,1,36,Antwerpen,5:59,10.04,M35,m
3154,Maartje,ENGELEN Kiliana Anne,1:36:13,13555,49:21,1:20:54,1:31:09,1:36:13,BEL,1,29,Kluisbergen,5:59,10.04,SEF,f
33895,Daniel,VAN DOORSLAER,1:36:13,13556,46:55,1:18:18,1:30:32,1:36:13,BEL,1,67,Lalinde,5:59,10.04,M65,m
30880,Benny,DE COSTER,1:36:13,13557,46:48,1:18:51,1:30:21,1:36:13,BEL,1,52,Asse,5:59,10.04,M50,m
21738,Petra,ROGGE,1:36:14,13558,48:40,1:19:47,1:30:38,1:36:14,BEL,1,50,Oostrozebeke,5:59,10.04,F50,f
6023,Paul,BRUGMAN,1:36:14,13559,48:19,1:20:00,1:30:48,1:36:14,BEL,1,39,,5:59,10.04,M35,m
34562,Liesbeth,VRINTS,1:36:14,13560,48:19,1:20:01,1:30:49,1:36:14,BEL,1,41,Malle,5:59,10.04,F40,f
18693,Mick,DERRIKS,1:36:14,13561,46:29,1:19:31,1:31:13,1:36:14,NLD,1,48,Kalmthout,5:59,10.04,M45,m
29303,Frederique,PAUPORTE,1:36:14,13562,49:29,1:20:54,1:31:16,1:36:14,BEL,1,50,Brussel,5:59,10.04,F50,f
2744,Bart,BRUYNINCKX,1:36:14,13563,48:49,1:20:16,1:31:10,1:36:14,BEL,1,44,Tienen,5:59,10.04,M40,m
2743,Anouk,BRUYNINCKX,1:36:14,13564,48:49,1:20:16,1:31:10,1:36:14,BEL,1,13,Tienen,5:59,10.04,SEF,f
36631,Sofie,DE RIDDER,1:36:14,13565,48:07,1:20:22,1:31:09,1:36:14,BEL,1,46,Schelle,5:59,10.04,F45,f
38105,Wim,VAN DEN TOL,1:36:15,13566,48:14,1:19:56,1:30:41,1:36:15,BEL,1,60,Kapellen,5:59,10.04,M60,m
16321,Mike,HAMELINK,1:36:15,13567,47:55,1:19:41,1:30:59,1:36:15,NLD,1,29,Schoten,5:59,10.04,SEH,m
5099,Roel,CLAES,1:36:15,13568,48:41,1:20:13,1:30:58,1:36:15,BEL,1,39,Veerle-Laakdal,5:59,10.03,M35,m
30283,Jan,BOONEN,1:36:15,13569,46:49,1:18:42,1:30:24,1:36:15,BEL,1,33,Borgerhout,5:59,10.03,SEH,m
34850,Michael,ANUGWO,1:36:15,13570,48:13,1:19:41,1:30:39,1:36:15,BEL,1,18,,5:59,10.03,SEH,m
32884,Pierre,POESEN Jean,1:36:15,13571,46:04,1:19:04,1:31:01,1:36:15,BEL,1,61,Bilzen,5:59,10.03,M60,m
35644,Robin,SEL,1:36:15,13572,49:35,1:20:52,1:31:16,1:36:15,BEL,1,21,,5:59,10.03,SEH,m
23155,Bart,LANENS,1:36:16,13573,49:09,1:21:22,1:31:23,1:36:16,BEL,1,33,Duffel,5:59,10.03,SEH,m
2961,Jurgen,DE KETELAERE,1:36:16,13574,37:56,1:14:14,1:29:50,1:36:16,BEL,1,42,Betekom,5:59,10.03,M40,m
2443,Joël,VAN DEN BOSCH,1:36:16,13575,48:08,1:19:40,1:30:47,1:36:16,BEL,1,32,Schriek,5:59,10.03,SEH,m
19175,Stefan,VAN DER HA,1:36:16,13576,47:56,1:19:27,1:30:38,1:36:16,BEL,1,40,Mol,5:59,10.03,M40,m
1053,Catherine,VERSTRAETEN,1:36:16,13577,47:38,1:19:30,1:30:47,1:36:16,BEL,1,43,Groot-Bijgaarden,5:59,10.03,F40,f
14404,Jacqueline,MENDES,1:36:16,13578,48:38,1:19:45,1:30:51,1:36:16,BEL,1,54,Antwerpen,5:59,10.03,F50,f
456,Gunther,GUETENS,1:36:16,13579,47:35,1:20:09,1:31:18,1:36:16,DEU,1,47,Schoten,5:59,10.03,M45,m
22718,Maarten,SMITS,1:36:16,13580,48:21,1:19:39,1:30:42,1:36:16,BEL,1,49,Heist-Op-Den-Berg,5:59,10.03,M45,m
1755,Marina,VANDERHOYDONCK Thomas,1:36:16,13581,45:15,1:18:02,1:30:15,1:36:16,BEL,1,30,Antwerpen,5:59,10.03,SEH,m
16442,Daan,HUYSMAN,1:36:16,13582,46:27,1:18:54,1:30:31,1:36:16,BEL,1,25,Merelbeke,5:59,10.03,SEH,m
35609,Pia,RANSMANN,1:36:16,13583,45:23,1:18:49,1:30:24,1:36:16,BEL,1,23,,5:59,10.03,SEF,f
5924,Lore,VERVOORT,1:36:17,13584,48:46,1:20:00,1:30:50,1:36:17,BEL,1,30,Wiekevorst,5:59,10.03,SEF,f
4994,Peggy,SCHAMPHELAERE,1:36:17,13585,48:21,1:19:16,1:30:52,1:36:17,BEL,1,37,Lokeren,5:59,10.03,F35,f
20745,Michel,DONCK,1:36:17,13586,46:51,1:18:58,1:30:30,1:36:17,BEL,1,62,Linkebeek,5:59,10.03,M60,m
21111,Kevin,VAN DEN BERG,1:36:17,13587,47:48,1:19:39,1:30:40,1:36:17,BEL,1,42,Antwerpen,5:59,10.03,M40,m
17352,Grete,SCHAEKERS,1:36:18,13588,49:00,1:20:37,1:31:12,1:36:18,BEL,1,52,Boechout,5:59,10.03,F50,f
32307,Ine,LODEWYCKX,1:36:18,13589,47:24,1:19:18,1:30:46,1:36:18,BEL,1,36,Aartselaar,5:59,10.03,F35,f
8227,Dolores,SULLIVAN Marie,1:36:18,13590,48:55,1:20:09,1:31:23,1:36:18,AFG,1,30,Herent,5:59,10.03,SEF,f
5020,Eric,FRANCK,1:36:18,13591,46:43,1:18:31,1:30:31,1:36:18,BEL,1,60,Brasschaat,5:59,10.03,M60,m
44392,Dugardyn,LUKAS,1:36:18,13592,44:30,1:18:17,1:30:41,1:36:18,BEL,1,21,Antwerpen,5:59,10.03,SEH,m
6386,,NR 6386,1:36:18,13593,None,None,None,1:36:18,BEL,1,0,,5:59,10.03,-,m
34854,Vanessa,HOPPENBROUWERS,1:36:18,13594,48:13,1:19:42,1:30:49,1:36:18,BEL,1,18,,5:59,10.03,SEF,f
29415,Heidi,VANDENBERGHE,1:36:18,13595,48:43,1:20:37,1:31:04,1:36:18,BEL,1,44,Blakenberge,5:59,10.03,F40,f
2362,Frieda,POLLET,1:36:18,13596,47:16,1:19:39,1:30:55,1:36:18,BEL,1,55,Linden,5:59,10.03,F55,f
29414,Luc,VAN DIEVOORT,1:36:18,13597,48:43,1:20:37,1:31:04,1:36:18,BEL,1,59,Uitkerke,5:59,10.03,M55,m
14608,Marc,VELGHE,1:36:18,13598,46:04,1:18:57,1:30:47,1:36:18,BEL,1,56,Muizen,5:59,10.03,M55,m
34860,Jeremy,VAN CLAPDURP,1:36:18,13599,48:17,1:19:44,1:30:42,1:36:18,BEL,1,19,,5:59,10.03,SEH,m
16805,Stijn,MAHIEU,1:36:18,13600,47:35,1:19:16,1:30:22,1:36:18,BEL,1,30,Lembeek,5:59,10.03,SEH,m
32025,Blanchard,JEFFREY,1:36:19,13601,47:19,1:19:35,1:28:56,1:36:19,BEL,1,27,Beselare,5:59,10.03,SEH,m
18445,Peter,VLAMINCK,1:36:19,13602,46:24,1:20:00,1:31:13,1:36:19,BEL,1,34,Edegem,5:59,10.03,SEH,m
7658,Martine,CLEMENT,1:36:19,13603,46:41,1:18:47,1:30:19,1:36:19,BEL,1,64,Antwerpen,5:59,10.03,F60,f
16477,Klaas,JANS,1:36:19,13604,45:41,1:18:16,1:30:19,1:36:19,BEL,1,15,Schoten,6:00,10.03,SEH,m
20801,Dorien,TIELEMANS,1:36:19,13605,47:44,1:19:41,1:30:48,1:36:19,BEL,1,28,Antwerpen,6:00,10.03,SEF,f
33141,Hendrina,SCHRIJVER,1:36:19,13606,49:27,1:20:30,1:30:58,1:36:19,NLD,1,34,Middelburg,6:00,10.03,SEF,f
34090,Alary,VAN  LOOCK,1:36:19,13607,48:09,1:20:12,1:30:49,1:36:19,BEL,1,61,Lier,6:00,10.03,M60,m
36507,Yves,VAN DEN HEUVEL,1:36:19,13608,48:19,1:20:05,1:30:56,1:36:19,BEL,1,37,'S Graevenwezel,6:00,10.03,M35,m
5234,Katrijn,VAN DEN ABBEEL,1:36:19,13609,46:32,1:18:58,1:30:23,1:36:19,BEL,1,37,Sint Amandsberg,6:00,10.03,F35,f
17481,Tom,SNEPPE,1:36:19,13610,47:13,1:19:25,1:30:39,1:36:19,BEL,1,38,Temse,6:00,10.03,M35,m
35299,Katarina,CRAUWELS,1:36:19,13611,48:10,1:20:07,1:30:59,1:36:19,BEL,1,50,,6:00,10.03,F50,f
22480,Luc,VERSTRAETEN Leon,1:36:19,13612,48:15,1:20:35,1:31:00,1:36:19,BEL,1,0,Beveren,6:00,10.03,-,m
15175,Sneppe,BERT,1:36:19,13613,47:13,1:19:25,1:30:40,1:36:19,BEL,1,0,Asse,6:00,10.03,-,m
6846,Kaat,BARREZEELE,1:36:20,13614,48:07,1:19:58,1:31:02,1:36:20,BEL,1,31,Antwerpen,6:00,10.03,SEF,f
21770,Eva,DEMESMAEKER,1:36:20,13615,47:53,1:19:35,1:30:53,1:36:20,BEL,1,24,Lembeek,6:00,10.03,SEF,f
7700,Joke,VAN DE PERRE,1:36:20,13616,48:14,1:19:42,1:30:40,1:36:20,BEL,1,35,Zwijndrecht,6:00,10.03,F35,f
4865,Kerins,CORMAC,1:36:20,13617,46:52,1:19:38,1:30:14,1:36:20,IRL,1,32,Antwerp,6:00,10.03,SEH,m
38662,Thomas,VAN RIEL,1:36:20,13618,47:29,1:19:13,1:30:33,1:36:20,BEL,1,0,Boechout,6:00,10.03,-,m
34852,Ruben,GAUWLOOS,1:36:20,13619,48:16,1:19:45,1:30:43,1:36:20,BEL,1,16,,6:00,10.03,SEH,m
32526,Piet,MESSIAEN,1:36:20,13620,47:03,1:19:38,1:30:53,1:36:20,BEL,1,62,Antwerpen,6:00,10.03,M60,m
32269,Frauke,LEYBAERT,1:36:20,13621,47:37,1:20:04,1:30:48,1:36:20,BEL,1,26,Dendermonde,6:00,10.03,SEF,f
34857,Mohamed,LOUKILI GHAFARI,1:36:20,13622,48:17,1:19:46,1:30:43,1:36:20,BEL,1,22,,6:00,10.03,SEH,m
7677,Tim,HUYGEN,1:36:20,13623,48:18,1:19:46,1:30:43,1:36:20,BEL,1,52,Merksem,6:00,10.03,M50,m
14333,Nena,LEUNIS,1:36:20,13624,47:37,1:20:04,1:30:49,1:36:20,BEL,1,26,Wichelen,6:00,10.03,SEF,f
16717,Niekel,LEX,1:36:20,13625,46:54,1:19:09,1:30:24,1:36:20,NLD,1,61,Lisserbroek,6:00,10.03,M60,m
30401,Jurgen,BULCKE,1:36:20,13626,47:20,1:19:44,1:30:39,1:36:20,BEL,1,47,Passendale,6:00,10.03,M45,m
6625,Janne,SIMOENS,1:36:21,13627,46:56,1:19:35,1:30:58,1:36:21,BEL,1,24,Kapellen,6:00,10.02,SEF,f
21733,Isabel,DECLERCQ,1:36:21,13628,48:52,1:20:45,1:31:00,1:36:21,BEL,1,47,Sint-Eloois-Vijve,6:00,10.02,F45,f
15013,Catherine,ADRIAENSSENS,1:36:21,13629,47:26,1:19:58,1:30:53,1:36:21,BEL,1,38,Wespelaar,6:00,10.02,F35,f
32054,Liese,JUDONG,1:36:21,13630,47:49,1:20:03,1:31:33,1:36:21,BEL,1,37,Hasselt,6:00,10.02,F35,f
6626,Jo,SIMOENS,1:36:21,13631,46:54,1:19:33,1:30:56,1:36:21,BEL,1,57,Ka,6:00,10.02,M55,m
36822,Nele,VAN DE VELDE,1:36:21,13632,47:56,1:19:35,1:30:52,1:36:21,BEL,1,36,Gent,6:00,10.02,F35,f
19843,Jo,MEIR,1:36:21,13633,45:35,1:18:02,1:30:21,1:36:21,BEL,1,36,Wiekevorst,6:00,10.02,M35,m
19836,Jan,MEIR,1:36:21,13634,45:35,1:18:02,1:30:22,1:36:21,BEL,1,39,Westerlo,6:00,10.02,M35,m
29246,Nam,DOAN Ky,1:36:21,13635,47:36,1:20:26,1:31:15,1:36:21,VNM,1,29,Bruxelles,6:00,10.02,SEH,m
33815,Frauke,VAN DER RIJT,1:36:21,13636,48:14,1:20:15,1:31:06,1:36:21,NLD,1,23,Zutendaal,6:00,10.02,SEF,f
4454,Gauthier,WEYNS,1:36:22,13637,46:22,1:18:30,1:30:35,1:36:22,BEL,1,25,Lint,6:00,10.02,SEH,m
29750,Evy,VAN DER PAELT,1:36:22,13638,50:27,1:21:41,1:31:46,1:36:22,BEL,1,39,Kluizen,6:00,10.02,F35,f
21983,Julie,OLBRECHTS,1:36:22,13639,46:32,1:18:55,1:30:24,1:36:22,BEL,1,34,Lier,6:00,10.02,SEF,f
35038,Lisa,BAKELANDT,1:36:22,13640,45:58,1:18:46,1:30:33,1:36:22,BEL,1,18,,6:00,10.02,SEF,f
37466,Annelies,HEERWEGH,1:36:22,13641,48:33,1:20:23,1:30:50,1:36:22,BEL,1,19,Bornem,6:00,10.02,SEF,f
16350,Erik,HENDRICKX,1:36:22,13642,48:23,1:19:57,1:31:02,1:36:22,BEL,1,28,Meerle,6:00,10.02,SEH,m
30005,Ines,ACKERMANS,1:36:22,13643,48:15,1:20:16,1:31:07,1:36:22,BEL,1,22,Zutendaal,6:00,10.02,SEF,f
1973,Peter,VAN DEN EYNDE,1:36:22,13644,47:42,1:19:50,1:31:04,1:36:22,BEL,1,60,Kapellen,6:00,10.02,M60,m
22580,Gitte,BEL,1:36:22,13645,49:40,1:21:49,1:31:48,1:36:22,BEL,1,41,Antwerpen,6:00,10.02,F40,f
18559,Smets,YOURI,1:36:22,13646,47:08,1:20:02,1:30:51,1:36:22,BEL,1,29,Antwerpen,6:00,10.02,SEH,m
18546,Michiel,WOUTERS,1:36:22,13647,48:24,1:20:36,1:30:41,1:36:22,BEL,1,16,Tessenderlo,6:00,10.02,SEH,m
22584,Mieke,HESEMAN,1:36:22,13648,49:40,1:21:49,1:31:49,1:36:22,BEL,1,41,Gent,6:00,10.02,F40,f
34339,Dennis,VERCAUTEREN,1:36:22,13649,48:41,1:20:15,1:30:45,1:36:22,BEL,1,38,Borsbeek,6:00,10.02,M35,m
31736,Jo,HAEGEMAN,1:36:22,13650,47:21,1:19:13,1:30:37,1:36:22,BEL,1,44,Gent,6:00,10.02,M40,m
34166,Bart,VAN PUT,1:36:22,13651,48:43,1:20:34,1:31:04,1:36:22,BEL,1,37,Berchem (Antwerpen),6:00,10.02,M35,m
33384,Muriel,SWAENEPOEL,1:36:23,13652,48:24,1:20:13,1:31:04,1:36:23,BEL,1,36,Essene,6:00,10.02,F35,f
15982,Pol,DE WITTE,1:36:23,13653,49:15,1:20:57,1:31:11,1:36:23,BEL,1,62,Affligem,6:00,10.02,M60,m
30410,Ilyas,BUSER,1:36:23,13654,48:40,1:20:15,1:30:44,1:36:23,BEL,1,38,Deurne,6:00,10.02,M35,m
22482,Luc,BETTENS,1:36:23,13655,48:34,1:20:23,1:30:50,1:36:23,BEL,1,51,Bornem,6:00,10.02,M50,m
29795,Pascal,VAN HEGHE,1:36:23,13656,46:41,1:19:16,1:30:39,1:36:23,BEL,1,56,Beersel,6:00,10.02,M55,m
15983,Robrecht,DE WITTE,1:36:23,13657,49:16,1:20:57,1:31:12,1:36:23,BEL,1,29,Aalst,6:00,10.02,SEH,m
6159,Els,TAELS,1:36:23,13658,47:29,1:19:22,1:30:55,1:36:23,BEL,1,54,,6:00,10.02,F50,f
36889,Nicolas,MAES,1:36:23,13659,48:02,1:20:00,1:31:16,1:36:23,BEL,1,54,Kasterlee,6:00,10.02,M50,m
34422,Jos,VERJANS,1:36:23,13660,48:28,1:20:30,1:31:23,1:36:23,BEL,1,39,Tongeren,6:00,10.02,M35,m
32367,Ludo,MAES,1:36:23,13661,48:00,1:20:28,1:31:00,1:36:23,BEL,1,62,Deurne,6:00,10.02,M60,m
30164,Danny,BELLEMANS,1:36:24,13662,48:17,1:20:12,1:30:56,1:36:24,BEL,1,53,Stabroek,6:00,10.02,M50,m
17172,Eric,PLASMANS,1:36:24,13663,47:46,1:19:34,1:30:58,1:36:24,BEL,1,65,Wijnegem,6:00,10.02,M65,m
38128,Philip,GRAY,1:36:24,13664,47:54,1:20:11,1:31:10,1:36:24,BEL,1,54,Schilde,6:00,10.02,M50,m
18549,Stefan,WOUTERS,1:36:24,13665,48:24,1:20:37,1:31:21,1:36:24,BEL,1,38,Strombeek-Bever,6:00,10.02,M35,m
6111,Wim,NEUTENS,1:36:24,13666,47:37,1:19:25,1:30:43,1:36:24,BEL,1,42,,6:00,10.02,M40,m
29914,Thibaut,GEDIK,1:36:24,13667,48:15,1:20:29,1:31:26,1:36:24,BEL,1,25,Schoten,6:00,10.02,SEH,m
7475,Maria,HOORELBEKE,1:36:24,13668,47:25,1:19:25,1:30:44,1:36:24,BEL,1,52,Blc,6:00,10.02,F50,f
33726,Ives,VAN DEN EECKHOUDT,1:36:24,13669,47:57,1:20:12,1:31:01,1:36:24,BEL,1,44,Oud Heverlee,6:00,10.02,M40,m
5142,Annouck,MEYS,1:36:24,13670,46:18,1:17:52,1:30:26,1:36:24,BEL,1,28,Antwerpen,6:00,10.02,SEF,f
22545,Jens,TÉBLICK,1:36:24,13671,47:55,1:20:10,1:30:59,1:36:24,BEL,1,31,Kontich,6:00,10.02,SEH,m
17010,Suzanne,NELIS,1:36:24,13672,48:41,1:20:45,1:30:58,1:36:24,BEL,1,57,Vremde,6:00,10.02,F55,f
6038,David,DE GROOTE,1:36:24,13673,47:38,1:19:25,1:30:36,1:36:24,BEL,1,28,,6:00,10.02,SEH,m
34612,Dirk,WENS,1:36:24,13674,47:42,1:19:37,1:30:49,1:36:24,BEL,1,60,Ekeren,6:00,10.02,M60,m
8099,Tinne,JANSSEN,1:36:24,13675,50:49,1:21:04,1:31:28,1:36:24,BEL,1,40,Dessel,6:00,10.02,F40,f
20095,Kaat,VAN HEES,1:36:24,13676,48:17,1:20:22,1:31:14,1:36:24,BEL,1,29,Berchem,6:00,10.02,SEF,f
44224,Vicky,DUJARDIN,1:36:24,13677,48:36,1:20:04,1:31:00,1:36:24,BEL,1,45,Menen,6:00,10.02,F45,f
33441,Pierre,THIEREN,1:36:24,13678,45:23,1:18:04,1:30:11,1:36:24,BEL,1,75,Wavre,6:00,10.02,M75,m
18592,Yana,DE VOS,1:36:24,13679,49:15,1:19:37,1:30:45,1:36:24,BEL,1,19,Opwijk,6:00,10.02,SEF,f
30266,Saartje,BOLLAERS,1:36:24,13680,48:28,1:20:31,1:31:24,1:36:24,BEL,1,37,Tongeren,6:00,10.02,F35,f
2147,Xander,DENYS,1:36:25,13681,47:45,1:20:15,1:31:15,1:36:25,BEL,1,28,Antwerpen,6:00,10.02,SEH,m
31601,Jolanda,GEURTS,1:36:25,13682,48:03,1:19:55,1:31:05,1:36:25,NLD,1,52,Helmond,6:00,10.02,F50,f
20634,Sara,VAN EYNDE,1:36:25,13683,48:03,1:20:28,1:31:23,1:36:25,BEL,1,36,Mechelen,6:00,10.02,F35,f
7239,Kristoffel,BAUWERAERTS,1:36:25,13684,46:56,1:19:37,1:31:00,1:36:25,BEL,1,26,Leuven,6:00,10.02,SEH,m
34247,Stefan,VAN THIENEN,1:36:25,13685,51:20,1:21:40,1:31:29,1:36:25,BEL,1,53,Hasselt,6:00,10.02,M50,m
21422,Hans,VAN DER LINDEN,1:36:25,13686,48:03,1:20:28,1:31:23,1:36:25,BEL,1,36,Mechelen,6:00,10.02,M35,m
16824,Maarten,MARIËN-BOUWENS,1:36:25,13687,48:34,1:20:26,1:31:14,1:36:25,BEL,1,31,Nijlen,6:00,10.02,SEH,m
34650,Jeroen,WILLEMS,1:36:25,13688,47:24,1:19:20,1:30:39,1:36:25,BEL,1,30,Londerzeel,6:00,10.02,SEH,m
23442,Jihan,BATS,1:36:25,13689,45:04,1:17:11,1:29:58,1:36:25,BEL,1,18,Antwerpen,6:00,10.02,SEH,m
30209,Samantha,BIERLIN,1:36:25,13690,47:42,1:19:35,1:30:46,1:36:25,BEL,1,31,Grobbendonk,6:00,10.02,SEF,f
35563,Jelle,NEECKX,1:36:26,13691,44:12,1:16:37,1:30:21,1:36:26,BEL,1,19,,6:00,10.02,SEH,m
4534,Arnaud,COEL,1:36:26,13692,48:29,1:19:56,1:31:11,1:36:26,BEL,1,23,Mechelen,6:00,10.02,SEH,m
7458,Emily,GEYSEN,1:36:26,13693,48:18,1:19:51,1:30:57,1:36:26,BEL,1,38,Brasschaat,6:00,10.02,F35,f
30472,Meyer,CAROLINE De,1:36:26,13694,47:37,1:19:21,1:30:49,1:36:26,BEL,1,29,Borgerhout,6:00,10.02,SEF,f
29805,Tine,VAN HASSELT,1:36:26,13695,47:36,1:19:21,1:30:49,1:36:26,BEL,1,30,Antwerp,6:00,10.02,SEF,f
1033,Yentl,VERLEYSEN,1:36:26,13696,50:05,1:21:12,1:31:37,1:36:26,BEL,1,26,Lievegem,6:00,10.02,SEF,f
32383,Stéphanie,MAKSOUD,1:36:26,13697,47:25,1:19:21,1:30:40,1:36:26,BEL,1,31,Londerzeel,6:00,10.02,SEF,f
32198,Jonas,LATAIRE,1:36:26,13698,48:40,1:20:27,1:31:00,1:36:26,BEL,1,36,Wetteren,6:00,10.02,M35,m
31912,Benoit,HOUSSIN,1:36:26,13699,49:48,1:20:58,1:31:34,1:36:26,BEL,1,19,Menen,6:00,10.02,SEH,m
34973,Gaétan,DE SMEDT,1:36:26,13700,47:43,1:20:32,1:31:32,1:36:26,BEL,1,15,,6:00,10.02,SEH,m
22136,Siegfried,BUSSCHER,1:36:26,13701,47:52,1:19:39,1:30:53,1:36:26,BEL,1,35,Antwerpen,6:00,10.02,M35,m
33687,Peggy,VAN DEN BERG,1:36:26,13702,48:04,1:19:55,1:30:38,1:36:26,NLD,1,46,Helmond,6:00,10.02,F45,f
34816,Lisa,DELAHAYE,1:36:26,13703,48:55,1:20:14,1:31:06,1:36:26,BEL,1,0,Ninove,6:00,10.02,-,f
35406,Noor,GERETS,1:36:27,13704,47:39,1:19:34,1:30:43,1:36:27,BEL,1,22,,6:00,10.01,SEF,f
18696,Brent,BOGAERT,1:36:27,13705,48:05,1:20:04,1:31:08,1:36:27,BEL,1,25,Wetteren,6:00,10.01,SEH,m
31830,Jarno,HERMANS,1:36:27,13706,47:20,1:18:52,1:30:00,1:36:27,BEL,1,25,Zoersel,6:00,10.01,SEH,m
4551,Peter,LERICHE,1:36:27,13707,48:30,1:19:57,1:31:12,1:36:27,BEL,1,25,Mechelen,6:00,10.01,SEH,m
38016,Nathalie,VAN GEERT,1:36:27,13708,47:11,1:19:26,1:30:46,1:36:27,BEL,1,37,Antwerpen,6:00,10.01,F35,f
4507,Zaman,ROLPH,1:36:27,13709,47:32,1:19:43,1:31:08,1:36:27,BEL,1,33,Antwerpen,6:00,10.01,SEH,m
33646,Pascaline,VAN DAMME,1:36:27,13710,48:06,1:20:05,1:31:10,1:36:27,BEL,1,55,Wetteren,6:00,10.01,F55,f
30153,Greet,BEERNAERT,1:36:27,13711,48:49,1:20:14,1:31:08,1:36:27,BEL,1,48,Bavikhove,6:00,10.01,F45,f
22137,Sieglinde,BUSSCHER,1:36:27,13712,47:52,1:19:39,1:30:53,1:36:27,BEL,1,36,Antwerpen,6:00,10.01,F35,f
21826,Steven,VAN KERCKHOVEN,1:36:27,13713,49:40,1:21:52,1:31:40,1:36:27,BEL,1,33,Denderhoutem,6:00,10.01,SEH,m
31505,Elise,FLAMEND,1:36:27,13714,45:57,1:18:47,1:30:37,1:36:27,BEL,1,29,Herfelingen,6:00,10.01,SEF,f
32302,Jacques,LITTRÉ,1:36:27,13715,48:18,1:20:32,1:31:26,1:36:27,BEL,1,58,Genval,6:00,10.01,M55,m
22546,Sanne,TROCH,1:36:28,13716,49:01,1:20:46,1:31:21,1:36:28,BEL,1,23,Gavere,6:00,10.01,SEF,f
34199,Tom,VAN ROOSBROECK,1:36:28,13717,46:15,1:18:55,1:30:24,1:36:28,BEL,1,25,Duffel,6:00,10.01,SEH,m
20834,Kim,WITTOUCK,1:36:28,13718,47:56,1:19:38,1:30:44,1:36:28,BEL,1,32,Aalter,6:00,10.01,SEF,f
3559,Piekarski,MATEUSZ,1:36:28,13719,46:27,1:18:26,1:30:29,1:36:28,POL,1,28,Mortsel,6:00,10.01,SEH,m
7518,Genevieve,NOPORE,1:36:28,13720,47:33,1:19:25,1:30:44,1:36:28,BEL,1,55,Nivelles,6:00,10.01,F55,f
21421,Steff,VAN DEN BULCK,1:36:28,13721,47:24,1:20:34,1:31:44,1:36:28,BEL,1,30,Paal,6:00,10.01,SEH,m
15466,Sander,COCQUYT,1:36:28,13722,50:01,1:21:59,1:31:28,1:36:28,BEL,1,27,Gent,6:00,10.01,SEH,m
7861,Sven,MEIRESONE,1:36:29,13723,48:31,1:19:51,1:31:06,1:36:29,BEL,1,34,Wilrijk,6:00,10.01,SEH,m
23347,Dorien,DENIVEL,1:36:29,13724,47:54,1:19:58,1:31:09,1:36:29,BEL,1,31,Nieuwerkerken (Limb.),6:00,10.01,SEF,f
6813,Geert,GROOTJANS,1:36:29,13725,47:42,1:19:33,1:30:47,1:36:29,BEL,1,29,Brugge,6:00,10.01,SEH,m
37346,Alexandra,MAES,1:36:29,13726,46:43,1:19:20,1:30:49,1:36:29,BEL,1,22,Sint-Niklaas,6:00,10.01,SEF,f
38751,Mathieu,VAN STEENKISTE,1:36:29,13727,50:27,1:20:48,1:31:06,1:36:29,BEL,1,40,Oudenaarde,6:00,10.01,M40,m
15472,Mathias,COLPAERT,1:36:29,13728,51:01,1:21:44,1:31:35,1:36:29,BEL,1,29,Gent,6:00,10.01,SEH,m
44302,An,ABTS,1:36:29,13729,48:45,1:20:20,1:31:07,1:36:29,BEL,1,40,Reet,6:00,10.01,F40,f
22400,Decock,ELKE,1:36:29,13730,45:19,1:19:09,1:30:27,1:36:29,BEL,1,26,Gent,6:00,10.01,SEF,f
44515,Tibo,FRUYT,1:36:29,13731,48:10,1:20:42,1:31:41,1:36:29,BEL,1,22,Zichem,6:00,10.01,SEH,m
18752,Eric,IGNOUL,1:36:29,13732,48:55,1:20:31,1:31:09,1:36:29,BEL,1,59,Hasselt,6:00,10.01,M55,m
31584,Lydie,GERBOIN,1:36:29,13733,49:11,1:20:34,1:31:08,1:36:29,FRA,1,33,Lille,6:00,10.01,SEF,f
18692,Jonathan,CASTRO,1:36:30,13734,46:00,1:18:53,1:30:55,1:36:30,ECU,1,29,Antwerpen,6:00,10.01,SEH,m
37868,Dirk,GOOVAERTS,1:36:30,13735,43:51,1:16:51,1:30:43,1:36:30,BEL,1,35,Kampenhout,6:00,10.01,M35,m
32183,Eloïse,LANCKRIET,1:36:30,13736,49:37,1:21:04,1:31:50,1:36:30,BEL,1,22,Lissewege,6:00,10.01,SEF,f
6494,Fien,VANHOVE,1:36:30,13737,49:02,1:20:59,1:31:24,1:36:30,BEL,1,40,Sint-Pieters-Leeuw,6:00,10.01,F40,f
4885,Fabiana,FERREIRA,1:36:30,13738,47:37,1:19:46,1:30:52,1:36:30,BRA,1,37,Antwerpen,6:00,10.01,F35,f
14617,Leen,BEHETS Katrien,1:36:30,13739,49:57,1:20:46,1:31:23,1:36:30,BEL,1,36,Lubbeek,6:00,10.01,F35,f
36673,Pam,MAGNUS,1:36:30,13740,48:25,1:20:28,1:31:16,1:36:30,BEL,1,37,Borsbeek,6:00,10.01,F35,f
23085,Louise,HAAZEN,1:36:30,13741,48:48,1:20:32,1:31:32,1:36:30,BEL,1,28,Antwerpen,6:00,10.01,SEF,f
3191,Melchior,VAN LOO Judith,1:36:30,13742,49:28,1:20:36,1:31:24,1:36:30,BEL,1,49,Vilvoorde,6:00,10.01,F45,f
16560,Werner,KEPPENS,1:36:31,13743,43:24,1:14:55,1:30:14,1:36:31,BEL,1,53,Poederlee,6:00,10.01,M50,m
2053,Christine,BURGHARDT,1:36:31,13744,47:07,1:19:17,1:30:36,1:36:31,BEL,1,25,Kozen,6:00,10.01,SEH,m
22600,Hans,SCHERPENISSE,1:36:31,13745,47:33,1:19:43,1:31:03,1:36:31,NLD,1,65,Breda,6:00,10.01,M65,m
3693,Karin,PAUWELS,1:36:31,13746,52:03,1:22:14,1:31:49,1:36:31,BEL,1,52,Westerlo,6:00,10.01,F50,f
34308,Linda,VERBERCKMOES,1:36:31,13747,48:46,1:20:34,1:31:07,1:36:31,BEL,1,61,Antwerpen,6:00,10.01,F60,f
32886,Pieter,POLLET,1:36:31,13748,49:22,1:21:04,1:31:57,1:36:31,BEL,1,27,Vilvoorde (Peutie),6:00,10.01,SEH,m
6064,Christophe,FEYS,1:36:32,13749,49:08,1:21:05,1:31:30,1:36:32,BEL,1,51,,6:00,10.01,M50,m
15178,Annik,BERVOETS,1:36:32,13750,49:11,1:19:50,1:31:20,1:36:32,BEL,1,45,Antwerpen,6:00,10.01,F45,f
16882,Nienke,MEEUWS,1:36:32,13751,48:44,1:20:38,1:31:26,1:36:32,NLD,1,21,Arendonk,6:00,10.0,SEF,f
44664,Dimitri,VANLOMMEL,1:36:32,13752,45:38,1:18:12,1:30:47,1:36:32,BEL,1,32,Stabroek,6:00,10.0,SEH,m
22917,Margaux,COMTÉ,1:36:32,13753,46:19,1:19:30,1:31:02,1:36:32,BEL,1,23,Antwerpen,6:00,10.0,SEF,f
17985,Yentl,VAN HANSEWYCK,1:36:32,13754,44:26,1:17:31,1:30:47,1:36:32,BEL,1,25,Heindonk,6:00,10.0,SEH,m
20144,Nadine,MAES,1:36:32,13755,47:14,1:19:20,1:30:36,1:36:32,BEL,1,58,Wellen,6:00,10.0,F55,f
36872,Tim,HERINCKX,1:36:33,13756,48:19,1:20:04,1:31:22,1:36:33,BEL,1,29,Buggenhout,6:00,10.0,SEH,m
19945,Inge,GEYSEN,1:36:33,13757,48:08,1:19:59,1:31:09,1:36:33,BEL,1,38,Mol,6:00,10.0,F35,f
22586,France,DELEN Marie,1:36:33,13758,47:41,1:19:45,1:30:51,1:36:33,BEL,1,28,Antwerpen,6:00,10.0,SEF,f
33955,Tijs,VAN GESTEL,1:36:33,13759,50:11,1:20:26,1:31:25,1:36:33,BEL,1,31,Dessel,6:00,10.0,SEH,m
34472,Christel,VERSCHUEREN,1:36:33,13760,48:46,1:20:02,1:31:09,1:36:33,BEL,1,52,Oud-Turnhout,6:00,10.0,F50,f
5422,Pieter,DE PETTER,1:36:34,13761,47:45,1:19:33,1:31:06,1:36:34,BEL,1,34,Leuven,6:00,10.0,SEH,m
34492,Cedric,VERVAET,1:36:34,13762,49:21,1:20:42,1:31:26,1:36:34,BEL,1,42,St-Denijs-Westrem,6:00,10.0,M40,m
22918,Charlotte,COMTÉ,1:36:34,13763,46:19,1:19:29,1:31:02,1:36:34,BEL,1,23,Antwerpen,6:00,10.0,SEF,f
20157,Laurent,DELENS,1:36:34,13764,49:03,1:21:30,1:31:32,1:36:34,BEL,1,39,Gent,6:00,10.0,M35,m
30510,Eric,CEUSTERS,1:36:34,13765,45:37,1:18:48,1:30:48,1:36:34,BEL,1,55,Heverlee,6:00,10.0,M55,m
33964,Peter,VAN GOEY,1:36:34,13766,48:42,1:20:44,1:31:17,1:36:34,BEL,1,42,Belgie,6:00,10.0,M40,m
21833,Hilde,VINCKX,1:36:34,13767,48:46,1:20:02,1:31:10,1:36:34,BEL,1,51,Turnhout,6:00,10.0,F50,f
6376,Peter,CASTENMILLER,1:36:34,13768,47:57,1:19:43,1:30:57,1:36:34,BEL,1,42,Londerzeel,6:00,10.0,M40,m
244,Gerard,DE BRABANDERE,1:36:34,13769,46:47,1:19:45,1:30:58,1:36:34,BEL,1,57,Oudenaarde,6:00,10.0,M55,m
33203,Nele,SIMONS,1:36:34,13770,48:18,1:19:10,1:31:24,1:36:34,BEL,1,31,Ranst,6:00,10.0,SEF,f
33014,Robbe,ROGGEMAN,1:36:34,13771,46:33,1:18:48,1:30:23,1:36:34,BEL,1,24,Waarschoot,6:00,10.0,SEH,m
17339,Anne-Gaëlle,SANTENS,1:36:34,13772,46:47,1:19:46,1:30:59,1:36:34,BEL,1,19,Oudenaarde,6:00,10.0,SEF,f
34947,Annick,DE GRAVE,1:36:35,13773,47:52,1:19:56,1:31:22,1:36:35,BEL,1,47,,6:00,10.0,F45,f
34682,Bart,WOLPUT,1:36:35,13774,49:16,1:21:03,1:31:25,1:36:35,BEL,1,35,Deurne,6:00,10.0,M35,m
35400,Julien,GAHIDE,1:36:35,13775,49:38,1:21:05,1:31:27,1:36:35,BEL,1,24,,6:00,10.0,SEH,m
30828,Tine,DE BURGHGRAEVE,1:36:35,13776,51:41,1:22:10,1:31:46,1:36:35,BEL,1,35,Linden,6:00,10.0,F35,f
33522,Georgia,TSOLAKIDIS,1:36:35,13777,51:03,1:21:29,1:31:24,1:36:35,BEL,1,41,Genk,6:01,10.0,F40,f
15821,Frank,DENYS,1:36:35,13778,47:37,1:19:16,1:30:52,1:36:35,BEL,1,51,Oostende,6:01,10.0,M50,m
36234,Dempsey,DERIE,1:36:35,13779,47:44,1:19:25,1:30:50,1:36:35,BEL,1,29,Harelbeke,6:01,10.0,SEH,m
6128,Luc,PRAET,1:36:35,13780,48:27,1:20:03,1:31:21,1:36:35,BEL,1,54,,6:01,10.0,M50,m
18213,Melissa,VANTHIENEN,1:36:35,13781,48:11,1:20:12,1:31:20,1:36:35,BEL,1,36,Groot Bijgaarden,6:01,10.0,F35,f
4732,Jan,DE FEYTER,1:36:35,13782,47:00,1:19:34,1:30:56,1:36:35,BEL,1,40,Berg,6:01,10.0,M40,m
22421,Nick,MESENS,1:36:36,13783,48:09,1:20:40,1:31:25,1:36:36,BEL,1,27,Deurne,6:01,10.0,SEH,m
6680,Kamiel,PIESSENS,1:36:36,13784,49:08,1:20:29,1:31:19,1:36:36,BEL,1,70,Oppuurs,6:01,10.0,M70,m
18657,Peter,DE COSTER,1:36:36,13785,47:53,1:19:32,1:30:45,1:36:36,BEL,1,51,Sint- Maria-Lierde,6:01,10.0,M50,m
33803,Laurence,VANDERMEER,1:36:36,13786,46:42,1:19:45,1:31:07,1:36:36,BEL,1,29,Mortsel,6:01,10.0,SEF,f
4105,Michaël,VAN DEN EEDE,1:36:37,13787,46:24,1:19:23,1:30:44,1:36:37,BEL,1,37,Londerzeel,6:01,10.0,M35,m
37744,Sven,VAN DEN BROECK,1:36:37,13788,45:34,1:17:46,1:30:06,1:36:37,BEL,1,55,Borgerhout,6:01,10.0,M55,m
15172,Saskia,BERNER,1:36:37,13789,45:29,1:18:40,1:30:38,1:36:37,DEU,1,22,Schliengen,6:01,10.0,SEF,f
18665,Sarah,VAN EYGEN,1:36:37,13790,47:54,1:19:33,1:30:46,1:36:37,BEL,1,38,Zottegem,6:01,10.0,F35,f
30047,Krouwer,AMBER,1:36:37,13791,48:28,1:19:39,1:31:13,1:36:37,BEL,1,23,Bouwel,6:01,10.0,SEF,f
16112,Esther,ELZAKKERS,1:36:37,13792,47:14,1:20:08,1:30:59,1:36:37,NLD,1,50,Wouw,6:01,10.0,F50,f
8064,Bart,VEREECKEN,1:36:37,13793,48:35,1:19:56,1:31:21,1:36:37,BEL,1,34,Sint-Niklaas,6:01,10.0,SEH,m
14243,Alice,WILDIERS,1:36:37,13794,49:33,1:20:10,1:31:06,1:36:37,BEL,1,22,Koningshooikt,6:01,10.0,SEF,f
4766,Tim,JANSSENS,1:36:37,13795,49:58,1:20:47,1:31:45,1:36:37,BEL,1,28,Rumst,6:01,10.0,SEH,m
18437,Jochem,VINCKE,1:36:37,13796,46:55,1:19:43,1:31:07,1:36:37,BEL,1,38,Blankenberge,6:01,10.0,M35,m
37759,Robin,ABBELOOS,1:36:37,13797,49:18,1:21:08,1:31:34,1:36:37,BEL,1,22,Schoten,6:01,10.0,SEH,m
38015,Koen,VAN DER LINDEN,1:36:37,13798,47:55,1:20:27,1:31:09,1:36:37,BEL,1,36,Zwijndrecht,6:01,10.0,M35,m
18190,Dorien,VAN ROSSEM,1:36:37,13799,44:33,1:19:48,1:31:09,1:36:37,BEL,1,33,Ninove,6:01,10.0,SEF,f
31142,Sarah,DE RIJCKE,1:36:37,13800,47:54,1:19:51,1:31:04,1:36:37,BEL,1,34,Gooik,6:01,10.0,SEF,f
18784,Mike,DERAEDT,1:36:38,13801,47:48,1:20:11,1:31:09,1:36:38,BEL,1,34,Merksem,6:01,10.0,SEH,m
18917,Dirk,ASSELBERG,1:36:38,13802,45:20,1:17:53,1:31:17,1:36:38,BEL,1,59,Reet,6:01,10.0,M55,m
37847,Suzanne,BEUSELINCK,1:36:38,13803,49:07,1:20:33,1:31:08,1:36:38,BEL,1,24,Brugge,6:01,10.0,SEF,f
5522,Yves,VAN LIERDE,1:36:38,13804,47:59,1:20:07,1:31:21,1:36:38,BEL,1,49,Willebroek,6:01,10.0,M45,m
30911,Mike,DEFOSSE,1:36:38,13805,50:00,1:20:31,1:31:13,1:36:38,BEL,1,22,Bazel,6:01,9.99,SEH,m
32962,Renaud,RENARD,1:36:38,13806,49:00,1:20:53,1:31:48,1:36:38,BEL,1,44,Gentinnes,6:01,9.99,M40,m
15200,Arne,BJØRN,1:36:38,13807,45:24,1:17:54,1:30:46,1:36:38,DNK,1,52,Suldrup,6:01,9.99,M50,m
18133,Pauline,VAN OORTEGEM,1:36:38,13808,46:08,1:19:27,1:30:38,1:36:38,BEL,1,27,Kessel-Lo,6:01,9.99,SEF,f
15791,David,DE MEYER,1:36:38,13809,47:51,1:20:06,1:31:23,1:36:38,BEL,1,28,Asse,6:01,9.99,SEH,m
36358,Kristel,HAWINKEL,1:36:38,13810,47:27,1:19:46,1:31:01,1:36:38,BEL,1,46,Heverlee,6:01,9.99,F45,f
23197,Dennis,VAN AELST,1:36:38,13811,48:40,1:21:12,1:31:22,1:36:38,BEL,1,38,Westerlo,6:01,9.99,M35,m
1920,Filip,VERSTRAETEN,1:36:38,13812,48:24,1:19:46,1:31:27,1:36:38,BEL,1,29,Wommelgem,6:01,9.99,SEH,m
34198,Dries,VAN ROOSBROECK,1:36:38,13813,50:26,1:21:58,1:32:08,1:36:38,BEL,1,22,Tienen,6:01,9.99,SEH,m
32173,Kristof,LAMBRECHTS,1:36:38,13814,50:26,1:21:58,1:32:08,1:36:38,BEL,1,24,Kruibeke,6:01,9.99,SEH,m
36740,Evelien,JORENS,1:36:38,13815,47:34,1:19:51,1:30:53,1:36:38,BEL,1,26,Terhagen,6:01,9.99,SEF,f
1562,Inge,HAWINKEL,1:36:38,13816,47:26,1:19:45,1:31:01,1:36:38,BEL,1,43,Merksem,6:01,9.99,F40,f
33727,Janno,VAN DEN EEDE,1:36:39,13817,50:26,1:21:58,1:32:07,1:36:39,BEL,1,19,Schoten,6:01,9.99,SEH,m
33960,Katleen,VANGODTSENHOVEN,1:36:39,13818,49:19,1:20:27,1:31:23,1:36:39,BEL,1,42,Wemmel,6:01,9.99,F40,f
30603,Rosario,CONTARINO,1:36:39,13819,48:49,1:20:17,1:31:10,1:36:39,ITA,1,32,Oud-Turnhout,6:01,9.99,SEH,m
34778,Miriam,EULERS,1:36:39,13820,48:09,1:20:16,1:31:13,1:36:39,DEU,1,27,Antwerpen,6:01,9.99,SEF,f
18850,Ronny,PAENEN,1:36:39,13821,48:34,1:20:25,1:31:18,1:36:39,BEL,1,46,Stabroek,6:01,9.99,M45,m
548,Eddy,LAM,1:36:39,13822,46:30,1:19:01,1:30:35,1:36:39,HKG,1,39,Antwerpen,6:01,9.99,M35,m
19345,Geert,DEWAERSEGGER,1:36:39,13823,48:49,1:20:17,1:31:09,1:36:39,BEL,1,43,Kessel-Lo,6:01,9.99,M40,m
21512,Kazuki,KUDO,1:36:39,13824,48:21,1:20:11,1:31:15,1:36:39,JPN,1,46,Brussels,6:01,9.99,M45,m
4617,Katrijn,LIEVENS,1:36:39,13825,47:20,1:19:45,1:30:56,1:36:39,BEL,1,41,Berchem,6:01,9.99,F40,f
22466,Lotte,MAEREVOET,1:36:39,13826,48:07,1:19:59,1:30:58,1:36:39,BEL,1,18,Sint-Niklaas,6:01,9.99,SEF,f
32733,Inke,PAENEN,1:36:39,13827,48:34,1:20:25,1:31:19,1:36:39,BEL,1,22,Stabroek,6:01,9.99,SEF,f
17262,Vincent,RIGOUTS,1:36:39,13828,48:34,1:21:07,1:31:34,1:36:39,BEL,1,34,Morkhoven,6:01,9.99,SEH,m
20892,Waseem,SHANNON,1:36:39,13829,48:00,1:20:08,1:30:58,1:36:39,BEL,1,39,Edegem,6:01,9.99,M35,m
18689,Lisa,GENDERA,1:36:39,13830,46:57,1:19:05,1:30:53,1:36:39,BEL,1,28,Borgerhout,6:01,9.99,SEF,f
34634,Ben,WIJNEN,1:36:40,13831,50:54,1:21:00,1:31:38,1:36:40,BEL,1,42,Eigenbilzen,6:01,9.99,M40,m
15634,Veerle,DE BRUYN,1:36:40,13832,49:13,1:20:30,1:30:53,1:36:40,BEL,1,36,Mechelen,6:01,9.99,F35,f
20297,Alec,MAES,1:36:40,13833,47:12,1:19:55,1:31:07,1:36:40,BEL,1,20,Bornem,6:01,9.99,SEH,m
33279,Rik,SPANHOVE,1:36:40,13834,47:53,1:20:00,1:31:25,1:36:40,BEL,1,35,Evergem,6:01,9.99,M35,m
29661,Noel,HEMELSOET,1:36:40,13835,47:07,1:19:02,1:30:52,1:36:40,BEL,1,59,Bassevelde,6:01,9.99,M55,m
20584,Bernadette,BAUKENS,1:36:40,13836,47:09,1:19:15,1:30:49,1:36:40,BEL,1,24,Bruxelles,6:01,9.99,SEF,f
23507,Martina,RUDOLPH,1:36:40,13837,48:42,1:20:26,1:31:26,1:36:40,DEU,1,18,Gross Zimmern,6:01,9.99,SEF,f
8029,Tim,SCHELLEKENS,1:36:40,13838,48:11,1:19:59,1:31:22,1:36:40,BEL,1,22,,6:01,9.99,SEH,m
18688,Helene,GENDERA,1:36:40,13839,46:57,1:19:06,1:30:54,1:36:40,BEL,1,28,Maasmechelen,6:01,9.99,SEF,f
22465,Koen,MAEREVOET,1:36:40,13839,48:08,1:20:00,1:30:58,1:36:40,BEL,1,52,Sint- Niklaas,6:01,9.99,M50,m
19567,Kevin,VAN DEN BROECK,1:36:40,13841,48:39,1:20:26,1:31:26,1:36:40,BEL,1,44,Antwerpen,6:01,9.99,M40,m
23506,Claus,RUDOLPH,1:36:40,13842,48:42,1:20:26,1:31:26,1:36:40,DEU,1,18,Gross Zimmern,6:01,9.99,SEH,m
7942,Glenn,ADRIAENSEN,1:36:40,13843,48:11,1:19:59,1:31:23,1:36:40,BEL,1,32,,6:01,9.99,SEH,m
33766,Leopold,VAN DER AVOORT,1:36:40,13844,50:14,1:20:46,1:31:36,1:36:40,BEL,1,19,Brasschaat,6:01,9.99,SEH,m
16305,Jelle,GYBELS,1:36:40,13845,48:17,1:20:08,1:31:21,1:36:40,BEL,1,32,Antwerpen,6:01,9.99,SEH,m
20029,Tim,VAN ENGELGEM,1:36:40,13846,48:35,1:20:28,1:31:23,1:36:40,BEL,1,44,Lebbeke,6:01,9.99,M40,m
6229,Aurélie,ACX,1:36:40,13847,48:41,1:20:12,1:31:06,1:36:40,BEL,1,27,Sint-Michiels,6:01,9.99,SEF,f
21240,Danielle,BASSETTE,1:36:41,13848,47:58,1:20:00,1:31:09,1:36:41,BEL,1,43,Burcht,6:01,9.99,F40,f
5316,Toon,MOUS,1:36:41,13849,48:09,1:19:16,1:31:40,1:36:41,BEL,1,42,Zoersel,6:01,9.99,M40,m
15287,Evi,BOUWEN,1:36:41,13850,48:36,1:21:08,1:31:37,1:36:41,BEL,1,31,Morkhoven,6:01,9.99,SEF,f
17050,Pierre,ONGHENA,1:36:41,13851,46:46,1:19:19,1:31:07,1:36:41,BEL,1,21,Antwerpen Berchem,6:01,9.99,SEH,m
31336,Nelis,D’HONDT,1:36:41,13852,50:13,1:21:25,1:31:27,1:36:41,BEL,1,28,Ieper,6:01,9.99,SEH,m
20188,Annelies,BUYTAERT,1:36:41,13853,48:07,1:20:03,1:31:08,1:36:41,BEL,1,29,Antwerpen,6:01,9.99,SEF,f
31621,Mihaela,GIEBENS,1:36:41,13854,48:05,1:20:09,1:31:16,1:36:41,BEL,1,33,Ekeren,6:01,9.99,SEF,f
37820,Stephan,ROLFS,1:36:42,13855,46:01,1:19:37,1:30:52,1:36:42,BEL,1,56,Antwerpen,6:01,9.99,M55,m
609,Emile,MEES,1:36:42,13856,44:53,1:17:42,1:30:41,1:36:42,BEL,1,64,Schoten,6:01,9.99,M60,m
5047,Shah,NISHANT,1:36:42,13857,41:39,1:14:32,1:30:35,1:36:42,IND,1,15,Edegem,6:01,9.99,SEH,m
36311,Pieter,DE LAET,1:36:42,13858,48:16,1:20:08,1:31:25,1:36:42,BEL,1,30,Pulderbos,6:01,9.99,SEH,m
15796,Thijs,DE MEYER,1:36:42,13859,50:06,1:21:01,1:31:16,1:36:42,BEL,1,14,Mortsel,6:01,9.99,SEH,m
21297,Lotte,VANLOMMEL,1:36:42,13860,47:59,1:20:02,1:31:10,1:36:42,BEL,1,24,Kasterlee,6:01,9.99,SEF,f
19580,Edwin,VERVOORT,1:36:42,13861,47:45,1:19:26,1:31:07,1:36:42,BEL,1,63,Brecht,6:01,9.99,M60,m
1829,,NR 1829,1:36:43,13862,None,None,None,1:36:43,BEL,1,0,,6:01,9.99,-,m
21376,Glenn,DE WINTER,1:36:42,13863,45:01,1:18:19,1:30:25,1:36:42,BEL,1,33,Melle,6:01,9.99,SEH,m
19040,Benjaporn,TESWONG,1:36:42,13864,48:27,1:20:14,1:31:25,1:36:42,BEL,1,26,Merelbeke,6:01,9.99,SEH,m
33515,Jordi,TROONBEECKX,1:36:42,13865,49:24,1:20:27,1:31:18,1:36:42,BEL,1,22,Wuustwezel,6:01,9.99,SEH,m
31722,Keersmaekers,GWEN,1:36:43,13866,48:46,1:21:05,1:31:37,1:36:43,BEL,1,43,Schelle,6:01,9.99,F40,f
37988,Sabrina,DEVENTER,1:36:43,13867,48:19,1:20:28,1:31:04,1:36:43,BEL,1,43,Oudenaarde,6:01,9.99,F40,f
30216,Dominique,BINST,1:36:43,13868,48:19,1:20:28,1:31:11,1:36:43,BEL,1,48,Maarkedal,6:01,9.99,F45,f
14322,Veronique,GORDON,1:36:43,13869,48:08,1:19:36,1:31:09,1:36:43,BEL,1,49,Genval,6:01,9.99,F45,f
14321,Serge,PECHER,1:36:43,13870,48:09,1:19:36,1:31:10,1:36:43,BEL,1,56,Kapellen,6:01,9.99,M55,m
32199,Kenny,LATHOUWERS,1:36:43,13871,50:10,1:22:11,1:32:04,1:36:43,BEL,1,30,Nijlen,6:01,9.99,SEH,m
19977,Evi,VERHEYEN,1:36:43,13872,46:26,1:19:29,1:31:04,1:36:43,BEL,1,36,Turnhout,6:01,9.99,F35,f
36754,Celien,VERBERCKMOES,1:36:43,13873,47:35,1:19:39,1:31:14,1:36:43,BEL,1,30,Ramsel,6:01,9.99,SEF,f
19346,Ben,MINOODT,1:36:44,13874,48:26,1:19:59,1:30:44,1:36:44,BEL,1,39,Kerksken,6:01,9.99,M35,m
29711,Ann,NOBELS,1:36:44,13875,50:57,1:21:21,1:31:50,1:36:44,BEL,1,29,,6:01,9.98,SEF,f
37826,Niels,VAN DEN BROEK,1:36:44,13876,53:04,1:22:51,1:32:11,1:36:44,BEL,1,29,Schriek,6:01,9.98,SEH,m
15088,Jesus,AZOGUE BOYANO Manuel,1:36:44,13877,47:38,1:19:40,1:31:24,1:36:44,ESP,1,44,Auderghem,6:01,9.98,M40,m
36751,Kim,VAN LOOCK,1:36:44,13878,47:49,1:20:09,1:31:13,1:36:44,BEL,1,25,Schoten,6:01,9.98,SEF,f
38177,Ann,STEVENS,1:36:44,13879,47:41,1:19:56,1:31:02,1:36:44,BEL,1,36,Edegem,6:01,9.98,F35,f
29247,Linh,TRUONG,1:36:44,13880,47:36,1:20:26,1:31:16,1:36:44,BEL,1,29,Bruxelles,6:01,9.98,SEF,f
23170,Luk,DEWILDE,1:36:44,13881,47:42,1:19:26,1:30:51,1:36:44,BEL,1,55,Ekeren,6:01,9.98,M55,m
1257,Hasmukh,RAMANI,1:36:44,13882,45:01,1:17:47,1:30:04,1:36:44,BEL,1,39,Wilrijk,6:01,9.98,M35,m
18084,Frank,VAN LOOCK,1:36:45,13883,47:57,1:20:13,1:31:26,1:36:45,BEL,1,53,Mechelen,6:01,9.98,M50,m
31173,Blanche,DE SCHEIRDER,1:36:45,13884,50:25,1:21:39,1:31:44,1:36:45,BEL,1,56,Ertvelde,6:01,9.98,F55,f
32519,Koen,MERTENS,1:36:45,13885,48:31,1:19:24,1:30:46,1:36:45,BEL,1,30,Lebbeke,6:01,9.98,SEH,m
7319,Jonah,VAN OPSTAL,1:36:45,13886,49:23,1:20:42,1:31:22,1:36:45,BEL,1,39,Vorselaar,6:01,9.98,F35,f
30990,Katrien,DE LANDSHEERE,1:36:45,13887,48:20,1:20:29,1:31:12,1:36:45,BEL,1,48,Maarkedal,6:01,9.98,F45,f
16966,Morgane,MORGANE BAUTE,1:36:45,13888,47:59,1:20:13,1:31:27,1:36:45,BEL,1,17,Knokke-Heist,6:01,9.98,SEF,f
6331,Dirk,SPRENGERS,1:36:45,13889,47:24,1:19:38,1:31:13,1:36:45,BEL,1,57,Wilsele,6:01,9.98,M55,m
32399,Bea,MARCHAND,1:36:45,13890,48:19,1:19:52,1:31:30,1:36:45,BEL,1,32,Olv-Waver,6:01,9.98,SEF,f
7322,Lien,VAN TENDELOO,1:36:45,13891,49:22,1:20:42,1:31:22,1:36:45,BEL,1,27,Vorselaar,6:01,9.98,SEF,f
15984,Maggie,DE WOLF,1:36:45,13892,48:44,1:20:34,1:31:20,1:36:45,BEL,1,43,Lede,6:01,9.98,F40,f
22414,Serge,DE WOLF,1:36:45,13893,47:32,1:19:43,1:31:06,1:36:45,BEL,1,51,Zoersel,6:01,9.98,M50,m
36014,Yannick,VANDEPUTTE,1:36:46,13894,46:06,1:18:20,1:31:24,1:36:46,BEL,1,19,,6:01,9.98,SEH,m
36139,Jona,DE BLAY,1:36:46,13895,49:54,1:20:47,1:31:51,1:36:46,BEL,1,16,,6:01,9.98,SEF,f
19367,Jolien,VERDEYEN,1:36:46,13896,49:55,1:20:58,1:31:48,1:36:46,BEL,1,30,Ledeberg,6:01,9.98,SEF,f
30387,Leonie,BRUENS,1:36:46,13897,47:35,1:19:49,1:31:08,1:36:46,NLD,1,34,Schoonhoven,6:01,9.98,SEF,f
32621,Valerie,NACHTERGAELE,1:36:46,13898,47:29,1:19:41,1:31:35,1:36:46,BEL,1,41,Opwijk,6:01,9.98,F40,f
19230,Kevin,COLSON,1:36:46,13899,46:12,1:18:45,1:31:17,1:36:46,BEL,1,34,Dendermonde,6:01,9.98,SEH,m
22338,Marc,DE HERTOGH,1:36:46,13900,49:29,1:20:36,1:31:37,1:36:46,BEL,1,62,Schoten,6:01,9.98,M60,m
17332,Margriet,SANDEE-WEEZEPOEL,1:36:47,13901,47:22,1:19:57,1:31:20,1:36:47,NLD,1,42,Goes,6:01,9.98,F40,f
17841,Freya,VAN DER MEULEN,1:36:47,13902,47:54,1:19:44,1:31:07,1:36:47,BEL,1,48,Hoboken,6:01,9.98,F45,f
22590,Niels,DE VOLDER,1:36:47,13903,48:57,1:20:16,1:31:11,1:36:47,BEL,1,26,Antwerpen,6:01,9.98,SEH,m
19268,Karel,BROECKX,1:36:47,13904,48:25,1:20:19,1:31:01,1:36:47,BEL,1,34,Tienen,6:01,9.98,SEH,m
32594,Reinilde,MOORS,1:36:47,13905,48:12,1:20:24,1:31:15,1:36:47,BEL,1,29,Antwerpen,6:01,9.98,SEF,f
4203,Liesbeth,VAN GEERT,1:36:47,13906,46:26,1:20:03,1:31:21,1:36:47,BEL,1,40,Antwerpen,6:01,9.98,F40,f
44595,Veen,ANNIEK,1:36:47,13907,47:01,1:19:58,1:31:25,1:36:47,NLD,1,24,Schilde,6:01,9.98,SEF,f
35995,Daan,PEETERS,1:36:47,13908,48:55,1:20:05,1:30:54,1:36:47,BEL,1,19,,6:01,9.98,SEH,m
18379,Ruben,VERMEULEN,1:36:47,13909,47:52,1:19:45,1:31:10,1:36:47,BEL,1,25,Lochristi,6:01,9.98,SEH,m
38757,Elke,NAERT,1:36:48,13910,48:12,1:20:02,1:31:17,1:36:48,BEL,1,41,Beselare,6:01,9.98,F40,f
21419,Lisa,MEERSSCHAERT,1:36:48,13911,49:52,1:21:03,1:31:31,1:36:48,BEL,1,25,Kemzeke,6:01,9.98,SEF,f
32645,Judit,NEIRYNCK,1:36:48,13912,49:01,1:20:40,1:31:28,1:36:48,BEL,1,16,Torhout,6:01,9.98,SEF,f
32646,Peter,NEIRYNCK,1:36:48,13913,49:01,1:20:39,1:31:28,1:36:48,BEL,1,47,Torhout,6:01,9.98,M45,m
20838,Evi,CLAES,1:36:48,13914,49:16,1:21:01,1:31:36,1:36:48,BEL,1,37,Walem,6:01,9.98,F35,f
22515,Eva,DUTHOO,1:36:48,13915,49:01,1:20:46,1:31:22,1:36:48,BEL,1,32,Gavere,6:01,9.98,SEF,f
20102,Tristan,GRYPDONCK,1:36:48,13916,50:10,1:21:35,1:31:37,1:36:48,BEL,1,15,Wambeek,6:01,9.98,SEH,m
15099,Ninia,BAERT,1:36:48,13917,46:55,1:19:45,1:31:16,1:36:48,BEL,1,33,De Pinte,6:01,9.98,SEF,f
37040,Marleen,COEN,1:36:48,13918,47:57,1:20:28,1:31:26,1:36:48,BEL,1,58,Gentbrugge,6:01,9.98,F55,f
16428,Tim,HOUTTEKIER,1:36:48,13919,46:53,1:19:26,1:30:53,1:36:48,BEL,1,25,Sint-Pauwels,6:01,9.98,SEH,m
5338,Segers,DAVINIA,1:36:49,13920,48:18,1:19:58,1:31:15,1:36:49,BEL,1,37,,6:01,9.98,F35,f
30587,Sébastien,COLLETTE,1:36:49,13921,48:15,1:20:16,1:31:37,1:36:49,BEL,1,40,Gent,6:01,9.98,M40,m
20066,Laura,COX,1:36:49,13922,48:15,1:20:57,1:31:43,1:36:49,BEL,1,27,Zaventem,6:01,9.98,SEF,f
30473,Wim,CARPELS,1:36:49,13923,44:31,1:18:37,1:30:54,1:36:49,BEL,1,32,Antwerpen,6:01,9.98,SEH,m
19999,Leonard,HOLMES,1:36:49,13924,47:14,1:19:08,1:30:53,1:36:49,BEL,1,46,Berlare,6:01,9.98,M45,m
18680,Tom,TEGENBOSCH,1:36:49,13925,47:09,1:19:43,1:30:57,1:36:49,BEL,1,34,Antwerpen,6:01,9.98,SEH,m
33308,Marc,STEENDAM,1:36:49,13926,49:16,1:22:07,1:31:33,1:36:49,BEL,1,55,Lochristi,6:01,9.97,M55,m
32924,Inge,PUIMÈGE,1:36:50,13927,47:38,1:19:57,1:31:26,1:36:50,BEL,1,0,Lochristi,6:01,9.97,-,f
6643,Kevin,VAN DER DONK,1:36:50,13928,43:11,1:18:30,1:31:21,1:36:50,BEL,1,26,Ruppelmonde,6:01,9.97,SEH,m
31247,Katrien,DE VOGELAERE,1:36:50,13929,48:34,1:20:32,1:31:23,1:36:50,BEL,1,41,Deinze,6:01,9.97,F40,f
30389,Arne,BRUYLANTS,1:36:50,13930,47:48,1:19:48,1:31:13,1:36:50,BEL,1,28,Kapelle-Op-Den-Bos,6:01,9.97,SEH,m
16866,Pieter,MEEREMANS,1:36:50,13930,51:30,1:21:32,1:32:04,1:36:50,BEL,1,37,Denderleeuw,6:01,9.97,M35,m
20101,Peter,GRYPDONCK,1:36:50,13932,50:10,1:21:35,1:31:37,1:36:50,BEL,1,45,Wambeek,6:01,9.97,M45,m
22264,Laura,SIMONIN,1:36:50,13933,48:32,1:20:23,1:31:30,1:36:50,BEL,1,27,Woluwe-Saint-Pierre,6:01,9.97,SEF,f
34079,Bart,VAN LEMBERGEN,1:36:50,13934,49:14,1:20:53,1:31:48,1:36:50,BEL,1,47,Opwijk,6:01,9.97,M45,m
20532,Nancy,DE WILDE,1:36:50,13935,48:19,1:20:17,1:31:13,1:36:50,BEL,1,54,Sleidinge,6:01,9.97,F50,f
7119,Ellen,WAUTERS,1:36:50,13936,49:24,1:21:35,1:32:01,1:36:50,BEL,1,39,Mortsel,6:01,9.97,F35,f
20079,Hanne,JANSEN,1:36:50,13937,48:17,1:20:21,1:31:16,1:36:50,BEL,1,24,Berchem,6:01,9.97,SEF,f
34195,Kevin,VAN ROMPAEY,1:36:50,13938,49:23,1:21:35,1:32:01,1:36:50,BEL,1,39,Brasschaat,6:01,9.97,M35,m
5346,Barzani,HUSSEIN,1:36:50,13939,42:11,1:17:21,1:30:33,1:36:50,BEL,1,27,,6:01,9.97,SEH,m
15180,Joséphine,BEUSELINCK,1:36:50,13940,47:17,1:19:49,1:31:03,1:36:50,BEL,1,22,Brugge,6:01,9.97,SEF,f
31231,Lidwien,DE TURCK,1:36:51,13941,49:31,1:20:57,1:31:41,1:36:51,BEL,1,25,3001,6:01,9.97,SEF,f
32484,Anne-Marie,MEEUS,1:36:51,13942,48:18,1:20:21,1:31:09,1:36:51,BEL,1,59,Berchem,6:01,9.97,F55,f
22050,Valérie,JANSSENS,1:36:51,13943,48:28,1:20:13,1:31:19,1:36:51,BEL,1,34,Boechout,6:01,9.97,SEF,f
18072,Michiel,VANLERBERGHE,1:36:51,13944,47:17,1:19:48,1:31:02,1:36:51,BEL,1,23,Desselgem,6:01,9.97,SEH,m
32990,Thomas,ROBBERECHT,1:36:51,13945,48:42,1:20:30,1:31:25,1:36:51,BEL,1,30,Veltem-Beisem,6:01,9.97,SEH,m
44317,Alain,GOOSSENS,1:36:51,13946,49:09,1:20:50,1:31:27,1:36:51,BEL,1,39,Kruibeke,6:01,9.97,M35,m
2859,Xavier,DAMMAN,1:36:51,13947,49:15,1:20:54,1:31:29,1:36:51,BEL,1,35,Schaerbeek,6:02,9.97,M35,m
32617,Joeri,MUYS,1:36:51,13948,48:48,1:19:38,1:31:13,1:36:51,BEL,1,21,Antwerpen,6:02,9.97,SEH,m
33366,Igor,STRUYF,1:36:52,13949,47:39,1:19:11,1:30:57,1:36:52,BEL,1,48,Mortsel,6:02,9.97,M45,m
16814,Tim,MALLEZIE,1:36:52,13950,49:51,1:21:37,1:31:50,1:36:52,BEL,1,33,Loenhout,6:02,9.97,SEH,m
22337,Dieter,DE HERTOGH,1:36:52,13951,52:12,1:22:15,1:32:17,1:36:52,BEL,1,34,Eke,6:02,9.97,SEH,m
19327,Luyba,CARON,1:36:52,13952,47:25,1:20:11,1:31:15,1:36:52,FRA,1,70,Saint Martin Boulogne,6:02,9.97,F70,f
30741,Kim,DEBACKER,1:36:52,13953,47:32,1:19:25,1:31:02,1:36:52,BEL,1,41,Boom,6:02,9.97,F40,f
32488,Vinciane,MEEUS,1:36:52,13954,48:20,1:20:24,1:31:22,1:36:52,BEL,1,56,Beernem,6:02,9.97,F55,f
3076,Ariane,DEWANDRE,1:36:52,13955,49:14,1:20:55,1:31:30,1:36:52,BEL,1,36,Jette,6:02,9.97,F35,f
18059,Evelien,VAN LAERE,1:36:52,13956,48:15,1:19:52,1:31:11,1:36:52,BEL,1,27,Meerdonk,6:02,9.97,SEF,f
6160,Patrick,THEUWISSEN,1:36:53,13957,49:33,1:21:05,1:31:33,1:36:53,BEL,1,45,,6:02,9.97,M45,m
21317,Merel,TEMMERMAN,1:36:53,13958,48:49,1:20:30,1:31:30,1:36:53,BEL,1,17,Sint-Niklaas,6:02,9.97,SEF,f
20870,Lauranne,SCHELKENS,1:36:53,13959,48:20,1:20:08,1:31:27,1:36:53,BEL,1,32,Ranst,6:02,9.97,SEF,f
32831,Xavier,PENSON,1:36:53,13960,51:07,1:21:23,1:31:53,1:36:53,BEL,1,31,Niel,6:02,9.97,SEH,m
21530,Lorenz,ADRIAENSEN,1:36:53,13961,46:49,1:19:14,1:31:17,1:36:53,BEL,1,26,Rijkevorsel,6:02,9.97,SEH,m
16243,Philip,GOEDTKINDT,1:36:53,13962,46:59,1:19:17,1:31:30,1:36:53,BEL,1,48,Aarschot,6:02,9.97,M45,m
5768,Arthur,DE LELIE,1:36:53,13963,50:53,1:23:04,1:33:09,1:36:53,BEL,1,18,Noorderwijk,6:02,9.97,SEH,m
22442,Nicolas,LEJEUNE,1:36:54,13964,48:54,1:21:13,1:32:17,1:36:54,BEL,1,28,Juprelle,6:02,9.97,SEH,m
32966,Aileen,RENIERS,1:36:54,13965,48:46,1:20:27,1:31:19,1:36:54,BEL,1,39,Asse,6:02,9.97,F35,f
32131,Marleen,KONINGS,1:36:54,13966,48:48,1:21:02,1:31:34,1:36:54,BEL,1,53,Essen,6:02,9.97,F50,f
6194,Els,VAN LOOVEREN,1:36:54,13967,49:33,1:21:05,1:31:33,1:36:54,BEL,1,41,,6:02,9.97,F40,f
18552,Tine,WYFFELS,1:36:54,13968,47:34,1:20:08,1:31:23,1:36:54,BEL,1,21,Beselare,6:02,9.97,SEF,f
44448,Sören,LIMBOURG,1:36:54,13969,48:46,1:20:27,1:31:19,1:36:54,BEL,1,28,Moorsel,6:02,9.97,SEH,m
33039,Helmer,ROOZE,1:36:54,13970,47:48,1:20:27,1:31:22,1:36:54,BEL,1,43,Berchem,6:02,9.97,M40,m
30917,Peter,DE FRÉ,1:36:54,13971,47:40,1:19:29,1:31:06,1:36:54,BEL,1,54,Lokeren,6:02,9.97,M50,m
32206,Raphael,LAUREYS,1:36:54,13972,48:06,1:19:45,1:31:22,1:36:54,BEL,1,68,Beveren-Waas,6:02,9.97,M65,m
33276,Katleen,SOTTIAUX,1:36:54,13973,50:02,1:21:32,1:32:11,1:36:54,BEL,1,40,Borgerhout,6:02,9.97,F40,f
32870,Karen,P,1:36:55,13974,48:48,1:21:02,1:31:35,1:36:55,BEL,1,39,Essen,6:02,9.97,F35,f
30916,Martine,DE FRÉ,1:36:55,13975,47:40,1:19:29,1:31:06,1:36:55,BEL,1,58,Lokeren,6:02,9.97,F55,f
14449,Hanne,MARTENS,1:36:55,13976,48:41,1:21:02,1:31:47,1:36:55,BEL,1,36,Edegem,6:02,9.97,F35,f
33684,Luka,VANDEN BERGHE,1:36:55,13977,49:57,1:21:02,1:31:53,1:36:55,BEL,1,16,Burcht,6:02,9.97,SEF,f
30130,Dennis,BASTIAENSEN,1:36:55,13978,50:57,1:21:52,1:31:51,1:36:55,BEL,1,41,Zoersel,6:02,9.97,M40,m
36395,Glen,MORAS,1:36:55,13979,48:41,1:20:34,1:31:23,1:36:55,BEL,1,28,Kallo,6:02,9.97,SEH,m
20753,Aron,FONTEYNE,1:36:55,13980,49:15,1:20:22,1:31:20,1:36:55,BEL,1,34,Deurne,6:02,9.97,SEH,m
20865,Thomas,DEBRUYN,1:36:55,13981,46:46,1:20:09,1:31:26,1:36:55,BEL,1,39,Boom,6:02,9.97,M35,m
31716,Ellen,GROOM,1:36:55,13982,47:49,1:19:58,1:31:32,1:36:55,BEL,1,45,Oelegem,6:02,9.97,F45,f
16726,Vanassche,LIESE,1:36:55,13983,47:34,1:20:08,1:31:23,1:36:55,BEL,1,20,Beselare,6:02,9.97,SEF,f
33031,Justine,ROOMS,1:36:55,13984,48:20,1:20:20,1:31:19,1:36:55,BEL,1,19,Hamme,6:02,9.96,SEF,f
7291,Jeroen,NUYTENS,1:36:56,13985,48:41,1:20:27,1:31:56,1:36:56,BEL,1,31,Betekom,6:02,9.96,SEH,m
23435,Vincent,KLOOSTER Melvin,1:36:56,13986,47:57,1:20:09,1:31:17,1:36:56,BEL,1,37,Zwijndrecht,6:02,9.96,M35,m
14487,Peggy,VAN OEVELEN,1:36:56,13987,47:25,1:19:48,1:31:09,1:36:56,BEL,1,48,Hoboken,6:02,9.96,F45,f
44279,Alain,KAUFMANN,1:36:56,13988,48:30,1:20:28,1:31:31,1:36:56,BEL,1,67,Wemmel,6:02,9.96,M65,m
1077,Robin,WAROQUIER,1:36:56,13989,47:03,1:19:24,1:31:28,1:36:56,BEL,1,21,Edegem,6:02,9.96,SEH,m
6209,Daan,VAN TENDELOO,1:36:56,13990,47:18,1:19:41,1:31:25,1:36:56,BEL,1,30,,6:02,9.96,SEH,m
17044,Frederique,OLIVIER,1:36:56,13991,45:39,1:18:02,1:30:42,1:36:56,BEL,1,46,Westmalle,6:02,9.96,M45,m
15640,Linda,DE CEUSTER,1:36:56,13992,48:09,1:20:23,1:31:37,1:36:56,BEL,1,64,Heist-Opden-Berg,6:02,9.96,F60,f
4767,Peter,JONKERS,1:36:57,13993,47:16,1:19:19,1:30:57,1:36:57,BEL,1,56,Merksem,6:02,9.96,M55,m
18396,Anja,VERSCHAEREN,1:36:57,13994,47:49,1:20:13,1:31:33,1:36:57,BEL,1,50,Hofstade,6:02,9.96,F50,f
36222,Guy,WENSELAERS,1:36:57,13995,47:46,1:19:41,1:31:03,1:36:57,BEL,1,62,Kontich,6:02,9.96,M60,m
4841,Liesbeth,WIJNS,1:36:57,13996,47:16,1:19:19,1:30:57,1:36:57,BEL,1,29,Deurne,6:02,9.96,SEF,f
32900,Rutger,POPPE,1:36:57,13997,48:01,1:19:59,1:31:22,1:36:57,BEL,1,29,Gent,6:02,9.96,SEH,m
22275,Christophe,DUJARDIN,1:36:57,13998,47:31,1:19:51,1:31:24,1:36:57,FRA,1,47,Zaventem,6:02,9.96,M45,m
22512,Paulien,DEMYTTENAERE,1:36:57,13999,49:08,1:21:07,1:31:38,1:36:57,BEL,1,25,Bornem,6:02,9.96,SEF,f
29353,Charlotte,DOUSY,1:36:57,14000,47:36,1:19:58,1:31:22,1:36:57,BEL,1,32,Mariakerke,6:02,9.96,SEF,f
