runner id,name,lastname,time,rank,checkpt0,checkpt1,checkpt2,checkpt3,nationality,finished,age,city,team,pace,speed,category,sex
31993,Matthias,JANSSEN,1:42:37,17001,51:30,1:26:32,1:37:25,1:42:37,BEL,1,32,Lier,6:23,9.41,SEH,m
37584,Manoëlle,VERSCHUEREN,1:42:37,17002,52:01,1:25:40,1:37:01,1:42:37,BEL,1,28,Deurne,6:23,9.41,SEF,f
7384,Willy,COOLEN,1:42:37,17003,50:58,1:25:23,1:37:15,1:42:37,BEL,1,62,Keerbergen,6:23,9.41,M60,m
31400,Kelly,DUBIN,1:42:37,17004,49:05,1:24:24,1:36:35,1:42:37,BEL,1,22,Wortegem-Petegem,6:23,9.41,SEF,f
31222,Petra,DE SOMERE,1:42:37,17005,49:15,1:24:06,1:36:18,1:42:37,BEL,1,50,Oostakker,6:23,9.41,F50,f
31662,Kim,GOETGELUCK,1:42:37,17006,49:55,1:24:03,1:36:31,1:42:37,BEL,1,30,Lochristi,6:23,9.41,SEF,f
975,Sven,VAN MOL,1:42:37,17007,45:45,1:21:35,1:33:50,1:42:37,BEL,1,33,Herentals,6:23,9.41,SEH,m
31761,Audrey,HANSART,1:42:37,17008,51:13,1:25:02,1:36:49,1:42:37,BEL,1,0,Groot-Bijgaarden,6:23,9.41,-,f
31502,Franky,FIRLEFYN,1:42:38,17009,50:36,1:24:20,1:36:34,1:42:38,BEL,1,58,Kruibeke,6:23,9.41,M55,m
31522,Eddy,FRANCKEN,1:42:38,17010,50:37,1:24:55,1:37:02,1:42:38,BEL,1,52,Ekeren,6:23,9.41,M50,m
23353,Laura,KUNNEN,1:42:38,17011,47:51,1:23:08,1:36:33,1:42:38,BEL,1,30,Hulshout,6:23,9.41,SEF,f
36386,Karolien,DEBRUYNE,1:42:38,17012,51:39,1:25:19,1:36:59,1:42:38,BEL,1,38,Edegem,6:23,9.41,F35,f
31307,Justine,DEWITTE,1:42:38,17013,50:38,1:24:34,1:36:52,1:42:38,BEL,1,18,Heestert,6:23,9.41,SEF,f
17250,Johan,RENNEBOOG,1:42:38,17014,47:23,1:23:15,1:36:16,1:42:38,BEL,1,56,Wetteren,6:23,9.41,M55,m
37760,Elisabeth,ADRIAENSSENS,1:42:39,17015,52:20,1:25:19,1:37:14,1:42:39,BEL,1,17,Belsele,6:23,9.41,SEF,f
7438,Sarah,DUCHEYNE,1:42:39,17016,51:23,1:24:52,1:36:55,1:42:39,BEL,1,28,'S Gravenwezel,6:23,9.41,SEF,f
22806,Frank,HARSDORF,1:42:39,17017,50:44,1:23:50,1:36:30,1:42:39,BEL,1,56,Wuustwezel,6:23,9.41,M55,m
19877,Peter,VANDEWYNCKEL,1:42:39,17018,49:02,1:24:06,1:36:21,1:42:39,BEL,1,51,Hoboken,6:23,9.41,M50,m
18822,Paul,JANSSENS,1:42:39,17019,52:32,1:26:29,1:37:19,1:42:39,BE,1,24,Gent,6:23,9.41,SEH,m
23291,Stijn,BELMANS,1:42:39,17020,50:29,1:24:26,1:36:34,1:42:39,BEL,1,37,Antwerpen,6:23,9.41,M35,m
34549,Eddy,VORSTENBOSCH,1:42:39,17021,50:52,1:24:41,1:36:58,1:42:39,BEL,1,56,Meerhout,6:23,9.41,M55,m
22708,Tom,BOLLANSEE,1:42:39,17022,51:57,1:25:36,1:36:53,1:42:39,BEL,1,25,Antwerpen,6:23,9.41,SEH,m
20813,Koen,VAN LAEKEN,1:42:39,17023,51:16,1:25:20,1:37:13,1:42:39,BEL,1,38,Waasmunter,6:23,9.41,M35,m
32270,Frank,LEYMAN,1:42:39,17024,49:48,1:23:50,1:36:39,1:42:39,BEL,1,58,Brussel,6:23,9.41,M55,m
29691,Jonas,VAN DE MAELE,1:42:39,17025,50:26,1:24:47,1:37:20,1:42:39,BEL,1,29,Horebeke,6:23,9.41,SEH,m
18852,Isabel,TESCHKE,1:42:39,17026,50:20,1:24:33,1:36:37,1:42:39,DEU,1,33,Deurne,6:23,9.41,SEF,f
30818,Lies,DEBRUYNE,1:42:39,17027,49:29,1:24:21,1:36:31,1:42:39,BEL,1,33,Kuurne,6:23,9.41,SEF,f
5930,Tom,WEUTS,1:42:39,17028,52:09,1:25:20,1:37:01,1:42:39,BEL,1,0,Vorselaar,6:23,9.41,-,m
33825,Joke,VAN DER STRAETEN,1:42:40,17029,52:21,1:26:03,1:37:13,1:42:40,BEL,1,32,Denderhoutem,6:23,9.41,SEF,f
16119,Anja,EVERAERT,1:42:40,17030,50:32,1:24:43,1:36:39,1:42:40,BEL,1,47,Oostkamp,6:23,9.41,F45,f
34399,Bernard,VERHENNE,1:42:40,17031,51:04,1:24:59,1:36:52,1:42:40,BEL,1,66,Zandhoven,6:23,9.41,M65,m
21872,Peter,VERMAELEN,1:42:40,17032,49:34,1:24:26,1:36:33,1:42:40,BEL,1,46,Tremelo,6:23,9.41,M45,m
1604,Anas,OULAD ALI,1:42:40,17033,46:48,1:22:40,1:36:16,1:42:40,BEL,1,16,,6:23,9.41,SEH,m
31220,Liesbeth,DESMYTER,1:42:40,17034,51:57,1:25:43,1:37:01,1:42:40,BEL,1,45,Pllare,6:23,9.41,F45,f
6821,Muriëlle,MULDERS,1:42:40,17035,50:26,1:24:44,1:36:50,1:42:40,BEL,1,23,Brugge,6:23,9.41,SEF,f
38647,Zino,DE SMEDT,1:42:40,17036,52:09,1:25:18,1:36:50,1:42:40,BEL,1,19,Booischot,6:23,9.41,SEH,m
15970,Bart,DE WILDE,1:42:40,17037,50:23,1:24:17,1:36:25,1:42:40,BEL,1,33,Zele,6:23,9.41,SEH,m
6592,Chopel,TASHI,1:42:41,17038,48:40,1:23:10,1:36:05,1:42:41,NPL,1,41,Deurne,6:23,9.41,M40,m
20119,Dimitri,BURKI,1:42:41,17039,51:13,1:24:57,1:36:46,1:42:41,BEL,1,43,De Panne,6:23,9.41,M40,m
31501,Anne-Lore,FINOULST,1:42:41,17040,48:55,1:23:58,1:36:36,1:42:41,BEL,1,29,Sint-Pauwels,6:23,9.41,SEF,f
2261,Tom,LEPOUTRE,1:42:41,17041,53:16,1:27:12,1:38:12,1:42:41,BEL,1,41,Sint-Niklaas,6:23,9.41,M40,m
7860,Lissa,MEEUSEN,1:42:41,17042,51:07,1:24:55,1:36:31,1:42:41,BEL,1,25,Westmalle,6:23,9.41,SEF,f
19093,Domenique,WYBO,1:42:41,17043,51:43,1:25:27,1:37:10,1:42:41,BEL,1,26,Mechelen,6:23,9.41,SEF,f
32952,Aurélie,RAYMAEKERS,1:42:41,17044,50:04,1:24:24,1:36:51,1:42:41,BEL,1,31,Heverlee,6:23,9.41,SEF,f
19954,Rob,MAES,1:42:41,17045,53:14,1:30:12,1:38:18,1:42:41,BEL,1,21,Lummen,6:23,9.41,SEH,m
16790,Dieter,MAES,1:42:41,17046,50:24,1:24:19,1:36:26,1:42:41,BEL,1,29,Zele,6:23,9.41,SEH,m
35608,Yanou,RAMON,1:42:42,17047,51:56,1:25:20,1:36:51,1:42:42,BEL,1,24,,6:23,9.4,SEF,f
16362,Bb,HERBOSCH,1:42:42,17048,49:50,1:24:04,1:36:38,1:42:42,BEL,1,53,Mortsel,6:23,9.4,F50,f
17171,Véronique,PLAES,1:42:43,17049,52:14,1:26:08,1:37:12,1:42:43,BEL,1,53,Molenbeek,6:23,9.4,F50,f
34609,Nathalie,WELLENS,1:42:43,17050,51:07,1:24:56,1:36:32,1:42:43,BEL,1,25,Schoten,6:23,9.4,SEF,f
30240,Annelies,BODEN,1:42:43,17051,51:13,1:25:07,1:36:56,1:42:43,BEL,1,36,Hofstade,6:23,9.4,F35,f
44684,Elise,DE WILDE,1:42:43,17052,50:19,1:24:55,1:36:43,1:42:43,BEL,1,45,Sint-Niklaas,6:23,9.4,F45,f
33213,Elien,SLACHMUYLDER,1:42:43,17053,50:21,1:25:00,1:36:55,1:42:43,BEL,1,22,Meise,6:23,9.4,SEF,f
37514,Arnout,CUYPERS,1:42:43,17054,50:44,1:24:50,1:37:09,1:42:43,BEL,1,19,Edegem,6:23,9.4,SEH,m
30037,Janssen,ALICE,1:42:43,17055,51:56,1:25:22,1:36:50,1:42:43,BEL,1,24,Beerse,6:23,9.4,SEF,f
19310,Cor,TOUW,1:42:43,17056,50:17,1:24:06,1:36:37,1:42:43,BEL,1,49,Stabroek,6:23,9.4,M45,m
35344,Helena,DEMARBAIX,1:42:43,17057,51:56,1:25:22,1:36:53,1:42:43,BEL,1,24,,6:23,9.4,SEF,f
34054,Inge,VAN KELST,1:42:43,17058,51:13,1:25:07,1:36:57,1:42:43,BEL,1,39,Hofstade,6:23,9.4,F35,f
31456,Wout,ENGELS,1:42:44,17059,51:31,1:26:32,1:37:27,1:42:44,BEL,1,32,Lier,6:23,9.4,SEH,m
34286,Tim,VAN ZEEBROECK,1:42:44,17060,51:20,1:25:02,1:36:45,1:42:44,BEL,1,48,Merksem,6:23,9.4,M45,m
37586,Luc,WAUMANS,1:42:44,17061,50:44,1:24:52,1:37:09,1:42:44,BEL,1,71,Melsele,6:23,9.4,M70,m
44276,Christine,MEERBERGEN,1:42:44,17062,52:45,1:26:06,1:37:14,1:42:44,BEL,1,39,Turnhout,6:23,9.4,F35,f
44659,Roxane,NGOSSO,1:42:44,17063,50:11,1:24:35,1:36:42,1:42:44,BEL,1,44,Braschaat,6:23,9.4,F40,f
34461,Wim,VERNIMME,1:42:45,17064,51:06,1:25:16,1:36:42,1:42:45,BEL,1,43,Hever,6:23,9.4,M40,m
2004,Vincent,AERTS,1:42:45,17065,50:54,1:25:27,1:37:15,1:42:45,BEL,1,34,Berchem,6:23,9.4,SEH,m
4072,Joyce,VAN DE MERLEN,1:42:45,17066,50:08,1:24:44,1:36:38,1:42:45,BEL,1,37,Deurne,6:23,9.4,F35,f
412,Ann,FIEUW,1:42:45,17067,50:21,1:24:35,1:36:50,1:42:45,BEL,1,55,Hove,6:23,9.4,F55,f
31741,Jasmijn,HAEMELS,1:42:45,17068,51:06,1:25:16,1:36:42,1:42:45,BEL,1,26,Duffel,6:23,9.4,SEF,f
30682,Tineke,CRYNEN,1:42:45,17069,50:47,1:24:44,1:37:04,1:42:45,BEL,1,38,Brecht,6:23,9.4,F35,f
7826,Natasja,DECLERCK-GUGGELMEYER,1:42:45,17070,50:47,1:24:44,1:37:04,1:42:45,BEL,1,34,Brecht,6:23,9.4,SEF,f
32028,Valérie,JENNES,1:42:45,17071,49:19,1:24:26,1:36:57,1:42:45,BEL,1,24,Schoten,6:23,9.4,SEF,f
6864,Delphine,DEPONDT,1:42:45,17072,50:48,1:24:28,1:36:33,1:42:45,BEL,1,47,Berchem,6:24,9.4,F45,f
4964,Jeroen,VAN DER VEEKEN,1:42:45,17073,50:44,1:24:56,1:36:56,1:42:45,BEL,1,47,Onze-Lieve-Vrouw Waver,6:24,9.4,M45,m
34484,Wim,VERSTRAETEN,1:42:45,17074,50:22,1:25:10,1:36:58,1:42:45,BEL,1,59,Laarne,6:24,9.4,M55,m
2959,Sarah,DEKELVER,1:42:45,17075,50:51,1:25:03,1:36:53,1:42:45,BEL,1,30,Kersbeek-Miskom,6:24,9.4,SEF,f
998,Ann,VAN TILBORG,1:42:45,17076,49:33,1:24:33,1:36:55,1:42:45,BEL,1,51,Saint Hubert,6:24,9.4,F50,f
20397,Anouk,DELEYE,1:42:46,17077,51:24,1:25:27,1:37:29,1:42:46,BEL,1,31,Antwerpen,6:24,9.4,SEF,f
33336,Rani,STEVENS,1:42:46,17078,51:24,1:25:27,1:37:30,1:42:46,BEL,1,27,Borgerhout,6:24,9.4,SEF,f
33906,Ilke,VAN DUYSEN,1:42:46,17079,52:13,1:25:50,1:37:12,1:42:46,BEL,1,36,Zoersel,6:24,9.4,F35,f
20945,Inge,BASTIAENS,1:42:46,17080,50:03,1:24:36,1:36:48,1:42:46,BEL,1,51,Zaffelare,6:24,9.4,F50,f
37083,Dominic,SCHOUTERDEN,1:42:46,17081,50:53,1:25:15,1:36:41,1:42:46,BEL,1,53,Hasselt,6:24,9.4,M50,m
33831,Alexander,VANDERVENNET,1:42:46,17082,50:47,1:24:26,1:36:45,1:42:46,BEL,1,40,Tervuren,6:24,9.4,M40,m
17824,Nico,VAN DER GEEST,1:42:46,17083,49:54,1:24:20,1:34:53,1:42:46,NLD,1,59,Gouda,6:24,9.4,M55,m
31009,Lorenzo,DELESPESSE,1:42:46,17084,49:17,1:23:36,1:37:05,1:42:46,BEL,1,25,Beveren-Waas,6:24,9.4,SEH,m
18876,Ludwig,VAN DEN HENDE,1:42:46,17085,50:12,1:24:50,1:37:00,1:42:46,BEL,1,53,Wachtebeke,6:24,9.4,M50,m
30063,Britt,ANTHONI,1:42:46,17086,52:14,1:25:51,1:37:12,1:42:46,BEL,1,33,Schilde,6:24,9.4,SEF,f
15708,Michel,DE GRAAF,1:42:46,17087,49:54,1:24:21,1:36:42,1:42:46,NLD,1,58,Zoetermeer,6:24,9.4,M55,m
17553,John,SUIJKER,1:42:46,17088,49:54,1:24:18,1:34:54,1:42:46,NLD,1,57,Zoetermeer,6:24,9.4,M55,m
31357,Sophie,DIERICKX,1:42:46,17089,53:13,1:26:03,1:37:19,1:42:46,BEL,1,44,Berchem,6:24,9.4,F40,f
33855,Lore,VAN DE VELDE,1:42:47,17090,50:36,1:25:00,1:36:40,1:42:47,BEL,1,25,Westmeerbeek,6:24,9.4,SEF,f
30957,Gianni,DE JONG,1:42:47,17091,49:17,1:23:36,1:37:04,1:42:47,BEL,1,26,Kieldrecht,6:24,9.4,SEH,m
33877,Rita,VAN DE VYVER,1:42:47,17092,50:03,1:24:26,1:36:40,1:42:47,BEL,1,54,Aartselaar,6:24,9.4,F50,f
37064,Hilde,LEMMENS,1:42:47,17093,51:14,1:25:15,1:36:48,1:42:47,BEL,1,55,Hasselt,6:24,9.4,F55,f
31420,Maarten,DURT,1:42:47,17094,50:02,1:24:25,1:36:39,1:42:47,BEL,1,23,Aartselaar,6:24,9.4,SEH,m
20216,Louis,DETAVERNIER,1:42:47,17095,52:18,1:26:01,1:37:35,1:42:47,BEL,1,25,Tiegem,6:24,9.4,SEH,m
6454,Filip,SARENS,1:42:47,17096,52:56,1:26:17,1:37:19,1:42:47,BEL,1,29,Londerzeel,6:24,9.4,SEH,m
37071,Marita,MERTENS,1:42:47,17097,51:14,1:25:15,1:36:47,1:42:47,BEL,1,58,Hasselt,6:24,9.4,F55,f
19700,Henk,EHBEL,1:42:47,17098,51:02,1:25:01,1:36:54,1:42:47,NLD,1,52,Steenbergen,6:24,9.4,M50,m
37061,Hilde,GOOSSENS,1:42:47,17099,51:15,1:25:16,1:36:49,1:42:47,BEL,1,53,Hasselt,6:24,9.4,F50,f
37045,An,DE KIMPE,1:42:47,17100,49:54,1:24:43,1:36:52,1:42:47,BEL,1,48,Gent,6:24,9.4,F45,f
23486,Katheleyne,DONCKERS,1:42:48,17101,52:28,1:25:48,1:37:24,1:42:48,BEL,1,56,Ekeren,6:24,9.4,F55,f
23080,Lin,LOUAGE,1:42:48,17102,51:05,1:24:00,1:37:15,1:42:48,BEL,1,34,Zwevegem,6:24,9.4,SEF,f
36226,Chloë,ALLIET,1:42:48,17103,49:32,1:24:08,1:36:31,1:42:48,BEL,1,31,Gent,6:24,9.39,SEF,f
17508,Joni,STALJANSSENS,1:42:48,17104,53:14,1:26:51,1:37:49,1:42:48,BEL,1,33,Wilrijk,6:24,9.39,SEF,f
6459,Sofie,SARENS,1:42:48,17105,52:57,1:26:18,1:37:20,1:42:48,BEL,1,32,Londerzeel,6:24,9.39,SEF,f
8049,Jan,VAN DE WEGHE,1:42:49,17106,50:59,1:24:22,1:36:39,1:42:49,BEL,1,49,Sint-Martens-Latem,6:24,9.39,M45,m
14475,Veerle,VERLINDE,1:42:49,17107,49:52,1:23:49,1:36:34,1:42:49,BEL,1,49,Belgie,6:24,9.39,F45,f
19956,Geert,MERTENS,1:42:49,17108,55:51,1:26:57,1:37:50,1:42:49,BEL,1,39,Vlimmeren,6:24,9.39,M35,m
15187,Dominic,BIDDELOO,1:42:49,17109,50:07,1:25:24,1:36:49,1:42:49,BEL,1,54,Mol,6:24,9.39,M50,m
36281,Jan,PATTEET,1:42:49,17110,50:38,1:24:26,1:37:26,1:42:49,BEL,1,59,Kontich,6:24,9.39,M55,m
1975,Jerome,DISCRY,1:42:49,17111,49:56,1:24:36,1:36:56,1:42:49,BEL,1,42,Kontich,6:24,9.39,M40,m
37044,Nadine,DE DECKER,1:42:49,17112,49:56,1:24:45,1:36:54,1:42:49,BEL,1,53,Gentbrugge,6:24,9.39,F50,f
17114,Emmeline,PEETERS,1:42:49,17113,50:08,1:25:25,1:36:49,1:42:49,BEL,1,25,Mol,6:24,9.39,SEF,f
30649,Febe,COSEMANS,1:42:50,17114,50:56,1:25:00,1:37:07,1:42:50,BEL,1,23,Hasselt,6:24,9.39,SEF,f
29730,Elisabeth,VAN DE PERRE,1:42:50,17115,49:29,1:24:48,1:36:47,1:42:50,BEL,1,28,Okegem,6:24,9.39,SEF,f
378,Sandy,DOSSCHE,1:42:50,17116,49:50,1:23:44,1:36:43,1:42:50,BEL,1,43,Waregem,6:24,9.39,F40,f
21571,Tom,AERTBELIEN,1:42:50,17117,52:47,1:26:17,1:37:22,1:42:50,BEL,1,38,Schoten,6:24,9.39,M35,m
33673,Tom,VAN DEN ABEELE,1:42:50,17118,49:40,1:24:19,1:36:32,1:42:50,BEL,1,52,Sint-Marten-Latem,6:24,9.39,M50,m
3551,Sébastien,MARTY,1:42:50,17119,48:46,1:21:58,1:35:54,1:42:50,FRA,1,36,Brussels,6:24,9.39,M35,m
22043,Pascal,BOISTAY,1:42:50,17120,51:50,1:25:39,1:37:16,1:42:50,BEL,1,46,Boechout,6:24,9.39,M45,m
31578,Tom,GELDOLF,1:42:50,17121,51:14,1:25:36,1:37:17,1:42:50,BEL,1,54,Aartselaar,6:24,9.39,M50,m
7481,Kevin,KAJUITER,1:42:50,17122,51:27,1:25:18,1:36:49,1:42:50,BEL,1,36,Ekeren,6:24,9.39,M35,m
16826,Laura,MARIËN,1:42:50,17123,51:50,1:26:05,1:37:53,1:42:50,BEL,1,23,Mol,6:24,9.39,SEF,f
7524,An,PANTENS,1:42:51,17124,51:27,1:25:18,1:36:49,1:42:51,BEL,1,34,Ekeren,6:24,9.39,SEF,f
21905,Luyten,FLORENCE,1:42:51,17125,52:34,1:25:49,1:37:32,1:42:51,BEL,1,26,Antwerpen,6:24,9.39,SEF,f
33682,Hanna,VAN DEN BERGHE,1:42:51,17126,51:39,1:25:25,1:37:08,1:42:51,BEL,1,33,Brugge,6:24,9.39,SEF,f
32861,Tom,PINTELON,1:42:51,17127,54:07,1:26:39,1:37:46,1:42:51,BEL,1,46,Sint-Stevens-Woluwe,6:24,9.39,M45,m
5314,Stijn,LENAERTS,1:42:51,17128,49:00,1:23:45,1:36:30,1:42:51,BEL,1,45,Zoersel,6:24,9.39,M45,m
30534,Mieke,CLAES,1:42:51,17129,52:21,1:25:47,1:37:23,1:42:51,BEL,1,33,Olmen,6:24,9.39,SEF,f
32263,Katrien,LETEN,1:42:51,17130,51:35,1:25:05,1:36:57,1:42:51,BEL,1,32,Bertem,6:24,9.39,SEF,f
30875,Susan,DE CONINCK,1:42:51,17131,52:52,1:25:11,1:36:45,1:42:51,BEL,1,39,Sint-Amandsberg,6:24,9.39,F35,f
14451,Peter,DE BLOCK,1:42:51,17132,51:08,1:25:03,1:36:58,1:42:51,BEL,1,60,Zwijndrecht,6:24,9.39,M60,m
1324,Nathalie,VAN EETVELT,1:42:51,17133,53:16,1:26:19,1:37:39,1:42:51,BEL,1,43,Bornem,6:24,9.39,F40,f
8259,Yentel,VAN LONDERSELE,1:42:52,17134,49:15,1:24:26,1:36:37,1:42:52,BEL,1,26,Ninove,6:24,9.39,SEF,f
32415,Golin,MARINO,1:42:52,17135,49:56,1:24:29,1:36:40,1:42:52,ITA,1,58,Villaverla,6:24,9.39,M55,m
31006,Damien,DELEN,1:42:52,17136,51:06,1:24:43,1:36:42,1:42:52,BEL,1,44,Mortsel,6:24,9.39,M40,m
31577,Demi,GELDOLF,1:42:52,17137,51:15,1:25:36,1:37:17,1:42:52,BEL,1,20,Aartselaar,6:24,9.39,SEF,f
21256,Edel,DE SMEDT,1:42:52,17138,51:05,1:24:46,1:36:40,1:42:52,BEL,1,37,Schoten,6:24,9.39,F35,f
19237,Gert,COLPIN,1:42:52,17139,51:05,1:24:47,1:36:41,1:42:52,BEL,1,39,Schoten,6:24,9.39,M35,m
21041,Kim,LECOT,1:42:52,17140,51:02,1:24:59,1:36:54,1:42:52,BEL,1,0,Machelen,6:24,9.39,-,f
32133,Amorie,KOPPEN,1:42:52,17141,51:15,1:25:03,1:36:58,1:42:52,BEL,1,21,Sint-Niklaas,6:24,9.39,SEF,f
33832,Amber,VAN DER VINCK,1:42:52,17142,51:15,1:25:03,1:36:58,1:42:52,BEL,1,21,Stekene,6:24,9.39,SEF,f
29252,Danny,VISSERS,1:42:52,17143,50:28,1:24:47,1:36:54,1:42:52,BEL,1,49,Ekeren (Antwerpen),6:24,9.39,M45,m
23253,Mani,PANIS,1:42:52,17144,50:55,1:25:31,1:37:18,1:42:52,BEL,1,0,Wommelgem,6:24,9.39,-,m
17280,Jonathan,ROGGEMAN,1:42:52,17145,49:08,1:23:31,1:37:12,1:42:52,BEL,1,35,Duisburg,6:24,9.39,M35,m
15467,Mieke,COENE,1:42:52,17146,48:51,1:23:33,1:36:15,1:42:52,BEL,1,32,Adegem,6:24,9.39,SEF,f
19790,Tom,PUYPE,1:42:52,17147,49:22,1:23:52,1:36:34,1:42:52,BEL,1,28,Antwerpen,6:24,9.39,SEH,m
34359,Laurence,VERDRUYE,1:42:52,17148,51:40,1:25:25,1:37:09,1:42:52,BEL,1,33,Brugge,6:24,9.39,SEF,f
32104,Liesbeth,KEYMEULEN,1:42:53,17149,52:12,1:25:58,1:37:20,1:42:53,BEL,1,45,Mechelen,6:24,9.39,F45,f
1320,Sophie,SEGERS,1:42:53,17150,53:17,1:26:20,1:37:40,1:42:53,BEL,1,42,Bornem,6:24,9.39,F40,f
33245,Sophie,SMETS,1:42:53,17151,51:07,1:24:43,1:36:46,1:42:53,BEL,1,43,Mortsel,6:24,9.39,F40,f
2273,Cedric,LUVETE,1:42:53,17152,47:39,1:22:51,1:36:18,1:42:53,BEL,1,32,Wemmel,6:24,9.39,SEH,m
30724,Claire,DANAU,1:42:53,17153,50:54,1:25:57,1:37:38,1:42:53,BEL,1,23,Haacht,6:24,9.39,SEF,f
1970,Chris,BARTHOLOMEVIS,1:42:53,17154,51:51,1:27:04,1:37:52,1:42:53,BEL,1,47,Linkhout,6:24,9.39,M45,m
32328,Scandola,LUCIA,1:42:53,17155,49:56,1:24:29,1:36:43,1:42:53,ITA,1,56,Villaverla,6:24,9.39,F55,f
33189,Roey,SIEN Van,1:42:53,17156,50:24,1:25:00,1:36:38,1:42:53,BEL,1,26,Mol,6:24,9.39,SEF,f
22527,Jaqcues,LINSSEN,1:42:53,17157,51:51,1:27:05,1:37:52,1:42:53,BEL,1,47,Bornem,6:24,9.39,M45,m
31837,Seppe,HERREGODS,1:42:53,17158,50:54,1:25:57,1:37:38,1:42:53,BEL,1,23,Haacht,6:24,9.39,SEH,m
32732,Trixie,PAELINCKX,1:42:53,17159,50:17,1:25:54,1:37:34,1:42:53,BEL,1,27,Herentals,6:24,9.39,SEF,f
30360,Joris,BRANKAER,1:42:53,17160,47:13,1:22:59,1:36:44,1:42:53,BEL,1,26,Overijse,6:24,9.39,SEH,m
33272,Wuyts,SOFIE,1:42:53,17161,50:06,1:24:43,1:37:05,1:42:53,BEL,1,0,Sint Truiden,6:24,9.39,-,f
36832,Frederik,BECKERS,1:42:53,17162,51:32,1:24:59,1:36:54,1:42:53,BEL,1,31,Kruibeke,6:24,9.39,SEH,m
30060,Legrand,ANN,1:42:53,17163,51:26,1:24:54,1:37:02,1:42:53,BEL,1,28,Sint-Eloois-Vijve,6:24,9.39,SEF,f
33965,Lowie,VAN GORP,1:42:53,17164,52:12,1:25:59,1:37:20,1:42:53,BEL,1,13,Mechelen,6:24,9.39,SEH,m
32996,Kristin,ROBEYS,1:42:53,17165,50:15,1:24:18,1:36:32,1:42:53,BEL,1,53,Antwerpen,6:24,9.39,F50,f
23344,Kylie,TAEYMANS,1:42:54,17166,50:55,1:25:32,1:37:18,1:42:54,BEL,1,27,Wommelgem,6:24,9.39,SEF,f
18725,Varga,MIHAI,1:42:54,17167,51:22,1:25:12,1:37:01,1:42:54,BEL,1,33,Eppegem,6:24,9.39,SEH,m
33963,Peter,VAN GOETHEM,1:42:54,17168,50:15,1:24:38,1:36:51,1:42:54,BEL,1,46,Hoboken,6:24,9.39,M45,m
6633,Shana,DE MAEYER,1:42:54,17169,47:59,1:25:00,1:37:02,1:42:54,BEL,1,25,Kemzeke,6:24,9.39,SEF,f
8148,Thomas,BRUYNINCKX,1:42:54,17170,52:04,1:26:23,1:37:40,1:42:54,BEL,1,31,Kampenhout,6:24,9.39,SEH,m
30343,Benedicte,BRACKEVA,1:42:54,17171,51:16,1:25:22,1:37:09,1:42:54,BEL,1,35,Ressegem,6:24,9.39,F35,f
17913,Davy,VAN DOORSSELAERE,1:42:54,17172,51:03,1:25:01,1:36:55,1:42:54,BEL,1,41,Schoten,6:24,9.39,M40,m
32580,Nancy,MOLEMA,1:42:54,17173,51:13,1:25:52,1:37:01,1:42:54,NLD,1,50,Purmerend,6:24,9.39,F50,f
31618,Martha,GHIJSELINGS,1:42:54,17174,47:15,1:23:00,1:36:44,1:42:54,BEL,1,24,Overijse,6:24,9.39,SEF,f
21309,Wim,DE NIEL,1:42:55,17175,49:33,1:22:56,1:36:21,1:42:55,BEL,1,51,Lokeren,6:24,9.38,M50,m
30363,Stefan,BRANTS,1:42:55,17176,50:13,1:25:02,1:37:06,1:42:55,BEL,1,49,Boom,6:24,9.38,M45,m
22932,Bernard,GYSELINCK,1:42:55,17177,51:03,1:24:59,1:37:05,1:42:55,BEL,1,48,9000 - Gent (Oost-Vlaande,6:24,9.38,M45,m
18747,Rudi,DU BOIS,1:42:55,17178,51:07,1:25:22,1:37:23,1:42:55,BEL,1,69,Edegem,6:24,9.38,M65,m
32762,Cindy,PATTYN,1:42:55,17179,49:57,1:24:42,1:36:47,1:42:55,BEL,1,39,Passendale,6:24,9.38,F35,f
30166,Veerle,BELLEMANS,1:42:55,17180,50:54,1:24:51,1:36:41,1:42:55,BEL,1,31,Kerksken,6:24,9.38,SEF,f
5539,Ringo,VIANE,1:42:55,17181,48:55,1:23:06,1:36:11,1:42:55,BEL,1,42,Londerzeel,6:24,9.38,M40,m
34583,Dries,WARNEZ,1:42:55,17182,50:44,1:25:01,1:37:18,1:42:55,BEL,1,37,Lint,6:24,9.38,M35,m
34203,Lore,VAN ROY,1:42:55,17183,51:23,1:25:31,1:37:21,1:42:55,BEL,1,26,Antwerpen,6:24,9.38,SEF,f
31920,Jolanda,HUIJS,1:42:55,17184,51:12,1:25:52,1:37:01,1:42:55,NLD,1,54,Purmerend,6:24,9.38,F50,f
22438,Paul,MERTENS,1:42:56,17185,50:36,1:24:59,1:36:52,1:42:56,BEL,1,56,Wuustwezel,6:24,9.38,M55,m
19715,Jan,VERLEY,1:42:56,17186,51:50,1:25:34,1:37:11,1:42:56,BEL,1,45,Deurne,6:24,9.38,M45,m
15201,János,BLANCKAERT,1:42:56,17187,48:55,1:23:36,1:36:18,1:42:56,BEL,1,39,Adegem,6:24,9.38,M35,m
37784,Sandrine,PITTOMVILS,1:42:57,17188,50:47,1:26:17,1:37:28,1:42:57,BEL,1,26,Herk-De-Stad,6:24,9.38,SEF,f
307,Lynn,DEN BEER,1:42:57,17189,51:43,1:25:17,1:36:56,1:42:57,BEL,1,24,Sint-Pauwels,6:24,9.38,SEF,f
16588,Laurien,KOECK,1:42:57,17190,51:13,1:25:16,1:37:14,1:42:57,BEL,1,19,Duffel,6:24,9.38,SEF,f
23439,Thomas,VAN IERLAND Willem,1:42:57,17191,51:51,1:25:37,1:37:13,1:42:57,BEL,1,45,Antwerpen,6:24,9.38,M45,m
37177,Jessika,BEN HABIB,1:42:57,17192,50:11,1:24:28,1:36:59,1:42:57,BEL,1,37,St Katelijne Waver,6:24,9.38,F35,f
1261,Morien,PAUWELS,1:42:57,17193,50:44,1:24:54,1:36:55,1:42:57,BEL,1,25,Brasschaat,6:24,9.38,SEF,f
17499,Baldwin,SONDERVAN,1:42:57,17194,48:10,1:24:33,1:36:56,1:42:57,BEL,1,50,Kalmthout,6:24,9.38,M50,m
17260,Attilia,RICCARDO,1:42:57,17195,48:58,1:23:57,1:36:43,1:42:57,ITA,1,20,Woluwe-Saint-Lambert,6:24,9.38,SEH,m
20220,Eva,SANTE,1:42:58,17196,51:16,1:25:30,1:37:21,1:42:58,BEL,1,34,Asper,6:24,9.38,SEF,f
6197,Gwendolien,VAN MEERVELT,1:42:58,17197,50:43,1:24:55,1:37:11,1:42:58,BEL,1,25,,6:24,9.38,SEF,f
30954,Julie,DEJONCKHEERE,1:42:58,17198,50:58,1:24:53,1:37:08,1:42:58,BEL,1,20,Dottenijs,6:24,9.38,SEF,f
7155,Niels,TORFS,1:42:59,17199,54:43,1:28:50,1:38:13,1:42:59,BEL,1,30,Herenthout,6:24,9.38,SEH,m
35740,Jeppe,VAN DINGENEN,1:42:59,17200,48:25,1:23:38,1:36:37,1:42:59,BEL,1,23,,6:24,9.38,SEH,m
37400,Jan,VAN HECKE,1:42:59,17201,51:52,1:25:19,1:37:05,1:42:59,BEL,1,53,Schilde,6:24,9.38,M50,m
29302,Anna,FAES Sven,1:42:59,17202,48:19,1:23:20,1:36:12,1:42:59,BEL,1,40,Kapellen,6:24,9.38,M40,m
44204,Vic,PLAQUET,1:42:59,17203,51:19,1:25:26,1:36:51,1:42:59,BEL,1,35,Antwerpen,6:24,9.38,M35,m
18931,Koen,DE WIJS,1:42:59,17204,50:10,1:23:53,1:36:33,1:42:59,NLD,1,32,Oud_Heverlee,6:24,9.38,SEH,m
19212,Sara,VERAMME,1:42:59,17205,52:28,1:26:00,1:37:04,1:42:59,BEL,1,30,Middelkerke,6:24,9.38,SEF,f
35598,Romy,PITTOORS,1:42:59,17206,48:26,1:23:38,1:36:36,1:42:59,BEL,1,21,,6:24,9.38,SEF,f
35177,Timmy,VANDEN HEUVEL,1:42:59,17207,50:46,1:25:17,1:37:14,1:42:59,BEL,1,15,,6:24,9.38,SEH,m
29227,Delfien,SCHOONBAERT,1:43:00,17208,51:16,1:25:52,1:37:28,1:43:00,BEL,1,27,Oostende,6:24,9.38,SEF,f
5118,Kristel,DE WAELE,1:43:00,17209,51:01,1:25:11,1:36:55,1:43:00,BEL,1,49,Geraardsbergen,6:24,9.38,F45,f
17704,Tom,VAN CAUWENBERGHE,1:43:00,17210,51:20,1:25:37,1:37:03,1:43:00,BEL,1,39,Kruishoutem,6:24,9.38,M35,m
35535,Sabine,MATTHYS,1:43:00,17211,50:08,1:24:42,1:36:52,1:43:00,BEL,1,34,,6:24,9.38,SEF,f
5373,Jelle,MAES,1:43:00,17212,50:33,1:24:37,1:37:10,1:43:00,BEL,1,31,Kallo,6:24,9.38,SEH,m
30740,Hanna,DE BACKER,1:43:00,17213,51:20,1:25:37,1:37:05,1:43:00,BEL,1,39,Gentbrugge,6:24,9.38,F35,f
16081,Nathalie,DUPON,1:43:00,17214,50:33,1:24:57,1:37:26,1:43:00,BEL,1,45,Kapellen,6:24,9.38,F45,f
22303,Gunther,BAERT,1:43:00,17215,51:00,1:24:46,1:36:54,1:43:00,BEL,1,44,Antwerpen,6:24,9.38,M40,m
35714,Bjarne,VAN DEN BRANDE,1:43:01,17216,51:15,1:25:17,1:37:15,1:43:01,BEL,1,21,,6:24,9.38,SEH,m
18123,Ann,VAN NIEUWENHOVE,1:43:01,17217,49:25,1:23:33,1:36:52,1:43:01,BEL,1,43,Burcht,6:24,9.38,F40,f
1225,Yen,DEHAES,1:43:01,17218,51:58,1:25:08,1:37:18,1:43:01,BEL,1,21,Everberg,6:24,9.38,SEF,f
22705,Ellen,VERSCHUERE,1:43:01,17219,50:53,1:25:19,1:37:00,1:43:01,BEL,1,34,Laarne,6:24,9.38,SEF,f
33267,Sofie,SOENENS,1:43:01,17220,50:34,1:24:57,1:37:26,1:43:01,BEL,1,46,Stabroek,6:24,9.38,F45,f
388,Alec,DUWEL,1:43:01,17221,51:09,1:24:50,1:36:56,1:43:01,BEL,1,23,Kapellen,6:24,9.38,SEH,m
20878,Charlotte,VAN CAUWENBERGH,1:43:01,17222,51:04,1:25:07,1:37:09,1:43:01,BEL,1,26,Duffel,6:24,9.38,SEF,f
15101,Ellen,BAETENS,1:43:01,17223,51:48,1:25:20,1:37:10,1:43:01,BEL,1,29,Schoten,6:24,9.38,SEF,f
6888,Sofie,NOYENS,1:43:01,17224,51:15,1:25:07,1:37:02,1:43:01,BEL,1,29,Antwerpen,6:24,9.38,SEF,f
18719,Alan,BULWIK,1:43:01,17225,51:23,1:25:13,1:37:02,1:43:01,BEL,1,33,Mechelen,6:24,9.38,SEH,m
18181,Britt,VAN ROMPAEY,1:43:01,17225,51:48,1:25:21,1:37:10,1:43:01,BEL,1,32,Deurne (Antwerpen),6:24,9.38,SEF,f
4843,Maarten,WINNELINCKX,1:43:01,17227,51:58,1:25:09,1:37:17,1:43:01,BEL,1,34,Rotselaar,6:24,9.38,SEH,m
30086,Sara,AUGUSTIJNEN,1:43:01,17228,50:35,1:25:20,1:37:38,1:43:01,BEL,1,34,Putte,6:25,9.37,SEF,f
32874,Barbara,PLETS,1:43:02,17229,51:24,1:25:51,1:37:06,1:43:02,BEL,1,38,Wilrijk,6:25,9.37,F35,f
31443,Declercq,ELS,1:43:02,17230,51:17,1:25:22,1:36:59,1:43:02,BEL,1,37,Lochristi,6:25,9.37,F35,f
34395,Annouchka,VERHEEDT,1:43:02,17231,51:17,1:25:22,1:36:59,1:43:02,BEL,1,37,Lochristi,6:25,9.37,F35,f
1849,Jolien,LEDUC,1:43:02,17232,49:40,1:24:48,1:37:01,1:43:02,BEL,1,19,Borlo,6:25,9.37,SEF,f
36504,Joy,VAN ABBENY,1:43:02,17233,51:20,1:25:43,1:37:32,1:43:02,BEL,1,22,Wilrijk,6:25,9.37,SEF,f
33709,Lara,VAN  DEN BROECKE,1:43:02,17234,48:56,1:24:06,1:36:19,1:43:02,BEL,1,28,Gent,6:25,9.37,SEF,f
20911,Godelieve,MAESEN,1:43:02,17235,50:36,1:24:55,1:37:21,1:43:02,BEL,1,64,Rekem,6:25,9.37,F60,f
34536,Miguel,LOPES COSTA Sérgio,1:43:03,17236,45:15,1:20:42,1:35:17,1:43:03,BEL,1,35,Antwerpen,6:25,9.37,M35,m
18922,Raf,BERKVENS,1:43:03,17237,47:30,1:22:12,1:35:52,1:43:03,BEL,1,29,Schoten,6:25,9.37,SEH,m
7375,Chris,CEUPPENS,1:43:03,17238,50:05,0,1:36:45,1:43:03,BEL,1,50,Merksem,6:25,9.37,M50,m
3520,Jochen,MAES,1:43:03,17239,47:33,1:22:16,1:36:47,1:43:03,BEL,1,34,Antwerpen,6:25,9.37,SEH,m
2969,Hilde,DE LAET,1:43:03,17240,51:03,1:25:07,1:37:12,1:43:03,BEL,1,49,Elewijt,6:25,9.37,F45,f
22317,Claudia,TILBURGS,1:43:03,17241,51:02,1:24:48,1:36:56,1:43:03,BEL,1,28,Antwerpen,6:25,9.37,SEF,f
7542,Petra,RAMMELOO,1:43:03,17242,50:05,1:24:33,1:36:46,1:43:03,BEL,1,43,Merksem,6:25,9.37,F40,f
36156,Rudi,PEMERANC,1:43:04,17243,52:18,1:25:54,1:37:21,1:43:04,BEL,1,54,Ekeren,6:25,9.37,M50,m
19002,Leo,MICHIELS,1:43:04,17244,51:56,1:25:47,1:37:29,1:43:04,BEL,1,74,Antwerpen,6:25,9.37,M70,m
36456,Lauren,D'ANVERS,1:43:04,17245,51:21,1:25:43,1:37:32,1:43:04,BEL,1,22,Wilrijk,6:25,9.37,SEF,f
21009,Christophe,CAERS,1:43:04,17246,49:38,1:23:22,1:37:03,1:43:04,BEL,1,0,Machelen,6:25,9.37,-,m
30015,Guy,ADRIAENS,1:43:04,17247,47:54,1:22:59,1:36:20,1:43:04,BEL,1,53,Mol,6:25,9.37,M50,m
2073,Alain,COLLET Raphaël,1:43:04,17248,50:06,1:23:52,1:37:04,1:43:04,BEL,1,44,Namur,6:25,9.37,M40,m
31645,Kevin,GLIBERT,1:43:04,17249,52:55,1:26:46,1:37:50,1:43:04,BEL,1,34,Hoboken,6:25,9.37,SEH,m
34407,Roxanne,VERHEYEN,1:43:05,17250,52:21,1:26:07,1:37:02,1:43:05,BEL,1,27,Antwerpen,6:25,9.37,SEF,f
16567,Laura,KERSTENS,1:43:05,17251,50:49,1:25:12,1:37:16,1:43:05,BEL,1,25,Antwerpen,6:25,9.37,SEF,f
36465,Jade,HENDRIKS,1:43:05,17252,51:21,1:25:42,1:37:32,1:43:05,BEL,1,22,Edegem,6:25,9.37,SEF,f
18575,Stefanie,DIERICKX,1:43:05,17253,51:51,1:25:44,1:37:35,1:43:05,BEL,1,26,Gavere,6:25,9.37,SEF,f
20871,Jérôme,VEECKMANS,1:43:05,17254,48:13,1:23:48,1:36:45,1:43:05,BEL,1,26,Antwerpen,6:25,9.37,SEH,m
22386,Dennis,PEETERS,1:43:05,17255,52:55,1:25:39,1:37:26,1:43:05,BEL,1,35,Leuven,6:25,9.37,M35,m
18706,Christopher,LICHT,1:43:05,17256,50:48,1:25:10,1:37:08,1:43:05,DEU,1,35,Brussels,6:25,9.37,M35,m
5335,Rakan,ALSHAKER Hilal,1:43:05,17257,51:17,1:25:38,1:37:16,1:43:05,BEL,1,28,,6:25,9.37,SEH,m
31331,Bruno,D'HANIS,1:43:05,17258,52:33,1:26:08,1:37:02,1:43:05,BEL,1,30,Antwerpen,6:25,9.37,SEH,m
38011,Maxime,BOUHY,1:43:05,17259,50:47,1:25:09,1:37:08,1:43:05,BEL,1,27,Bruxelles,6:25,9.37,SEH,m
18151,Francesca,VAN PUT,1:43:06,17260,50:49,1:25:12,1:37:16,1:43:06,BEL,1,30,Antwerpen,6:25,9.37,SEF,f
32347,Gilbert,MAECKELBERGHE,1:43:06,17261,51:02,1:25:18,1:36:58,1:43:06,BEL,1,70,Veurne,6:25,9.37,M70,m
7538,Frank,POOLS,1:43:06,17262,51:26,1:25:30,1:37:25,1:43:06,BEL,1,34,Waarschoot,6:25,9.37,SEH,m
5363,Hazim,YOUNIS Taha,1:43:06,17263,51:16,1:25:35,1:37:16,1:43:06,BEL,1,33,,6:25,9.37,SEH,m
34344,Annelies,VERCRUYSSE,1:43:06,17264,55:38,1:27:03,1:37:54,1:43:06,BEL,1,27,Oudenaarde,6:25,9.37,SEF,f
32318,Nathan,LOOTENS,1:43:06,17265,52:35,1:24:58,1:36:29,1:43:06,BEL,1,29,Antwerpen,6:25,9.37,SEH,m
21455,Kurt,FRANCKEN,1:43:06,17266,49:11,1:23:55,1:36:35,1:43:06,BEL,1,47,Sint Lenaerts,6:25,9.37,M45,m
30566,Miek,CLOET,1:43:06,17267,52:00,1:25:57,1:37:36,1:43:06,BEL,1,39,Baal,6:25,9.37,F35,f
31740,Freja,HAEMELS,1:43:06,17268,52:00,1:25:58,1:37:37,1:43:06,BEL,1,36,Baal,6:25,9.37,F35,f
17652,Dorien,VANAEKEN,1:43:07,17269,51:09,1:25:23,1:37:42,1:43:07,BEL,1,29,Gingelom,6:25,9.37,SEF,f
30400,Julie,BUKENBERGS,1:43:07,17270,49:56,1:24:57,1:36:56,1:43:07,BEL,1,23,Balen,6:25,9.37,SEF,f
2608,Kaat,ANNÉ,1:43:07,17271,50:33,1:24:53,1:36:55,1:43:07,BEL,1,21,Kieldrecht,6:25,9.37,SEF,f
16235,Anne,GODERIS,1:43:07,17272,51:09,1:25:23,1:37:42,1:43:07,BEL,1,35,Lichtaart,6:25,9.37,F35,f
19004,Gina,VAN DYCK,1:43:07,17273,52:01,1:25:51,1:37:33,1:43:07,BEL,1,55,Boechout,6:25,9.37,F55,f
34165,Walter,VAN PRAET,1:43:07,17274,51:15,1:25:27,1:37:14,1:43:07,BEL,1,52,Sint-Niklaas,6:25,9.37,M50,m
33225,Ann,SMET,1:43:07,17275,51:15,1:25:27,1:37:14,1:43:07,BEL,1,44,Lede,6:25,9.37,F40,f
29986,Bart,PEETERS,1:43:07,17276,50:46,1:25:07,1:37:04,1:43:07,BEL,1,49,Bornem,6:25,9.37,M45,m
32511,Aurore,MERLIN,1:43:08,17277,52:01,1:25:57,1:37:36,1:43:08,BEL,1,41,Ellignies-Sainte-Anne,6:25,9.37,F40,f
19003,Frea,VAN BRIEL,1:43:08,17278,52:01,1:25:52,1:37:34,1:43:08,BEL,1,38,Helchteren,6:25,9.37,F35,f
33755,Cedric,VAN DEN WYNGAERT,1:43:08,17279,51:47,1:25:20,1:37:01,1:43:08,BEL,1,20,Schilde,6:25,9.36,SEH,m
33038,Sanne,ROOYACKERS,1:43:08,17280,51:44,1:25:39,1:37:23,1:43:08,BEL,1,27,Borgerhout,6:25,9.36,SEF,f
30323,Sarah,BOUCQUEY,1:43:08,17281,51:45,1:25:37,1:37:22,1:43:08,BEL,1,29,Borgerhout,6:25,9.36,SEF,f
4850,Rachid,AMAJOUTT,1:43:08,17282,53:05,1:26:37,1:37:12,1:43:08,BEL,1,34,Wilrijk,6:25,9.36,SEH,m
44274,Nicolas,VAN CAMP,1:43:08,17283,51:13,1:25:35,1:37:16,1:43:08,BEL,1,43,Aartselaar,6:25,9.36,M40,m
22875,Dispa,PASCALE,1:43:09,17284,52:21,1:26:04,1:37:42,1:43:09,BEL,1,0,Beaufays,6:25,9.36,-,f
2630,Michel,BARDELMEIJER,1:43:09,17285,53:53,1:27:41,1:38:54,1:43:09,NLD,1,24,Nieuwkoop,6:25,9.36,SEH,m
32937,Stijn,QUINTENS,1:43:09,17286,51:28,1:25:26,1:37:21,1:43:09,BEL,1,33,Wilsele,6:25,9.36,SEH,m
30563,Jonathan,CLISSEN,1:43:09,17287,50:33,1:25:18,1:37:38,1:43:09,BEL,1,34,Putte,6:25,9.36,SEH,m
37179,Griet,CELEN,1:43:09,17288,51:07,1:25:22,1:37:10,1:43:09,BEL,1,47,Hemiksem,6:25,9.36,F45,f
34101,Sofie,VANMAERCKE,1:43:09,17289,51:53,1:25:51,1:37:25,1:43:09,BEL,1,40,Wevelgem,6:25,9.36,F40,f
30829,Sofie,DEBUSSCHERE,1:43:10,17290,51:25,1:25:46,1:37:32,1:43:10,BEL,1,32,Pittem,6:25,9.36,SEF,f
35320,Yarris,DE BORGER,1:43:10,17291,51:07,1:24:51,1:37:17,1:43:10,BEL,1,23,,6:25,9.36,SEF,f
34430,Lesley,VERLEY,1:43:10,17292,51:27,1:24:55,1:37:28,1:43:10,BEL,1,43,Laakdal,6:25,9.36,F40,f
37571,Dyonisa,VAN DE VELDE,1:43:10,17293,50:23,1:25:13,1:37:28,1:43:10,BEL,1,23,Kruibeke,6:25,9.36,SEF,f
4322,Mireille,VAN UXEM,1:43:10,17294,50:23,1:24:49,1:37:00,1:43:10,BEL,1,47,Merksem,6:25,9.36,F45,f
19847,Johan,VAN OVERWALLE,1:43:10,17295,50:45,1:25:03,1:37:25,1:43:10,BEL,1,40,Denderbelle,6:25,9.36,M40,m
7401,Pascale,DECKMYN,1:43:10,17296,50:28,1:25:13,1:37:02,1:43:10,BEL,1,49,Chastre,6:25,9.36,F45,f
35225,Liselotte,BAL,1:43:10,17297,51:07,1:24:51,1:37:17,1:43:10,BEL,1,22,,6:25,9.36,SEF,f
33616,Thomas,VAN CAUWENBERGHE,1:43:11,17298,48:51,1:24:23,1:37:05,1:43:11,BEL,1,51,Vurste,6:25,9.36,M50,m
5668,Eric,VERBAENEN,1:43:11,17299,50:47,1:25:20,1:37:38,1:43:11,BEL,1,57,Kallo,6:25,9.36,M55,m
33643,Margo,VAN DAMME,1:43:11,17300,50:43,1:26:01,1:37:40,1:43:11,BEL,1,19,Willebroek,6:25,9.36,SEF,f
37197,Rudy,RUSCHKE,1:43:11,17301,51:08,1:25:22,1:37:10,1:43:11,BEL,1,46,Schelle,6:25,9.36,M45,m
38028,Jean,VANDEREYKEN,1:43:11,17302,49:30,1:24:50,1:37:24,1:43:11,BEL,1,73,Velm,6:25,9.36,M70,m
32875,Kim,PLEVOETS,1:43:11,17303,51:50,1:25:21,1:37:13,1:43:11,BEL,1,43,Herk-De-Stad,6:25,9.36,F40,f
5396,Bart,CALLENS,1:43:11,17304,50:53,1:25:08,1:37:19,1:43:11,BEL,1,40,Niel,6:25,9.36,M40,m
22501,Nathasia,DE CORT,1:43:11,17305,50:57,1:25:21,1:37:17,1:43:11,BEL,1,38,Meerdonk,6:25,9.36,F35,f
33640,Dirk,VAN DAMME,1:43:11,17306,50:43,1:26:02,1:37:40,1:43:11,BEL,1,50,Brecht,6:25,9.36,M50,m
32965,Liza,RENDERS,1:43:11,17307,51:10,1:25:09,1:37:07,1:43:11,BEL,1,25,Borgerhout,6:25,9.36,SEF,f
31653,Hans,GODENIR,1:43:12,17308,50:27,1:24:52,1:37:21,1:43:12,BEL,1,50,Herentals,6:25,9.36,M50,m
22498,Lisa,DE BRABANDER,1:43:12,17309,50:45,1:24:53,1:36:56,1:43:12,BEL,1,25,Gavere,6:25,9.36,SEF,f
22322,Kelly,VERHELST,1:43:12,17310,50:57,1:25:21,1:37:04,1:43:12,BEL,1,37,Antwerpen,6:25,9.36,F35,f
16568,Dominique,KESLER,1:43:12,17311,51:20,1:25:10,1:37:18,1:43:12,BEL,1,43,Halle,6:25,9.36,F40,f
33637,Roger,VANDAELE,1:43:12,17312,51:06,1:25:09,1:37:15,1:43:12,BEL,1,63,Duffel,6:25,9.36,M60,m
36819,Wim,SMET,1:43:13,17313,51:05,1:25:21,1:37:25,1:43:13,BEL,1,56,Mol,6:25,9.36,M55,m
29383,Shana,VAN SERVEYT,1:43:13,17314,50:53,1:25:29,1:37:26,1:43:13,BEL,1,23,Kruibeke,6:25,9.36,SEF,f
21878,Tancha,CATTHOOR,1:43:13,17315,48:36,1:24:34,1:37:04,1:43:13,BEL,1,31,Temse,6:25,9.36,SEF,f
37606,Evi,DE BROUWER,1:43:13,17316,51:44,1:26:11,1:37:38,1:43:13,BEL,1,37,Lier,6:25,9.36,F35,f
22171,Robbe,VAES,1:43:13,17317,53:09,1:27:15,1:38:38,1:43:13,BEL,1,18,Ranst,6:25,9.36,SEH,m
18260,Stijn,VERBEECK,1:43:13,17318,51:26,1:25:49,1:37:40,1:43:13,BEL,1,41,Wilrijk,6:25,9.36,M40,m
37613,Wendy,DE GREEF,1:43:13,17319,51:44,1:26:10,1:37:37,1:43:13,BEL,1,43,Lier,6:25,9.36,F40,f
5140,Karin,MATTHEEUSEN,1:43:13,17320,50:37,1:24:48,1:37:14,1:43:13,BEL,1,52,Loenhout,6:25,9.36,F50,f
30661,Elke,CRAEYE,1:43:14,17321,51:25,1:26:08,1:37:44,1:43:14,BEL,1,34,Wondelgem,6:25,9.36,SEF,f
32546,Muriel,MICHEL,1:43:14,17322,50:37,1:24:55,1:37:02,1:43:14,BEL,1,52,Reves,6:25,9.36,F50,f
33004,Vera,ROELANDS,1:43:14,17323,51:58,1:26:28,1:37:35,1:43:14,NLD,1,21,Zundert,6:25,9.36,SEF,f
19989,Lut,BAEYENS,1:43:14,17324,51:34,1:25:24,1:37:23,1:43:14,BEL,1,48,Berlare,6:25,9.35,F45,f
30662,Karen,CRAEYE,1:43:14,17324,51:25,1:26:09,1:37:45,1:43:14,BEL,1,32,Wondelgem,6:25,9.35,SEF,f
16085,Valentino,DURABILE,1:43:15,17326,51:40,1:25:45,1:37:17,1:43:15,BEL,1,34,Gent,6:25,9.35,SEH,m
34722,Mario,WYNANTS,1:43:15,17327,50:29,1:24:55,1:37:23,1:43:15,BEL,1,45,Mechelen,6:25,9.35,M45,m
33227,Dirk,SMET,1:43:15,17328,51:02,1:25:04,1:37:37,1:43:15,BEL,1,64,Eppegem,6:25,9.35,M60,m
15208,Gilles,BOCKLANDT,1:43:15,17329,51:25,1:26:09,1:37:45,1:43:15,BEL,1,38,Wondelgem,6:25,9.35,M35,m
17856,Tine,VANDER SYPE,1:43:15,17330,51:40,1:25:45,1:37:17,1:43:15,BEL,1,30,Gent,6:25,9.35,SEF,f
22956,Dominique,DIERCKXSENS,1:43:15,17331,49:19,1:23:21,1:36:55,1:43:15,BEL,1,18,Edegem,6:25,9.35,SEH,m
33582,Grietje,VAN BOGAERT,1:43:15,17332,50:39,1:26:06,1:37:43,1:43:15,BEL,1,32,Sint-Gillis-Waas,6:25,9.35,SEF,f
5170,Bruno,VANDEKERCKHOVE,1:43:15,17333,52:56,1:25:59,1:37:40,1:43:15,BEL,1,27,Oostende,6:25,9.35,SEH,m
35532,Nico,MASSCHARIS,1:43:16,17334,50:20,1:24:38,1:37:09,1:43:16,BEL,1,59,,6:25,9.35,M55,m
5214,Annick,DE BRUYN,1:43:16,17335,52:47,1:26:17,1:37:22,1:43:16,BEL,1,31,Schoten,6:25,9.35,SEF,f
20000,Bibiane,PENSAERT,1:43:16,17336,51:36,1:25:26,1:37:24,1:43:16,BEL,1,47,Overmere,6:25,9.35,F45,f
33093,Steve,SCHEERS,1:43:16,17337,50:40,1:26:07,1:37:43,1:43:16,BEL,1,32,Sint-Gillis-Waas,6:25,9.35,SEH,m
16193,Jennis,GEORGISSEN,1:43:16,17338,51:42,1:25:37,1:37:46,1:43:16,BEL,1,25,Brecht,6:25,9.35,SEH,m
19993,Lien,COPERS,1:43:16,17339,51:36,1:25:27,1:37:25,1:43:16,BEL,1,34,Overmere,6:25,9.35,SEF,f
29265,Emma,BILTERIJST,1:43:17,17340,52:27,1:26:13,1:37:59,1:43:17,BEL,1,23,Opbrakel,6:25,9.35,SEF,f
17416,Frank,SEGERS,1:43:17,17340,51:44,1:26:06,1:37:39,1:43:17,BEL,1,56,Lint,6:25,9.35,M55,m
32143,Jasmina,KRIKILION,1:43:17,17342,53:33,1:26:42,1:37:42,1:43:17,BEL,1,27,Geel,6:25,9.35,SEF,f
37392,Denis,VANDERVOORT,1:43:17,17343,51:48,1:25:25,1:37:18,1:43:17,BEL,1,56,Antwerpen,6:25,9.35,M55,m
5178,Astrid,VANDERCRUYSSE,1:43:17,17344,52:57,1:26:01,1:37:41,1:43:17,BEL,1,27,Oostende,6:25,9.35,SEF,f
18355,Kim,VERMANDER,1:43:17,17345,50:48,1:25:01,1:37:27,1:43:17,BEL,1,42,Brugge,6:25,9.35,F40,f
22090,Dirk,EGEL,1:43:17,17346,52:42,1:26:33,1:37:45,1:43:17,DEU,1,48,Gladbeck,6:25,9.35,M45,m
263,Sandra,DE COCK,1:43:17,17347,53:27,1:26:18,1:37:36,1:43:17,BEL,1,45,Pollare,6:25,9.35,F45,f
2448,Ann,VAN DEN WIJNGAERT,1:43:17,17348,51:07,1:25:14,1:37:20,1:43:17,BEL,1,38,Itegem,6:25,9.35,F35,f
5520,Ward,VAN HOOREWEGHE,1:43:17,17349,52:10,1:26:43,1:38:13,1:43:17,BEL,1,26,Gent,6:25,9.35,SEH,m
32708,Ana,OLIVEIRA DOS SANTOS,1:43:17,17350,51:59,1:26:23,1:37:26,1:43:17,NLD,1,53,Haarlem,6:26,9.35,F50,f
20106,Jurgen,WALDRAFF,1:43:18,17351,50:29,1:24:49,1:37:12,1:43:18,BEL,1,51,Sint Katelijne Waver,6:26,9.35,M50,m
15097,Lien,BAERT,1:43:18,17352,49:19,1:24:15,1:37:11,1:43:18,BEL,1,28,Temse,6:26,9.35,SEF,f
1484,Tom,TIMMERMANS,1:43:18,17353,54:16,1:26:46,1:37:51,1:43:18,BEL,1,42,Brecht,6:26,9.35,M40,m
32405,Stijn,MARICAU,1:43:18,17354,52:07,1:26:24,1:37:53,1:43:18,BEL,1,42,Maldegem,6:26,9.35,M40,m
7464,Sofie,GOOS,1:43:18,17355,0,1:26:46,1:37:51,1:43:18,BEL,1,19,Brasschaat,6:26,9.35,SEF,f
35977,Jonas,JANSSEN,1:43:18,17356,47:57,1:24:43,1:36:39,1:43:18,BEL,1,21,,6:26,9.35,SEH,m
30132,Sanne,BASTYNS,1:43:18,17357,50:54,1:25:27,1:37:22,1:43:18,BEL,1,32,Deurne,6:26,9.35,SEF,f
2429,Elyne,USE,1:43:18,17358,51:34,1:25:29,1:37:39,1:43:18,BEL,1,26,Smetlede,6:26,9.35,SEF,f
29382,Gilbert,EECKHOUDT Rudi Marie,1:43:19,17359,50:41,1:25:02,1:37:02,1:43:19,BEL,1,66,Sinaai-Waas,6:26,9.35,M65,m
20872,Raf,ZEGELS,1:43:19,17360,51:34,1:25:44,1:37:22,1:43:19,BEL,1,36,Antwerpen,6:26,9.35,M35,m
20869,Bing,AMANDA,1:43:19,17361,51:34,1:25:44,1:37:22,1:43:19,BEL,1,26,Belg Antwerpen,6:26,9.35,SEF,f
5497,Laura,SWENNEN,1:43:19,17362,51:24,1:26:02,1:37:48,1:43:19,BEL,1,24,Edegem,6:26,9.35,SEF,f
20215,Arne,DE SMET,1:43:19,17363,51:13,1:25:28,1:37:19,1:43:19,BEL,1,36,Melle,6:26,9.35,M35,m
33907,Vincent,VAN DUYSE,1:43:20,17364,50:42,1:25:02,1:37:02,1:43:20,BEL,1,55,De Klinge,6:26,9.35,M55,m
22344,Wendy,PEETERS,1:43:20,17365,50:43,1:25:26,1:37:31,1:43:20,BEL,1,41,Vorselaar,6:26,9.35,F40,f
29380,Nicole,DE MAEYER,1:43:20,17366,50:41,1:25:02,1:37:02,1:43:20,BEL,1,59,De Klinge,6:26,9.35,F55,f
7681,Nele,KINT,1:43:21,17367,53:39,1:25:49,1:37:36,1:43:21,BEL,1,25,Deurne,6:26,9.35,SEF,f
34076,Tamara,VAN LEEMPU5,1:43:21,17368,51:34,1:25:14,1:37:24,1:43:21,BEL,1,38,Vlimmeren,6:26,9.35,F35,f
32082,Lieselot,KEMPEN,1:43:21,17369,51:04,1:25:47,1:37:20,1:43:21,BEL,1,41,Antwerpen,6:26,9.35,F40,f
20213,Lies,CLAUWS,1:43:21,17370,51:14,1:25:29,1:37:20,1:43:21,BEL,1,34,Melle,6:26,9.34,SEF,f
37283,Kristof,DECKERS,1:43:21,17371,50:50,1:24:39,1:37:16,1:43:21,BEL,1,34,Schoten,6:26,9.34,SEH,m
18703,Hind,HAMEURLAINE,1:43:21,17372,51:12,1:25:28,1:37:32,1:43:21,BEL,1,24,Brussel,6:26,9.34,SEF,f
33905,Brigitte,VAN DUYSE,1:43:22,17373,51:21,1:25:05,1:37:16,1:43:22,BEL,1,48,Sint-Gillis-Waas,6:26,9.34,F45,f
30471,Evelyne,CARMEN,1:43:22,17374,52:04,1:25:40,1:37:21,1:43:22,BEL,1,27,Borgerhout,6:26,9.34,SEF,f
31391,Heidi,DRIES,1:43:22,17375,51:35,1:25:15,1:37:26,1:43:22,BEL,1,43,Rijkevorsel,6:26,9.34,F40,f
19967,Gerrit,TIMMERMANS,1:43:22,17376,50:36,1:24:24,1:36:38,1:43:22,BEL,1,49,Arendonk,6:26,9.34,M45,m
31997,Danny,JANSSENS,1:43:22,17377,51:20,1:25:04,1:37:13,1:43:22,BEL,1,56,Sint-Gillis-Waas,6:26,9.34,M55,m
18031,Hans,VANHOOREN,1:43:22,17378,50:33,1:24:53,1:37:14,1:43:22,BEL,1,47,Roeselare,6:26,9.34,M45,m
2006,Floris,AMPE,1:43:22,17379,50:45,1:25:25,1:37:16,1:43:22,BEL,1,54,Antwerpen,6:26,9.34,M50,m
8255,Laura,VAN GOMPEL,1:43:22,17380,52:04,1:25:40,1:37:21,1:43:22,BEL,1,26,Antwerp,6:26,9.34,SEF,f
23487,Johan,HERTELEER,1:43:22,17381,48:07,1:24:44,1:37:04,1:43:22,BEL,1,62,Brugge,6:26,9.34,M60,m
19338,Rejane,BOCQUET,1:43:22,17382,51:41,1:25:55,1:37:28,1:43:22,FRA,1,73,Hardelot,6:26,9.34,F70,f
19199,Hedwig,RENAERS,1:43:22,17383,54:31,1:27:08,1:38:08,1:43:22,BEL,1,49,Hever,6:26,9.34,M45,m
31243,Axel,DEVLIEGER,1:43:22,17384,52:50,1:26:43,1:38:16,1:43:22,BEL,1,24,Zwijnaarde,6:26,9.34,SEH,m
37827,Linda,VAN DEN EYNDE,1:43:22,17385,53:20,1:26:31,1:37:42,1:43:22,BEL,1,46,Herentals,6:26,9.34,F45,f
32125,Mary-Ane,KOEKEN,1:43:22,17386,51:35,1:25:15,1:37:26,1:43:22,BEL,1,34,Rijkevorsel,6:26,9.34,SEF,f
34187,Carla,VAN RIET,1:43:22,17387,53:01,1:26:23,1:37:57,1:43:22,BEL,1,29,Leuven,6:26,9.34,SEF,f
6858,Dirk,DE DECKER,1:43:22,17388,50:51,1:24:56,1:37:28,1:43:22,BEL,1,59,Lokeren,6:26,9.34,M55,m
16246,Hannah,GOELEN,1:43:22,17389,52:50,1:26:43,1:38:16,1:43:22,BEL,1,26,Gavere,6:26,9.34,SEF,f
1279,Jovanca,DE BRUYCKER,1:43:23,17390,51:15,1:25:30,1:37:21,1:43:23,BEL,1,34,Huise,6:26,9.34,SEF,f
34188,Koen,VAN RIET,1:43:23,17391,53:01,1:26:23,1:37:57,1:43:23,BEL,1,31,Holsbeek,6:26,9.34,SEH,m
20426,Radu,CRETAN,1:43:23,17392,53:06,1:26:54,1:38:15,1:43:23,NLD,1,37,Helmond,6:26,9.34,M35,m
30116,Laurens,BAKELANTS,1:43:23,17393,51:35,1:25:22,1:37:32,1:43:23,BEL,1,26,Geel,6:26,9.34,SEH,m
34208,Beau,VAN RYCKEGHEM,1:43:23,17394,53:06,1:27:08,1:38:22,1:43:23,BEL,1,22,Kruishoutem,6:26,9.34,SEH,m
7927,Bart,VERBRAEKEN,1:43:24,17395,54:18,1:26:03,1:37:42,1:43:24,BEL,1,42,Heverlee,6:26,9.34,M40,m
23175,Glenn,SPAEPEN,1:43:24,17396,49:56,1:25:06,1:37:01,1:43:24,BEL,1,23,Antwerpen,6:26,9.34,SEH,m
223,Ivana,DALLE VEDOVE-BUECHI,1:43:24,17397,51:06,1:25:20,1:37:29,1:43:24,CHE,1,48,Horgen,6:26,9.34,F45,f
35517,Melissa,LOEN,1:43:24,17398,49:31,1:24:53,1:37:29,1:43:24,BEL,1,21,,6:26,9.34,SEF,f
34239,An,VAN STRYDONCK,1:43:24,17399,50:38,1:25:19,1:37:17,1:43:24,BEL,1,50,Koersel,6:26,9.34,F50,f
36426,Birgit,VAN AKEN,1:43:25,17400,53:12,1:26:11,1:37:55,1:43:25,NLD,1,30,Antwerpen,6:26,9.34,SEF,f
17305,Nick,ROSIER,1:43:25,17401,53:10,1:27:24,1:37:42,1:43:25,BEL,1,46,Hever,6:26,9.34,M45,m
31160,Emilien,DERYCKE,1:43:25,17402,52:07,1:26:16,1:37:36,1:43:25,BEL,1,38,Boortmeerbeek,6:26,9.34,F35,f
2811,Ine,CLOET,1:43:25,17403,52:47,1:26:43,1:38:02,1:43:25,BEL,1,21,Sint-Niklaas,6:26,9.34,SEF,f
34240,Blanche,VAN STRYDONCK,1:43:25,17404,50:39,1:25:19,1:37:17,1:43:25,BEL,1,49,Londerzeel,6:26,9.34,F45,f
7331,Pawel,ZALEWSKI,1:43:25,17405,50:55,1:25:45,1:37:41,1:43:25,BEL,1,39,Antwerpen,6:26,9.34,M35,m
37437,Joke,VERSMISSEN,1:43:25,17406,51:48,1:25:29,1:37:49,1:43:25,BEL,1,27,Borgerhout,6:26,9.34,SEF,f
32647,Lotje,NELEN,1:43:25,17407,49:42,1:25:03,1:37:07,1:43:25,BEL,1,41,Antwerpen,6:26,9.34,F40,f
36391,Emilie,NEUTJENS,1:43:25,17408,51:48,1:25:30,1:37:48,1:43:25,BEL,1,26,Antwerpen,6:26,9.34,SEF,f
5342,Abdelkarim,EZZAKIOUI,1:43:25,17409,47:30,1:23:19,1:38:04,1:43:25,BEL,1,22,,6:26,9.34,SEH,m
30879,Babet,DE CORTE,1:43:25,17410,51:43,1:25:41,1:37:25,1:43:25,BEL,1,26,Gent,6:26,9.34,SEF,f
16822,Mintjens,MAREN,1:43:26,17411,51:52,1:25:55,1:37:52,1:43:26,BEL,1,32,Roma,6:26,9.34,SEF,f
31072,Sindy,DE MUNTER,1:43:26,17412,52:04,1:26:00,1:37:36,1:43:26,BEL,1,46,Sint-Katelijne-Waver,6:26,9.34,F45,f
7294,Kacper,POPCZYRISKI,1:43:26,17413,50:56,1:25:46,1:37:42,1:43:26,BEL,1,26,Antwerpen,6:26,9.34,SEH,m
17931,Karen,VAN ERCK,1:43:26,17414,51:52,1:25:55,1:37:53,1:43:26,BEL,1,33,Malle,6:26,9.34,SEF,f
31663,Stefan,GOETHAERT,1:43:27,17415,50:43,1:24:49,1:36:58,1:43:27,BEL,1,52,Wilrijk (Antwerpen),6:26,9.34,M50,m
37276,Mirte,CLAESSENS,1:43:27,17416,51:21,1:25:43,1:37:38,1:43:27,BEL,1,17,Duffel,6:26,9.34,SEF,f
37462,Dominique,DELBEKE,1:43:27,17417,51:24,1:25:25,1:37:22,1:43:27,BEL,1,56,Bornem,6:26,9.34,M55,m
4796,Lesley,SELLESLAGH,1:43:27,17418,52:04,1:26:26,1:37:52,1:43:27,BEL,1,39,Leest,6:26,9.34,F35,f
1833,Michiel,HERTSENS,1:43:27,17419,52:32,1:26:37,1:37:38,1:43:27,BEL,1,25,Kieldrecht,6:26,9.34,SEH,m
30143,Sophie,BECKERS,1:43:27,17420,50:36,1:24:55,1:37:20,1:43:27,BEL,1,47,Maasmechelen,6:26,9.34,F45,f
4765,Mireille,JANSSENS,1:43:27,17421,52:05,1:26:27,1:37:53,1:43:27,BEL,1,49,Zemst,6:26,9.34,F45,f
18641,Coralie,MATTHYS,1:43:28,17422,50:47,1:25:51,1:37:42,1:43:28,BEL,1,25,Visé,6:26,9.34,SEF,f
34588,Ewa,WASILEWSKA,1:43:28,17423,50:37,1:24:55,1:37:22,1:43:28,BEL,1,40,Maasmechelen,6:26,9.34,F40,f
419,Francisca,FRANKEN,1:43:28,17424,51:10,1:25:25,1:37:33,1:43:28,DEU,1,39,Brussel,6:26,9.33,F35,f
20935,Tuur,D'HAUWE,1:43:28,17425,49:07,1:25:21,1:38:00,1:43:28,BEL,1,25,Wetteren,6:26,9.33,SEH,m
7627,Peter,VERVOORT,1:43:29,17426,52:27,1:26:44,1:38:03,1:43:29,BEL,1,58,Wilrijk,6:26,9.33,M55,m
37355,Marc,ONGENA,1:43:29,17427,49:27,1:23:33,1:37:06,1:43:29,BEL,1,59,Sint-Niklaas,6:26,9.33,M55,m
34776,Arnout,DE SCHAEPMEESTER,1:43:29,17428,52:28,1:26:03,1:37:36,1:43:29,BEL,1,24,Gent,6:26,9.33,SEH,m
33511,Maud,TROCH,1:43:29,17429,52:27,1:26:02,1:37:34,1:43:29,BEL,1,28,Gent,6:26,9.33,SEF,f
17473,Rozel,SMET,1:43:29,17430,51:32,1:26:19,1:38:08,1:43:29,BEL,1,27,Sint-Niklaas,6:26,9.33,SEF,f
6851,Maarten,BOVÉE,1:43:29,17431,49:54,1:25:22,1:37:53,1:43:29,BEL,1,38,Antwerpen,6:26,9.33,M35,m
16735,Lize,LIZE KELCHTERMANS,1:43:29,17432,51:49,1:26:04,1:37:52,1:43:29,BEL,1,26,Sint-Truiden,6:26,9.33,SEF,f
22172,Senne,VAES,1:43:30,17433,53:06,1:27:09,1:38:37,1:43:30,BEL,1,18,Ranst,6:26,9.33,SEH,m
20104,Nathalie,KESTELOOT,1:43:30,17434,51:52,1:25:36,1:37:28,1:43:30,BEL,1,41,Mechelen,6:26,9.33,F40,f
32103,Huang,KEVIN,1:43:30,17435,51:28,1:25:24,1:37:33,1:43:30,CHN,1,40,Kortrijk,6:26,9.33,M40,m
18121,Julie,VANNESTE,1:43:31,17436,49:14,1:25:26,1:37:57,1:43:31,BEL,1,22,Hooglede,6:26,9.33,SEF,f
31611,Koen,GEYSEN,1:43:31,17437,51:42,1:25:53,1:37:15,1:43:31,BEL,1,50,Turnhout,6:26,9.33,M50,m
4954,Wim,THIJS,1:43:31,17438,50:00,1:24:10,1:37:23,1:43:31,BEL,1,48,Antwerpen,6:26,9.33,M45,m
21102,Astrid,HAGHEBAERT,1:43:31,17439,50:56,1:25:20,1:37:29,1:43:31,BEL,1,21,Bazel,6:26,9.33,SEF,f
35985,Jesse,LAUREYSSENS,1:43:31,17440,50:33,1:24:50,1:37:04,1:43:31,BEL,1,20,,6:26,9.33,SEH,m
21777,Leen,DILLEN,1:43:31,17441,48:49,1:23:43,1:37:16,1:43:31,BEL,1,25,Mol,6:26,9.33,SEF,f
37812,Bene,JANSSENS,1:43:31,17442,51:00,1:25:30,1:37:40,1:43:31,BEL,1,59,Herentals,6:26,9.33,M55,m
21141,Caroline,DE BRABANDER,1:43:31,17443,52:40,1:26:09,1:37:58,1:43:31,BEL,1,45,Dilbeek,6:26,9.33,F45,f
36127,Tom,HELSEN,1:43:32,17444,49:48,1:25:58,1:38:06,1:43:32,BEL,1,35,,6:26,9.33,M35,m
7358,Eveline,BONROY,1:43:32,17445,51:57,1:26:23,1:37:44,1:43:32,BEL,1,25,Merksem,6:26,9.33,SEF,f
2191,Sophie,GORIS,1:43:32,17446,52:49,1:26:12,1:37:54,1:43:32,BEL,1,41,Merksplas,6:26,9.33,F40,f
33455,Els,THONON,1:43:32,17447,51:32,1:26:41,1:38:15,1:43:32,BEL,1,47,Tongeren,6:26,9.33,F45,f
20006,Vanessa,BERLENGER,1:43:33,17448,52:19,1:26:16,1:37:50,1:43:33,BEL,1,38,Wodecq,6:26,9.33,F35,f
32829,Gerda,PENNINCKX,1:43:33,17449,51:37,1:25:49,1:37:42,1:43:33,BEL,1,49,Roosdaal,6:26,9.33,F45,f
36599,Danielle,BELLON,1:43:33,17450,50:37,1:25:22,1:37:21,1:43:33,BEL,1,54,Schoten,6:26,9.33,F50,f
31374,Janssens,DOMENIQUE,1:43:33,17451,50:28,1:25:09,1:37:18,1:43:33,BEL,1,44,Stabroek,6:26,9.33,F40,f
34625,Aert,WEZENBEEK,1:43:33,17452,50:27,1:25:08,1:37:16,1:43:33,BEL,1,49,Stabroek,6:26,9.33,M45,m
20980,Olivier,QUIVRON,1:43:33,17453,49:47,1:23:24,1:37:07,1:43:33,BEL,1,37,Stekene,6:26,9.33,M35,m
15729,Caroline,DE JONGE,1:43:34,17454,51:12,1:25:32,1:37:32,1:43:34,BEL,1,49,Destelbergen,6:27,9.33,F45,f
17277,Philippe,ROELS,1:43:34,17455,51:14,1:25:32,1:37:01,1:43:34,BEL,1,52,Destelbergen,6:27,9.33,M50,m
7839,Ashley,DRIESEN,1:43:34,17456,51:26,1:25:53,1:37:43,1:43:34,BEL,1,30,Temse,6:27,9.33,SEF,f
3083,Alicia,DE WINTER,1:43:34,17457,51:16,1:26:08,1:38:03,1:43:34,BEL,1,28,Kapellen,6:27,9.33,SEF,f
37633,Hildegard,HERMANS,1:43:34,17458,50:02,1:24:59,1:37:37,1:43:34,BEL,1,57,Arendonk,6:27,9.33,F55,f
33521,Bart,T'SEYEN,1:43:34,17459,50:05,1:25:03,1:37:34,1:43:34,BEL,1,52,Lint,6:27,9.33,M50,m
7467,Wouter,HAEGEMANS,1:43:34,17460,49:16,1:23:56,1:36:57,1:43:34,BEL,1,44,Hannuit,6:27,9.33,M40,m
30633,Frederik,CORDIE,1:43:34,17461,52:12,1:26:23,1:37:47,1:43:34,BEL,1,26,Gent,6:27,9.33,SEH,m
33693,Annick,VAN DEN BORRE,1:43:34,17462,51:37,1:25:49,1:37:42,1:43:34,BEL,1,46,Liedekerke,6:27,9.33,F45,f
33347,Monique,STOLWIJK,1:43:34,17463,51:52,1:25:57,1:37:59,1:43:34,NLD,1,34,Haarlem,6:27,9.33,SEF,f
34233,Sara,VANSTEENKISTE,1:43:34,17464,52:12,1:26:23,1:37:47,1:43:34,BEL,1,25,Gent,6:27,9.33,SEF,f
37046,Tanguy,DELSANNE,1:43:34,17465,52:19,1:26:16,1:37:50,1:43:34,BEL,1,38,Wodecq,6:27,9.32,M35,m
32815,Sietske,PEETERS,1:43:34,17466,52:03,1:26:05,1:38:11,1:43:34,BEL,1,36,Antwerpen,6:27,9.32,F35,f
15150,Björn,BELEYN,1:43:34,17467,47:58,1:23:31,1:36:59,1:43:34,BEL,1,29,Heverlee,6:27,9.32,SEH,m
32747,Lauranne,PARMENTIER,1:43:35,17468,49:34,1:24:28,1:37:19,1:43:35,BEL,1,26,Schoten,6:27,9.32,SEF,f
34139,Marc,VAN OPBROECKE,1:43:35,17469,51:47,1:26:15,1:37:55,1:43:35,BEL,1,51,Niel,6:27,9.32,M50,m
5540,Frederic,VISSERS,1:43:35,17470,49:16,1:23:57,1:36:57,1:43:35,BEL,1,25,Schoten,6:27,9.32,SEH,m
5494,Patrick,STEVENS,1:43:35,17471,50:28,1:25:24,1:37:53,1:43:35,BEL,1,51,Mechelen,6:27,9.32,M50,m
31532,Wim,FRANSEN,1:43:35,17472,52:24,1:26:07,1:38:03,1:43:35,BEL,1,49,Bornem,6:27,9.32,M45,m
35555,Dries,MORLION,1:43:35,17473,51:16,1:25:19,1:38:01,1:43:35,BEL,1,22,,6:27,9.32,SEH,m
30676,Helena,CROLLET,1:43:35,17474,51:16,1:25:19,1:38:02,1:43:35,BEL,1,22,Boechout,6:27,9.32,SEF,f
44431,Danny,STERCKX,1:43:35,17475,50:46,1:25:08,1:37:21,1:43:35,BEL,1,58,Geel,6:27,9.32,M55,m
17966,Simon,VAN GILS,1:43:35,17476,51:38,1:24:45,1:37:15,1:43:35,BEL,1,32,Kapellen,6:27,9.32,SEH,m
32209,Bart,LAURYSSEN,1:43:35,17477,51:39,1:25:28,1:37:38,1:43:35,BEL,1,54,Zoersel,6:27,9.32,M50,m
31732,Dietger,HAECK,1:43:35,17478,50:24,1:25:26,1:38:13,1:43:35,BEL,1,26,Zulte,6:27,9.32,SEH,m
30575,Gino,COECK,1:43:36,17479,51:18,1:25:19,1:36:42,1:43:36,BEL,1,53,Willebroek,6:27,9.32,M50,m
34880,Emile,VAN PUYMBROECK,1:43:36,17480,52:22,1:25:49,1:37:38,1:43:36,BEL,1,13,Antwerpen,6:27,9.32,SEH,m
17772,Tom,VAN DEN BROEK,1:43:36,17481,52:36,1:26:49,1:38:22,1:43:36,BEL,1,39,Mortsel,6:27,9.32,M35,m
33054,Rick,RUIGROK,1:43:36,17482,51:53,1:25:57,1:37:59,1:43:36,NLD,1,40,Haarlem,6:27,9.32,M40,m
32504,Jan,MERCKX,1:43:36,17483,51:16,1:25:27,1:37:42,1:43:36,BEL,1,62,Willebroek,6:27,9.32,M60,m
17599,Werner,THYS,1:43:36,17484,50:33,1:24:48,1:37:12,1:43:36,BEL,1,49,Merksem,6:27,9.32,M45,m
4646,Carmen,EECKHOUT,1:43:36,17485,50:27,1:25:20,1:37:48,1:43:36,BEL,1,42,Denderhoutem,6:27,9.32,F40,f
36027,Bo,VAN HERCK,1:43:36,17486,50:55,1:25:46,1:37:43,1:43:36,BEL,1,20,,6:27,9.32,SEF,f
15695,Ellen,DE DOBBELEER,1:43:36,17487,52:29,1:26:15,1:38:07,1:43:36,BEL,1,43,Berlare,6:27,9.32,F40,f
32377,Goedele,MAFRANS,1:43:37,17488,51:18,1:25:28,1:37:44,1:43:37,BEL,1,31,Mechelen,6:27,9.32,SEF,f
17243,Barbara,REMES,1:43:37,17489,50:33,1:24:48,1:37:14,1:43:37,BEL,1,49,Deurne,6:27,9.32,F45,f
33323,Ann,STERKENS,1:43:37,17490,51:48,1:25:44,1:37:42,1:43:37,BEL,1,47,Schilde,6:27,9.32,F45,f
30351,Tamara,BRAECKMAN,1:43:37,17491,51:18,1:25:44,1:37:35,1:43:37,BEL,1,33,Lokeren,6:27,9.32,SEF,f
7637,Zheng,WHEILI,1:43:37,17492,49:14,1:23:40,1:38:15,1:43:37,BEL,1,17,Waterloo,6:27,9.32,SEH,m
37011,Jan,VAN DE VYVER,1:43:37,17493,52:23,1:26:31,1:37:57,1:43:37,BEL,1,59,Schilde,6:27,9.32,M55,m
33591,Daan,VAN BRITSOM,1:43:37,17494,51:19,1:25:44,1:37:35,1:43:37,BEL,1,33,Lokeren,6:27,9.32,SEH,m
34538,Annemie,VOET,1:43:37,17495,51:48,1:26:11,1:38:03,1:43:37,BEL,1,38,Poederlee,6:27,9.32,F35,f
31625,Lore,GIJBELS,1:43:38,17496,50:27,1:24:59,1:37:18,1:43:38,BEL,1,29,Hamont-Achel,6:27,9.32,SEF,f
22362,Roks,NICO,1:43:38,17497,52:51,1:27:01,1:38:19,1:43:38,NLD,1,35,Veenendaal,6:27,9.32,M35,m
34144,May,VAN OTTEN,1:43:38,17498,51:26,1:25:53,1:37:51,1:43:38,BEL,1,62,Merksplas,6:27,9.32,F60,f
31537,Peter,FREDERIX,1:43:38,17499,47:14,1:18:53,1:33:06,1:43:38,BEL,1,36,Antwerpen,6:27,9.32,M35,m
1936,Sanne,VAN LOOY,1:43:38,17500,50:10,1:25:07,1:37:26,1:43:38,BEL,1,28,Malle,6:27,9.32,SEF,f
