runner id,name,lastname,time,rank,checkpt0,checkpt1,checkpt2,checkpt3,nationality,finished,age,city,team,pace,speed,category,sex
293,Stefaan,DE LEEUW,1:15:27,2501,34:25,1:00:36,1:10:43,1:15:27,BEL,1,24,Wilrijk,4:42,12.8,SEH,m
1346,Mike,VAN DER AUWERA,1:15:27,2502,36:34,1:02:33,1:11:03,1:15:27,BEL,1,27,Merksem,4:42,12.8,SEH,m
15266,Thomas,BORREMANS,1:15:27,2503,38:41,1:02:56,1:11:25,1:15:27,BEL,1,21,Mariekerke,4:42,12.8,SEH,m
6752,Sven,TEUNEN,1:15:27,2504,37:31,1:02:43,1:11:19,1:15:27,BEL,1,38,Zoersel,4:42,12.8,M35,m
4293,Jakob,VANRENTERGHEM,1:15:27,2505,37:47,1:02:51,1:11:22,1:15:27,BEL,1,18,Roeselare,4:42,12.8,SEH,m
285,Hugo,DE KESEL,1:15:27,2506,37:18,1:02:21,1:11:01,1:15:27,BEL,1,53,Ertvelde,4:42,12.8,M50,m
15336,Appoline,BUFKENS,1:15:28,2507,37:48,1:02:43,1:11:09,1:15:28,BEL,1,26,Kortrijk,4:42,12.8,SEF,f
17487,Martin,SOENEN,1:15:28,2508,36:46,1:01:40,1:10:38,1:15:28,BEL,1,54,Roeselare,4:42,12.8,M50,m
1263,Michiel,PELCKMANS,1:15:28,2509,37:32,1:02:26,1:11:13,1:15:28,BEL,1,29,Mol,4:42,12.8,SEH,m
6783,Wim,STEENACKERS,1:15:28,2510,37:32,1:02:26,1:11:12,1:15:28,BEL,1,30,Kasterlee,4:42,12.8,SEH,m
6784,Philippe,ASSELBERGH,1:15:29,2511,37:35,1:03:00,1:11:19,1:15:29,BEL,1,27,Antwerpen,4:42,12.8,SEH,m
3222,Glenn,GIJSEN,1:15:29,2512,37:35,1:02:45,1:11:20,1:15:29,BEL,1,31,Bilzen,4:42,12.8,SEH,m
3275,Marc,HAZAERT,1:15:29,2513,38:26,1:03:09,1:11:23,1:15:29,BEL,1,55,Tervuren,4:42,12.8,M55,m
6647,Eric,DE DECKERE,1:15:29,2514,35:47,1:01:40,1:10:51,1:15:29,NLD,1,51,De Klinge,4:42,12.8,M50,m
116,Jonathan,BLOIS,1:15:29,2515,38:16,1:03:00,1:11:30,1:15:29,BEL,1,28,Beernem,4:42,12.79,SEH,m
21951,Stijn,RAMANDT,1:15:29,2516,35:44,1:01:51,1:10:46,1:15:29,BEL,1,32,Jabbeke,4:42,12.79,SEH,m
14621,Ebert,KIEKENS,1:15:29,2517,37:00,1:02:16,1:11:06,1:15:29,BEL,1,18,Gent,4:42,12.79,SEH,m
4086,Alain,VAN DEN BRANDE,1:15:30,2518,37:27,1:02:30,1:11:02,1:15:30,BEL,1,52,Melsele,4:42,12.79,M50,m
5601,Gust,RERREN,1:15:30,2519,37:47,1:02:29,1:11:06,1:15:30,BEL,1,62,Diest,4:42,12.79,M60,m
4113,Brent,VAN DEN LANGENBERGH,1:15:30,2520,38:38,1:03:28,1:11:37,1:15:30,BEL,1,22,Malle,4:42,12.79,SEH,m
4828,Joran,VAN MOER,1:15:30,2521,39:07,1:03:07,1:11:32,1:15:30,BEL,1,26,Antwerpen,4:42,12.79,SEH,m
797,Bart,SUYKERBUYK,1:15:31,2522,37:47,1:02:39,1:11:15,1:15:31,BEL,1,30,Kapellen,4:42,12.79,SEH,m
6649,Pieter,OFFECIERS,1:15:31,2523,37:31,1:02:28,1:11:11,1:15:31,BEL,1,33,Edegem,4:42,12.79,SEH,m
1241,Ilmir,GAREEV,1:15:31,2524,38:22,1:02:36,1:11:21,1:15:31,RUS,1,33,Antwerpen,4:42,12.79,SEH,m
5167,Werner,THIELS,1:15:31,2525,37:47,1:02:46,1:11:27,1:15:31,BEL,1,56,Olen,4:42,12.79,M55,m
3059,Yves,DE VISSCHER,1:15:31,2526,38:08,1:03:00,1:11:30,1:15:31,BEL,1,52,Schellebelle,4:42,12.79,M50,m
721,Thibault,RENSON,1:15:31,2527,40:27,1:04:29,1:11:59,1:15:31,BEL,1,0,Gent,4:42,12.79,-,m
22588,Mathias,BROECKAERT,1:15:31,2528,38:18,1:03:03,1:11:13,1:15:31,BEL,1,32,Antwerpen,4:42,12.79,SEH,m
4168,Wesley,VAN DE WALLE,1:15:31,2529,38:10,1:02:59,1:11:21,1:15:31,BEL,1,36,Wijnegem,4:42,12.79,M35,m
34906,Sooi,DUMEZ,1:15:32,2530,37:39,1:02:36,1:11:22,1:15:32,BEL,1,14,,4:42,12.79,SEH,m
1626,Wim,NUYTS,1:15:32,2531,36:30,1:01:54,1:11:13,1:15:32,BEL,1,58,Antwerpen,4:42,12.79,M55,m
30202,Nino,BEVERS,1:15:32,2532,37:52,1:03:13,1:11:29,1:15:32,BEL,1,30,Schilde,4:42,12.79,SEH,m
34893,Juul,DUMEZ,1:15:32,2533,37:40,1:02:36,1:11:22,1:15:32,BEL,1,16,,4:42,12.79,SEH,m
6726,Tim,GOETSTOUWERS,1:15:33,2534,38:46,1:03:52,1:11:46,1:15:33,BEL,1,27,Merksem,4:42,12.78,SEH,m
35808,Jef,VERHAERT,1:15:33,2535,37:10,1:02:49,1:11:36,1:15:33,BEL,1,20,,4:42,12.78,SEH,m
7205,Ruben,BIESEMANS,1:15:33,2536,37:26,1:02:24,1:11:06,1:15:33,BEL,1,37,Paal,4:42,12.78,M35,m
21144,Mario,DE WEGHE,1:15:33,2537,37:56,0,1:11:21,1:15:33,BEL,1,45,Groot-Bijgaarden,4:42,12.78,M45,m
5187,Yoeri,VAN HOYWEGHEN,1:15:33,2538,38:07,1:02:47,1:11:13,1:15:33,BEL,1,36,Beerzel,4:42,12.78,M35,m
603,Andy,MAZZEI,1:15:34,2539,38:23,1:03:16,1:11:39,1:15:34,BEL,1,35,Genk,4:42,12.78,M35,m
2687,Remco,BOETERS,1:15:34,2540,36:56,1:02:21,1:11:07,1:15:34,NLD,1,33,Den Haag,4:42,12.78,SEH,m
18250,Johan,VEERMAN,1:15:34,2541,38:17,1:03:21,1:11:31,1:15:34,BEL,1,54,Westmalle,4:42,12.78,M50,m
16157,Bram,FOUBERT,1:15:35,2542,39:09,1:03:04,1:11:14,1:15:35,BEL,1,45,Hasselt,4:42,12.78,M45,m
5083,Erik,BLANKAERTS,1:15:35,2543,37:33,1:02:18,1:11:21,1:15:35,BEL,1,47,Ranst,4:42,12.78,M45,m
22950,Sander,VANSPAUWEN,1:15:35,2544,37:26,1:02:28,1:10:54,1:15:35,BEL,1,25,Antwerpen,4:42,12.78,SEH,m
4832,Laurens,VANWEDDINGEN,1:15:35,2545,39:46,1:03:45,1:11:41,1:15:35,BEL,1,29,Antwerpen,4:42,12.78,SEH,m
22847,Diogo,CORTINHAS,1:15:35,2546,38:17,1:03:23,1:11:34,1:15:35,PRT,1,26,Antwerpen,4:42,12.78,SEH,m
18656,Evert,CAEKEBEKE,1:15:35,2547,37:15,1:02:11,1:11:04,1:15:35,BEL,1,36,Harelbeke,4:42,12.78,M35,m
21577,Gerd,DE BLIECK,1:15:36,2548,37:36,1:02:50,1:11:24,1:15:36,BEL,1,52,Temse,4:42,12.78,M50,m
4379,Bart,VERLINDEN,1:15:36,2549,36:24,1:02:08,1:10:59,1:15:36,BEL,1,44,Mortsel,4:42,12.78,M40,m
7084,Jan,SELIAERTS,1:15:36,2550,38:24,1:02:56,1:11:29,1:15:36,BEL,1,30,Borgerhout,4:42,12.78,SEH,m
4602,Stephaen,VEREECKEN,1:15:37,2551,37:47,1:02:34,1:11:27,1:15:37,BEL,1,36,Antwerpen,4:42,12.77,M35,m
8260,Jonas,VAN MOORTER,1:15:37,2552,38:02,1:02:47,1:11:19,1:15:37,BEL,1,24,Voorde,4:42,12.77,SEH,m
14428,An,VERHOEVEN,1:15:37,2553,38:10,1:03:03,1:11:16,1:15:37,BEL,1,36,Meise,4:42,12.77,F35,f
1935,Olivier,MASUREEL,1:15:37,2554,38:31,1:03:27,1:11:37,1:15:37,BEL,1,42,Merelbeke,4:42,12.77,M40,m
32029,Landsheer,JENS De,1:15:37,2555,38:03,1:03:19,1:11:49,1:15:37,BEL,1,23,Gentbrugge,4:42,12.77,SEH,m
19403,Christophe,BLONDÉ,1:15:37,2556,37:41,1:02:45,1:11:09,1:15:37,BEL,1,33,Anderlecht,4:42,12.77,SEH,m
5917,Kris,VERHAERT,1:15:37,2557,37:25,1:02:13,1:11:07,1:15:37,BEL,1,51,Rijkevorsel,4:42,12.77,M50,m
18186,Johan,VAN ROMPAY,1:15:38,2558,38:43,1:03:31,1:11:39,1:15:38,BEL,1,48,Mechelen,4:42,12.77,M45,m
35211,Geert,ANNAERT Hannes,1:15:38,2559,38:20,1:02:40,1:11:02,1:15:38,BEL,1,20,Kontich,4:42,12.77,SEH,m
4606,Joris,JENNES,1:15:38,2560,37:42,1:03:33,1:11:34,1:15:38,BEL,1,36,Kapellen,4:42,12.77,M35,m
5954,Steven,VIAENE,1:15:39,2561,37:26,1:02:44,1:11:27,1:15:39,BEL,1,46,Mortsel,4:42,12.77,M45,m
15194,Bernd,BILS,1:15:39,2562,38:40,1:03:11,1:11:30,1:15:39,BEL,1,23,Gingelom,4:42,12.77,SEH,m
6973,Stefan,MESU,1:15:40,2563,39:04,1:03:22,1:11:32,1:15:40,NLD,1,44,Kapelle,4:43,12.77,M40,m
37991,Stephane,MAES,1:15:40,2564,36:52,1:02:14,1:11:14,1:15:40,BEL,1,31,Arendonk,4:43,12.76,SEH,m
15291,Juul,BOYEN,1:15:40,2565,38:09,1:02:46,1:11:16,1:15:40,BEL,1,17,Zoutleeuw,4:43,12.76,SEH,m
4129,Pascal,VANDERMEIREN,1:15:40,2566,38:06,1:02:59,1:11:29,1:15:40,BEL,1,52,Temse,4:43,12.76,M50,m
36945,Johan,WAUTIER,1:15:40,2567,37:07,1:02:31,1:11:18,1:15:40,BEL,1,56,Beveren,4:43,12.76,M55,m
4074,Denis,VAN DE MOSSELAER,1:15:40,2568,38:45,1:03:09,1:11:35,1:15:40,BEL,1,41,Niel,4:43,12.76,M40,m
3500,Thomas,LOBEL,1:15:40,2569,38:17,1:03:03,1:11:31,1:15:40,BEL,1,38,Wortegem-Petegem,4:43,12.76,M35,m
19115,Wout,NAETS,1:15:41,2570,37:34,1:02:50,1:11:22,1:15:41,BEL,1,24,Berlaar,4:43,12.76,SEH,m
21091,Cas,WOLTERS,1:15:41,2571,37:25,1:03:03,1:11:31,1:15:41,BEL,1,0,Machelen,4:43,12.76,-,m
22938,Stijn,SNEYDERS,1:15:41,2572,35:41,1:01:50,1:11:39,1:15:41,BEL,1,28,Leuven,4:43,12.76,SEH,m
2628,Alexander,BALLY,1:15:41,2573,38:11,1:03:01,1:11:29,1:15:41,BEL,1,20,Mortsel,4:43,12.76,SEH,m
6315,Gerrit,MOYSON,1:15:41,2574,38:46,1:03:20,1:11:43,1:15:41,BEL,1,40,Kortenberg,4:43,12.76,M40,m
36587,Andreas,VERMAERKE,1:15:41,2575,36:59,1:02:31,1:11:19,1:15:41,BEL,1,27,Ledeberg,4:43,12.76,SEH,m
17717,Pieter,VAN DAMME,1:15:42,2576,38:48,1:03:46,1:11:54,1:15:42,BEL,1,24,Herent,4:43,12.76,SEH,m
2637,Dominiek,BAUWENS,1:15:42,2577,38:18,1:03:04,1:11:32,1:15:42,BEL,1,42,Deerlijk,4:43,12.76,M40,m
4966,Tim,VAN ELST,1:15:42,2578,37:42,1:02:45,1:11:35,1:15:42,BEL,1,27,Edegem,4:43,12.76,SEH,m
3309,Jonathan,HIMPE,1:15:42,2579,38:05,1:03:00,1:11:25,1:15:42,BEL,1,29,Hoboken,4:43,12.76,SEH,m
4229,Chris,VAN HONACKER,1:15:42,2580,38:21,1:03:01,1:11:33,1:15:42,BEL,1,49,Desselgem,4:43,12.76,M45,m
6138,Martijn,SCHELSTRAETE,1:15:42,2581,38:18,1:03:01,1:11:34,1:15:42,BEL,1,28,,4:43,12.76,SEH,m
15253,Sven,BOONEN,1:15:42,2582,38:46,1:03:21,1:11:33,1:15:42,BEL,1,42,Maastricht,4:43,12.76,M40,m
36003,Gilles,RENDERS,1:15:42,2583,37:11,1:02:02,1:11:13,1:15:42,BEL,1,19,,4:43,12.76,SEH,m
35940,Tibeau,AUWERS,1:15:43,2584,39:15,1:03:36,1:11:41,1:15:43,BEL,1,20,,4:43,12.76,SEH,m
3884,Frank,SEYNAEVE,1:15:43,2585,37:12,1:02:31,1:11:22,1:15:43,BEL,1,40,Deurne,4:43,12.76,M40,m
5293,Jonas,DE BECKKER,1:15:43,2586,38:31,1:02:57,1:11:28,1:15:43,BEL,1,30,Kapellen,4:43,12.76,SEH,m
1996,Frank,DE GROOF,1:15:43,2587,38:56,1:03:28,1:11:35,1:15:43,BEL,1,56,Antwerpen,4:43,12.76,M55,m
29231,Brice,DE LE VINGNE,1:15:43,2588,37:14,1:02:46,1:11:25,1:15:43,BEL,1,47,Watermael-Boitsfort,4:43,12.75,M45,m
14442,Joke,VRIENS,1:15:43,2589,39:24,1:03:30,1:11:43,1:15:43,BEL,1,33,Berchem,4:43,12.75,SEF,f
3524,Peter,MAES,1:15:44,2590,38:49,1:03:30,1:11:49,1:15:44,BEL,1,56,Lwaasmunster,4:43,12.75,M55,m
3019,Laurens,DERGENT,1:15:44,2591,38:01,1:02:32,1:11:22,1:15:44,BEL,1,18,Berlaar,4:43,12.75,SEH,m
3444,Matthias,LALOUS,1:15:44,2592,36:40,1:02:23,1:11:25,1:15:44,BEL,1,28,Heverlee,4:43,12.75,SEH,m
3869,Leon,SEGERS,1:15:45,2593,37:56,1:02:52,1:11:22,1:15:45,BEL,1,76,Arendonk,4:43,12.75,M75,m
36177,Eddy,GYBELS,1:15:45,2594,37:52,1:02:49,1:11:35,1:15:45,BEL,1,53,Begijnendijk,4:43,12.75,M50,m
5510,Willem,VAN DEN EYNDE,1:15:45,2595,37:24,1:03:00,1:11:49,1:15:45,BEL,1,33,Antwerp,4:43,12.75,SEH,m
22996,Michael,BRAECKMANS,1:15:45,2596,37:18,1:03:04,1:11:39,1:15:45,BEL,1,38,Moorsel,4:43,12.75,M35,m
4634,Mario,DE KEGEL,1:15:45,2597,37:54,1:03:04,1:11:28,1:15:45,BEL,1,50,Sint-Niklaas,4:43,12.75,M50,m
33730,Kris,VAN DEN EYNDE,1:15:46,2598,38:57,1:03:42,1:11:49,1:15:46,BEL,1,37,Noorderwijk,4:43,12.75,M35,m
3582,Arne,MERTENS,1:15:46,2599,37:46,1:02:48,1:11:37,1:15:46,BEL,1,28,Nijlen,4:43,12.75,SEH,m
18856,Joris,ARNAUTS,1:15:46,2600,36:04,1:01:54,1:10:55,1:15:46,BEL,1,25,Tildonk,4:43,12.75,SEH,m
38634,Dariusz,KOTULA,1:15:46,2601,36:31,1:02:29,1:11:29,1:15:46,POL,1,44,Merksem,4:43,12.75,M40,m
44601,Vankerckhoven,SEBASTIAAN,1:15:46,2602,38:43,1:03:03,1:11:45,1:15:46,BEL,1,29,Belgie,4:43,12.75,SEH,m
3873,Joris,SEGHERS,1:15:46,2603,37:54,1:03:01,1:11:17,1:15:46,NLD,1,27,Utrecht,4:43,12.75,SEH,m
4304,Lise,VAN SANTFOORT,1:15:46,2604,36:47,1:02:55,1:11:32,1:15:46,BEL,1,26,Lier,4:43,12.75,SEF,f
2647,Michiel,BEKAERT,1:15:46,2605,38:48,1:03:08,1:11:34,1:15:46,BEL,1,32,Wevelgem,4:43,12.75,SEH,m
4255,Philippe,VAN LINDT,1:15:46,2606,37:07,1:02:35,1:11:24,1:15:46,BEL,1,58,Wilrijk,4:43,12.75,M55,m
3995,Swinnen,TIM,1:15:47,2607,38:51,1:03:47,1:11:48,1:15:47,BEL,1,36,Leuven,4:43,12.74,M35,m
2701,Thomas,BOONEN,1:15:47,2608,37:50,1:03:37,1:11:48,1:15:47,BEL,1,35,Boortmeerbeek,4:43,12.74,M35,m
2631,Johannes,BARROH,1:15:47,2609,37:08,1:02:04,1:11:14,1:15:47,DEU,1,21,Tienen,4:43,12.74,SEH,m
3231,Frederik,GOETHALS,1:15:48,2610,38:07,1:02:36,1:11:22,1:15:48,BEL,1,42,Oostakker,4:43,12.74,M40,m
3845,Tom,SCHACK,1:15:48,2611,38:47,1:03:38,1:11:54,1:15:48,BEL,1,20,Antwerpen,4:43,12.74,SEH,m
4422,Jeroen,VISSER,1:15:48,2612,36:57,1:02:36,1:11:40,1:15:48,BEL,1,43,Geraardsbergen,4:43,12.74,M40,m
21207,Bogdan,VANENBERGHE,1:15:48,2613,38:18,1:03:27,1:11:52,1:15:48,BEL,1,48,Berchem,4:43,12.74,M45,m
2632,Thomas,BARROH,1:15:48,2614,37:08,1:02:04,1:11:14,1:15:48,DEU,1,49,Tienen,4:43,12.74,M45,m
3333,Niels,HUYGENS,1:15:48,2615,38:56,1:02:49,1:11:22,1:15:48,BEL,1,33,Moerzeke,4:43,12.74,SEH,m
37748,Isabel,VAN HUL,1:15:48,2616,37:31,1:02:44,1:11:23,1:15:48,BEL,1,46,Kruibeke,4:43,12.74,F45,f
3415,Lee,KING JR,1:15:48,2617,38:09,1:02:54,1:11:32,1:15:48,USA,1,48,Antwerp,4:43,12.74,M45,m
6532,Nico,BOSSUYT,1:15:48,2618,37:06,1:02:29,1:11:11,1:15:48,BEL,1,55,Schilde,4:43,12.74,M55,m
4441,Joshua,WALRAVENS,1:15:48,2619,36:34,1:02:04,1:11:11,1:15:48,BEL,1,29,Antwerpen,4:43,12.74,SEH,m
34324,Hannes,VERBRUGGE,1:15:48,2620,38:58,1:03:43,1:11:50,1:15:48,BEL,1,13,Oelegem,4:43,12.74,SEH,m
3726,James,PETRO Reeno,1:15:49,2621,37:27,1:02:42,1:11:23,1:15:49,TZA,1,49,Antwerpen,4:43,12.74,M45,m
200,Bart,COEN,1:15:49,2622,36:59,1:02:25,1:11:25,1:15:49,BEL,1,38,Rumst,4:43,12.74,M35,m
14554,Benabdellah,CHAKIR,1:15:49,2623,36:50,1:01:39,1:11:03,1:15:49,BEL,1,28,Sint Niklaas,4:43,12.74,SEH,m
7957,François,CHARLET,1:15:49,2624,37:27,1:02:38,1:11:25,1:15:49,FRA,1,42,,4:43,12.74,M40,m
15126,Sven,BARTHOLOMEEUSEN,1:15:50,2625,36:59,1:02:28,1:11:21,1:15:50,BEL,1,0,Turnhout,4:43,12.74,-,m
29325,Oussama,BALLANI,1:15:50,2626,37:54,1:03:31,1:12:04,1:15:50,BEL,1,18,Deurne,4:43,12.74,SEH,m
29238,Jos,POLFLIET,1:15:50,2627,37:37,1:02:58,1:11:27,1:15:50,BEL,1,29,Mechelen,4:43,12.74,SEH,m
3373,Wim,JANSSENS,1:15:50,2628,37:04,1:02:57,1:11:36,1:15:50,BEL,1,42,Herent,4:43,12.73,M40,m
18157,Mathias,VAN REETH,1:15:51,2629,37:43,1:02:54,1:11:38,1:15:51,BEL,1,25,Niel,4:43,12.73,SEH,m
7008,Gerwin,ZONDERVAN,1:15:51,2630,39:10,1:03:29,1:11:38,1:15:51,NLD,1,52,Kapelle,4:43,12.73,M50,m
34937,Koen,DE WIN,1:15:51,2631,37:05,1:02:27,1:11:26,1:15:51,BEL,1,37,,4:43,12.73,M35,m
5328,Davy,VERMEIREN,1:15:51,2632,39:55,1:03:59,1:12:06,1:15:51,BEL,1,37,Vlimmeren,4:43,12.73,M35,m
827,Griet,TROUKENS,1:15:51,2633,37:53,1:02:51,1:11:31,1:15:51,BEL,1,45,Everberg,4:43,12.73,F45,f
787,Daan,STEKELINCK,1:15:51,2634,37:52,1:02:43,1:11:30,1:15:51,BEL,1,14,Wilrijk,4:43,12.73,SEH,m
3854,Goedele,SCHILDERMANS,1:15:51,2635,37:53,1:02:51,1:11:31,1:15:51,BEL,1,44,Steenokkerzeel,4:43,12.73,F40,f
44270,Tine,BEX,1:15:52,2636,37:59,1:02:48,1:11:34,1:15:52,BEL,1,30,Merelbeke,4:43,12.73,SEF,f
5652,Joeri,DEFILLET,1:15:52,2637,37:44,1:02:46,1:11:20,1:15:52,BEL,1,29,Aartselaar,4:43,12.73,SEH,m
4215,Helmut,VAN GOMPEL,1:15:52,2638,37:45,1:02:55,1:11:30,1:15:52,BEL,1,51,Molenstede,4:43,12.73,M50,m
20696,Toon,VERWAEST,1:15:52,2639,38:00,1:02:55,1:11:37,1:15:52,BEL,1,49,Ransberg,4:43,12.73,M45,m
35252,Yannick,BRAEM,1:15:52,2640,36:54,1:02:44,1:11:32,1:15:52,BEL,1,19,,4:43,12.73,SEH,m
3833,Ton,RÜCKERT,1:15:52,2641,38:13,1:03:13,1:11:36,1:15:52,NLD,1,65,Venlo,4:43,12.73,M65,m
20733,Dieter,DEMEYER,1:15:52,2642,37:16,1:03:14,1:11:35,1:15:52,BEL,1,48,Heule,4:43,12.73,M45,m
5811,Bjorn,LAUWERS,1:15:52,2643,38:02,1:02:58,1:11:22,1:15:52,BEL,1,39,Vlimmeren,4:43,12.73,M35,m
15513,Benny,COULIER,1:15:53,2644,38:22,1:03:16,1:11:29,1:15:53,BEL,1,51,Dentergem,4:43,12.73,M50,m
6428,Thomas,HILLEWIG,1:15:53,2645,37:38,1:03:10,1:11:46,1:15:53,BEL,1,31,Stekene,4:43,12.73,SEH,m
971,Bert,VANMARCKE,1:15:54,2646,37:47,1:03:04,1:11:29,1:15:54,BEL,1,36,Nieuwerkerken (Aalst),4:43,12.73,M35,m
17022,Rick,NIJKAMP,1:15:54,2647,38:03,1:02:45,1:11:41,1:15:54,NLD,1,36,Leiden,4:43,12.72,M35,m
34102,Gil,VAN MALDEREN,1:15:54,2648,39:04,1:03:04,1:11:37,1:15:54,BEL,1,24,Merchtem,4:43,12.72,SEH,m
7368,Wouter,BROSENS,1:15:54,2649,38:14,1:02:58,1:11:38,1:15:54,BEL,1,34,Merksplas,4:43,12.72,SEH,m
1707,Kristian,VAN DEN HENDE Karel,1:15:55,2650,37:13,1:02:44,1:11:24,1:15:55,BEL,1,58,Malle,4:43,12.72,M55,m
2917,Jan,DE CLERCQ,1:15:55,2651,36:55,1:02:20,1:11:27,1:15:55,BEL,1,51,Borsbeke,4:43,12.72,M50,m
4212,Kris,VAN GOETHEM,1:15:55,2652,37:03,1:02:34,1:11:37,1:15:55,BEL,1,36,Leuven,4:43,12.72,M35,m
565,Arthur,LESCRINIER,1:15:55,2653,38:58,1:03:32,1:11:57,1:15:55,BEL,1,16,'S Gravenwezel,4:43,12.72,SEH,m
19046,Matthias,DE GROOTE,1:15:55,2654,38:36,1:03:57,1:11:54,1:15:55,BEL,1,21,Kaprijke,4:43,12.72,SEH,m
34751,Elsen,WOUTER Van,1:15:55,2655,38:01,1:03:19,1:11:43,1:15:55,BEL,1,26,Turnhout,4:43,12.72,SEH,m
3422,Mark,KOKS,1:15:55,2656,37:32,1:02:56,1:11:29,1:15:55,BEL,1,36,Beerse,4:44,12.72,M35,m
4482,Iris,WOUTERS,1:15:55,2657,36:39,1:02:14,1:11:17,1:15:55,BEL,1,24,Herent,4:44,12.72,SEF,f
4488,Bram,WYNANTS,1:15:56,2658,38:20,1:03:09,1:11:43,1:15:56,BEL,1,35,Aarschot,4:44,12.72,M35,m
15842,Geert,DEPREZ,1:15:56,2659,37:38,1:02:55,1:11:48,1:15:56,BEL,1,25,Harelbeke,4:44,12.72,SEH,m
7742,Ben,VAN AERSCHOT,1:15:56,2660,39:11,1:03:53,1:11:49,1:15:56,BEL,1,46,Schilde,4:44,12.72,M45,m
32508,Yannick,MERCKX,1:15:56,2661,38:36,1:03:35,1:12:05,1:15:56,BEL,1,25,Wijnegem,4:44,12.72,SEH,m
2928,Saartje,DE DECKERE,1:15:56,2662,37:04,1:03:28,1:12:04,1:15:56,BEL,1,17,De Klinge,4:44,12.72,SEF,f
20488,Rutger,THIJS,1:15:56,2663,38:49,1:03:20,1:11:48,1:15:56,BEL,1,33,Tessenderlo,4:44,12.72,SEH,m
23413,Laurens,DE BRUYN,1:15:57,2664,40:10,1:03:43,1:11:58,1:15:57,BEL,1,21,Putte,4:44,12.72,SEH,m
17825,Tom,VAN DER HAEGEN,1:15:57,2665,37:26,1:02:41,1:11:40,1:15:57,BEL,1,36,Pollare,4:44,12.72,M35,m
35492,Gerrit,KUIJT,1:15:57,2666,38:08,1:03:33,1:12:01,1:15:57,BEL,1,23,,4:44,12.72,SEH,m
35805,Bob,VERHAAGEN,1:15:58,2667,37:44,1:03:13,1:11:43,1:15:58,BEL,1,21,,4:44,12.71,SEH,m
3709,Tamar,PELED,1:15:58,2668,38:04,1:03:15,1:11:40,1:15:58,BEL,1,28,Antwerpen,4:44,12.71,SEF,f
1429,Ben,DEWITTE,1:15:58,2669,37:52,1:02:56,1:11:46,1:15:58,BEL,1,49,Brasschaat,4:44,12.71,M45,m
4569,Frederik,VAN HOVE,1:15:58,2670,37:31,1:02:50,1:11:36,1:15:58,BEL,1,61,Zwijndrecht,4:44,12.71,M60,m
8211,Clyde,PASHLEY,1:15:58,2671,37:13,1:02:32,1:11:18,1:15:58,BEL,1,28,1040,4:44,12.71,SEH,m
19538,Guy,GOOSSENS,1:15:58,2672,37:37,1:02:54,1:11:28,1:15:58,BEL,1,45,Deurne,4:44,12.71,M45,m
1383,Greg,BRUNEEL,1:15:59,2673,37:52,1:02:56,1:11:46,1:15:59,BEL,1,47,Antwerpen,4:44,12.71,M45,m
19413,Goorts,STEVEN,1:15:59,2674,37:42,1:02:47,1:11:32,1:15:59,BEL,1,29,Anderlecht,4:44,12.71,SEH,m
7725,Sebastian,HORLITZ,1:15:59,2675,37:42,1:03:11,1:11:49,1:15:59,DEU,1,29,Gerlingen,4:44,12.71,SEH,m
3692,Crothers,PAUL,1:15:59,2676,37:50,1:02:50,1:11:40,1:15:59,BEL,1,0,Antwerpen,4:44,12.71,-,m
35815,Kenny,VERHULST,1:15:59,2677,36:52,1:02:13,1:11:26,1:15:59,BEL,1,26,,4:44,12.71,SEH,m
1938,Michel,RAVERS,1:15:59,2678,37:46,1:03:01,1:11:53,1:15:59,BEL,1,48,Turnhout,4:44,12.71,M45,m
19431,Lennart,DE LAERE,1:16:00,2679,38:49,1:03:26,1:12:04,1:16:00,BEL,1,28,Veldegem,4:44,12.71,SEH,m
4451,Koen,WELLENS,1:16:00,2680,38:28,1:03:14,1:11:51,1:16:00,BEL,1,41,Tessenderlo,4:44,12.71,M40,m
23151,Vertriest,MARVIN,1:16:00,2681,37:59,1:03:20,1:11:46,1:16:00,BEL,1,22,Belsele,4:44,12.71,SEH,m
18615,Vincent,GODSCHALX,1:16:00,2682,38:32,1:03:06,1:11:42,1:16:00,BEL,1,24,Geel,4:44,12.71,SEH,m
6312,Stefan,JAZIC,1:16:01,2683,37:45,1:03:06,1:11:40,1:16:01,SCG,1,31,Antwerpen,4:44,12.71,SEH,m
4958,Wannes,VAN DEN BOSSCHE,1:16:01,2684,38:55,1:03:08,1:11:55,1:16:01,BEL,1,33,Antwerpen,4:44,12.71,SEH,m
6831,Kevin,SAS,1:16:01,2685,37:52,1:03:05,1:11:40,1:16:01,BEL,1,36,Brugge,4:44,12.71,M35,m
648,Ahmed,BEN MESSAOUD,1:16:01,2686,34:41,1:02:18,1:11:34,1:16:01,BEL,1,43,Belg Temse,4:44,12.71,M40,m
21679,Jan,MEYVIS,1:16:01,2687,37:34,1:02:42,1:11:35,1:16:01,BEL,1,39,Brecht,4:44,12.71,M35,m
15662,Koen,DE CNODDER,1:16:01,2688,37:25,1:02:33,1:11:37,1:16:01,BEL,1,47,2290 - Vorselaar,4:44,12.7,M45,m
2566,Dries,WILSSENS,1:16:01,2689,39:25,1:03:49,1:12:00,1:16:01,BEL,1,36,Elsene,4:44,12.7,M35,m
4509,Rendel,BAETENS,1:16:02,2690,40:08,1:04:38,1:12:00,1:16:02,BEL,1,23,Lochristi,4:44,12.7,SEH,m
36942,Frederic,VIAENE,1:16:02,2691,37:09,1:02:52,1:11:30,1:16:02,BEL,1,37,Bonheiden,4:44,12.7,M35,m
4310,Jelle,VAN STAPPEN,1:16:02,2692,38:09,1:02:52,1:11:44,1:16:02,BEL,1,38,Melsele,4:44,12.7,M35,m
35262,Charlotte,BRUGHMANS,1:16:02,2693,37:55,1:03:22,1:11:59,1:16:02,BEL,1,24,,4:44,12.7,SEF,f
7656,Pamela,BRUERS,1:16:02,2694,37:43,1:02:58,1:11:49,1:16:02,BEL,1,44,Berchem,4:44,12.7,F40,f
20862,Kaat,CLERIX,1:16:02,2695,38:42,1:03:22,1:11:52,1:16:02,BEL,1,29,Antwerpen,4:44,12.7,SEF,f
37154,Steven,SIMON,1:16:02,2696,41:07,1:04:01,1:11:59,1:16:02,BEL,1,22,Houthalen,4:44,12.7,SEH,m
782,Koen,STASSART,1:16:02,2697,38:45,1:03:14,1:11:41,1:16:02,BEL,1,40,Leuven,4:44,12.7,M40,m
30938,Jeroen,DE HAEN,1:16:03,2698,38:04,1:03:19,1:11:49,1:16:03,BEL,1,32,Denderleeuw,4:44,12.7,SEH,m
473,Louise,HENDRICKX,1:16:03,2699,39:21,1:03:48,1:12:05,1:16:03,BEL,1,24,Leuven,4:44,12.7,SEF,f
36955,Roel,BERGER,1:16:04,2700,37:48,1:03:08,1:11:55,1:16:04,BEL,1,28,Antwerpen,4:44,12.7,SEH,m
37105,Tom,VERMEYLEN,1:16:04,2701,37:49,1:02:45,1:11:44,1:16:04,BEL,1,29,Antwerpen,4:44,12.7,SEH,m
36252,Tony,LOUNCKE,1:16:04,2702,39:12,1:03:45,1:11:48,1:16:04,BEL,1,27,Wevelgem,4:44,12.7,SEH,m
22888,Hannes,BULTÉ,1:16:04,2703,35:29,1:01:35,1:11:10,1:16:04,BEL,1,27,Wambeek,4:44,12.7,SEH,m
14603,Thomas,DESMEDT,1:16:04,2704,37:23,1:02:38,1:11:30,1:16:04,BEL,1,41,Antwerpen,4:44,12.7,M40,m
2993,Kevin,DEMEY,1:16:04,2705,37:47,1:02:50,1:11:44,1:16:04,BEL,1,43,Tervuren,4:44,12.7,M40,m
3045,Rudy,DE SMEDT,1:16:04,2706,37:53,1:02:50,1:11:42,1:16:04,BEL,1,62,Ruisbroek (Antw.),4:44,12.7,M60,m
35067,Robbe,GALLE,1:16:05,2707,38:04,1:03:07,1:11:57,1:16:05,BEL,1,17,,4:44,12.7,SEH,m
22184,Wim,LEYTEN,1:16:05,2708,38:38,1:03:40,1:12:05,1:16:05,BEL,1,32,Arendonk,4:44,12.7,SEH,m
1283,Michael,FREE,1:16:05,2709,38:02,1:03:18,1:11:54,1:16:05,BEL,1,43,Aartselaar,4:44,12.69,M40,m
4023,Ruben,VAN AKELYEN,1:16:06,2710,36:34,1:02:09,1:11:30,1:16:06,BEL,1,23,Lier,4:44,12.69,SEH,m
3270,Reyniers,HAN,1:16:06,2711,38:44,1:03:33,1:11:56,1:16:06,BEL,1,20,Kontich,4:44,12.69,SEH,m
3020,Lus,DE RIDDER,1:16:06,2712,38:27,1:03:15,1:11:54,1:16:06,BEL,1,32,Dendermonde,4:44,12.69,SEF,f
31649,Ryan,GODDAERT,1:16:06,2713,38:37,1:04:01,1:12:10,1:16:06,BEL,1,29,Oudegem,4:44,12.69,SEH,m
17065,Robbe,OP DE BEECK,1:16:06,2714,40:23,1:04:30,1:12:22,1:16:06,BEL,1,20,Putte,4:44,12.69,SEH,m
4491,Jorge,YSKOUT,1:16:06,2715,38:45,1:03:33,1:11:56,1:16:06,BEL,1,23,Rumst,4:44,12.69,SEH,m
8257,Jonas,VAN GYSEL,1:16:06,2716,37:50,1:03:23,1:11:50,1:16:06,BEL,1,29,Kapelle-Op-Den-Bos,4:44,12.69,SEH,m
793,Andy,STRUYF,1:16:06,2717,37:29,1:02:55,1:11:29,1:16:06,BEL,1,25,Brecht,4:44,12.69,SEH,m
20686,Lendert,PUTTEMAN,1:16:06,2718,39:24,1:04:26,1:12:17,1:16:06,BEL,1,34,Lebbeke,4:44,12.69,SEH,m
34992,Jels,THIJS,1:16:07,2719,38:23,1:03:07,1:11:45,1:16:07,BEL,1,18,,4:44,12.69,SEH,m
5707,Ivan,OPRINS,1:16:07,2720,37:07,1:02:39,1:11:31,1:16:07,BEL,1,29,Rijkevorsel,4:44,12.69,SEH,m
5910,Daan,VEKEMANS,1:16:07,2721,39:16,1:03:48,1:12:15,1:16:07,BEL,1,23,Vorselaar,4:44,12.69,SEH,m
35325,Michiel,DEBUCK,1:16:08,2722,39:06,1:03:33,1:12:00,1:16:08,BEL,1,30,,4:44,12.69,SEH,m
22594,Alasdair,VOISEY,1:16:08,2723,38:18,1:03:04,1:11:36,1:16:08,GBR,1,44,Lasne,4:44,12.69,M40,m
4045,Kurt,VAN BUGGENHOUT,1:16:08,2724,37:50,1:03:10,1:11:55,1:16:08,BEL,1,43,Nieuwenrode,4:44,12.69,M40,m
17531,Annelien,STIJLEMAN,1:16:08,2725,37:34,1:03:01,1:11:43,1:16:08,BEL,1,25,Kapellen,4:44,12.69,SEF,f
16783,Sherjill,MAC-DONALD,1:16:08,2726,38:42,1:03:59,1:11:58,1:16:08,NLD,1,35,Antwerpen,4:44,12.69,M35,m
954,Dieter,VANHOVE,1:16:08,2727,38:21,1:03:23,1:11:55,1:16:08,BEL,1,26,Gent,4:44,12.69,SEH,m
1771,Mohamed,EL YOUSFI,1:16:08,2728,37:51,1:02:57,1:12:01,1:16:08,BEL,1,22,Antwerpen,4:44,12.69,SEH,m
7362,Evie,BOUCQIAUX,1:16:09,2729,37:58,1:03:09,1:11:51,1:16:09,BEL,1,39,Brasschaat,4:44,12.68,F35,f
2977,Koen,DE LIE,1:16:09,2730,38:53,1:03:34,1:11:58,1:16:09,BEL,1,42,Kalmthout,4:44,12.68,M40,m
36450,Steffie,BOSMANS,1:16:09,2731,38:39,1:03:16,1:11:47,1:16:09,BEL,1,39,Borgerhout,4:44,12.68,F35,f
20679,Koen,GOEMINNE,1:16:09,2732,40:01,1:04:23,1:12:19,1:16:09,BEL,1,34,Gent,4:44,12.68,SEH,m
35830,Thijs,VERVLOET,1:16:09,2733,38:23,1:03:40,1:11:59,1:16:09,BEL,1,20,,4:44,12.68,SEH,m
3323,Cliff,HOSTYN,1:16:09,2734,38:37,1:03:11,1:11:35,1:16:09,BEL,1,38,Rollegem,4:44,12.68,M35,m
5605,Anneke,ZAJTMANN,1:16:10,2735,38:20,1:03:14,1:11:49,1:16:10,BEL,1,38,Boechout,4:44,12.68,F35,f
3176,Marcel,FOLGERTS,1:16:10,2736,37:39,1:02:56,1:11:49,1:16:10,NLD,1,50,Amersfoort,4:44,12.68,M50,m
1291,Pieter,WAMBACQ,1:16:10,2737,38:43,1:03:32,1:11:57,1:16:10,BEL,1,31,Opwijk,4:44,12.68,SEH,m
3424,Frank,KOOIJMAN,1:16:10,2738,39:22,1:03:59,1:12:11,1:16:10,NLD,1,45,Den Haag,4:44,12.68,M45,m
7028,Tim,CUPPENS,1:16:10,2739,38:30,1:03:47,1:12:02,1:16:10,BEL,1,37,Burcht,4:44,12.68,M35,m
4848,Hilde,WYNANT,1:16:10,2740,37:59,1:03:03,1:11:42,1:16:10,BEL,1,51,Londerzeel,4:44,12.68,F50,f
35353,Kevin,DERYCK,1:16:10,2741,38:30,0,1:12:03,1:16:10,BEL,1,22,,4:44,12.68,SEH,m
18705,Mathias,LEBRUN,1:16:11,2742,37:01,1:02:15,1:11:25,1:16:11,BEL,1,26,Berchem,4:44,12.68,SEH,m
3338,Nicholas,ILLEGEMS,1:16:11,2743,37:48,1:03:11,1:11:58,1:16:11,BEL,1,31,Bornem,4:44,12.68,SEH,m
20669,Nick,ARYS,1:16:11,2744,39:24,1:04:22,1:12:18,1:16:11,BEL,1,34,Asse,4:44,12.68,SEH,m
4169,Thomas,VAN DE WAL,1:16:11,2745,37:56,1:03:15,1:11:53,1:16:11,BEL,1,28,Antwerpen,4:44,12.68,SEH,m
5564,Wouter,JORDAENS,1:16:11,2746,37:44,1:02:43,1:11:53,1:16:11,BEL,1,27,Antwerpen,4:44,12.68,SEH,m
4552,Branco,MOENS,1:16:11,2747,37:54,1:03:12,1:11:50,1:16:11,BEL,1,30,Oudegem,4:44,12.68,SEH,m
3825,Antonio,ROVITUSO,1:16:12,2748,38:17,1:03:17,1:11:55,1:16:12,ITA,1,59,Merksem,4:44,12.68,M55,m
18191,Tobias,VAN ROSSEM,1:16:12,2749,38:44,1:03:39,1:12:04,1:16:12,BEL,1,40,Ham,4:45,12.68,M40,m
20997,Jens,VAN AVONDT,1:16:12,2750,37:50,1:03:03,1:11:56,1:16:12,BEL,1,25,Antwerpen,4:45,12.68,SEH,m
23473,Eric,VAN LAETHEM,1:16:12,2751,37:38,1:03:01,1:11:51,1:16:12,BEL,1,45,Keerbergen,4:45,12.68,M45,m
3806,Bruno,ROLAND,1:16:12,2752,37:39,1:02:53,1:11:45,1:16:12,BEL,1,65,Oud Heverlee,4:45,12.67,M65,m
2836,Olivier,CORNELISSEN,1:16:12,2753,37:22,1:02:54,1:11:57,1:16:12,BEL,1,32,Mechelen,4:45,12.67,SEH,m
18129,Maxim,VANNUFFELEN,1:16:12,2754,36:22,1:02:25,1:11:40,1:16:12,BEL,1,19,Turnhout,4:45,12.67,SEH,m
22134,Samuel,ALLEMAND,1:16:13,2755,37:31,1:03:38,1:11:57,1:16:13,BEL,1,28,Berchem,4:45,12.67,SEH,m
23372,Wouter,MAES,1:16:13,2756,37:48,1:03:13,1:11:56,1:16:13,BEL,1,28,Gent,4:45,12.67,SEH,m
230,Rudy,DE BACKER,1:16:13,2757,38:16,1:03:20,1:12:08,1:16:13,BEL,1,56,Berlare,4:45,12.67,M55,m
3106,Andreas,DIERICK,1:16:13,2758,37:56,1:02:55,1:11:41,1:16:13,BEL,1,22,Brasschaat,4:45,12.67,SEH,m
4783,Jan-Pieter,ONZEA,1:16:13,2759,38:32,1:03:22,1:12:06,1:16:13,BEL,1,33,Antwerpen,4:45,12.67,SEH,m
2417,Moshab,TABTI,1:16:13,2760,37:28,1:03:05,1:12:08,1:16:13,DZA,1,29,Bruxelles,4:45,12.67,SEH,m
5802,Wouter,JOSTEN,1:16:13,2761,38:01,1:03:32,1:12:05,1:16:13,BEL,1,22,Beerse,4:45,12.67,SEH,m
14476,Hans,RAEYMAEKERS,1:16:14,2762,37:48,1:02:47,1:11:46,1:16:14,BEL,1,53,Mortsel,4:45,12.67,M50,m
715,Chantal,RAEYMAEKERS,1:16:14,2763,36:51,1:02:35,1:11:40,1:16:14,BEL,1,53,Holsbeek,4:45,12.67,F50,f
775,Bart,SMITS,1:16:14,2764,38:44,1:03:51,1:12:10,1:16:14,BEL,1,37,Ruisbroek (Antw.),4:45,12.67,M35,m
20483,Twan,STERKEN,1:16:14,2765,39:03,1:03:50,1:12:07,1:16:14,NLD,1,51,Lieshout,4:45,12.67,M50,m
4132,Kris,VAN DER POTEN,1:16:14,2766,38:15,1:03:19,1:11:54,1:16:14,BEL,1,52,Mespelare,4:45,12.67,M50,m
19285,Marcel,WENDORF,1:16:15,2767,38:32,1:03:45,1:12:22,1:16:15,DEU,1,37,Nettetal,4:45,12.67,M35,m
3585,Hans,MERTENS,1:16:15,2768,37:49,1:03:14,1:11:55,1:16:15,BEL,1,26,Lier,4:45,12.67,SEH,m
29673,Dieter,HEMELSOET,1:16:15,2769,37:59,1:03:10,1:11:53,1:16:15,BEL,1,34,Evergem,4:45,12.67,SEH,m
7100,Roel,VAN DER STIGHEL,1:16:15,2770,37:46,1:03:10,1:12:01,1:16:15,BEL,1,43,Antwerpen,4:45,12.67,M40,m
4413,Rudy,VERVLOET,1:16:16,2771,38:22,1:03:11,1:11:49,1:16:16,BEL,1,59,Lier,4:45,12.66,M55,m
2860,Wesley,DANCKAERTS,1:16:16,2772,37:10,1:02:36,1:11:41,1:16:16,BEL,1,42,Messelbroek,4:45,12.66,M40,m
3897,Jürgen,SLOWACK,1:16:16,2773,37:54,1:02:53,1:11:53,1:16:16,BEL,1,37,Temse,4:45,12.66,M35,m
19259,Victor,AGUIRRE,1:16:16,2774,37:46,1:03:03,1:11:49,1:16:16,BEL,1,25,Merchtem,4:45,12.66,SEH,m
4603,Kjel,WINTER,1:16:16,2775,39:39,1:04:27,1:12:28,1:16:16,BEL,1,35,Heverlee,4:45,12.66,M35,m
5532,Timothy,VERMEIREN,1:16:16,2776,38:49,1:03:22,1:11:53,1:16:16,BEL,1,29,Weerde,4:45,12.66,SEH,m
7953,Pierre,BOUVIER,1:16:16,2777,39:43,1:03:38,1:12:20,1:16:16,BEL,1,29,Ixelles,4:45,12.66,SEH,m
2194,Wout,GRYSOLLE,1:16:16,2778,39:26,1:03:54,1:12:19,1:16:16,BEL,1,16,Kontich,4:45,12.66,SEH,m
37557,Stef,SALAETS,1:16:16,2779,39:20,1:03:45,1:12:02,1:16:16,BEL,1,24,Herentals,4:45,12.66,SEH,m
3068,Nando,DE VULDER,1:16:17,2780,37:02,1:03:07,1:11:56,1:16:17,BEL,1,24,Erembodegem,4:45,12.66,SEH,m
20485,Shepherd,TAKAWIRA,1:16:17,2781,36:57,1:03:18,1:11:59,1:16:17,ZWE,1,27,Eindhoven,4:45,12.66,SEH,m
4467,Sanny,WILLEMS,1:16:17,2782,39:40,1:04:05,1:12:21,1:16:17,BEL,1,0,Aalst,4:45,12.66,-,m
19298,Kevin,DEBRUYNE,1:16:17,2783,39:19,1:03:49,1:12:06,1:16:17,BEL,1,38,Brugge,4:45,12.66,M35,m
35200,Charlotte,PEETERS,1:16:17,2784,39:50,1:04:23,1:12:32,1:16:17,BEL,1,17,,4:45,12.66,SEF,f
37527,Mike,ENGELS,1:16:17,2785,36:32,1:01:47,1:11:28,1:16:17,BEL,1,23,Stekene,4:45,12.66,SEH,m
5677,Johan,PAUELS,1:16:17,2786,38:57,1:03:39,1:12:09,1:16:17,BEL,1,59,Edegem,4:45,12.66,M55,m
35195,Stan,CORNIL,1:16:17,2787,39:50,1:04:23,1:12:32,1:16:17,BEL,1,17,,4:45,12.66,SEH,m
4102,Lieve,VANDENDRIESSCHE,1:16:17,2788,37:19,1:02:41,1:11:42,1:16:17,BEL,1,50,Antwerpen,4:45,12.66,F50,f
7621,Franky,VER EECKE,1:16:17,2789,38:07,1:03:16,1:11:58,1:16:17,BEL,1,58,Leuven,4:45,12.66,M55,m
20534,Chris,LAVERZE,1:16:17,2790,37:32,1:03:10,1:11:54,1:16:17,BEL,1,55,Denderleeuw,4:45,12.66,M55,m
5501,Viktor,VAN BEERSEL,1:16:17,2791,38:50,1:03:22,1:11:54,1:16:17,BEL,1,26,Mechelen,4:45,12.66,SEH,m
17834,Sam,VAN DER LINDEN,1:16:18,2792,38:14,1:03:16,1:11:58,1:16:18,BEL,1,42,Holsbeek,4:45,12.66,M40,m
4280,Nico,VAN ORSHOVEN,1:16:18,2793,38:37,1:03:40,1:12:18,1:16:18,BEL,1,28,Wilsele,4:45,12.66,SEH,m
3946,Kris,STICHELMANS,1:16:18,2794,39:39,1:04:05,1:12:20,1:16:18,BEL,1,33,Burst,4:45,12.66,SEH,m
7945,Iso,AUDENAERT,1:16:18,2795,37:31,1:02:54,1:11:35,1:16:18,BEL,1,49,Kallo,4:45,12.66,M45,m
2616,Tommy,ARGENTA,1:16:18,2796,39:26,1:03:57,1:12:24,1:16:18,BEL,1,36,Halle Zoersel,4:45,12.66,M35,m
18312,Sem,VERHAEGE,1:16:18,2797,38:20,1:03:32,1:12:06,1:16:18,BEL,1,26,Heusden,4:45,12.66,SEH,m
6163,Siegfried,TOP,1:16:18,2798,38:08,1:03:58,1:12:15,1:16:18,BEL,1,35,,4:45,12.66,M35,m
18624,Lukas,OYAERT,1:16:18,2799,38:32,1:03:36,1:12:19,1:16:18,BEL,1,25,Koksijde,4:45,12.66,SEH,m
1818,Hadrien,LERUTH,1:16:19,2800,40:24,1:04:21,1:12:24,1:16:19,BEL,1,26,Liège,4:45,12.66,SEH,m
5075,Ann,DEVALCKENEER,1:16:19,2801,36:50,1:02:41,1:11:42,1:16:19,BEL,1,26,Kalmthout,4:45,12.66,SEF,f
14667,Lenaerts,BART,1:16:19,2802,39:03,1:03:47,1:11:58,1:16:19,BEL,1,44,Mol,4:45,12.66,M40,m
542,Pieter,LABEEUW,1:16:19,2803,38:44,1:03:37,1:12:05,1:16:19,BEL,1,44,Mollem,4:45,12.66,M40,m
1211,Jan,TEMMERMAN,1:16:19,2804,37:34,1:02:22,1:11:39,1:16:19,BEL,1,20,Lokeren,4:45,12.66,SEH,m
1212,Willem,TEMMERMAN,1:16:19,2805,37:34,1:02:22,1:11:38,1:16:19,BEL,1,58,Lokeren,4:45,12.66,M55,m
4490,Daan,YSEBAERT,1:16:20,2806,39:07,1:03:33,1:12:19,1:16:20,BEL,1,26,Antwerpen,4:45,12.65,SEH,m
37220,Leo,CHANG,1:16:20,2807,38:23,1:03:21,1:11:57,1:16:20,BEL,1,41,Wilrijk,4:45,12.65,M40,m
1369,Vicky,HUYBRECHTS,1:16:20,2808,38:10,1:03:11,1:11:52,1:16:20,BEL,1,43,Antwerpen,4:45,12.65,F40,f
16148,Jelle,FLUIT,1:16:20,2809,39:05,1:03:58,1:12:13,1:16:20,BEL,1,39,Peutie,4:45,12.65,M35,m
19609,Robbe,NYSEN,1:16:20,2810,39:20,1:04:06,1:12:17,1:16:20,BEL,1,20,Aartselaar,4:45,12.65,SEH,m
35794,Sacha,VANWINCKEL,1:16:21,2811,38:29,1:03:31,1:12:04,1:16:21,BEL,1,22,,4:45,12.65,SEH,m
15612,Fabian,DE BOOIJ,1:16:21,2812,38:53,1:03:46,1:11:58,1:16:21,NLD,1,33,Zaamslag,4:45,12.65,SEH,m
23407,Jonathan,BUGIN,1:16:21,2813,36:38,1:02:06,1:11:36,1:16:21,BEL,1,35,Molenbeek-Saint-Jean,4:45,12.65,M35,m
22250,Wim,PETERMANS,1:16:21,2814,38:42,1:03:37,1:12:22,1:16:21,BEL,1,45,Leefdaal,4:45,12.65,M45,m
8040,Pieter,VAN DEN BERGHE,1:16:21,2815,37:14,1:02:54,1:12:19,1:16:21,BEL,1,24,Kalmthout,4:45,12.65,SEH,m
2030,Steve,BENOIT,1:16:21,2816,36:36,1:02:24,1:11:30,1:16:21,BEL,1,41,Kortenberg,4:45,12.65,M40,m
2290,Veerle,MARÉCHAL,1:16:21,2817,38:05,1:03:22,1:11:58,1:16:21,BEL,1,59,Wijnegem,4:45,12.65,F55,f
5728,Tom,BIJNENS,1:16:22,2818,37:45,1:03:02,1:11:51,1:16:22,BEL,1,36,Deurne,4:45,12.65,M35,m
7136,Ronny,FISCALINI,1:16:22,2819,38:19,1:03:32,1:12:04,1:16:22,BEL,1,46,Schoten,4:45,12.65,M45,m
3072,Jonathan,DEWAELE,1:16:22,2820,38:07,1:03:18,1:11:53,1:16:22,BEL,1,25,Vichte,4:45,12.65,SEH,m
6483,Jan,VAN DER BORGHT,1:16:23,2821,38:33,1:03:30,1:12:02,1:16:23,BEL,1,55,Londerzeel,4:45,12.65,M55,m
7984,Hjalmar,FIERS,1:16:23,2822,38:21,1:03:30,1:12:19,1:16:23,BEL,1,43,,4:45,12.64,M40,m
20971,Moustafa,CHAHCHAHI,1:16:23,2823,38:23,1:04:02,1:12:17,1:16:23,BEL,1,36,Merksem,4:45,12.64,M35,m
3818,Thomas,ROSCAM,1:16:23,2824,37:45,1:03:00,1:11:55,1:16:23,BEL,1,27,Rumst,4:45,12.64,SEH,m
3909,Marc,SMET,1:16:23,2825,37:34,1:03:02,1:12:00,1:16:23,BEL,1,48,Stekene,4:45,12.64,M45,m
15795,Peter,DE MEYER,1:16:24,2826,38:41,1:03:27,1:12:12,1:16:24,BEL,1,50,Zulte,4:45,12.64,M50,m
5703,Dirk,VAN ISTERDAEL,1:16:24,2827,38:28,1:03:43,1:12:09,1:16:24,BEL,1,58,Roosdaal,4:45,12.64,M55,m
5699,Jan,GEEROMS,1:16:24,2828,38:23,1:03:44,1:12:09,1:16:24,BEL,1,60,Roosdaal,4:45,12.64,M60,m
19613,Wouter,VAN DEN BERGHE,1:16:24,2829,37:07,1:02:23,1:11:37,1:16:24,BEL,1,20,Keerbergen,4:45,12.64,SEH,m
2947,Xian,DEHAES,1:16:25,2830,36:15,1:01:50,1:11:10,1:16:25,BEL,1,23,Hoboken,4:45,12.64,SEH,m
2976,Bart,DE LIE,1:16:25,2831,38:53,1:03:55,1:12:24,1:16:25,BEL,1,42,Schilde,4:45,12.64,M40,m
35050,Georges,DARWAZEH,1:16:25,2832,36:25,1:02:58,1:12:16,1:16:25,BEL,1,17,,4:45,12.64,SEH,m
18614,Joachim,GIDTS,1:16:25,2833,38:43,1:03:40,1:12:17,1:16:25,BEL,1,28,Hever,4:45,12.64,SEH,m
29342,Alexander,ELFRINK,1:16:25,2834,37:19,1:02:54,1:12:00,1:16:25,NLD,1,44,Breskens,4:45,12.64,M40,m
18806,Niels,PLESSERS,1:16:25,2835,38:45,1:03:54,1:12:08,1:16:25,BEL,1,37,Houthalen,4:45,12.64,M35,m
3294,Roel,HENDRYCKX,1:16:25,2836,37:54,1:02:46,1:11:59,1:16:25,BEL,1,33,Kessel-Lo,4:45,12.64,SEH,m
3713,Filip,PELICAEN,1:16:26,2837,38:16,1:03:44,1:12:10,1:16:26,BEL,1,36,Liedekerke,4:45,12.64,M35,m
15738,Cliff,DE KEYSER,1:16:26,2838,39:11,1:03:54,1:12:08,1:16:26,BEL,1,39,Hamme,4:45,12.64,M35,m
22958,Emmanuel,VANVINCKENROYE Joris,1:16:26,2839,40:03,1:04:35,1:12:25,1:16:26,BEL,1,42,Sint-Niklaas,4:45,12.64,M40,m
3952,Jens,SURGEON,1:16:26,2840,38:29,1:03:34,1:12:16,1:16:26,BEL,1,19,Mol,4:45,12.64,SEH,m
36541,Tom,DIERICKX,1:16:26,2841,38:24,1:03:51,1:12:16,1:16:26,BEL,1,28,Zwalm,4:45,12.64,SEH,m
18241,Dean,VAN WOLVELAER,1:16:26,2842,36:51,1:02:20,1:11:41,1:16:26,BEL,1,25,Antwerpen,4:45,12.64,SEH,m
20424,Guy,COOLS,1:16:26,2843,38:35,1:03:24,1:12:02,1:16:26,BEL,1,45,Kuringen,4:45,12.64,M45,m
2707,Jeroen,BOSMAN,1:16:26,2844,39:25,1:03:57,1:12:15,1:16:26,BEL,1,36,Opwijk,4:45,12.63,M35,m
232,Dirk,DE BATSELIER,1:16:26,2845,38:07,1:03:23,1:12:09,1:16:26,BEL,1,57,Landen,4:45,12.63,M55,m
8068,Thomas,VERSCHUEREN,1:16:27,2846,38:40,1:04:03,1:12:29,1:16:27,BEL,1,32,Kalmthout,4:45,12.63,SEH,m
33758,Greg,VAN DE PERRE,1:16:27,2847,37:33,1:03:07,1:12:15,1:16:27,BEL,1,35,Kruibeke,4:45,12.63,M35,m
2981,Jurgen,DE LOOR,1:16:27,2848,39:01,1:03:50,1:12:10,1:16:27,BEL,1,39,Deftinge,4:45,12.63,M35,m
1969,Charles,PONCHAU,1:16:27,2849,39:04,1:03:57,1:12:24,1:16:27,BEL,1,36,Bruxelles,4:45,12.63,M35,m
44669,André,POPPE Mathieu,1:16:27,2850,38:02,1:03:01,1:12:18,1:16:27,BEL,1,27,Antwerpen,4:45,12.63,SEH,m
1698,Jeroen,DENISSEN,1:16:27,2851,38:08,1:03:15,1:12:03,1:16:27,BEL,1,35,Antwerpen,4:45,12.63,M35,m
17400,Thomas,SCHRAEYEN,1:16:27,2852,38:07,1:03:38,1:12:08,1:16:27,BEL,1,35,Kaggevinne,4:45,12.63,M35,m
23172,Alexander,MINTIENS,1:16:27,2853,37:06,1:02:44,1:11:33,1:16:27,BEL,1,26,Antwerpen,4:45,12.63,SEH,m
30455,Anton,CAMPOS ESTRADA,1:16:28,2854,37:45,1:03:29,1:12:20,1:16:28,BEL,1,44,Borsbeek,4:45,12.63,M40,m
36812,Emiel,NOLLET,1:16:28,2855,37:51,1:03:31,1:12:15,1:16:28,BEL,1,22,Lo,4:45,12.63,SEH,m
29389,Mertens,NENAD,1:16:28,2856,39:21,1:04:45,1:12:43,1:16:28,BEL,1,18,Ranst,4:46,12.63,SEH,m
22976,Stefan,MORREEL,1:16:28,2857,38:22,1:04:01,1:12:22,1:16:28,BEL,1,34,Borgerhout,4:46,12.63,SEH,m
15004,Maxime,ACKE,1:16:28,2858,38:12,1:03:31,1:12:14,1:16:28,BEL,1,24,Mouscron,4:46,12.63,SEH,m
18193,Yannick,VAN ROYEN,1:16:28,2859,39:17,1:03:57,1:12:12,1:16:28,BEL,1,0,Antwerpen,4:46,12.63,-,m
17739,Samuel,VANDENBERGHE,1:16:28,2860,36:53,1:02:37,1:11:51,1:16:28,BEL,1,20,Nijlen,4:46,12.63,SEH,m
17892,Daan,VANDEWALLE,1:16:28,2861,38:46,1:03:29,1:12:21,1:16:28,BEL,1,25,Ieper,4:46,12.63,SEH,m
6052,Hubert,DE VYDT,1:16:28,2862,37:39,1:03:13,1:12:14,1:16:28,BEL,1,60,,4:46,12.63,M60,m
7167,Steven,EYKENS,1:16:28,2863,38:27,1:03:19,1:12:05,1:16:28,BEL,1,40,Lille,4:46,12.63,M40,m
6417,Inge,EVERAERT,1:16:28,2864,38:04,1:03:05,1:12:01,1:16:28,BEL,1,33,Berlare,4:46,12.63,SEF,f
5474,Tommy,OTTEVAERE,1:16:29,2865,37:27,1:03:04,1:11:56,1:16:29,BEL,1,32,Kortrijk,4:46,12.63,SEH,m
3280,Bart,HEIJNEN,1:16:30,2866,37:43,1:03:09,1:12:05,1:16:30,NLD,1,48,Antwerpen,4:46,12.63,M45,m
383,Jens,DU MONGH,1:16:30,2867,38:54,1:04:06,1:12:19,1:16:30,BEL,1,30,Ninove,4:46,12.63,SEH,m
37899,Laurent,PERIN,1:16:30,2868,36:46,1:02:36,1:12:01,1:16:30,FRA,1,45,Hellemmes,4:46,12.62,M45,m
23390,Elvin,MURAGE,1:16:30,2869,38:10,1:04:09,1:12:36,1:16:30,BEL,1,17,Turnhout,4:46,12.62,SEH,m
44422,Pierre,BRAUN,1:16:30,2870,38:29,1:03:43,1:12:07,1:16:30,FRA,1,29,Ixelles,4:46,12.62,SEH,m
34908,Danny,MEEUSEN,1:16:30,2871,37:26,1:03:22,1:12:17,1:16:30,BEL,1,54,,4:46,12.62,M50,m
36977,Lode,KESTELLE,1:16:31,2872,38:59,1:03:58,1:12:33,1:16:31,BEL,1,28,Antwerpen,4:46,12.62,SEH,m
3464,Tom,LAURIJSSENS,1:16:31,2873,37:22,1:02:52,1:12:00,1:16:31,BEL,1,37,Oud-Turnhout,4:46,12.62,M35,m
23391,Yenthe-Johannes,VANMECHELEN,1:16:31,2874,38:10,1:04:10,1:12:38,1:16:31,BEL,1,18,Turnhout,4:46,12.62,SEH,m
8083,Christophe,DEBLAERE,1:16:31,2875,38:16,1:03:33,1:12:22,1:16:31,BEL,1,58,Hemiksem,4:46,12.62,M55,m
20459,Marlon,LESY,1:16:32,2876,38:39,1:04:08,1:12:27,1:16:32,BEL,1,39,Izegem,4:46,12.62,M35,m
7151,Wim,PIETERS,1:16:32,2877,37:56,1:03:23,1:12:12,1:16:32,BEL,1,43,Hoboken,4:46,12.62,M40,m
1636,Dimitri,RIEHL,1:16:32,2878,38:29,1:03:43,1:12:11,1:16:32,FRA,1,30,Antwerpen,4:46,12.62,SEH,m
23436,Hendrik,VAN HOUTEN,1:16:32,2879,37:14,1:02:36,1:11:05,1:16:32,NLD,1,28,Leeuwarden,4:46,12.62,SEH,m
2094,Jonas,DE BODT,1:16:32,2880,37:19,1:03:14,1:12:14,1:16:32,BEL,1,25,Liedekerke,4:46,12.62,SEH,m
16262,Julio,GONZALES MORALES,1:16:33,2881,37:38,1:03:22,1:12:14,1:16:33,BEL,1,22,Gent,4:46,12.62,SEH,m
20016,Thiébaud,GRONER,1:16:33,2882,39:13,1:04:00,1:12:24,1:16:33,FRA,1,28,Bruxelles,4:46,12.62,SEH,m
17597,Kristof,THYS,1:16:33,2883,39:53,1:04:25,1:12:36,1:16:33,BEL,1,26,Beerzel,4:46,12.62,SEH,m
3237,Bernard,GOOSSENS,1:16:33,2884,37:37,1:03:43,1:12:19,1:16:33,BEL,1,28,Waregem,4:46,12.62,SEH,m
6850,Abdelkarim,BOUZIANI,1:16:34,2885,37:48,1:03:20,1:12:03,1:16:34,BEL,1,32,Duffel,4:46,12.61,SEH,m
22245,Robert,DE LEEUW VAN WEENEN,1:16:34,2886,37:53,1:03:17,1:12:09,1:16:34,NLD,1,50,Breda,4:46,12.61,M50,m
44446,Maria,EYSKENS Nick,1:16:34,2887,37:46,1:03:37,1:12:12,1:16:34,BEL,1,34,Antwerpen,4:46,12.61,SEH,m
35300,Bari,CUYCKENS,1:16:34,2888,37:25,1:02:56,1:12:06,1:16:34,BEL,1,30,,4:46,12.61,SEH,m
1752,An,DE GRAVE,1:16:34,2889,38:07,1:03:15,1:11:59,1:16:34,BEL,1,31,Wenduine,4:46,12.61,SEF,f
37077,Rutger,PEETERS,1:16:35,2890,38:25,1:03:45,1:12:15,1:16:35,BEL,1,22,Buggenhout,4:46,12.61,SEH,m
5215,Tony,FONCKE,1:16:35,2891,38:51,1:03:48,1:12:23,1:16:35,BEL,1,52,Lochristi,4:46,12.61,M50,m
8185,Toon,GOES,1:16:35,2892,39:29,1:04:12,1:12:20,1:16:35,BE,1,28,Brussel,4:46,12.61,SEH,m
3167,Maarten,FEYS,1:16:35,2893,38:53,1:03:16,1:12:04,1:16:35,BEL,1,24,Oud-Turnhout,4:46,12.61,SEH,m
2386,Sabri,SABBOUR,1:16:35,2894,37:40,1:03:03,1:12:08,1:16:35,BEL,1,38,Merksem,4:46,12.61,M35,m
55,Dave,ADRIAANSEN,1:16:35,2895,38:53,1:03:47,1:12:18,1:16:35,NLD,1,42,Almere,4:46,12.61,M40,m
17013,Mertens,NICK,1:16:35,2896,39:06,1:04:06,1:12:32,1:16:35,BEL,1,31,Schilde,4:46,12.61,SEH,m
3906,Eli,SMET,1:16:35,2897,38:22,1:03:24,1:12:13,1:16:35,BEL,1,40,Lier,4:46,12.61,M40,m
18286,Laura,VERCAUTEREN,1:16:36,2898,37:35,1:03:08,1:11:58,1:16:36,BEL,1,27,Belsele,4:46,12.61,SEF,f
3664,Arthur,NUYTTENS,1:16:36,2899,39:15,1:03:59,1:12:41,1:16:36,BEL,1,19,Hoogstraten,4:46,12.61,SEH,m
36868,Matti,GOOVAERTS,1:16:36,2900,38:12,1:03:34,1:12:18,1:16:36,BEL,1,26,Vosselaar,4:46,12.61,SEH,m
1959,Michiel,DRIEGHE,1:16:36,2901,38:22,1:03:33,1:12:05,1:16:36,BEL,1,27,Beveren-Waas,4:46,12.61,SEH,m
17185,Wouter,POLSPOEL,1:16:36,2902,40:37,1:04:55,1:12:59,1:16:36,BEL,1,38,Hamme - Mille,4:46,12.61,M35,m
38710,Annemieke,FRIESEN,1:16:36,2903,39:19,1:04:01,1:12:29,1:16:36,NLD,1,46,Goirle,4:46,12.61,F45,f
7525,Kato,PAUWELS,1:16:36,2904,41:03,1:04:55,1:12:43,1:16:36,BEL,1,22,Zoersel,4:46,12.61,SEF,f
3479,Liam,LEIRS,1:16:36,2905,38:20,1:03:37,1:12:29,1:16:36,BEL,1,16,Schoten,4:46,12.61,SEH,m
36841,Bart,CALLEBAUT,1:16:36,2906,37:56,1:03:10,1:12:05,1:16:36,BEL,1,40,Wechelderzande,4:46,12.61,M40,m
5900,Sandra,VAN HOORENBEECK,1:16:36,2907,38:33,1:03:46,1:12:20,1:16:36,BEL,1,37,Zoersel,4:46,12.61,F35,f
3594,Lieven,MEULEMAN,1:16:36,2908,37:55,1:03:31,1:12:12,1:16:36,BEL,1,38,Mechelen,4:46,12.61,M35,m
22182,Nick,IEMANTS,1:16:37,2909,36:55,1:02:39,1:11:56,1:16:37,BEL,1,28,Arendonk,4:46,12.61,SEH,m
3648,Liesbet,NEERINCKX,1:16:37,2910,37:57,1:03:32,1:12:15,1:16:37,BEL,1,37,Mechelen,4:46,12.61,F35,f
5775,Patrick,DIELEN,1:16:37,2911,38:32,1:03:45,1:12:19,1:16:37,NLD,1,39,Cadzand,4:46,12.61,M35,m
8014,Maarten,MUSSELY,1:16:37,2912,38:24,1:03:49,1:12:23,1:16:37,BEL,1,37,,4:46,12.61,M35,m
17908,Nick,VAN DOOREN,1:16:38,2913,37:32,1:03:10,1:11:51,1:16:38,BEL,1,33,Turnhout,4:46,12.6,SEH,m
2873,Michaël,DE BAERDEMAEKER,1:16:38,2914,38:40,1:03:33,1:12:20,1:16:38,BEL,1,35,Wondelgem,4:46,12.6,M35,m
3409,Bart,KEUPPENS,1:16:38,2915,39:06,1:03:52,1:12:26,1:16:38,BEL,1,48,Stabroek,4:46,12.6,M45,m
15152,Jürgen,BELLEMANS,1:16:38,2916,38:27,1:04:03,1:12:38,1:16:38,BEL,1,50,Meerbeke,4:46,12.6,M50,m
21620,Marnicq,VAN ES,1:16:38,2917,39:52,1:04:32,1:12:45,1:16:38,BEL,1,22,Lier,4:46,12.6,SEH,m
21849,Lars,DENAYER,1:16:38,2918,38:12,1:03:56,1:12:17,1:16:38,BEL,1,24,Bertem,4:46,12.6,SEH,m
4247,Eveline,VANHYFTE,1:16:38,2919,38:19,1:03:25,1:12:20,1:16:38,BEL,1,35,Wondelgem,4:46,12.6,F35,f
21660,Martin,ANDOR,1:16:38,2920,39:03,1:04:35,1:12:40,1:16:38,BEL,1,34,Merksem,4:46,12.6,SEH,m
3955,Frans,SWENNE,1:16:38,2921,37:37,1:03:10,1:12:05,1:16:38,BEL,1,56,Lebbeke,4:46,12.6,M55,m
19828,Mattias,DE MEYER,1:16:39,2922,38:43,1:03:33,1:12:19,1:16:39,BEL,1,23,Zele,4:46,12.6,SEH,m
29254,Steven,PIN,1:16:39,2923,37:15,1:03:22,1:12:09,1:16:39,BEL,1,30,Tremelo,4:46,12.6,SEH,m
4318,Dries,VAN THIELEN,1:16:40,2924,38:05,1:03:37,1:12:17,1:16:40,BEL,1,18,Herk-De-Stad,4:46,12.6,SEH,m
4005,Francois,TRIFIN,1:16:40,2925,36:23,1:02:37,1:11:51,1:16:40,BEL,1,26,Ghoy,4:46,12.6,SEH,m
14477,Jakob,RAEYMAEKERS,1:16:40,2926,39:32,1:04:21,1:13:06,1:16:40,BEL,1,19,Mortsel,4:46,12.6,SEH,m
34890,Mohammad,SAMADI,1:16:40,2927,36:41,1:03:30,1:12:20,1:16:40,BEL,1,17,,4:46,12.6,SEH,m
4307,Sam,VAN SNICK,1:16:40,2928,37:58,1:03:38,1:12:26,1:16:40,BEL,1,30,Kessel-Lo,4:46,12.6,SEH,m
2980,Geert,DE LOOF,1:16:41,2929,39:10,1:03:57,1:12:20,1:16:41,BEL,1,64,Zwevegem,4:46,12.6,M60,m
2991,Stefanie,DE MEYER,1:16:41,2930,37:58,1:03:31,1:12:19,1:16:41,BEL,1,31,Zottegem,4:46,12.6,SEF,f
3221,Joris,GIJBELS,1:16:41,2931,38:09,1:03:26,1:12:11,1:16:41,BEL,1,45,Westmalle,4:46,12.6,M45,m
3463,Saskia,LAUREYSSENS,1:16:41,2932,38:09,1:03:27,1:12:12,1:16:41,BEL,1,42,Zoersel,4:46,12.6,F40,f
20154,Dolf,VAN OVERKLIFT,1:16:41,2933,37:42,1:03:26,1:12:25,1:16:41,BEL,1,37,Belg Antwerpen,4:46,12.6,M35,m
22816,Ruben,VAN PEE,1:16:41,2934,37:39,1:03:01,1:12:07,1:16:41,BEL,1,29,Kalken,4:46,12.6,SEH,m
5669,Verhaeghe,ALEXANDER,1:16:41,2935,38:14,1:03:24,1:12:15,1:16:41,BEL,1,30,Berchem,4:46,12.6,SEH,m
38023,Ronny,KONINGS,1:16:41,2936,38:48,1:03:42,1:12:35,1:16:41,BEL,1,44,Essen,4:46,12.6,M40,m
14655,Lize,HERLITSKA,1:16:41,2937,37:46,1:03:53,1:12:33,1:16:41,BEL,1,23,Opglabbeek,4:46,12.59,SEF,f
3095,Ivo,DHAENENS,1:16:41,2938,37:45,1:03:08,1:12:02,1:16:41,BEL,1,52,Groot-Bijgaarden,4:46,12.59,M50,m
7765,Diedert,BRENTJENS,1:16:41,2939,38:02,1:03:22,1:12:16,1:16:41,NLD,1,30,Antwerpen,4:46,12.59,SEH,m
16346,Kilian,HELSEN,1:16:42,2940,37:17,1:02:50,1:12:00,1:16:42,BEL,1,28,Borgerhout,4:46,12.59,SEH,m
1610,Vercammen,STEVEN,1:16:42,2941,38:32,1:03:47,1:12:24,1:16:42,BEL,1,30,Utrecht,4:46,12.59,SEH,m
772,Koen,SIMONS,1:16:42,2942,39:16,1:03:59,1:12:29,1:16:42,BEL,1,41,Zwevezele,4:46,12.59,M40,m
19831,Tuur,DENIS,1:16:42,2943,40:07,1:04:29,1:12:36,1:16:42,BEL,1,24,Brasschaat,4:46,12.59,SEH,m
19552,Fien,MOREELS,1:16:42,2944,38:02,1:03:56,1:12:25,1:16:42,BEL,1,24,Zele,4:46,12.59,SEF,f
4471,Dirk,WILS,1:16:42,2945,38:19,1:03:35,1:12:15,1:16:42,BEL,1,50,Lichtaart,4:46,12.59,M50,m
19508,Dominik,BEIRNAERT,1:16:42,2946,38:53,1:03:31,1:12:18,1:16:42,BEL,1,42,Lokeren,4:46,12.59,M40,m
3178,Eli,FOUQUAERT,1:16:42,2947,38:27,1:03:32,1:12:29,1:16:42,BEL,1,19,Sint-Niklaas,4:46,12.59,SEH,m
29258,Caroline,HALET,1:16:42,2948,39:09,1:04:04,1:12:26,1:16:42,BEL,1,41,Onkerzele,4:46,12.59,F40,f
3356,Toon,JANSEGERS,1:16:43,2949,37:45,1:03:18,1:12:20,1:16:43,BEL,1,36,Antwerpen,4:46,12.59,M35,m
18882,Paul,NATHAN,1:16:43,2950,38:09,1:03:38,1:12:22,1:16:43,BEL,1,28,Zottegem,4:46,12.59,SEH,m
6740,Tom,MAES,1:16:43,2951,38:28,1:03:45,1:12:31,1:16:43,BEL,1,39,Kapellen,4:46,12.59,M35,m
16271,Andries,GORIS,1:16:43,2952,36:36,1:02:17,1:11:48,1:16:43,BEL,1,34,Ravels,4:46,12.59,SEH,m
18371,Sander,VERMEIR,1:16:43,2953,38:42,1:03:49,1:12:18,1:16:43,BEL,1,18,Geel,4:46,12.59,SEH,m
15317,Olivier,BROUCKAERT,1:16:43,2954,38:24,1:03:33,1:12:16,1:16:43,BEL,1,47,Ixelles,4:46,12.59,M45,m
19491,Maartje,DIAS,1:16:43,2955,38:27,1:04:14,1:12:45,1:16:43,NLD,1,40,Brasschaat,4:46,12.59,F40,f
19495,Sendu,LINDEMAN,1:16:43,2956,38:27,1:04:14,1:12:45,1:16:43,BEL,1,29,Ekeren,4:46,12.59,SEH,m
16861,Bertrand,MBIAFFIE,1:16:44,2957,38:24,1:03:33,1:12:17,1:16:44,FRA,1,47,Brussels,4:46,12.59,M45,m
35082,Lars,HUPPERTZ,1:16:44,2958,36:51,1:03:41,1:12:52,1:16:44,BEL,1,18,,4:46,12.59,SEH,m
4264,Pieter,VAN MELE,1:16:44,2959,39:56,1:04:34,1:12:45,1:16:44,BEL,1,37,Antwerpen,4:46,12.59,M35,m
21962,Jan,MEURIS,1:16:44,2960,38:28,1:03:59,1:12:30,1:16:44,BEL,1,38,Kalmthout,4:47,12.59,M35,m
44625,Nick,VAN GASTEL,1:16:45,2961,38:43,1:04:06,1:12:41,1:16:45,BEL,1,21,,4:47,12.59,SEH,m
18309,Nelis,VERGUCHT,1:16:45,2962,37:02,1:02:34,1:11:52,1:16:45,BEL,1,28,Ingooigem,4:47,12.58,SEH,m
37017,Martijn,HOUBEN,1:16:45,2963,38:21,1:03:33,1:12:19,1:16:45,BEL,1,28,Hasselt,4:47,12.58,SEH,m
16616,Benjamin,LAFAILLE,1:16:45,2964,39:01,1:04:10,1:12:29,1:16:45,BEL,1,29,Schoten,4:47,12.58,SEH,m
19294,Frederik,AMPE,1:16:45,2965,37:42,1:03:16,1:12:11,1:16:45,BEL,1,43,Deinze,4:47,12.58,M40,m
17511,Alex,STANCIU,1:16:45,2966,39:33,1:04:18,1:12:30,1:16:45,ROU,1,33,Rijkevorsel,4:47,12.58,SEH,m
18569,Raman,ZUYEUSKI,1:16:45,2967,38:37,1:03:47,1:12:24,1:16:45,BLR,1,33,?????,4:47,12.58,SEH,m
2489,Steven,VAN ROMPAY,1:16:45,2968,38:29,1:03:36,1:12:22,1:16:45,BEL,1,43,Bonheiden,4:47,12.58,M40,m
20139,David,BAERTS,1:16:46,2969,37:34,1:03:41,1:12:18,1:16:46,BEL,1,45,Wellen,4:47,12.58,M45,m
21855,Guido,TIJSKENS,1:16:46,2970,38:29,1:03:46,1:12:27,1:16:46,BEL,1,60,Leefdaal,4:47,12.58,M60,m
4991,Kurt,CERTYN,1:16:46,2971,37:45,1:03:19,1:12:14,1:16:46,BEL,1,54,Lokeren,4:47,12.58,M50,m
21898,Anthony,IUDICELLO,1:16:46,2972,37:19,1:02:37,1:11:56,1:16:46,BEL,1,48,Zwijndrecht,4:47,12.58,M45,m
37085,Antoine,SPAUWEN,1:16:46,2973,37:50,1:03:26,1:12:17,1:16:46,BEL,1,41,Brasschaat,4:47,12.58,M40,m
36663,An,KARNAS,1:16:47,2974,38:34,1:03:42,1:12:29,1:16:47,BEL,1,44,Aartselaar,4:47,12.58,F40,f
3411,Matti,KEYAERTS,1:16:47,2975,38:33,1:03:44,1:12:35,1:16:47,BEL,1,29,Bertem,4:47,12.58,SEH,m
2351,Yoran,PEETERS,1:16:47,2976,39:21,1:04:17,1:12:42,1:16:47,BEL,1,26,Ravels,4:47,12.58,SEH,m
6737,Jurgen,LEFERE,1:16:47,2977,38:54,1:03:57,1:12:26,1:16:47,BEL,1,49,Beveren,4:47,12.58,M45,m
3418,Luc,KNAEPEN,1:16:48,2978,37:15,1:02:58,1:12:13,1:16:48,BEL,1,51,Herk-De-Stad,4:47,12.58,M50,m
6751,Sammy,STRAETMANS,1:16:48,2979,38:31,1:03:45,1:12:24,1:16:48,BEL,1,41,Bazel,4:47,12.58,M40,m
5301,Bart,BUYSSE,1:16:48,2980,38:28,1:03:23,1:12:14,1:16:48,BEL,1,39,Brussel,4:47,12.57,M35,m
22061,Nico,VAN LAER,1:16:49,2981,38:25,1:03:39,1:12:37,1:16:49,BEL,1,36,Boechout,4:47,12.57,M35,m
2696,Giel,BOLLANSÉE,1:16:49,2982,37:38,1:03:13,1:12:19,1:16:49,BEL,1,25,Antwerpen,4:47,12.57,SEH,m
15280,Wouter,BOTERMANS,1:16:49,2983,38:21,1:03:34,1:12:20,1:16:49,BEL,1,27,Gierle,4:47,12.57,SEH,m
4588,Wim,COPPIETERS,1:16:49,2984,38:08,1:03:21,1:12:30,1:16:49,BEL,1,47,Steendorp,4:47,12.57,M45,m
4173,Jan,VANDEWEYER,1:16:49,2985,38:26,1:03:36,1:12:21,1:16:49,BEL,1,56,Lummen,4:47,12.57,M55,m
6350,Geert,VANSPAUWEN,1:16:49,2986,38:11,1:03:33,1:12:14,1:16:49,BEL,1,48,Crisnée,4:47,12.57,M45,m
5336,Mamadou,BAH,1:16:49,2987,37:40,1:03:24,1:12:17,1:16:49,GIN,1,21,,4:47,12.57,SEH,m
21040,Léonard,JULÉMONT,1:16:49,2988,38:55,1:04:23,1:12:53,1:16:49,BEL,1,0,Machelen,4:47,12.57,-,m
14247,Emile,VAN ASSCHE,1:16:50,2989,38:43,1:03:54,1:12:18,1:16:50,BEL,1,26,Gent,4:47,12.57,SEH,m
19113,Kevin,KERCKHOFS,1:16:50,2990,38:37,1:03:58,1:12:31,1:16:50,BEL,1,41,Wiekevorst,4:47,12.57,M40,m
16417,Robert,HOPSTAKEN,1:16:50,2991,38:06,1:03:33,1:12:37,1:16:50,NLD,1,50,Roosendaal,4:47,12.57,M50,m
37953,Xavier,DE VOS,1:16:50,2992,38:38,1:04:00,1:12:34,1:16:50,BEL,1,56,Gent,4:47,12.57,M55,m
4480,Magdalena,WOJTOWICZ,1:16:50,2993,40:01,1:04:25,1:12:42,1:16:50,POL,1,36,Mortsel,4:47,12.57,F35,f
3363,Koen,JANSSEN,1:16:50,2994,38:40,1:04:10,1:12:38,1:16:50,BEL,1,38,Wakkerzeel,4:47,12.57,M35,m
4330,Erwin,VAN ZANDVLIET,1:16:50,2995,37:47,1:03:30,1:12:21,1:16:50,NLD,1,32,Slagharen,4:47,12.57,SEH,m
17507,Tim,SPROCKEELS,1:16:50,2996,38:58,1:03:41,1:12:33,1:16:50,BEL,1,24,Zandhoven,4:47,12.57,SEH,m
5712,Dieter,METS,1:16:51,2997,38:42,1:03:41,1:12:24,1:16:51,BEL,1,34,Dendermonde,4:47,12.57,SEH,m
3614,Guy,MOMMENS,1:16:51,2998,37:39,1:03:27,1:12:22,1:16:51,BEL,1,56,Beerse,4:47,12.57,M55,m
2903,Frederik,DE BRUYNE,1:16:51,2999,36:11,1:02:13,1:11:57,1:16:51,BEL,1,36,Sint Niklaas,4:47,12.57,M35,m
3284,Matthew,HELLEMANS,1:16:51,3000,37:47,1:03:43,1:12:23,1:16:51,BEL,1,27,Boom,4:47,12.57,SEH,m
