runner id,name,lastname,time,rank,checkpt0,checkpt1,checkpt2,checkpt3,nationality,finished,age,city,team,pace,speed,category,sex
5421,Natan,DEPAUW,1:16:51,3001,38:06,1:03:43,1:12:44,1:16:51,BEL,1,24,Schilde,4:47,12.57,SEH,m
66,Ntah,ANGEH Emmanuel,1:16:51,3002,38:46,1:04:11,1:12:30,1:16:51,CMR,1,33,Mortsel,4:47,12.57,SEH,m
35287,Christian,CONDE,1:16:51,3003,39:37,1:04:01,1:12:25,1:16:51,BEL,1,19,,4:47,12.57,SEH,m
20974,Ludo,DUBOIS,1:16:51,3004,37:18,1:03:05,1:12:17,1:16:51,BEL,1,62,Wuustwezel,4:47,12.57,M60,m
35900,Aldo,KETS,1:16:51,3005,39:20,1:03:53,1:12:50,1:16:51,BEL,1,17,,4:47,12.57,SEH,m
19951,Lander,KIVIT,1:16:51,3006,39:14,1:03:49,1:12:26,1:16:51,BEL,1,27,Turnhout,4:47,12.57,SEH,m
44421,Andreas,TINDEMANS,1:16:51,3007,37:09,1:02:35,1:11:57,1:16:51,BEL,1,21,Kontich,4:47,12.57,SEH,m
2824,Andy,COOLS,1:16:51,3008,38:50,1:04:51,1:12:48,1:16:51,BEL,1,44,Laakdal,4:47,12.57,M40,m
29344,William,FAES,1:16:51,3009,38:44,1:03:50,1:12:39,1:16:51,NLD,1,48,Kloosterzande,4:47,12.57,M45,m
20044,Jan,FOLLENS,1:16:52,3010,39:52,1:04:25,1:12:41,1:16:52,BEL,1,33,Waasmunster,4:47,12.57,SEH,m
5837,Kim,OFFERGELD,1:16:52,3011,38:24,1:04:00,1:12:54,1:16:52,BEL,1,39,Kontich,4:47,12.57,F35,f
