runner id,name,lastname,time,rank,checkpt0,checkpt1,checkpt2,checkpt3,nationality,finished,age,city,team,pace,speed,category,sex
35367,Lore,DHAENE,1:54:39,21001,54:46,1:33:39,1:47:24,1:54:39,BEL,1,21,,7:08,8.42,SEF,f
36921,Ben,VAN CAMPFORT,1:54:40,21002,57:37,1:35:47,1:48:53,1:54:40,BEL,1,26,Kapellen,7:08,8.42,SEH,m
3976,Ramona,THIELENS,1:54:40,21003,53:37,1:32:27,1:47:31,1:54:40,BEL,1,39,Neeroeteren,7:08,8.42,F35,f
33703,Sylvia,VANDEN BOSSCHE,1:54:41,21004,55:04,1:34:19,1:47:46,1:54:41,BEL,1,41,Affligem,7:08,8.42,F40,f
31320,Emilie,DE ZUTTER,1:54:42,21005,54:54,1:34:14,1:47:41,1:54:42,BEL,1,31,Hallaar,7:08,8.42,SEF,f
23454,Lachaert,JEROME,1:54:42,21006,56:39,1:34:34,1:48:17,1:54:42,BEL,1,44,Zwijnaarde,7:08,8.42,M40,m
30686,Joke,CUPPENS,1:54:42,21007,56:18,1:34:13,1:47:53,1:54:42,BEL,1,38,Deurne,7:08,8.42,F35,f
15856,Mara,DE RIDDER,1:54:42,21008,53:59,1:33:42,1:47:47,1:54:42,BEL,1,21,Belsele,7:08,8.42,SEF,f
35769,Luc,VAN LIMPT,1:54:42,21009,58:24,1:36:08,1:48:57,1:54:42,BEL,1,20,,7:08,8.42,SEH,m
36767,Joris,CRAESSAERTS,1:54:43,21010,50:55,1:33:10,1:47:20,1:54:43,BEL,1,23,Korten,7:08,8.42,SEH,m
7112,Chris,VAN MAROEY,1:54:43,21011,56:10,1:34:20,1:48:18,1:54:43,BEL,1,55,Bonheiden,7:08,8.42,F55,f
32003,Joke,JANSSENS,1:54:43,21012,56:28,1:34:39,1:47:45,1:54:43,BEL,1,29,Heist-Op-Den-Berg,7:08,8.42,SEF,f
32010,Mieke,JANSSENS,1:54:44,21013,56:28,1:34:39,1:47:45,1:54:44,BEL,1,33,Ramsel,7:08,8.42,SEF,f
31635,Ellen,GILLIS,1:54:45,21014,56:04,1:34:16,1:48:01,1:54:45,BEL,1,23,Essene,7:08,8.42,SEF,f
32172,Farah,LAMBRECHTS,1:54:45,21015,56:52,1:34:33,1:48:11,1:54:45,BEL,1,23,Genk,7:08,8.42,SEF,f
16494,Nathan,JANSSENS,1:54:46,21016,50:26,1:31:20,1:47:08,1:54:46,BEL,1,30,Antwerpen,7:08,8.42,SEH,m
36827,Steven,DEPOORTERE,1:54:46,21017,53:34,1:32:41,1:47:30,1:54:46,BEL,1,31,Harelbeke,7:08,8.42,SEH,m
33613,Emilie,VAN CAUTEREN,1:54:46,21018,56:04,1:34:17,1:48:02,1:54:46,BEL,1,23,Oudegem,7:08,8.42,SEF,f
34993,Zoê,VAN DER VEKEN,1:54:47,21019,53:42,1:33:52,1:47:49,1:54:47,BEL,1,15,,7:08,8.41,SEF,f
6833,Marijn,SERNEELS,1:54:47,21020,49:51,1:39:45,1:50:09,1:54:47,BEL,1,24,Brugge,7:08,8.41,SEH,m
22316,André,STUER,1:54:47,21021,55:57,1:33:47,1:47:57,1:54:47,BEL,1,69,Antwerpen,7:08,8.41,M65,m
22419,Frank,HUYBRECHTS,1:54:48,21022,57:58,1:36:43,1:48:41,1:54:48,BEL,1,47,Geel,7:08,8.41,M45,m
32615,Frank,MUYLLE,1:54:48,21023,57:01,1:34:57,1:48:18,1:54:48,BEL,1,60,Wijnegem,7:08,8.41,M60,m
30424,Kaat,BUYTAERT,1:54:49,21024,55:13,1:33:08,1:47:23,1:54:49,BEL,1,25,Kruibeke,7:08,8.41,SEF,f
18794,Ortiz,CAROLINA Almanza,1:54:49,21025,54:49,1:33:35,1:48:03,1:54:49,COL,1,33,Antwerp,7:08,8.41,SEF,f
32252,Josee,LENAERTS,1:54:50,21026,55:43,1:34:41,1:48:19,1:54:50,BEL,1,54,Vilvoorde,7:09,8.41,F50,f
32908,Pieter,POTTIER,1:54:51,21027,58:25,1:35:33,1:48:40,1:54:51,BEL,1,40,Sint-Amandsberg,7:09,8.41,M40,m
22966,Rene,RWANKUBILI,1:54:52,21028,52:07,1:33:19,1:48:09,1:54:52,BEL,1,33,Ganshoren,7:09,8.41,SEH,m
32536,Nick,MEURS,1:54:52,21029,58:12,1:35:24,1:48:27,1:54:52,BEL,1,34,Oostmalle,7:09,8.41,SEH,m
32528,Dorien,MESTACH,1:54:52,21030,58:12,1:35:24,1:48:27,1:54:52,BEL,1,32,Oostmalle,7:09,8.41,SEF,f
29958,Chris,CLAESSENS,1:54:52,21031,57:43,1:36:06,1:48:44,1:54:52,BEL,1,56,Brasschaat,7:09,8.41,M55,m
36380,Ilse,SMETS,1:54:52,21032,56:33,1:35:02,1:48:18,1:54:52,BEL,1,35,Breendonk,7:09,8.41,F35,f
33402,Steve,SZUSTAK,1:54:53,21033,54:53,1:33:03,1:48:00,1:54:53,BEL,1,44,Ixelles,7:09,8.41,M40,m
23142,Thomas,LEEMANS,1:54:53,21034,56:40,1:34:03,1:48:07,1:54:53,BEL,1,54,Antwerpen,7:09,8.41,M50,m
33401,Daniel,SZUSTAK,1:54:53,21035,54:54,1:33:04,1:48:00,1:54:53,BEL,1,71,Wilrijk,7:09,8.41,M70,m
31421,Marc,DUSCHEK,1:54:53,21036,58:13,1:35:25,1:48:28,1:54:53,BEL,1,48,Eikevliet,7:09,8.41,M45,m
34228,Elien,VAN STEENBERGEN,1:54:53,21037,58:12,1:35:25,1:48:27,1:54:53,BEL,1,22,Eikevliet,7:09,8.41,SEF,f
23141,Raf,VERTONGEN,1:54:53,21038,56:41,1:34:04,1:48:08,1:54:53,BEL,1,58,Antwerpen,7:09,8.41,M55,m
31744,Anna,HAESAERT,1:54:54,21039,53:27,1:35:52,1:48:30,1:54:54,BEL,1,19,Zemst,7:09,8.41,SEF,f
6580,Louise,MATTHYS,1:54:54,21040,55:59,1:35:28,1:48:41,1:54:54,BEL,1,29,Berchem,7:09,8.41,SEF,f
32722,Marco,OSIER,1:54:54,21041,58:09,1:36:07,1:49:23,1:54:54,BEL,1,16,Zoersel,7:09,8.41,SEH,m
4993,Maaike,QUINTELIER,1:54:54,21042,55:08,1:34:23,1:47:54,1:54:54,BEL,1,36,Lokeren,7:09,8.41,F35,f
30108,Marion,BAETENS,1:54:54,21043,56:00,1:33:46,1:48:27,1:54:54,BEL,1,23,Gentbrugge,7:09,8.41,SEF,f
32069,Gözde,KAYA,1:54:54,21044,56:00,1:33:46,1:48:28,1:54:54,BEL,1,25,Gent,7:09,8.41,SEF,f
33321,Nathalie,STERCK,1:54:54,21045,55:25,1:34:27,1:48:17,1:54:54,BEL,1,33,Lochristi,7:09,8.41,SEF,f
36744,Nele,PARYS,1:54:54,21046,57:10,1:34:54,1:48:15,1:54:54,BEL,1,31,Mechelen,7:09,8.41,SEF,f
33568,Silke,VAN BAUWEL,1:54:55,21047,55:06,1:34:24,1:48:01,1:54:55,BEL,1,28,Antwerpen,7:09,8.4,SEF,f
4995,Andy,VERTONGHEN,1:54:55,21048,55:08,1:34:22,1:47:54,1:54:55,BEL,1,41,Lokeren,7:09,8.4,M40,m
34571,Kris,WAGEMANS,1:54:56,21049,58:25,1:35:43,1:47:06,1:54:56,BEL,1,45,Kontich,7:09,8.4,M45,m
45000,Denise,DEMOLDER Kathy,1:54:57,21050,1:03:26,1:37:05,1:48:57,1:54:57,BEL,1,50,Gent,7:09,8.4,F50,f
2353,Robert,PEIRLINCK,1:54:58,21051,56:00,1:35:32,1:48:52,1:54:58,BEL,1,67,Herdersem,7:09,8.4,M65,m
36438,Elke,VAN DER VEEN,1:55:00,21052,56:11,1:34:02,1:48:13,1:55:00,BEL,1,38,Zichem,7:09,8.4,F35,f
23174,Sulaiman,JAFFA,1:55:00,21053,51:01,1:32:02,1:47:02,1:55:00,BEL,1,26,Antwerpen,7:09,8.4,SEH,m
21442,Patrick,BARBARY,1:55:00,21054,55:25,1:35:29,1:48:45,1:55:00,BEL,1,54,Stekene,7:09,8.4,M50,m
33489,Ellen,TOELEN,1:55:01,21055,55:52,1:34:37,1:48:17,1:55:01,BEL,1,36,Olmen,7:09,8.4,F35,f
30925,Tanja,DEGLIN,1:55:01,21056,54:58,1:34:01,1:48:13,1:55:01,BEL,1,51,Lo-Reninge,7:09,8.4,F50,f
30213,Marcia,BIJNENS,1:55:01,21057,56:48,1:35:43,1:48:35,1:55:01,BEL,1,32,Lommel,7:09,8.4,SEF,f
6613,Fatima,AAOUAM,1:55:01,21058,55:02,1:34:51,1:48:28,1:55:01,BEL,1,37,Antwerpen,7:09,8.4,F35,f
23405,Maurice,SIERENS,1:55:02,21059,55:13,1:34:54,1:48:10,1:55:02,BEL,1,84,Aalter,7:09,8.4,M80,m
34503,Cil,VERWAEST,1:55:03,21060,55:54,1:34:39,1:48:18,1:55:03,BEL,1,40,Retie,7:09,8.39,F40,f
38743,Yuri,OTERDOOM,1:55:03,21061,54:56,1:34:06,1:48:10,1:55:03,NLD,1,45,Antwerpen,7:09,8.39,M45,m
44252,Herwig,MARIËN,1:55:03,21062,55:45,1:33:39,1:48:29,1:55:03,BEL,1,62,Vremde,7:09,8.39,M60,m
1108,Laila,ZAIMI,1:55:04,21063,57:26,1:35:42,1:48:28,1:55:04,MAR,1,29,Lokeren,7:09,8.39,SEF,f
30495,Julie,CAUTEREELS,1:55:04,21064,56:01,1:34:37,1:48:17,1:55:04,BEL,1,28,Sint-Niklaas,7:09,8.39,SEF,f
35271,Liese,CEULEMANS,1:55:05,21065,55:24,1:35:00,1:48:32,1:55:05,BEL,1,19,,7:09,8.39,SEF,f
33476,Jolanda,TIMMERMANS,1:55:05,21066,54:32,1:33:16,1:47:54,1:55:05,NLD,1,52,Baarle-Hertog,7:09,8.39,F50,f
33202,Heike,SIMONS,1:55:06,21067,58:24,1:35:41,1:48:47,1:55:06,BEL,1,26,Hoevenen,7:09,8.39,SEF,f
23296,Karin,VAN MECHELEN,1:55:06,21068,56:00,1:34:51,1:48:24,1:55:06,BEL,1,46,Schoten,7:10,8.39,F45,f
30428,Jilly,CABERNEL,1:55:07,21069,58:24,1:35:41,1:48:48,1:55:07,BEL,1,25,Boechout,7:10,8.39,SEF,f
7327,Nick,VERELST,1:55:08,21070,57:01,1:33:55,1:47:57,1:55:08,BEL,1,31,Ekeren,7:10,8.39,SEH,m
37927,David,DEBIE,1:55:08,21071,56:35,1:34:39,1:48:37,1:55:08,BEL,1,42,Heffen,7:10,8.39,M40,m
31595,Bénine,GEUENS,1:55:09,21072,55:12,1:33:55,1:48:40,1:55:09,BEL,1,25,Tielt-Winge,7:10,8.39,SEF,f
22195,David,MAES,1:55:09,21073,56:57,1:35:12,1:48:34,1:55:09,BEL,1,36,Riemst,7:10,8.39,M35,m
36352,Godelieve,IMPENS,1:55:09,21074,56:48,1:35:08,1:48:13,1:55:09,BEL,1,67,Heldergem,7:10,8.39,F65,f
33385,Sofie,SWAENEPOEL,1:55:09,21075,56:08,1:34:49,1:48:31,1:55:09,BEL,1,42,Halle,7:10,8.39,F40,f
36348,Lisa,DE PELSMAEKER,1:55:10,21076,56:48,1:35:09,1:48:14,1:55:10,BEL,1,28,Heldergem,7:10,8.39,SEF,f
36528,Luc,BONGAERTS,1:55:11,21077,54:25,1:34:22,1:48:35,1:55:11,BEL,1,50,Veltem-Beisem,7:10,8.39,M50,m
22239,Maarten,VAN UFFEL,1:55:12,21078,58:18,1:35:39,1:48:42,1:55:12,BEL,1,38,Putte,7:10,8.38,M35,m
30586,Enrique,COLLAZOS,1:55:12,21079,49:06,1:29:19,1:45:56,1:55:12,ESP,1,34,Vilvoorde,7:10,8.38,SEH,m
31526,Sabine,FRANCK,1:55:13,21080,55:56,1:34:44,1:48:23,1:55:13,BEL,1,41,Reet,7:10,8.38,F40,f
32954,Sven,REDANT,1:55:13,21081,56:19,1:34:18,1:48:07,1:55:13,BEL,1,42,Wieze,7:10,8.38,M40,m
21647,Thys,BAEYENS,1:55:13,21082,53:26,1:32:17,1:47:52,1:55:13,BEL,1,30,Wommelgem,7:10,8.38,SEH,m
20769,Ingeborg,MARIMAN,1:55:13,21083,57:08,1:34:45,1:48:17,1:55:13,BEL,1,37,Waasmunster,7:10,8.38,F35,f
31139,Anja,DE RIJBEL,1:55:13,21084,56:19,1:34:18,1:48:20,1:55:13,BEL,1,39,Wieze,7:10,8.38,F35,f
2774,Joke,CARREIN,1:55:13,21085,55:50,1:33:54,1:48:08,1:55:13,BEL,1,42,Zonnebeke,7:10,8.38,F40,f
31696,Carine,GORREBEECK,1:55:13,21086,55:56,1:34:43,1:48:22,1:55:13,BEL,1,53,Borgerhout,7:10,8.38,F50,f
31728,Griet,GYS,1:55:14,21087,54:37,1:34:28,1:48:57,1:55:14,BEL,1,44,Dessel,7:10,8.38,F40,f
16658,Inez,LATHOUWERS,1:55:15,21088,53:51,1:33:25,1:48:23,1:55:15,BEL,1,31,Schoten,7:10,8.38,SEF,f
31405,Julie,DUCHI,1:55:15,21089,55:46,1:33:59,1:48:08,1:55:15,BEL,1,23,Westende,7:10,8.38,SEF,f
30115,Laura,BAFORT,1:55:15,21090,55:46,1:33:59,1:48:06,1:55:15,BEL,1,23,Oostende,7:10,8.38,SEF,f
16778,Dounya,MAAGOUZ,1:55:15,21091,57:12,1:35:08,1:48:20,1:55:15,BEL,1,38,Genk,7:10,8.38,F35,f
7099,Manuel,VAN DER PUT,1:55:17,21092,58:50,1:35:30,1:48:53,1:55:17,BEL,1,44,Zwijndrecht,7:10,8.38,M40,m
21611,Luuk,VAN SAS,1:55:17,21093,48:24,1:35:18,1:49:00,1:55:17,NLD,1,20,Alphen-Chaam,7:10,8.38,SEH,m
19998,Sven,DE PROFT,1:55:17,21094,56:43,1:34:05,1:48:53,1:55:17,BEL,1,44,Dendermonde,7:10,8.38,M40,m
31591,Verhaeghe,GERT,1:55:19,21095,58:19,1:38:14,1:50:07,1:55:19,BEL,1,23,Ranst,7:10,8.38,SEH,m
33649,Simon,VAN DAMME,1:55:20,21096,54:47,1:33:32,1:48:15,1:55:20,BEL,1,37,Wetteren,7:10,8.37,M35,m
5842,Jul,PEELAERS,1:55:20,21097,54:18,1:35:01,1:48:52,1:55:20,BEL,1,20,Herentals,7:10,8.37,SEH,m
7062,Laura,LION,1:55:20,21098,57:41,1:35:55,1:49:17,1:55:20,BEL,1,32,Deurne,7:10,8.37,SEF,f
34774,Liesbet,VANDEWEERD,1:55:21,21099,57:08,1:36:06,1:49:23,1:55:21,BEL,1,42,Landen,7:10,8.37,F40,f
31973,Tom,JACOBS,1:55:22,21100,52:58,1:32:56,1:47:52,1:55:22,NLD,1,35,Venlo,7:11,8.37,M35,m
20904,Lotte,DE REN,1:55:22,21101,58:12,1:35:32,1:48:57,1:55:22,BEL,1,28,Wuustwezel,7:11,8.37,SEF,f
30225,Gerrit,BLIGNAUT,1:55:22,21102,55:42,1:33:59,1:48:45,1:55:22,ZAF,1,38,Klerksdorp,7:11,8.37,M35,m
6843,Peter,VINCK,1:55:22,21103,55:59,1:34:57,1:48:35,1:55:22,BEL,1,54,Brugge,7:11,8.37,M50,m
31198,Hans,DE SMEDT,1:55:23,21104,58:12,1:37:10,1:49:03,1:55:23,BEL,1,52,Humbeek,7:11,8.37,M50,m
19814,Saskia,DE BODE,1:55:23,21105,55:42,1:34:21,1:48:36,1:55:23,BEL,1,44,Stekene,7:11,8.37,F40,f
33106,Dieter,SCHEPERS,1:55:24,21106,52:57,1:32:56,1:47:52,1:55:24,BEL,1,28,Averbode,7:11,8.37,SEH,m
34528,Guido,VITTIGLIO,1:55:24,21107,56:51,1:34:55,1:48:19,1:55:24,ITA,1,51,Hemiksem,7:11,8.37,M50,m
35717,Els,VAN DEN BROEK,1:55:25,21108,57:13,1:35:15,1:49:10,1:55:25,BEL,1,19,,7:11,8.37,SEF,f
6836,Cynthia,VAN DER LINDEN,1:55:25,21109,56:02,1:34:59,1:48:38,1:55:25,BEL,1,53,Brugge,7:11,8.37,F50,f
30927,Caroline,DE GRAEF,1:55:25,21110,58:15,1:36:03,1:48:57,1:55:25,BEL,1,33,Haasdonk,7:11,8.37,SEF,f
33899,Wim,VAN DORST,1:55:25,21111,55:50,1:33:19,1:48:21,1:55:25,BEL,1,35,Lint,7:11,8.37,M35,m
18877,Els,VAN OSSELAER,1:55:25,21112,58:15,1:36:03,1:48:57,1:55:25,BEL,1,40,Haasdonk,7:11,8.37,F40,f
33358,Sylvia,STROBBE,1:55:25,21113,55:44,1:34:23,1:48:38,1:55:25,BEL,1,40,Knesselare,7:11,8.37,F40,f
17448,Pravendra,SINGH,1:55:26,21114,48:47,1:30:20,1:47:29,1:55:26,BEL,1,39,Wilrijk,7:11,8.37,M35,m
6153,Nancy,STEENHOUT,1:55:27,21115,55:46,1:33:54,1:48:36,1:55:27,BEL,1,55,,7:11,8.37,F55,f
5723,Evelyne,BARDYN,1:55:28,21116,54:23,1:34:13,1:48:49,1:55:28,BEL,1,40,Kontich,7:11,8.36,F40,f
5785,Charlotte,GILS,1:55:28,21117,54:58,1:34:21,1:48:39,1:55:28,BEL,1,26,Edegem,7:11,8.36,SEF,f
5804,Britt,KOEKLENBERG,1:55:28,21118,54:22,1:34:13,1:48:49,1:55:28,BEL,1,16,Kontich,7:11,8.36,SEF,f
2230,Kenneth,JAH,1:55:28,21119,52:04,1:33:11,1:47:48,1:55:28,BEL,1,55,Lint,7:11,8.36,M55,m
30774,Robin,DE BLOCK,1:55:28,21120,56:06,1:34:31,1:48:21,1:55:28,BEL,1,42,Bruxelles,7:11,8.36,M40,m
30469,Hélène,CARLIER,1:55:29,21121,56:06,1:34:31,1:48:22,1:55:29,BEL,1,27,Bruxelles,7:11,8.36,SEF,f
35236,Julie,BERTA,1:55:29,21122,58:33,1:36:41,1:49:12,1:55:29,BEL,1,21,,7:11,8.36,SEF,f
3603,Anja,MIGNON,1:55:29,21123,56:12,1:35:45,1:49:19,1:55:29,BEL,1,47,Lebbeke,7:11,8.36,F45,f
33180,Sven,SEVENANS,1:55:30,21124,55:28,1:35:42,1:49:47,1:55:30,BEL,1,50,Antwerpen,7:11,8.36,M50,m
3407,Jurgen,KEPPENS,1:55:30,21125,56:12,1:35:45,1:49:19,1:55:30,BEL,1,45,Lebbeke,7:11,8.36,M45,m
3071,Greta,DE VYLDER,1:55:31,21126,57:19,1:35:08,1:48:46,1:55:31,BEL,1,74,Sint-Gilles Waas,7:11,8.36,F70,f
31775,Yasmine,HAVERMANS,1:55:31,21127,57:53,1:34:16,1:48:59,1:55:31,BEL,1,23,Schoten,7:11,8.36,SEF,f
3633,Lise,MULS,1:55:31,21128,54:53,1:34:35,1:48:51,1:55:31,BEL,1,23,Broechem,7:11,8.36,SEF,f
34680,Catrine,WOESTENBORGHS,1:55:31,21129,56:26,1:34:59,1:48:32,1:55:31,BEL,1,46,Vosselaar,7:11,8.36,F45,f
3041,Ilse,DE SCHRYVER,1:55:31,21130,57:18,1:35:07,1:48:24,1:55:31,BEL,1,49,Vrasene,7:11,8.36,F45,f
16839,Peter,MARQUEBREUCK,1:55:32,21131,53:17,1:33:33,1:48:46,1:55:32,BEL,1,34,Erpe-Mere,7:11,8.36,SEH,m
36735,Fran,CLAES,1:55:32,21132,57:11,1:35:15,1:48:46,1:55:32,BEL,1,38,Berchem,7:11,8.36,M35,m
35964,Veerle,EMBRECHTS,1:55:32,21133,56:26,1:34:58,1:48:32,1:55:32,BEL,1,45,,7:11,8.36,F45,f
23424,Jasmin,PEETERS,1:55:34,21134,56:05,1:35:24,1:48:50,1:55:34,DEU,1,36,Hove,7:11,8.36,F35,f
35766,Yenthe,VANKEER,1:55:34,21135,59:02,1:36:21,1:49:41,1:55:34,BEL,1,19,,7:11,8.36,SEF,f
23423,Yves,PEETERS,1:55:34,21136,56:04,1:35:24,1:48:50,1:55:34,BEL,1,37,Hove,7:11,8.36,M35,m
30412,Joni,BUSSENS,1:55:34,21137,54:16,1:35:51,1:48:56,1:55:34,BEL,1,23,Lokeren,7:11,8.36,SEF,f
34491,Ellen,VERTONGEN,1:55:35,21138,56:02,1:33:58,1:48:40,1:55:35,BEL,1,34,Ranst,7:11,8.36,SEF,f
14610,Gerrit,VAN DEN BREEDE,1:55:35,21139,55:01,1:34:40,1:48:26,1:55:35,BEL,1,57,Rotselaar,7:11,8.36,M55,m
32026,Nadia,JELASSI,1:55:35,21140,57:12,1:35:17,1:48:42,1:55:35,BEL,1,50,Hombeek,7:11,8.36,F50,f
35850,Ignacio,DE HOON,1:55:35,21141,53:55,1:32:59,1:49:10,1:55:35,BEL,1,19,,7:11,8.36,SEH,m
18011,Thierry,VAN HERCK,1:55:37,21142,56:24,1:34:55,1:49:19,1:55:37,BEL,1,33,Boechout,7:11,8.35,SEH,m
20437,Naji,FARNAZ,1:55:38,21143,55:42,0,1:48:49,1:55:38,NLD,1,31,Eindhoven,7:12,8.35,SEF,f
68,Willems,ANN,1:55:38,21144,55:04,1:34:28,1:48:17,1:55:38,BEL,1,52,Bouwel,7:12,8.35,F50,f
32517,Jeroen,MERTENS,1:55:39,21145,56:13,1:34:19,1:48:24,1:55:39,BEL,1,30,Antwerpen,7:12,8.35,SEH,m
30850,Leen,DE CLERCQ,1:55:39,21146,56:33,1:35:17,1:49:22,1:55:39,BEL,1,47,Lochristi,7:12,8.35,F45,f
31102,Evelien,DE PAUW,1:55:39,21147,56:55,1:35:34,1:49:08,1:55:39,BEL,1,25,Massemen,7:12,8.35,SEF,f
30584,Hilde,COLEN,1:55:39,21148,55:43,1:34:17,1:48:19,1:55:39,BEL,1,59,Wommelgem,7:12,8.35,F55,f
32522,Stefanie,MERTENS,1:55:39,21149,56:14,1:34:19,1:48:24,1:55:39,BEL,1,34,Berchem,7:12,8.35,SEF,f
32038,Peter,JOCHEMS,1:55:39,21150,58:22,1:36:50,1:49:48,1:55:39,BEL,1,68,Oelegem (Ranst),7:12,8.35,M65,m
38140,Kamishi,FRESKIM,1:55:39,21151,56:07,1:35:03,1:49:36,1:55:39,XKX,1,22,Borgerhout,7:12,8.35,SEH,m
19560,Nathan,SLABINCK,1:55:40,21152,56:06,1:33:29,1:49:25,1:55:40,BEL,1,26,Gent,7:12,8.35,SEH,m
30892,Inge,DE CRAEN,1:55:40,21153,57:56,1:36:07,1:49:04,1:55:40,BEL,1,46,Berchem,7:12,8.35,F45,f
30482,Jolien,CASTEELS,1:55:40,21154,57:54,1:36:03,1:48:59,1:55:40,BEL,1,27,Aalter,7:12,8.35,SEF,f
31785,Sichien,HEIDI,1:55:41,21155,57:56,1:36:07,1:49:04,1:55:41,BEL,1,45,Reet,7:12,8.35,F45,f
1182,Veronique,VLAMINCKX,1:55:41,21156,54:37,1:34:24,1:48:34,1:55:41,BEL,1,28,Zandvliet,7:12,8.35,SEF,f
6098,Florence,LENOIR,1:55:41,21157,56:24,1:35:30,1:48:59,1:55:41,BEL,1,54,,7:12,8.35,F50,f
31834,Manon,HERMANS,1:55:42,21158,56:10,1:36:07,1:49:18,1:55:42,BEL,1,27,Vilvoorde,7:12,8.35,SEF,f
8231,Joris,TIMMERMANS,1:55:44,21159,55:48,1:35:40,1:49:10,1:55:44,BEL,1,30,Brussel,7:12,8.35,SEH,m
939,Elise,VAN GOETHEM,1:55:45,21160,58:01,1:35:40,1:48:50,1:55:45,BEL,1,24,Melsele,7:12,8.34,SEF,f
32319,Sylvie,LOOTS,1:55:45,21161,58:01,1:36:19,1:49:20,1:55:45,BEL,1,32,Antwerpen,7:12,8.34,SEF,f
22330,Glenn,VAN BOVEN,1:55:45,21162,54:44,1:32:40,1:48:36,1:55:45,BEL,1,36,Weerde,7:12,8.34,M35,m
20531,Els,DEVENYNS,1:55:45,21163,55:19,1:36:43,1:49:22,1:55:45,BEL,1,55,Berchem,7:12,8.34,F55,f
7631,Sophie,VLOEBERGHS,1:55:47,21164,55:17,1:35:05,1:48:47,1:55:47,BEL,1,28,Ekeren,7:12,8.34,SEF,f
30191,Jurgen,BERVOETS,1:55:47,21165,57:56,1:36:06,1:49:05,1:55:47,BEL,1,39,Blakenberge,7:12,8.34,M35,m
33972,Martine,VAN HALLE,1:55:48,21166,57:56,1:36:06,1:49:05,1:55:48,BEL,1,48,Schoten,7:12,8.34,F45,f
33271,Peter,SOETEWEY,1:55:48,21167,55:34,1:34:37,1:49:14,1:55:48,BEL,1,31,Wilrijk,7:12,8.34,SEH,m
5353,Ibrahim,MANSARAY,1:55:48,21168,55:03,1:34:45,1:50:01,1:55:48,SLE,1,16,,7:12,8.34,SEH,m
38720,Freya,VAN RAEMDONCK,1:55:49,21169,56:19,1:34:18,1:48:47,1:55:49,BEL,1,22,Wiekevorst,7:12,8.34,SEF,f
4696,Stijn,PROVENIER,1:55:50,21170,55:25,1:33:12,1:48:49,1:55:50,BEL,1,28,Wetteren,7:12,8.34,SEH,m
5460,Antoine,KOEMAN,1:55:50,21171,51:40,1:33:01,1:49:10,1:55:50,BEL,1,26,Antwerp,7:12,8.34,SEH,m
29250,Lieven,RENIER,1:55:52,21172,56:23,1:35:26,1:49:17,1:55:52,BEL,1,41,Schilde,7:12,8.34,M40,m
29251,Karlien,ONCLIN,1:55:52,21173,56:23,1:35:27,1:49:18,1:55:52,BEL,1,40,Schilde,7:12,8.34,F40,f
37962,Katia,VAN BUYTEN,1:55:54,21174,55:14,1:34:21,1:48:45,1:55:54,BEL,1,51,Zaventem,7:12,8.33,F50,f
34648,Jana,WILLEMS,1:55:54,21175,55:38,1:34:36,1:48:40,1:55:54,BEL,1,21,Maldegem,7:13,8.33,SEF,f
36235,Michiel,D'HARTE,1:55:54,21176,56:56,1:35:02,1:48:53,1:55:54,BEL,1,32,Nederename,7:13,8.33,SEH,m
36468,Gert,HEYMAN,1:55:56,21177,56:55,1:35:31,1:49:30,1:55:56,BEL,1,40,Niel,7:13,8.33,M40,m
31843,Kelly,HESTERS,1:55:56,21178,55:19,1:34:21,1:48:53,1:55:56,BEL,1,38,Nieuwpoort,7:13,8.33,F35,f
15817,Elke,DENOLF,1:55:57,21179,54:22,1:34:14,1:50:06,1:55:57,BEL,1,35,Bavikhove,7:13,8.33,F35,f
31299,Filip,DE WIT,1:55:59,21180,57:58,1:36:06,1:49:24,1:55:59,BEL,1,46,Kalmthout,7:13,8.33,M45,m
173,Martijn,CASSELS,1:56:00,21181,52:18,1:32:19,1:48:47,1:56:00,NLD,1,0,Hoogerheide,7:13,8.33,-,m
31797,Werner,HELLEMANS,1:56:01,21182,58:09,1:36:10,1:49:29,1:56:01,BEL,1,47,Schilde,7:13,8.33,M45,m
31847,Emily,HEUTEN,1:56:02,21183,58:10,1:36:12,1:49:30,1:56:02,BEL,1,0,Zoersel,7:13,8.32,-,f
37904,Litchi,SIMONS Gert,1:56:02,21184,56:37,1:35:29,1:49:30,1:56:02,BEL,1,39,Lier,7:13,8.32,M35,m
36347,Carl,DE PELSMAEKER,1:56:02,21185,57:06,1:35:54,1:49:25,1:56:02,BEL,1,56,Heldergem,7:13,8.32,M55,m
36350,Inge,DE WIT,1:56:03,21186,57:07,1:35:55,1:49:27,1:56:03,BEL,1,54,Heldergem,7:13,8.32,F50,f
33028,Manon,RONDOU,1:56:04,21187,57:38,1:35:31,1:49:43,1:56:04,BEL,1,24,Onhaye,7:13,8.32,SEF,f
36147,Fien,VAN DE VYVER,1:56:05,21188,57:30,1:36:33,1:49:57,1:56:05,BEL,1,16,,7:13,8.32,SEF,f
31657,Aline,GOEMAN,1:56:06,21189,56:04,1:35:52,1:49:44,1:56:06,BEL,1,22,Aalst,7:13,8.32,SEF,f
31150,Yana,DE ROUCK,1:56:06,21190,56:04,1:35:52,1:49:44,1:56:06,BEL,1,24,Lebbeke,7:13,8.32,SEF,f
31849,Johan,HEUTEN,1:56:06,21191,58:15,1:36:16,1:49:35,1:56:06,BEL,1,47,Zoersel,7:13,8.32,M45,m
21891,Alain,WULLAERT,1:56:06,21192,54:45,1:34:19,1:49:27,1:56:06,BEL,1,53,Sint-Pauwels,7:13,8.32,M50,m
32192,Damme,LARA Van,1:56:06,21193,55:58,1:36:20,1:49:36,1:56:06,BEL,1,25,Ertvelde,7:13,8.32,SEF,f
2010,Ellen,ARTS,1:56:06,21194,55:06,1:34:10,1:48:59,1:56:06,BEL,1,24,Haaltert,7:13,8.32,SEF,f
2530,Michiel,VERHOFSTADT,1:56:07,21195,55:06,1:34:10,1:48:58,1:56:07,BEL,1,24,Haalter,7:13,8.32,SEH,m
32154,Cindy,LAENEN,1:56:07,21196,54:55,1:34:23,1:48:31,1:56:07,BEL,1,39,Vlimmeren,7:13,8.32,F35,f
5045,Raju,NARULA,1:56:08,21197,53:27,1:33:19,1:48:10,1:56:08,IND,1,52,Antwerpen,7:13,8.32,M50,m
34047,Ilona,VANISTERDAEL,1:56:09,21198,56:24,1:35:09,1:49:06,1:56:09,BEL,1,46,Saintes,7:13,8.32,F45,f
32072,Enoit,KELECOM B,1:56:09,21199,56:23,1:35:10,1:49:42,1:56:09,BEL,1,60,Uccle,7:13,8.32,M60,m
6065,Floortje,FIRLEFIJN,1:56:09,21200,59:18,1:37:50,1:50:19,1:56:09,BEL,1,39,,7:13,8.32,F35,f
30239,Petra,BOCKSTAELE,1:56:09,21201,56:21,1:34:56,1:49:09,1:56:09,BEL,1,48,Merelbeke,7:13,8.32,F45,f
30734,Patrick,DAUWE,1:56:09,21202,56:21,1:34:57,1:49:09,1:56:09,BEL,1,49,Merelbeke,7:13,8.31,M45,m
19737,Debora,HOSTE,1:56:10,21203,55:58,1:34:38,1:49:26,1:56:10,BEL,1,24,Heule,7:14,8.31,SEF,f
4928,Kevin,NOIRON,1:56:10,21204,56:03,1:35:48,1:49:15,1:56:10,BEL,1,33,Wuustwezel,7:14,8.31,SEH,m
15071,Jimmy,APPELEN,1:56:11,21205,50:21,1:33:25,1:49:59,1:56:11,BEL,1,39,Putte,7:14,8.31,M35,m
30437,Gwendolina,CALAERTS,1:56:12,21206,57:00,1:35:49,1:49:24,1:56:12,BEL,1,45,Hulshout,7:14,8.31,F45,f
38035,Dirk,VAN DE WALLE,1:56:12,21207,57:25,1:36:01,1:49:44,1:56:12,BEL,1,50,Zoersel,7:14,8.31,M50,m
7044,Jimmy,GESTELS,1:56:13,21208,57:51,1:35:29,1:50:09,1:56:13,BEL,1,47,Deurne,7:14,8.31,M45,m
6614,Helene,BOGAERTS,1:56:13,21209,57:38,1:35:53,1:49:43,1:56:13,BEL,1,25,Antwerpen,7:14,8.31,SEF,f
33209,Marijke,SIPS,1:56:15,21210,56:24,1:35:41,1:49:10,1:56:15,BEL,1,35,Westmalle,7:14,8.31,F35,f
44237,Sigrid,BAUWERAERTS,1:56:15,21211,56:34,1:35:42,1:49:24,1:56:15,BEL,1,38,Zoersel,7:14,8.31,F35,f
31402,Brigitte,DU BOIS DE NEVELE,1:56:16,21212,56:43,1:36:29,1:49:34,1:56:16,BEL,1,58,Kontich,7:14,8.31,F55,f
31984,Michael,JANS,1:56:16,21213,55:53,1:34:43,1:49:45,1:56:16,BEL,1,47,1851 - Humbeek,7:14,8.31,M45,m
35606,Sofie,PREUD'HOMME,1:56:16,21214,57:41,1:36:26,1:49:56,1:56:16,BEL,1,23,,7:14,8.31,SEF,f
32339,Linda,LUYTS,1:56:16,21215,56:43,1:36:29,1:49:35,1:56:16,BEL,1,58,Brasschaat,7:14,8.31,F55,f
36081,Caro,STELLJES,1:56:16,21216,57:15,1:36:00,1:50:08,1:56:16,BEL,1,18,,7:14,8.31,SEF,f
35311,Sofie,DAVID,1:56:16,21217,55:05,1:33:46,1:48:58,1:56:16,BEL,1,22,,7:14,8.31,SEF,f
31624,Matthew,GIELEN,1:56:17,21218,50:22,1:33:26,1:49:59,1:56:17,BEL,1,25,Berendrecht,7:14,8.31,SEH,m
15801,Katrien,DE MEY,1:56:17,21219,57:37,1:36:04,1:49:32,1:56:17,BEL,1,38,Beerzel,7:14,8.31,F35,f
30105,Clement,BAERTS,1:56:17,21220,56:11,1:35:56,1:49:46,1:56:17,BEL,1,51,Meise,7:14,8.31,M50,m
17307,Deborah,ROSSEEL,1:56:17,21221,57:37,1:36:04,1:49:32,1:56:17,BEL,1,32,Sint-Katelijne-Waver,7:14,8.31,SEF,f
6157,Catharina,SUYKENS,1:56:18,21222,56:49,1:35:38,1:49:12,1:56:18,BEL,1,58,,7:14,8.31,F55,f
34765,Sacha,VERBRUGGEN,1:56:18,21223,56:53,1:35:56,1:50:02,1:56:18,BEL,1,37,Antwerpen,7:14,8.3,M35,m
34759,Katja,MAES,1:56:18,21224,56:54,1:35:57,1:50:05,1:56:18,BEL,1,31,Antwerpen,7:14,8.3,SEF,f
34743,Natascha,ZOET,1:56:18,21225,57:49,1:36:27,1:49:45,1:56:18,NLD,1,45,Halle,7:14,8.3,F45,f
23470,Ali,KHAN,1:56:19,21226,55:10,1:34:21,1:49:24,1:56:19,BEL,1,31,Berlin,7:14,8.3,SEH,m
29248,Davide,ESPOSITO,1:56:19,21227,53:15,1:33:49,1:49:32,1:56:19,BEL,1,17,Kontich,7:14,8.3,SEH,m
18652,Kate,PATTIJN,1:56:19,21228,57:15,1:35:50,1:50:00,1:56:19,BEL,1,42,Kontich,7:14,8.3,F40,f
18650,Andrew,DE BRUYNE,1:56:20,21229,57:15,1:35:49,1:50:00,1:56:20,BEL,1,46,Melsele,7:14,8.3,M45,m
34357,Jelke,VERDOODT,1:56:20,21230,57:38,1:36:25,1:49:39,1:56:20,BEL,1,30,Merchtem,7:14,8.3,SEF,f
34355,Gitte,VERDOODT,1:56:20,21231,57:38,1:36:25,1:49:38,1:56:20,BEL,1,22,Merchtem,7:14,8.3,SEF,f
31809,Kelly,HENDRICKX,1:56:20,21232,57:38,1:36:25,1:49:39,1:56:20,BEL,1,32,Berg,7:14,8.3,SEF,f
36621,Caroline,DE CONINCK,1:56:20,21233,58:05,1:35:08,1:49:42,1:56:20,BEL,1,35,Kapellen,7:14,8.3,F35,f
18732,Jasper,GEERTS,1:56:21,21234,51:55,1:33:00,1:49:18,1:56:21,BEL,1,25,Antwerpen,7:14,8.3,SEH,m
23348,Johnny,GENNE,1:56:21,21235,57:18,1:35:18,1:49:17,1:56:21,BEL,1,51,Diepenbeek,7:14,8.3,M50,m
20400,Robby,D'HOOGHE,1:56:21,21236,56:36,1:34:31,1:49:59,1:56:21,BEL,1,32,Antwerpen,7:14,8.3,SEH,m
23371,Henry,PARIDAENS,1:56:22,21237,54:15,1:33:35,1:48:39,1:56:22,BEL,1,31,Braine-Le-Comte,7:14,8.3,SEH,m
33022,Cindy,ROMBAUT,1:56:23,21238,54:34,1:34:48,1:49:56,1:56:23,BEL,1,37,Steendorp,7:14,8.3,F35,f
35543,Lynn,MICHAUX,1:56:23,21239,56:18,1:35:02,1:49:48,1:56:23,BEL,1,21,,7:14,8.3,SEF,f
35310,Nick,DAVIDS,1:56:23,21240,56:18,1:35:02,1:49:47,1:56:23,BEL,1,22,,7:14,8.3,SEH,m
38724,Louise,VAN GYSEL,1:56:23,21241,57:20,1:36:34,1:49:56,1:56:23,BEL,1,19,Temse,7:14,8.3,SEF,f
8276,Jan,ZANIEWSKI,1:56:23,21242,57:00,1:36:02,1:50:18,1:56:23,BEL,1,27,1000,7:14,8.3,SEH,m
33921,Chris,VAN ELSACKER,1:56:24,21243,56:40,1:35:59,1:49:28,1:56:24,BEL,1,56,Schriek,7:14,8.3,F55,f
33922,Linda,VAN ELSACKER,1:56:24,21244,56:40,1:35:59,1:49:31,1:56:24,BEL,1,58,Schriek,7:14,8.3,F55,f
18721,Sharon,BULWIK,1:56:24,21245,55:32,1:35:19,1:49:16,1:56:24,BEL,1,30,Berchem,7:14,8.3,SEF,f
18727,Gianni,PROOST,1:56:24,21246,55:31,1:35:18,1:49:15,1:56:24,BEL,1,33,Mortsel,7:14,8.3,SEH,m
31488,Sofie,FEBER,1:56:25,21247,56:41,1:35:59,1:49:30,1:56:25,BEL,1,29,Antwerpen,7:14,8.3,SEF,f
34527,Vanessa,VITS,1:56:25,21248,56:40,1:36:00,1:49:28,1:56:25,BEL,1,39,Schriek,7:14,8.3,F35,f
37795,Marie,VERSELE,1:56:25,21249,55:21,1:35:31,1:49:47,1:56:25,BEL,1,17,Ertvelde,7:14,8.3,SEF,f
32342,Bart,MAAS,1:56:26,21250,57:28,1:36:53,1:50:33,1:56:26,BEL,1,52,Mortsel,7:14,8.3,M50,m
20957,Heidi,VAN MEERBEECK,1:56:26,21251,56:34,1:35:26,1:50:08,1:56:26,BEL,1,35,Ranst,7:14,8.3,F35,f
2874,Jana,DE BAETS,1:56:27,21252,53:02,1:31:59,1:48:04,1:56:27,BEL,1,22,Eeklo,7:15,8.29,SEF,f
4254,Nathalie,VAN LIERDE,1:56:27,21253,56:26,1:35:15,1:49:14,1:56:27,BEL,1,23,Herdersem,7:15,8.29,SEF,f
38670,Rik,VANDENWEGHE,1:56:28,21254,57:38,1:35:42,1:49:47,1:56:28,BEL,1,64,Wechelderzande,7:15,8.29,M60,m
36800,Michiel,GELLYNCK,1:56:28,21255,56:31,1:34:57,1:49:21,1:56:28,BEL,1,27,Mariakerke,7:15,8.29,SEH,m
44675,Katleen,VAN OVERLOOP,1:56:28,21256,58:47,1:36:03,1:50:24,1:56:28,BEL,1,44,Stekene,7:15,8.29,F40,f
31229,Eva,DETREZ,1:56:29,21257,57:17,1:35:44,1:49:48,1:56:29,BEL,1,37,Dilsen,7:15,8.29,F35,f
21000,Erik,AERTS,1:56:30,21258,54:52,1:34:20,1:49:41,1:56:30,BEL,1,0,Machelen,7:15,8.29,-,m
7020,Kristien,BIJLO,1:56:31,21259,56:59,1:35:48,1:49:39,1:56:31,BEL,1,45,Deinze,7:15,8.29,F45,f
35108,Mohssine,MGHARBI,1:56:34,21260,51:41,1:30:02,1:50:01,1:56:34,BEL,1,16,,7:15,8.29,SEH,m
38651,Yvonne,NOORDZIJ,1:56:34,21261,55:56,1:35:06,1:49:48,1:56:34,NLD,1,50,Zwijndrecht,7:15,8.29,F50,f
18038,Sofie,VANHOUT,1:56:36,21262,59:38,1:37:14,1:50:14,1:56:36,BEL,1,38,Ooigem,7:15,8.28,F35,f
29967,Laurien,HOECKX,1:56:36,21263,59:07,1:37:39,1:50:20,1:56:36,BEL,1,21,Berchem,7:15,8.28,SEF,f
19719,Gaëlle,CARLIER,1:56:38,21264,55:58,1:34:55,1:49:39,1:56:38,BEL,1,28,Beselare,7:15,8.28,SEF,f
20889,Jelle,HELLEMANS,1:56:38,21265,59:19,1:37:56,1:50:57,1:56:38,BEL,1,34,Hofstade,7:15,8.28,SEH,m
5935,Ahamed,BAKALI,1:56:38,21266,53:15,1:34:20,1:49:05,1:56:38,BEL,1,51,Brussel,7:15,8.28,M50,m
22372,Kim,EYCKMANS,1:56:39,21267,52:49,1:34:23,1:50:36,1:56:39,BEL,1,39,Schelle,7:15,8.28,M35,m
33783,Julie,VAN DER GUCHT,1:56:39,21268,55:58,1:35:34,1:49:31,1:56:39,BEL,1,25,Wetteren,7:15,8.28,SEF,f
6177,Lieven,VAN DER GUCHT,1:56:39,21269,55:58,1:35:34,1:49:32,1:56:39,BEL,1,55,,7:15,8.28,M55,m
17037,Marie-Hélène,NOTREDAME,1:56:39,21270,52:01,1:34:07,1:49:48,1:56:39,BEL,1,23,Roeselare,7:15,8.28,SEF,f
30745,Ruben,DE BACKER,1:56:39,21271,55:34,1:35:09,1:50:00,1:56:39,BEL,1,25,Viersel,7:15,8.28,SEH,m
20774,Jessy,MICHIELS,1:56:40,21272,1:00:16,1:38:07,1:51:04,1:56:40,BEL,1,48,Deurne,7:15,8.28,M45,m
30585,Glenda,COLIN,1:56:41,21273,55:31,1:35:16,1:48:58,1:56:41,BEL,1,32,Halle Zoersel,7:15,8.28,SEF,f
32757,Danielle,PATERNOTTE,1:56:41,21274,55:29,1:35:44,1:49:49,1:56:41,BEL,1,60,Kapellen,7:15,8.28,F60,f
34508,Ellen,VETS,1:56:41,21275,56:30,1:35:00,1:49:42,1:56:41,BEL,1,23,Poederlee,7:15,8.28,SEF,f
19885,Kumar,KOLLURI Arun,1:56:42,21276,54:48,1:35:37,1:50:10,1:56:42,IND,1,28,Antwerpen,7:15,8.28,SEH,m
34730,Yliana,YGODT,1:56:42,21277,55:31,1:35:15,1:48:58,1:56:42,BEL,1,13,Halle Zoersel,7:15,8.28,SEF,f
32422,Nicole,MARSTBOOM,1:56:42,21278,57:50,1:36:32,1:49:42,1:56:42,BEL,1,59,Wilrijk,7:15,8.28,F55,f
34135,Zeb,VAN OLMEN,1:56:42,21279,56:30,1:35:01,1:49:43,1:56:42,BEL,1,23,Pulderbos,7:15,8.28,SEH,m
36149,Vanessa,PAELINCKX,1:56:42,21280,56:51,1:36:11,1:50:20,1:56:42,BEL,1,42,,7:16,8.28,F40,f
35601,Nick,PODEVYN,1:56:43,21281,54:08,1:35:39,1:48:59,1:56:43,BEL,1,20,,7:16,8.28,SEH,m
38008,Guido,MOMERENCY,1:56:43,21282,57:50,1:36:31,1:49:50,1:56:43,BEL,1,52,Deurne,7:16,8.28,M50,m
2041,Kim,BOSMAN,1:56:43,21283,59:59,1:38:06,1:50:18,1:56:43,BEL,1,37,Kallo,7:16,8.28,F35,f
36148,Peggy,BOOTEN,1:56:43,21284,56:51,1:36:11,1:50:20,1:56:43,BEL,1,39,,7:16,8.27,F35,f
3128,Jasminka,D'SOUZA,1:56:43,21285,57:41,1:36:24,1:50:09,1:56:43,HRV,1,40,Bruxelles,7:16,8.27,F40,f
44588,Vrielink,HARRY,1:56:44,21286,57:04,1:36:40,1:49:40,1:56:44,NLD,1,69,Merksem,7:16,8.27,M65,m
2422,Inge,THOMAES,1:56:44,21287,59:59,1:38:07,1:50:17,1:56:44,BEL,1,38,Kallo,7:16,8.27,F35,f
36093,Luna,VAN PEER,1:56:44,21288,57:26,1:37:30,1:51:09,1:56:44,BEL,1,18,,7:16,8.27,SEF,f
19618,Frank,VERBERT,1:56:44,21289,54:42,1:35:12,1:49:42,1:56:44,BEL,1,53,Kontich,7:16,8.27,M50,m
33439,Louis,THIELMAN,1:56:44,21290,55:23,1:35:01,1:49:43,1:56:44,BEL,1,24,Koksijde,7:16,8.27,SEH,m
31929,Dirk,HUYGE,1:56:45,21291,52:03,1:34:26,1:50:05,1:56:45,BEL,1,47,Mechelen,7:16,8.27,M45,m
5702,Ilse,TINDEMANS,1:56:45,21292,1:00:01,1:38:08,1:50:19,1:56:45,BEL,1,43,Melsele,7:16,8.27,F40,f
31294,Louise,DE WINTER,1:56:46,21293,56:28,1:36:01,1:49:44,1:56:46,BEL,1,21,Kruishoutem,7:16,8.27,SEF,f
3213,Maria,GEYS,1:56:46,21294,58:28,1:36:27,1:49:49,1:56:46,BEL,1,60,Rijkevorsel,7:16,8.27,F60,f
35803,Yentl,VERBORGT,1:56:46,21295,58:31,1:37:06,1:50:40,1:56:46,BEL,1,23,,7:16,8.27,SEF,f
31452,Célien,ENGELEN,1:56:47,21296,54:58,1:35:23,1:49:27,1:56:47,BEL,1,26,Retie,7:16,8.27,SEF,f
44467,Annelies,PAUWELS,1:56:47,21297,56:30,1:35:47,1:49:41,1:56:47,BEL,1,29,Geel,7:16,8.27,SEF,f
21338,Vanessa,LAKHANISKY,1:56:47,21298,54:49,1:35:10,1:50:03,1:56:47,BEL,1,38,Antwerpen,7:16,8.27,F35,f
7081,Erik,SCHOENMAEKERS,1:56:47,21299,53:25,1:33:12,1:49:46,1:56:47,BEL,1,40,Borsbeek,7:16,8.27,M40,m
19711,Kargbo,TAYLOR,1:56:47,21300,55:03,1:34:45,1:50:10,1:56:47,BEL,1,29,Deurne,7:16,8.27,SEH,m
7708,Dorien,WIJDOOGHE,1:56:48,21301,55:18,1:36:48,1:50:20,1:56:48,BEL,1,31,Wilrijk,7:16,8.27,SEF,f
30972,Magali,DE KEUKELEIRE,1:56:48,21302,57:51,1:36:35,1:50:02,1:56:48,BEL,1,38,Berlare,7:16,8.27,F35,f
7706,Liesbeth,VERHEYEN,1:56:48,21303,55:18,1:36:48,1:50:20,1:56:48,BEL,1,28,Wilrijk,7:16,8.27,SEF,f
32674,Caroline,NOËL,1:56:49,21304,56:52,1:36:32,1:50:03,1:56:49,BEL,1,42,Leerbeek,7:16,8.27,F40,f
21816,Jacqueline,SÈVE,1:56:49,21305,55:54,1:35:09,1:50:00,1:56:49,BEL,1,64,Antwerpen,7:16,8.27,F60,f
34364,Els,VEREECKEN,1:56:49,21306,57:50,1:36:34,1:50:02,1:56:49,BEL,1,34,Overmere,7:16,8.27,SEF,f
31241,Jurn,DE VLEESCHAUWER,1:56:49,21307,58:06,1:37:43,1:50:55,1:56:49,BEL,1,48,Bottelare,7:16,8.27,M45,m
31221,Veerle,DE SOETE,1:56:51,21308,56:21,1:35:37,1:49:54,1:56:51,BEL,1,50,Brugge,7:16,8.27,F50,f
36573,Philippe,TANGHE,1:56:51,21309,58:33,1:37:02,1:50:28,1:56:51,BEL,1,30,Oostmalle,7:16,8.27,SEH,m
36513,Hendrik,VAN HOOREWEGHE,1:56:52,21310,57:58,1:36:08,1:50:09,1:56:52,BEL,1,50,Berchem,7:16,8.26,M50,m
33221,Maarten,SLUIJS,1:56:52,21311,53:25,1:33:44,1:49:13,1:56:52,BEL,1,27,Merksem,7:16,8.26,SEH,m
34544,Sofie,VOLLEKINDT,1:56:53,21312,57:46,1:35:55,1:50:32,1:56:53,BEL,1,38,Oedelem,7:16,8.26,F35,f
30640,Gerda,CORNELISSEN,1:56:53,21313,54:48,1:35:04,1:50:27,1:56:53,BEL,1,59,Haasdonk,7:16,8.26,F55,f
21340,Sam,PEETERS,1:56:53,21314,53:58,1:34:29,1:50:08,1:56:53,BEL,1,30,Wuustwezel,7:16,8.26,SEH,m
30123,Anouk,BALLEGEER,1:56:53,21315,57:47,1:35:55,1:50:32,1:56:53,BEL,1,43,Oedelem,7:16,8.26,F40,f
36546,Eloïse,GANHY,1:56:53,21316,58:36,1:37:05,1:50:31,1:56:53,BEL,1,26,Jodoigne,7:16,8.26,SEF,f
5434,Gery,DUYCK,1:56:54,21317,58:42,1:37:35,1:50:34,1:56:54,BEL,1,32,St-Niklaas,7:16,8.26,SEH,m
32331,Alizée,LUST,1:56:56,21318,56:20,1:35:19,1:49:50,1:56:56,BEL,1,27,Mons,7:16,8.26,SEF,f
4627,Christy,MASSON,1:56:57,21319,57:56,1:36:23,1:50:07,1:56:57,BEL,1,32,Stabroek,7:16,8.26,SEF,f
4624,Sofie,DE VREE,1:56:57,21320,57:56,1:36:23,1:50:07,1:56:57,BEL,1,37,Antwerpen,7:16,8.26,F35,f
7334,Anita,ADAN,1:56:58,21321,55:53,1:35:25,1:50:03,1:56:58,BEL,1,53,Rijkevorsel,7:16,8.26,F50,f
21197,Edo,RENSMAN,1:56:58,21322,50:08,1:29:37,1:50:44,1:56:58,NLD,1,47,Amsterdam,7:16,8.26,M45,m
21398,Barbara,VERBEECK,1:56:59,21323,56:30,1:36:30,1:50:23,1:56:59,BEL,1,33,Gent,7:17,8.26,SEF,f
34001,Lisa,VAN HIMBEECK,1:56:59,21324,55:30,1:35:39,1:49:51,1:56:59,BEL,1,25,Kraainem,7:17,8.26,SEF,f
30638,Rudi,CORNELIS,1:56:59,21325,55:07,1:35:01,1:49:36,1:56:59,BEL,1,64,Berchem,7:17,8.26,M60,m
32979,Rob,RICHARDS,1:56:59,21326,56:21,1:37:27,1:50:28,1:56:59,GBR,1,45,Amsterdam,7:17,8.26,M45,m
6292,Charlotte,VETS,1:57:00,21327,58:29,1:37:15,1:50:34,1:57:00,BEL,1,25,Antwerpen,7:17,8.25,SEF,f
30959,Malou,DE JONGHE,1:57:00,21328,58:29,1:37:15,1:50:35,1:57:00,BEL,1,25,Berchem,7:17,8.25,SEF,f
34000,Filip,VAN HIMBEECK,1:57:00,21329,55:31,1:35:41,1:49:53,1:57:00,BEL,1,58,Kraainem,7:17,8.25,M55,m
30853,Nathalie,DE CLERCQ,1:57:01,21330,57:52,1:37:07,1:50:34,1:57:01,BEL,1,38,Tielt,7:17,8.25,F35,f
34420,Marjorie,VERHOUSTRAETE,1:57:01,21331,57:53,1:37:07,1:50:34,1:57:01,BEL,1,39,Ichtegem,7:17,8.25,F35,f
31468,Geryl,EVELIEN,1:57:02,21332,57:12,1:36:17,1:49:57,1:57:02,BEL,1,30,Merelbeke,7:17,8.25,SEF,f
34687,Andreas,WOUTERS,1:57:02,21333,58:04,1:36:37,1:50:23,1:57:02,BEL,1,20,Schelle,7:17,8.25,SEH,m
30260,Nicole,BOGAERTS,1:57:02,21334,57:07,1:36:02,1:50:27,1:57:02,BEL,1,36,Erps-Kwerps,7:17,8.25,F35,f
37913,Liesbeth,SUYKENS,1:57:02,21335,56:44,1:36:03,1:50:06,1:57:02,BEL,1,28,Kalmthout,7:17,8.25,SEF,f
7122,Isabelle,WOUTERS,1:57:03,21336,58:05,1:36:38,1:50:25,1:57:03,BEL,1,26,Antwerpen,7:17,8.25,SEF,f
18468,Geert,VONCK,1:57:03,21337,56:55,1:36:06,1:50:04,1:57:03,BEL,1,47,Zaventem,7:17,8.25,M45,m
18247,Karlien,VASTENAVONDT,1:57:03,21338,56:55,1:36:06,1:50:06,1:57:03,BEL,1,21,Opwijk,7:17,8.25,SEF,f
20010,Anne,CHARLIER,1:57:03,21339,58:58,1:37:37,1:50:44,1:57:03,BEL,1,42,Brussels,7:17,8.25,F40,f
34522,An,VISSER,1:57:04,21340,59:05,1:36:59,1:50:27,1:57:04,BEL,1,32,Ruisbroek-Puurs,7:17,8.25,SEF,f
7901,Iris,VISSER,1:57:04,21341,59:04,1:36:59,1:50:26,1:57:04,BEL,1,31,Hove,7:17,8.25,SEF,f
31059,Michael,DE MEYER,1:57:04,21342,56:08,1:36:58,1:50:59,1:57:04,BEL,1,27,Roeselare,7:17,8.25,SEH,m
31819,Lore,HERBOTS,1:57:04,21343,56:21,1:35:48,1:50:07,1:57:04,BEL,1,22,Rupelmonde,7:17,8.25,SEF,f
38010,Cap,ROBBY,1:57:05,21344,58:12,1:36:53,1:50:08,1:57:05,BEL,1,49,Rupelmonde,7:17,8.25,M45,m
38009,Mark,LAMEIR,1:57:05,21345,58:12,1:36:53,1:50:08,1:57:05,BEL,1,56,Kapellen,7:17,8.25,M55,m
251,Eric,DE CLERCQ,1:57:05,21346,58:18,1:36:48,1:50:29,1:57:05,BEL,1,70,Zottegem,7:17,8.25,M70,m
30861,Isabel,DE COCK,1:57:05,21347,56:49,1:35:24,1:49:46,1:57:05,BEL,1,32,Hamme,7:17,8.25,SEF,f
258,Veerle,DE CLERCQ,1:57:06,21348,58:21,1:36:50,1:50:32,1:57:06,BEL,1,41,Zottegem,7:17,8.25,F40,f
33499,Caroline,TONDELEIR,1:57:06,21349,55:49,1:35:34,1:49:53,1:57:06,BEL,1,52,Nieuwenhove,7:17,8.25,F50,f
32604,Julie,MORTIER,1:57:07,21350,57:55,1:37:22,1:50:41,1:57:07,BEL,1,26,Sleidinge,7:17,8.25,SEF,f
157,Robert,BRZESKI,1:57:07,21351,58:20,1:36:50,1:50:31,1:57:07,BEL,1,52,Z,7:17,8.25,M50,m
33027,Evie,RONDOU,1:57:07,21352,58:39,1:37:22,1:50:43,1:57:07,BEL,1,40,Gelrode,7:17,8.25,F40,f
33240,Karen,SMETS,1:57:07,21353,58:39,1:37:23,1:50:44,1:57:07,BEL,1,39,Ham,7:17,8.25,F35,f
23032,Jony,MAES,1:57:08,21354,56:09,1:34:47,1:49:51,1:57:08,BEL,1,25,Beveren,7:17,8.25,SEH,m
31387,Annika,DRIES,1:57:08,21355,56:29,1:35:55,1:49:51,1:57:08,BEL,1,28,Hoboken,7:17,8.25,SEF,f
31361,Laurent,DILLEN,1:57:08,21356,57:39,1:36:25,1:50:20,1:57:08,BEL,1,29,Knokke-Heist,7:17,8.25,SEH,m
30768,Charline,DE BLOCK,1:57:08,21357,57:39,1:36:25,1:50:20,1:57:08,BEL,1,26,Berchem,7:17,8.25,SEF,f
35076,Armin,HASANI,1:57:09,21358,52:14,1:29:45,1:50:35,1:57:09,BEL,1,17,,7:17,8.24,SEH,m
947,Liese,VANHEUSDEN,1:57:09,21359,56:02,1:36:01,1:50:15,1:57:09,BEL,1,35,Diepenbeek,7:17,8.24,F35,f
7342,Kim,BAL,1:57:09,21360,54:53,1:34:40,1:50:07,1:57:09,BEL,1,32,Mortsel,7:17,8.24,SEF,f
32925,Annelies,PUTS,1:57:09,21361,57:55,1:37:22,1:50:41,1:57:09,BEL,1,26,Oosteeklo,7:17,8.24,SEF,f
34644,Charlotte,WILLEMS,1:57:10,21362,59:34,1:38:34,1:51:08,1:57:10,BEL,1,23,Heverlee,7:17,8.24,SEF,f
31725,Caroline,GYSBRECHRS,1:57:11,21363,56:31,1:34:14,1:50:31,1:57:11,BEL,1,49,Schoten,7:17,8.24,F45,f
36075,Jasmine,KOCK,1:57:11,21364,57:15,1:36:01,1:50:53,1:57:11,BEL,1,18,,7:17,8.24,SEF,f
16819,Francois,MANSARD Jean,1:57:11,21365,57:56,1:38:10,1:51:02,1:57:11,FRA,1,48,Saint Leonard,7:17,8.24,M45,m
32256,Lore,LENGELÉ,1:57:13,21366,58:50,1:38:04,1:51:13,1:57:13,BEL,1,37,Tienen,7:17,8.24,F35,f
20234,Annick,MEERSMAN,1:57:13,21367,56:59,1:36:01,1:50:14,1:57:13,BEL,1,42,Grobbendonk,7:17,8.24,F40,f
32821,Toon,PEETERS,1:57:13,21368,58:50,1:38:04,1:51:14,1:57:13,BEL,1,47,Tienen,7:17,8.24,M45,m
7232,Kris,KERR,1:57:13,21369,59:27,1:37:56,1:50:54,1:57:13,BEL,1,48,Brasschaat,7:17,8.24,M45,m
44240,Astrid,GEETS,1:57:13,21370,59:12,1:37:41,1:50:27,1:57:13,BEL,1,21,Antwerpen,7:17,8.24,SEF,f
36258,David,PROANO,1:57:13,21371,53:05,1:34:26,1:50:02,1:57:13,BEL,1,27,Beveren,7:17,8.24,SEH,m
20240,Fien,VAN DIJCK,1:57:13,21372,57:00,1:36:02,1:50:15,1:57:13,BEL,1,35,Pulle,7:17,8.24,F35,f
29969,Marc,SCHAESSENS,1:57:14,21373,59:12,1:38:31,1:50:07,1:57:14,BEL,1,51,Melsele,7:17,8.24,M50,m
29375,Roberto,LORE,1:57:14,21374,59:11,1:38:30,1:51:09,1:57:14,ITA,1,64,Melsele,7:17,8.24,M60,m
23543,Tamara,PAUWELS Sanne,1:57:15,21375,58:11,1:37:31,1:50:51,1:57:15,BEL,1,29,Brasschaat,7:18,8.24,SEF,f
38005,Alfons,MERTENS,1:57:16,21376,56:47,1:36:56,1:50:49,1:57:16,BEL,1,66,Merksem,7:18,8.24,M65,m
33107,Dirk,SCHEPERS,1:57:16,21377,56:29,1:35:47,1:50:07,1:57:16,BEL,1,57,Mortsel,7:18,8.24,M55,m
31338,Patrick,D'HONDT,1:57:16,21378,56:14,1:36:13,1:51:01,1:57:16,BEL,1,54,Wuustwezel,7:18,8.24,M50,m
4150,Linda,VAN DER WEIJDE,1:57:17,21379,55:07,1:34:45,1:50:06,1:57:17,NLD,1,52,Vlaardingen,7:18,8.24,F50,f
4151,Nico,VAN DER WEIJDE,1:57:17,21380,55:08,1:34:44,1:50:07,1:57:17,NLD,1,47,Vlaardingen,7:18,8.24,M45,m
30627,Filip,COPPENS,1:57:17,21381,56:29,1:35:46,1:48:08,1:57:17,BEL,1,48,Oordegem,7:18,8.23,M45,m
30019,Madeleine,AEGERTER-TEWFIK,1:57:18,21382,58:31,1:38:01,1:51:22,1:57:18,CHE,1,34,Lussy,7:18,8.23,SEF,f
33163,Bart,SEGHERS,1:57:19,21383,57:17,1:36:30,1:50:21,1:57:19,BEL,1,51,Wolvertem,7:18,8.23,M50,m
34225,Greet,VAN STAPPEN,1:57:19,21384,56:56,1:35:49,1:50:31,1:57:19,BEL,1,62,Wilrijk,7:18,8.23,F60,f
33164,Brit,SEGHERS,1:57:20,21385,57:19,1:36:31,1:50:21,1:57:20,BEL,1,22,Wolvertem,7:18,8.23,SEF,f
36034,Joppe,VERHAEGEN,1:57:20,21386,54:46,1:36:03,1:50:45,1:57:20,BEL,1,20,,7:18,8.23,SEH,m
22240,Rahma,AYED,1:57:20,21387,57:40,1:37:07,1:50:42,1:57:20,BEL,1,37,Genk,7:18,8.23,F35,f
6621,Nanouck,ICKROTH,1:57:21,21388,55:36,1:36:06,1:50:38,1:57:21,BEL,1,32,Antwerpen,7:18,8.23,SEF,f
15684,Inke,DE CUBBER,1:57:23,21389,55:08,1:36:11,1:50:33,1:57:23,BEL,1,24,Zottegem,7:18,8.23,SEF,f
30526,Herren,CINDY,1:57:24,21390,58:31,1:38:01,1:51:22,1:57:24,CHE,1,25,Cousset,7:18,8.23,SEF,f
36309,Paul,BRACKX,1:57:24,21391,54:48,1:35:06,1:50:21,1:57:24,BEL,1,55,Stabroek,7:18,8.23,M55,m
4676,Marija,LAZOVA,1:57:25,21392,56:18,1:35:20,1:49:51,1:57:25,MKD,1,34,Gent,7:18,8.23,SEF,f
32203,Els,LAUREYNS,1:57:25,21393,58:13,1:37:25,1:51:28,1:57:25,BEL,1,43,Lierde,7:18,8.23,F40,f
32441,Liese,MASSAGIE,1:57:25,21394,57:43,1:36:36,1:50:35,1:57:25,BEL,1,24,Nieuwkerken-Waas,7:18,8.23,SEF,f
32440,Carl,MASSAGIE,1:57:25,21395,57:43,1:36:38,1:50:35,1:57:25,BEL,1,54,Nieuwkerken-Waas,7:18,8.23,M50,m
8166,Veerle,DE LAET,1:57:26,21396,58:33,1:37:00,1:50:36,1:57:26,BEL,1,40,Mechelen,7:18,8.22,F40,f
36114,Zahra,COREMANS,1:57:26,21397,57:23,1:37:09,1:51:20,1:57:26,BEL,1,18,,7:18,8.22,SEF,f
32773,Hubert,PAUWELS,1:57:27,21398,56:55,1:36:42,1:50:28,1:57:27,BEL,1,64,Antwerpen,7:18,8.22,M60,m
34500,Liesbet,VERVLOET,1:57:27,21399,58:12,1:36:34,1:50:40,1:57:27,BEL,1,26,Berlaar,7:18,8.22,SEF,f
34679,Jeroen,WITVROUWEN,1:57:27,21400,58:11,1:36:34,1:50:38,1:57:27,BEL,1,27,Berlaar,7:18,8.22,SEH,m
35020,Yoni,HAEGENS,1:57:27,21401,55:25,1:35:29,1:50:59,1:57:27,BEL,1,16,,7:18,8.22,SEF,f
2310,Vince,MERTENS,1:57:28,21402,59:28,1:37:59,1:51:30,1:57:28,BEL,1,32,Niel,7:18,8.22,SEH,m
35019,Lana,HAEGENS,1:57:28,21403,55:25,1:35:29,1:50:59,1:57:28,BEL,1,19,,7:18,8.22,SEF,f
32119,Katelijne,KNOCKAERT,1:57:28,21404,56:56,1:36:17,1:50:22,1:57:28,BEL,1,45,Assebroek,7:18,8.22,F45,f
32538,Ine,MEYNAERTS,1:57:29,21405,59:32,1:37:51,1:51:27,1:57:29,BEL,1,34,Antwerpen,7:18,8.22,SEF,f
8243,Shana,VAN DEN BRANDEN,1:57:29,21406,58:25,1:37:36,1:51:08,1:57:29,BEL,1,31,Oostrozebeke,7:18,8.22,SEF,f
32211,Nadia,LAURYSSEN,1:57:30,21407,58:12,1:37:02,1:50:40,1:57:30,BEL,1,51,Wuustwezel,7:18,8.22,F50,f
32314,Diane,LOOPMANS,1:57:30,21408,58:12,1:37:01,1:50:40,1:57:30,BEL,1,48,Wuustwezel,7:18,8.22,F45,f
31964,Heidi,JACOBS,1:57:30,21409,58:12,1:37:03,1:50:40,1:57:30,BEL,1,45,Wuustwezel,7:18,8.22,F45,f
34153,Daisy,VANPEE,1:57:31,21410,59:33,1:37:52,1:51:28,1:57:31,BEL,1,34,Overijse,7:19,8.22,SEF,f
34303,Pieter,VERBEEMEN,1:57:32,21411,54:25,1:34:52,1:50:17,1:57:32,BEL,1,38,Antwerpen,7:19,8.22,M35,m
33277,Susy,SOUDAN,1:57:34,21412,56:58,1:35:49,1:50:16,1:57:34,BEL,1,62,Antwerpen,7:19,8.21,F60,f
34048,Evi,VAN KAEM,1:57:35,21413,56:58,1:35:49,1:50:19,1:57:35,BEL,1,35,Kapellen,7:19,8.21,F35,f
22660,Christopher,MUNGRA,1:57:35,21414,56:56,1:35:31,1:51:05,1:57:35,BEL,1,29,Antwerpen,7:19,8.21,SEH,m
33680,Ewoud,VANDENBERGHE,1:57:35,21415,58:48,1:37:05,1:50:54,1:57:35,BEL,1,37,Aalst,7:19,8.21,M35,m
20303,Lily,VERNIERS,1:57:35,21416,57:09,1:36:32,1:50:56,1:57:35,BEL,1,64,Stabroek,7:19,8.21,F60,f
31171,Helena,DESCHACHT,1:57:36,21417,58:20,1:37:36,1:50:39,1:57:36,BEL,1,23,Bever,7:19,8.21,SEF,f
3877,Nicolas,SENAVE,1:57:36,21418,54:40,1:35:17,1:50:33,1:57:36,BEL,1,44,Deinze,7:19,8.21,M40,m
22064,Luk,JANSSEN,1:57:37,21419,56:04,1:34:56,1:49:54,1:57:37,BEL,1,64,Antwrpen,7:19,8.21,M60,m
37923,Rudi,VERMEIREN,1:57:37,21420,55:57,1:36:42,1:51:01,1:57:37,BEL,1,59,Kontich,7:19,8.21,M55,m
33779,Michel,VAN DER DOE,1:57:38,21421,54:54,1:36:21,1:50:26,1:57:38,NLD,1,43,Waarde,7:19,8.21,M40,m
31175,Margo,DE SCHEPPER,1:57:38,21422,56:40,1:36:09,1:50:39,1:57:38,BEL,1,58,Puurs,7:19,8.21,F55,f
31244,Erik,DE VOCHT,1:57:39,21423,58:47,1:37:08,1:51:02,1:57:39,BEL,1,52,Lier,7:19,8.21,M50,m
35424,Jean,GUESSOU,1:57:39,21424,57:13,1:36:46,1:50:33,1:57:39,BEL,1,26,,7:19,8.21,SEH,m
6565,Kirsti,GJERTSEN,1:57:39,21425,55:59,1:36:37,1:51:05,1:57:39,BEL,1,28,Schoten,7:19,8.21,SEF,f
32855,Heleen,PIETERS,1:57:39,21426,58:22,1:37:37,1:50:41,1:57:39,BEL,1,25,Deinze,7:19,8.21,SEF,f
38752,Naomi,VERCAEMER,1:57:40,21427,56:48,1:35:38,1:50:30,1:57:40,BEL,1,27,Deerlijk,7:19,8.21,SEF,f
30396,Erika,BUELENS,1:57:41,21428,56:41,1:36:09,1:50:40,1:57:41,BEL,1,56,Puurs-Sint-Amands,7:19,8.21,F55,f
21237,Hadeel,AL-ZAIDI,1:57:41,21429,58:00,1:37:19,1:50:46,1:57:41,IRQ,1,34,Essen,7:19,8.21,SEF,f
33115,Dirk,SCHILDERS,1:57:42,21430,55:36,1:35:04,1:50:42,1:57:42,BEL,1,62,Ranst,7:19,8.21,M60,m
205,Berlinda,COMPTÉ,1:57:42,21431,55:51,1:35:54,1:50:42,1:57:42,BEL,1,57,Boortmeerbeek,7:19,8.21,F55,f
36118,Maria,KAUCHNERENKO,1:57:42,21432,57:24,1:37:10,1:51:23,1:57:42,BEL,1,18,,7:19,8.21,SEF,f
32215,Ann,LAUWERS,1:57:42,21433,58:50,1:37:13,1:51:06,1:57:42,BEL,1,53,Lier,7:19,8.21,F50,f
21246,Katrijn,DECKERS,1:57:43,21434,58:01,1:37:20,1:50:46,1:57:43,BEL,1,41,Essen,7:19,8.2,F40,f
36802,Vincent,CROLLA,1:57:43,21435,56:01,1:35:37,1:50:55,1:57:43,BEL,1,67,Tienen,7:19,8.2,M65,m
31715,Pieter,GROENSMIT,1:57:44,21436,56:22,1:35:50,1:50:52,1:57:44,NLD,1,38,Baardegem,7:19,8.2,M35,m
31665,Luc,GOETHALS,1:57:44,21437,58:28,1:37:36,1:51:03,1:57:44,BEL,1,65,Gijzenzele,7:19,8.2,M65,m
7325,Sanne,VERBEECK,1:57:44,21438,57:18,1:36:46,1:50:56,1:57:44,BEL,1,58,Kalmthout,7:19,8.2,F55,f
31434,Mark,ELBERS,1:57:44,21439,55:26,1:34:48,1:50:24,1:57:44,NLD,1,26,Gentbrugge,7:19,8.2,SEH,m
29837,Katrien,ERNES,1:57:44,21440,56:27,1:36:24,1:50:33,1:57:44,BEL,1,26,Vliermaalroot,7:19,8.2,SEF,f
33419,Marcia,TEIRLINCK,1:57:45,21441,57:04,1:36:18,1:51:17,1:57:45,BEL,1,49,Lede,7:19,8.2,F45,f
33426,Veerle,TESSE,1:57:45,21442,58:17,1:37:14,1:50:54,1:57:45,BEL,1,45,8560 - Wevelgem,7:19,8.2,F45,f
19608,Helena,MEERSMAN,1:57:46,21443,55:39,1:37:03,1:51:35,1:57:46,BEL,1,19,Kruibeke,7:19,8.2,SEF,f
37974,Maryam,AIT DAOUD,1:57:46,21444,54:42,1:36:18,1:50:47,1:57:46,BEL,1,36,Hoboken,7:19,8.2,F35,f
19612,Hanna,VAN AKEN,1:57:46,21445,55:39,1:37:03,1:51:33,1:57:46,BEL,1,19,Kruibeke,7:19,8.2,SEF,f
36355,Ann,VANDORPE,1:57:46,21446,56:40,1:36:09,1:50:52,1:57:46,BEL,1,40,Mortsel,7:19,8.2,F40,f
22428,Valentine,DE BROGNIEZ,1:57:47,21447,57:12,1:36:17,1:51:13,1:57:47,BEL,1,0,Visé,7:19,8.2,-,f
32551,Sylvie,MICHIELSENS,1:57:47,21448,59:18,1:38:12,1:51:30,1:57:47,BEL,1,39,Sint-Niklaas,7:19,8.2,F35,f
37451,Elisabeth,MOHR,1:57:47,21449,56:24,1:36:17,1:50:35,1:57:47,BEL,1,31,Vremde,7:20,8.2,SEF,f
19219,Greet,MAES,1:57:47,21450,59:18,1:38:12,1:51:30,1:57:47,BEL,1,42,Puurs,7:20,8.2,F40,f
34334,Ine,VERCAMMEN,1:57:48,21451,57:37,1:36:59,1:51:13,1:57:48,BEL,1,36,Mol,7:20,8.2,F35,f
32473,Danielle,MAZARS,1:57:48,21452,58:11,1:37:12,1:50:59,1:57:48,FRA,1,74,St André Allas,7:20,8.2,F70,f
19368,Bert,VERLEYEN,1:57:50,21453,54:35,1:35:22,1:50:23,1:57:50,BEL,1,39,Kaster,7:20,8.2,M35,m
19364,Stefanie,VAN EECKHOUT,1:57:50,21454,54:35,1:35:22,1:50:23,1:57:50,BEL,1,38,Kaster,7:20,8.2,F35,f
34486,Thomas,VERSTREPEN,1:57:50,21455,59:07,1:37:31,1:51:28,1:57:50,BEL,1,24,Antwerpen,7:20,8.2,SEH,m
21623,Arne,VAN KEER,1:57:51,21456,53:43,1:32:50,1:49:14,1:57:51,BEL,1,24,Rumst,7:20,8.2,SEH,m
37091,Yuri,VANDENBOGAERDE,1:57:52,21457,57:08,1:36:03,1:50:52,1:57:52,BEL,1,31,Antwerpen,7:20,8.19,SEH,m
30800,Dominique,DEBRABANDERE,1:57:53,21458,53:59,1:34:53,1:50:22,1:57:53,BEL,1,55,Harelbeke,7:20,8.19,M55,m
30451,Valérie,CAMERIER,1:57:53,21459,57:09,1:36:59,1:50:36,1:57:53,BEL,1,26,Sint-Niklaas,7:20,8.19,SEF,f
30476,Damienne,CARREIN,1:57:53,21460,53:59,1:34:54,1:50:23,1:57:53,BEL,1,57,Harelbeke,7:20,8.19,F55,f
36273,Ignace,CHRISTIAENS,1:57:53,21461,56:01,1:36:15,1:50:58,1:57:53,BEL,1,43,Rupelmonde,7:20,8.19,M40,m
7257,Jürgen,DEFROYERE,1:57:54,21462,59:25,1:38:38,1:51:47,1:57:54,BEL,1,35,Rotselaar,7:20,8.19,M35,m
34007,Stefanie,VANHOELE,1:57:54,21463,55:06,1:35:48,1:50:42,1:57:54,BEL,1,26,Aalst,7:20,8.19,SEF,f
7237,Sara,ARRYN,1:57:54,21464,59:26,1:38:38,1:51:47,1:57:54,BEL,1,31,Rotselaar,7:20,8.19,SEF,f
15216,Carel,BÖHMER,1:57:55,21465,58:49,1:37:30,1:51:36,1:57:55,ZAF,1,40,Johannesburg,7:20,8.19,M40,m
35280,Yenthl,CLEYS,1:57:55,21466,58:48,1:38:13,1:51:46,1:57:55,BEL,1,20,,7:20,8.19,SEF,f
36891,Katleen,MARIEN,1:57:56,21467,1:00:28,1:38:48,1:52:41,1:57:56,BEL,1,44,Zuiddorpe,7:20,8.19,F40,f
36590,Francis,MOERIS,1:57:57,21468,58:00,1:37:11,1:51:37,1:57:57,BEL,1,65,Zoersel,7:20,8.19,M65,m
32394,Ilse,MANNAERTS,1:57:57,21469,58:41,1:37:55,1:51:04,1:57:57,BEL,1,53,Vorselaar,7:20,8.19,F50,f
44419,Peter,BRUYNINCKX,1:57:57,21470,57:50,1:37:44,1:51:36,1:57:57,BEL,1,56,3300 - Kumtich,7:20,8.19,M55,m
35376,Ellen,DONCKERS,1:57:57,21471,58:47,1:38:12,1:51:45,1:57:57,BEL,1,21,,7:20,8.19,SEF,f
30061,Nuyts,ANN,1:57:58,21472,58:42,1:37:56,1:51:05,1:57:58,BEL,1,37,Vorselaar,7:20,8.19,F35,f
30494,Nele,CAUCHIE,1:57:59,21473,58:11,1:37:26,1:50:56,1:57:59,BEL,1,30,Nieuwenhove,7:20,8.19,SEF,f
7722,Lina,HE,1:57:59,21474,55:22,1:36:02,1:51:00,1:57:59,CHN,1,26,Berchem,7:20,8.19,SEF,f
34855,Emilie,JUNGBLUTH,1:57:59,21475,54:54,1:35:22,1:50:14,1:57:59,BEL,1,18,,7:20,8.19,SEH,m
34194,Jurgen,VAN ROMPAEY,1:57:59,21476,56:40,1:34:14,1:50:54,1:57:59,BEL,1,49,Turnhout,7:20,8.19,M45,m
34558,Erica,VRANKEN,1:57:59,21477,56:31,1:34:14,1:50:44,1:57:59,BEL,1,46,Kapellen,7:20,8.19,F45,f
30183,Sharina,BERGMANS,1:58:00,21478,58:10,1:37:26,1:50:56,1:58:00,BEL,1,27,Idegem,7:20,8.19,SEF,f
2617,Cauchie,ARNE,1:58:01,21479,58:12,1:37:25,1:50:55,1:58:01,BEL,1,27,Lieferinge,7:20,8.18,SEH,m
20770,Greetje,MARTENS,1:58:01,21480,54:53,1:33:37,1:51:02,1:58:01,BEL,1,48,Zaventem,7:20,8.18,F45,f
44680,Benjamin,VLEMMIX,1:58:03,21481,1:00:34,1:39:08,1:52:11,1:58:03,BEL,1,34,Deurne,7:20,8.18,SEH,m
44679,Liesbeth,SPILTHOORN,1:58:03,21482,1:00:34,1:39:08,1:52:11,1:58:03,BEL,1,30,Deurne,7:20,8.18,SEF,f
44611,Lena,MAES,1:58:03,21483,53:56,1:34:44,1:49:55,1:58:03,BEL,1,17,Deurne,7:21,8.18,SEF,f
36007,Reese,SUTHERLAND,1:58:06,21484,58:59,1:37:57,1:52:42,1:58:06,BEL,1,19,,7:21,8.18,SEH,m
21257,Aurélie,DE VEL,1:58:06,21485,55:13,1:35:25,1:51:27,1:58:06,BEL,1,30,Kontich,7:21,8.18,SEF,f
4527,Kirsten,BAETS,1:58:06,21486,54:10,1:34:28,1:50:15,1:58:06,BEL,1,24,Malle,7:21,8.18,SEF,f
21307,Wendy,DE BISSCHOP,1:58:06,21487,54:27,1:35:26,1:51:17,1:58:06,BEL,1,32,Puurs-St-Amands,7:21,8.18,SEF,f
18843,Yeun,YEE,1:58:11,21488,57:22,1:36:32,1:51:25,1:58:11,BEL,1,34,Ekeren,7:21,8.17,SEF,f
5084,Hanna,BOECQUAERT,1:58:11,21489,57:59,1:36:47,1:50:58,1:58:11,BEL,1,27,Kalmthout,7:21,8.17,SEF,f
35943,Janice,BREUGELMANS,1:58:11,21490,54:43,1:37:00,1:50:51,1:58:11,BEL,1,20,,7:21,8.17,SEF,f
6575,Philippe,LAMBRECHTSEN,1:58:12,21491,57:05,1:36:42,1:51:12,1:58:12,BEL,1,53,Zandhoven,7:21,8.17,M50,m
30855,Steve,DECLERCQ,1:58:12,21492,57:04,1:36:06,1:52:11,1:58:12,BEL,1,50,Bredene,7:21,8.17,M50,m
34369,Julchen,VERELST,1:58:14,21493,57:44,1:37:22,1:51:20,1:58:14,BEL,1,25,Putte,7:21,8.17,SEF,f
34280,An,VAN WINGHE,1:58:14,21494,59:44,1:38:00,1:51:33,1:58:14,BEL,1,49,Sint-Pieters-Leeuw,7:21,8.17,F45,f
34707,Kristine,WULTEPUTTE,1:58:14,21495,59:44,1:38:00,1:51:33,1:58:14,BEL,1,51,Halle,7:21,8.17,F50,f
32775,Louise,PAUWELS,1:58:14,21496,1:00:59,1:38:47,1:52:10,1:58:14,BEL,1,25,Ledeberg,7:21,8.17,SEF,f
34370,Paul,VERELST,1:58:14,21497,57:44,1:37:23,1:51:20,1:58:14,BEL,1,51,Putte,7:21,8.17,M50,m
33012,Flore,ROGGEMAN,1:58:15,21498,1:00:59,1:38:47,1:52:10,1:58:15,BEL,1,26,Sint-Amandsberg,7:21,8.17,SEF,f
31938,Michiel,IDE,1:58:15,21499,59:33,1:37:35,1:51:30,1:58:15,BEL,1,37,Anzegem,7:21,8.17,M35,m
31000,Joni,DE LATHOUWER,1:58:15,21500,57:11,1:37:35,1:51:12,1:58:15,BEL,1,33,Schoten,7:21,8.17,SEF,f
