runner id,name,lastname,time,rank,checkpt0,checkpt1,checkpt2,checkpt3,nationality,finished,age,city,team,pace,speed,category,sex
37539,Brosens,IVO,1:24:29,6501,42:31,1:10:13,1:19:53,1:24:29,BEL,1,29,Lllle,5:15,11.43,SEH,m
4548,Pia,HENN,1:24:29,6502,42:59,1:10:33,1:19:45,1:24:29,UNK,1,27,Brussels,5:15,11.43,SEF,f
20604,Peter,DE TAEYE,1:24:29,6503,42:53,1:10:57,1:20:06,1:24:29,BEL,1,55,Ganshoren,5:15,11.43,M55,m
37543,Loy,LORE Van,1:24:29,6504,42:31,1:10:13,1:19:54,1:24:29,BEL,1,30,Lille,5:15,11.43,SEF,f
19689,Yves,BONAMI,1:24:29,6505,40:59,1:09:15,1:19:33,1:24:29,BEL,1,30,Herentals,5:15,11.43,SEH,m
4505,Patrick,DAGNELIE,1:24:29,6506,43:51,1:10:22,1:20:01,1:24:29,BEL,1,54,Schilde,5:15,11.43,M50,m
3136,Ludo,DUPONT,1:24:30,6507,41:40,1:09:35,1:19:35,1:24:30,BEL,1,64,Antwerpen,5:15,11.43,M60,m
37669,Roovere,THALIA De,1:24:30,6508,41:46,1:10:12,1:19:44,1:24:30,BEL,1,31,Willebroek,5:15,11.43,SEF,f
7307,Kevin,VAN DEN BOSCH,1:24:30,6509,42:24,1:09:57,1:19:46,1:24:30,BEL,1,36,Lier,5:15,11.43,M35,m
18526,Luc,WILLEMS,1:24:30,6510,42:09,1:09:55,1:19:36,1:24:30,BEL,1,56,Tienen,5:15,11.43,M55,m
19859,Kathleen,BARWELL,1:24:30,6511,42:28,1:10:18,1:19:49,1:24:30,BEL,1,43,Hoboken,5:15,11.43,F40,f
21977,Olivier,DURIEUX,1:24:30,6512,42:34,1:09:55,1:19:47,1:24:30,BEL,1,33,Edegem,5:15,11.43,SEH,m
17618,Simon,TORFS,1:24:30,6513,45:06,1:11:06,1:20:06,1:24:30,BEL,1,24,Kasterlee,5:15,11.43,SEH,m
19266,Stijn,VAN HAEVERE,1:24:30,6514,43:58,1:11:21,1:20:06,1:24:30,BEL,1,32,Moerbeke-Waas,5:15,11.43,SEH,m
2682,Filip,BLONDEEL,1:24:30,6515,42:29,1:10:16,1:19:48,1:24:30,BEL,1,34,Erpe-Mere,5:15,11.43,SEH,m
36538,Patrick,DE JAEGERE,1:24:30,6516,42:07,1:10:11,1:19:56,1:24:30,BEL,1,57,Mortsel,5:15,11.43,M55,m
17886,Hélène,VAN DE VYVER,1:24:30,6517,41:38,1:09:49,1:19:34,1:24:30,BEL,1,28,Berchem,5:15,11.43,SEF,f
14384,Patrick,MEUL,1:24:31,6518,43:23,1:10:23,1:19:47,1:24:31,BEL,1,48,Sint-Gillis-Waas,5:15,11.43,M45,m
851,Angelo,VAN BOCXLAER,1:24:31,6519,41:19,1:09:23,1:19:28,1:24:31,BEL,1,28,Wommelgem,5:15,11.43,SEH,m
840,Tom,VAESEN,1:24:31,6520,42:01,1:09:29,1:19:27,1:24:31,BEL,1,29,Mol,5:16,11.43,SEH,m
1125,Pascal,DOUNIAUX,1:24:31,6521,41:35,1:09:24,1:19:25,1:24:31,BEL,1,54,Jambes,5:16,11.43,M50,m
4703,Frans,BRUSSELMANS,1:24:31,6522,40:56,1:09:14,1:19:09,1:24:31,BEL,1,65,Sint Pauwels,5:16,11.43,M65,m
7686,Jyrki,MESTDAGH,1:24:31,6523,41:56,1:10:00,1:19:33,1:24:31,BEL,1,45,Antwerpen,5:16,11.43,M45,m
4794,Indy,ROGIERS,1:24:31,6524,43:05,1:11:13,1:19:56,1:24:31,BEL,1,24,Stabroek,5:16,11.43,SEH,m
771,Nicky,SIEMONS,1:24:31,6525,41:46,1:09:42,1:19:27,1:24:31,BEL,1,32,Antwerpen,5:16,11.43,SEH,m
7513,Luc,MIDDENDORP,1:24:31,6526,42:27,1:09:57,1:19:53,1:24:31,BEL,1,63,Antwerpen,5:16,11.43,M60,m
16976,Tine,MULDER,1:24:32,6527,42:13,1:10:23,1:19:55,1:24:32,BEL,1,30,Vlimmeren,5:16,11.43,SEF,f
7258,Wim,DEGELING,1:24:32,6528,42:31,1:10:02,1:19:58,1:24:32,BEL,1,37,Molenstede,5:16,11.43,M35,m
15230,Nathan,BOGAERTS,1:24:32,6529,43:44,1:11:11,1:20:28,1:24:32,BEL,1,22,Rijkevorsel,5:16,11.43,SEH,m
7999,Maarten,JORDAENS,1:24:32,6530,43:18,1:10:42,1:19:57,1:24:32,BEL,1,30,,5:16,11.43,SEH,m
22222,Kristof,TIMMERMANS,1:24:32,6531,44:29,1:11:01,1:19:59,1:24:32,BEL,1,28,Stabroek,5:16,11.43,SEH,m
6785,Bart,EYCKENS,1:24:32,6532,43:52,1:10:54,1:20:06,1:24:32,BEL,1,45,Edegem,5:16,11.43,M45,m
35927,Kian,VAN HECKE,1:24:32,6533,43:07,1:11:00,1:20:07,1:24:32,BEL,1,16,,5:16,11.43,SEH,m
21744,Roel,DE VIL,1:24:32,6534,42:39,1:10:11,1:19:36,1:24:32,BEL,1,0,Zwijndrecht,5:16,11.43,-,m
5642,Lynn,VAN DE CRUYS,1:24:32,6535,41:55,1:09:41,1:19:42,1:24:32,BEL,1,29,Antwerpen,5:16,11.43,SEF,f
37132,Toon,HULS,1:24:32,6536,42:15,1:09:47,1:19:43,1:24:32,BEL,1,27,Antwerpen,5:16,11.42,SEH,m
22385,Lowie,MIJTEN,1:24:32,6537,43:23,1:10:57,1:20:24,1:24:32,BEL,1,25,Tielrode,5:16,11.42,SEH,m
3852,Hendrik,SCHEPERS,1:24:32,6538,42:18,1:10:29,1:19:49,1:24:32,BEL,1,39,Beigem (Grimbergen),5:16,11.42,M35,m
17431,Peter,SERVAYGE,1:24:32,6539,43:51,1:10:47,1:19:55,1:24:32,BEL,1,50,Veurne,5:16,11.42,M50,m
29749,Philippe,VERLINDE,1:24:32,6540,41:57,1:09:45,1:19:33,1:24:32,BEL,1,55,Merelbeke,5:16,11.42,M55,m
2031,Tom,BERKEIN,1:24:33,6541,42:23,1:09:52,1:19:29,1:24:33,BEL,1,30,Roeselare,5:16,11.42,SEH,m
6243,Michelle,CUSTERS,1:24:33,6542,42:31,1:10:24,1:19:52,1:24:33,BEL,1,29,Kuringen,5:16,11.42,SEF,f
2913,Valérie,DE CLERCK,1:24:33,6543,44:27,1:11:33,1:20:01,1:24:33,BEL,1,29,Elsene,5:16,11.42,SEF,f
5423,Bart,DE SOETE,1:24:33,6544,43:13,1:10:23,1:19:53,1:24:33,BEL,1,42,Diegem,5:16,11.42,M40,m
15806,Stefan,DE MOOR,1:24:33,6545,41:19,1:09:49,1:19:37,1:24:33,BEL,1,45,Wetteren,5:16,11.42,M45,m
2685,Pepijn,BOEKHORST,1:24:33,6546,40:52,1:09:11,1:19:12,1:24:33,NLD,1,41,Nijmegen,5:16,11.42,M40,m
974,Georges,VAN MEIR,1:24:33,6547,40:48,1:09:23,1:19:35,1:24:33,BEL,1,51,Antwerpen,5:16,11.42,M50,m
3987,Kevin,THYS,1:24:34,6548,39:03,1:08:40,1:19:00,1:24:34,BEL,1,30,Kapellen,5:16,11.42,SEH,m
20468,Jamal,OKAI,1:24:34,6549,42:34,1:10:14,1:19:57,1:24:34,NLD,1,52,Eindhoven,5:16,11.42,M50,m
15139,Nele,BEECKMANS,1:24:34,6550,42:30,1:10:13,1:19:52,1:24:34,BEL,1,29,Heverlee,5:16,11.42,SEF,f
20737,Dre,DE SUTTER,1:24:34,6551,41:55,1:09:56,1:19:45,1:24:34,BEL,1,39,Aalter,5:16,11.42,M35,m
16158,Jan,FRANCKEN,1:24:34,6552,42:16,1:10:07,1:19:46,1:24:34,BEL,1,52,Hamme,5:16,11.42,M50,m
22242,Tommy,BRANCKAUTE,1:24:35,6553,43:58,1:11:35,1:20:20,1:24:35,BEL,1,28,Landen,5:16,11.42,SEH,m
22910,Filip,FRANCKEN,1:24:35,6554,43:53,1:10:50,1:20:12,1:24:35,BEL,1,19,Kalmthout,5:16,11.42,SEH,m
16666,Evi,LAUWEN,1:24:35,6555,41:10,1:09:38,1:19:21,1:24:35,NLD,1,22,Etten-Leur,5:16,11.42,SEF,f
37249,Jurgen,SCHELFHOUT,1:24:35,6556,43:20,1:10:32,1:19:46,1:24:35,BEL,1,42,Londerzeel,5:16,11.42,M40,m
2204,Jan,HENDRICKX,1:24:35,6557,41:41,1:09:52,1:19:39,1:24:35,BEL,1,52,Zandhoven,5:16,11.42,M50,m
5906,Michiel,VAN PEER,1:24:35,6558,43:04,1:10:37,1:20:14,1:24:35,BEL,1,18,Beerse,5:16,11.42,SEH,m
21275,Isabell,MOLLAERT,1:24:35,6559,42:07,1:10:04,1:19:53,1:24:35,BEL,1,26,Antwerpen,5:16,11.42,SEF,f
34427,Thomas,VERLEGH,1:24:35,6560,41:36,1:10:39,1:20:07,1:24:35,BEL,1,15,Lier,5:16,11.42,SEH,m
7743,Bert,VAN DAM,1:24:35,6561,42:56,1:10:19,1:19:46,1:24:35,BEL,1,27,Mechelen,5:16,11.42,SEH,m
32389,Dave,MAMPAEY,1:24:35,6562,41:36,1:10:39,1:20:07,1:24:35,BEL,1,37,Lier,5:16,11.42,M35,m
15137,Steven,BECKERS,1:24:35,6563,42:02,1:10:11,1:19:54,1:24:35,BEL,1,33,Meerbeek,5:16,11.42,SEH,m
17679,Els,VAN BEYLEN,1:24:35,6564,40:24,1:09:06,1:19:22,1:24:35,BEL,1,46,Dessel,5:16,11.42,F45,f
15469,Bruno,COLARD,1:24:35,6565,43:24,1:11:05,1:20:08,1:24:35,BEL,1,43,Uccle,5:16,11.42,M40,m
21657,Michiel,VAN VOOREN,1:24:35,6566,41:22,1:09:53,1:19:22,1:24:35,BEL,1,27,Antwerpen,5:16,11.42,SEH,m
17039,Matthias,NUITTEN,1:24:36,6567,42:45,1:11:02,1:19:58,1:24:36,BEL,1,32,Ledeberg,5:16,11.42,SEH,m
17524,Glen,STEVENS,1:24:36,6568,42:21,1:10:09,1:19:38,1:24:36,BEL,1,35,Sint Katelijne Waver,5:16,11.42,M35,m
4744,Barbara,DRIESSENS,1:24:36,6569,42:49,1:10:10,1:19:48,1:24:36,BEL,1,34,Boechout,5:16,11.42,SEF,f
32196,Wijk,LARS Van,1:24:36,6570,43:28,1:10:56,1:19:59,1:24:36,BEL,1,26,Antwerpen,5:16,11.42,SEH,m
19686,Wallé,ANGELO,1:24:37,6571,41:47,1:10:19,1:19:43,1:24:37,NLD,1,39,Dordrecht,5:16,11.42,M35,m
18786,Laevers,KENNY,1:24:37,6572,44:02,1:11:10,1:20:07,1:24:37,BEL,1,32,Brasschaat,5:16,11.41,SEH,m
22957,Cindy,VAN GEFFEN,1:24:37,6573,42:43,1:10:14,1:19:57,1:24:37,BEL,1,44,Oelegem,5:16,11.41,F40,f
586,Jimmy,MAESSCHALCK,1:24:37,6574,41:27,1:09:59,1:19:45,1:24:37,BEL,1,42,Denderhoutem,5:16,11.41,M40,m
23145,Sebastiaan,VAN EEMEREN,1:24:37,6575,41:07,1:09:08,1:19:39,1:24:37,BEL,1,26,Antwerpen,5:16,11.41,SEH,m
36605,Tom,BRUGHMANS,1:24:37,6576,43:02,1:10:34,1:19:58,1:24:37,BEL,1,42,Loenhout,5:16,11.41,M40,m
22272,Jens,CEUPPENS,1:24:38,6577,43:50,1:10:56,1:20:16,1:24:38,BEL,1,19,Zaventem,5:16,11.41,SEH,m
16545,Serhan,KARAAHMET,1:24:38,6578,40:56,1:09:18,1:19:35,1:24:38,NLD,1,39,Amsterdam,5:16,11.41,M35,m
21935,Lander,WILLEM,1:24:38,6579,43:40,1:11:28,1:20:17,1:24:38,BEL,1,32,Wijnegem,5:16,11.41,SEH,m
18331,Matthias,VERHEYEN,1:24:38,6580,43:05,1:10:31,1:20:07,1:24:38,BEL,1,30,Landen,5:16,11.41,SEH,m
32021,Buysse,JARNE,1:24:38,6581,41:39,1:09:19,1:19:54,1:24:38,BEL,1,17,Hoboken,5:16,11.41,SEH,m
35748,Thomas,VAN DYCK,1:24:38,6582,43:51,1:10:59,1:20:27,1:24:38,BEL,1,20,,5:16,11.41,SEH,m
20351,Glen,VAN AERT,1:24:38,6583,42:13,1:09:51,1:19:37,1:24:38,BEL,1,28,Vlimmeren,5:16,11.41,SEH,m
4859,Brecht,BOUTEN,1:24:38,6584,41:19,1:09:13,1:19:35,1:24:38,BEL,1,34,Hoboken,5:16,11.41,SEH,m
35843,Michael,WOUTERS,1:24:38,6585,43:51,1:10:59,1:20:27,1:24:38,BEL,1,21,,5:16,11.41,SEH,m
35220,Ivan,ASHABA,1:24:38,6586,41:48,1:09:39,1:19:35,1:24:38,BEL,1,39,,5:16,11.41,M35,m
5103,Steven,CROLS,1:24:38,6587,41:40,1:09:23,1:19:30,1:24:38,BEL,1,42,Wilrijk,5:16,11.41,M40,m
16223,Brent,GINIS,1:24:38,6588,41:30,1:09:43,1:19:44,1:24:38,BEL,1,26,Lennik,5:16,11.41,SEH,m
20310,Bart,FRANSEN,1:24:39,6589,45:32,1:11:17,1:20:26,1:24:39,BEL,1,36,Geraardsbergen,5:16,11.41,M35,m
14266,Joris,SIMKENS,1:24:39,6590,43:59,1:11:16,1:20:13,1:24:39,BEL,1,24,Deurne,5:16,11.41,SEH,m
35232,Lauren,BELLEMANS,1:24:39,6591,42:08,1:10:01,1:19:45,1:24:39,BEL,1,21,,5:16,11.41,SEF,f
20495,Adrie,VAN BOEKEL,1:24:39,6592,41:20,1:09:33,1:19:20,1:24:39,NLD,1,55,Best,5:16,11.41,M55,m
8109,Guuleed,OSMAN,1:24:39,6593,39:25,1:08:13,1:18:57,1:24:39,BEL,1,29,Geraardsbergen,5:16,11.41,SEH,m
20246,Kristof,DAMEN,1:24:39,6594,42:41,1:10:22,1:20:19,1:24:39,BEL,1,30,Hove,5:16,11.41,SEH,m
242,Siska,DE BORGER,1:24:39,6595,43:21,1:10:29,1:19:46,1:24:39,BEL,1,43,Bornem,5:16,11.41,F40,f
18431,Tom,VIERSTRAETE,1:24:39,6596,39:56,1:08:50,1:19:11,1:24:39,BEL,1,35,Tervuren,5:16,11.41,M35,m
18350,Philippe,VERLINDEN,1:24:39,6597,43:03,1:10:20,1:19:27,1:24:39,BEL,1,37,Lier,5:16,11.41,M35,m
15934,Gert,DE VLEESCHOUWER,1:24:39,6598,42:56,1:10:16,1:19:42,1:24:39,BEL,1,51,Kruibeke,5:16,11.41,M50,m
17817,Lisse,VAN DER AA,1:24:39,6599,42:43,1:10:33,1:20:04,1:24:39,BEL,1,26,Kruibeke,5:16,11.41,SEF,f
3571,Daniël,MEERSMAN,1:24:39,6600,40:53,1:09:40,1:19:57,1:24:39,BEL,1,40,Temse,5:16,11.41,M40,m
16147,Sam,FLORÉ,1:24:40,6601,43:21,1:11:22,1:20:37,1:24:40,BEL,1,48,Tienen,5:16,11.41,M45,m
6300,Steven,CAVERNEELS,1:24:40,6602,42:05,1:10:04,1:20:03,1:24:40,BEL,1,41,Kapelle-Op-Den-Bos,5:16,11.41,M40,m
17199,Jordan,PRICE,1:24:40,6603,42:17,1:10:04,1:19:53,1:24:40,USA,1,29,Boston Ma,5:16,11.41,SEF,f
1830,Barteld,LOGGHE,1:24:40,6604,44:03,1:10:19,1:19:34,1:24:40,BEL,1,28,Roeselare,5:16,11.41,SEH,m
15756,Didier,DELANOYE,1:24:40,6605,40:51,1:08:24,1:19:06,1:24:40,BEL,1,44,Londerzeel,5:16,11.41,M40,m
8172,Liese,DE PROOST,1:24:40,6606,42:11,1:10:15,1:19:50,1:24:40,BEL,1,27,Mechelen,5:16,11.41,SEF,f
15820,Anne-Marie,DENTZER,1:24:40,6607,41:58,1:10:15,1:19:46,1:24:40,LUX,1,35,Dudelange,5:16,11.41,F35,f
15575,Nele,DE BAKKER,1:24:40,6608,42:07,1:10:09,1:19:59,1:24:40,BEL,1,33,Heist Op Den Berg,5:16,11.41,SEF,f
23531,Anneke,LOOSEN,1:24:40,6609,41:29,1:09:58,1:19:42,1:24:40,BEL,1,29,,5:16,11.41,SEF,f
37851,Olivier,VAN DER BREMPT,1:24:41,6610,43:31,1:11:08,1:20:13,1:24:41,BEL,1,33,Antwerpen,5:16,11.41,SEH,m
15387,Leen,CATRYSSE,1:24:41,6611,42:39,1:10:12,1:19:48,1:24:41,BEL,1,29,Sint-Michiels,5:16,11.41,SEF,f
7007,Jolien,WILLEMS,1:24:41,6612,42:54,1:10:50,1:20:13,1:24:41,BEL,1,25,Zonhoven,5:16,11.41,SEF,f
35522,Michiel,LUST,1:24:41,6613,43:32,1:10:53,1:20:14,1:24:41,BEL,1,21,,5:16,11.41,SEH,m
35158,Alan,VEREPT,1:24:41,6614,43:50,1:11:34,1:20:30,1:24:41,BEL,1,17,,5:16,11.41,SEH,m
37498,Pieter,ARICKX,1:24:41,6615,43:38,1:10:59,1:20:10,1:24:41,BEL,1,30,Etterbeek,5:16,11.41,SEH,m
2516,Philippe,VANDEVOORDE,1:24:41,6616,42:48,1:10:29,1:20:06,1:24:41,BEL,1,44,Awans,5:16,11.4,M40,m
15653,Kristof,DE CLERCQ,1:24:41,6617,42:59,1:10:05,1:19:57,1:24:41,BEL,1,36,Bornem,5:16,11.4,M35,m
37480,Stijn,VAN PAEMELEN,1:24:41,6618,42:04,1:10:09,1:19:40,1:24:41,BEL,1,41,Bornem,5:16,11.4,M40,m
22190,Luc,VERACHTEN,1:24:41,6619,42:15,1:10:18,1:19:55,1:24:41,BEL,1,57,Balen,5:16,11.4,M55,m
21202,Ans,OOMEN,1:24:41,6620,42:05,1:10:09,1:19:59,1:24:41,BEL,1,31,Berchem,5:16,11.4,SEF,f
14609,Jan,DE MEYER,1:24:42,6621,41:40,1:09:54,1:19:34,1:24:42,BEL,1,44,Sint-Katelijne-Waver,5:16,11.4,M40,m
20947,Samir,CHERIK,1:24:42,6622,44:25,1:11:07,1:20:25,1:24:42,BEL,1,38,Wondelgem,5:16,11.4,M35,m
34110,Loes,VAN MIEROP,1:24:42,6623,42:36,1:10:28,1:19:57,1:24:42,NLD,1,41,Ruddervoorde,5:16,11.4,F40,f
1576,Tobias,BRANTEGHEM,1:24:43,6624,43:08,1:10:46,1:20:09,1:24:43,BEL,1,30,Gent,5:16,11.4,SEH,m
18198,Ludo,VANSICHEN,1:24:43,6625,42:39,1:10:25,1:20:04,1:24:43,BEL,1,60,Koningshooikt,5:16,11.4,M60,m
343,Maïté,DE VOCHT,1:24:43,6626,43:24,1:10:13,1:19:50,1:24:43,BEL,1,24,Wilrijk,5:16,11.4,SEF,f
20013,Michel,DELMUELLE,1:24:43,6627,42:13,1:10:09,1:19:53,1:24:43,BEL,1,34,Saint Saveur,5:16,11.4,SEH,m
20797,Gert,SNEIJDERS,1:24:43,6628,41:05,1:09:24,1:19:28,1:24:43,BEL,1,49,Kapellen,5:16,11.4,M45,m
16078,Klaas,DUMON,1:24:43,6629,41:43,1:09:49,1:19:55,1:24:43,BEL,1,24,Stabroek,5:16,11.4,SEH,m
18420,Freya,VERVOORT,1:24:43,6630,42:43,1:10:29,1:20:05,1:24:43,BEL,1,38,Mechelen,5:16,11.4,F35,f
15581,Margo,DE BELS,1:24:44,6631,41:25,1:09:39,1:19:35,1:24:44,BEL,1,27,Waregem,5:16,11.4,SEF,f
7181,Klaas,SPRUYT,1:24:44,6632,41:04,1:10:04,1:19:46,1:24:44,BEL,1,30,Kasterlee,5:16,11.4,SEH,m
22981,Dario,VERVAET,1:24:44,6633,42:42,0,1:19:48,1:24:44,NLD,1,30,Aartselaar,5:16,11.4,SEH,m
22554,Jasper,VAN DORRESTEIN,1:24:44,6634,41:08,1:08:56,1:19:12,1:24:44,NLD,1,53,Antwerpen,5:16,11.4,M50,m
