runner id,name,lastname,time,rank,checkpt0,checkpt1,checkpt2,checkpt3,nationality,finished,age,city,team,pace,speed,category,sex
2264,Leen,LEYS,1:45:57,18501,50:14,1:26:11,1:39:14,1:45:57,BEL,1,38,Boortmeerbeek,6:35,9.12,F35,f
31070,Jordy,DE MUL,1:45:57,18502,52:18,1:27:06,1:39:48,1:45:57,NLD,1,31,Kloosterzande,6:35,9.12,SEF,f
19892,Stefaan,VERRYSSEN,1:45:57,18503,47:35,1:24:19,1:39:18,1:45:57,BEL,1,32,Schoten,6:35,9.12,SEH,m
3254,Furkan,GUNES,1:45:57,18504,50:56,1:24:11,1:35:59,1:45:57,NLD,1,26,Den Haag,6:35,9.12,SEH,m
30395,Tasha,BUDTS,1:45:57,18505,52:18,1:27:05,1:39:12,1:45:57,BEL,1,37,Essen,6:35,9.12,F35,f
33466,Evy,TIELEMANS,1:45:58,18506,52:49,1:27:40,1:39:58,1:45:58,BEL,1,36,Hamont-Achel,6:35,9.11,F35,f
31873,Declercq,HILKE,1:45:58,18507,52:32,1:27:43,1:39:50,1:45:58,BEL,1,26,Wevelgem,6:35,9.11,SEF,f
20306,Marina,ANTONIO JIMENEZ Luz,1:45:58,18508,51:46,1:27:04,1:39:30,1:45:58,COL,1,42,Deurne,6:35,9.11,F40,f
18644,Christophe,UTEN,1:45:59,18509,53:24,1:27:54,1:39:53,1:45:59,BEL,1,35,Grivegnée,6:36,9.11,M35,m
7490,Veerle,LE JEUNE,1:45:59,18510,51:36,1:26:59,1:39:43,1:45:59,BEL,1,56,Schoten,6:36,9.11,F55,f
34347,Leen,VERCRUYSSE,1:45:59,18511,51:46,1:27:07,1:39:37,1:45:59,BEL,1,30,Moorslede,6:36,9.11,SEF,f
31927,Laurence,HUYBRECHTS,1:45:59,18512,52:37,1:27:55,1:39:49,1:45:59,BEL,1,50,Brasschaat,6:36,9.11,F50,f
14620,Hous,AAYAD,1:45:59,18513,52:26,1:28:35,1:39:51,1:45:59,BEL,1,47,Merksem,6:36,9.11,M45,m
30493,Kim,CATULLE,1:45:59,18514,51:02,1:26:33,1:39:30,1:45:59,BEL,1,36,Beveren,6:36,9.11,F35,f
36969,Tine,DE WEERDT,1:45:59,18515,51:56,1:27:25,1:39:44,1:45:59,BEL,1,28,Antwerpen,6:36,9.11,SEF,f
14450,François,DE BLOCK,1:45:59,18516,54:28,1:29:18,1:40:27,1:45:59,BEL,1,60,Zwijndrecht,6:36,9.11,M60,m
17397,Marcel,SCHORS,1:46:00,18517,52:31,1:28:18,1:39:57,1:46:00,NLD,1,63,Hilvarenbeek,6:36,9.11,M60,m
31462,John,ESCHE,1:46:00,18518,52:31,1:28:17,1:39:57,1:46:00,NLD,1,67,Hilvarenbeek,6:36,9.11,M65,m
52,Safia,ABANAMAR,1:46:00,18519,50:53,1:27:04,1:39:36,1:46:00,BEL,1,28,Merksem,6:36,9.11,SEF,f
37001,Tess,VAN IMMERSEEL,1:46:00,18520,51:57,1:27:25,1:39:44,1:46:00,BEL,1,28,Antwerpen,6:36,9.11,SEF,f
32272,Laïka,LEYSEN,1:46:00,18521,50:15,1:26:58,1:39:47,1:46:00,BEL,1,35,Malle,6:36,9.11,F35,f
34613,Goovaerts,WERNER,1:46:00,18522,53:43,1:28:56,1:40:23,1:46:00,BEL,1,45,Olv Waver,6:36,9.11,M45,m
30618,Bjorn,COOPMANS,1:46:00,18523,51:40,1:27:41,1:39:39,1:46:00,BEL,1,40,Berlaar,6:36,9.11,M40,m
21185,Lina,DE RIDDER,1:46:01,18524,51:04,1:26:35,1:39:43,1:46:01,BEL,1,27,Berlaar,6:36,9.11,SEF,f
21298,Ann,VAN MELE,1:46:01,18525,51:51,1:26:54,1:39:57,1:46:01,BEL,1,41,Bazel,6:36,9.11,F40,f
32112,Inge,KINNART,1:46:01,18526,52:39,1:28:04,1:40:38,1:46:01,BEL,1,25,Bonheiden,6:36,9.11,SEF,f
32485,Julie,MEEUS,1:46:01,18527,50:14,1:27:11,1:40:02,1:46:01,BEL,1,23,Lichtaart,6:36,9.11,SEF,f
6185,Veerle,VANEECHOUTTE,1:46:01,18528,51:36,1:27:21,1:39:50,1:46:01,BEL,1,50,,6:36,9.11,F50,f
15873,Evelyne,DERVEAUX,1:46:01,18529,51:36,1:27:21,1:39:51,1:46:01,BEL,1,43,Kuurne,6:36,9.11,F40,f
17241,Roland,REINACHER,1:46:01,18530,52:33,1:27:38,1:39:56,1:46:01,NLD,1,57,Hilvarenbeek,6:36,9.11,M55,m
21302,Jade,VOETS,1:46:01,18531,51:53,1:26:55,1:39:57,1:46:01,BEL,1,28,Nijlen,6:36,9.11,SEF,f
38084,Petra,VAN UYTVANCK,1:46:02,18532,52:14,1:27:28,1:39:39,1:46:02,BEL,1,46,Hamme,6:36,9.11,F45,f
4880,Christiaan,DINGEMANS,1:46:02,18533,53:37,1:28:03,1:40:33,1:46:02,BEL,1,50,Deurne,6:36,9.11,M50,m
7891,Sally,VAN REETH,1:46:02,18534,51:17,1:26:33,1:39:39,1:46:02,BEL,1,31,Boom,6:36,9.11,SEF,f
21712,Else,PENNINCK,1:46:03,18535,53:15,1:29:48,1:40:27,1:46:03,BEL,1,27,Lokeren,6:36,9.11,SEF,f
32600,Vladimir,MOROZOV,1:46:03,18536,52:10,1:27:32,1:39:51,1:46:03,RUS,1,45,Antwerpen,6:36,9.11,M45,m
33505,Soukaina,TOUMI,1:46:03,18537,52:29,1:27:29,1:40:17,1:46:03,BEL,1,30,Borgerhout,6:36,9.11,SEF,f
32061,Yulia,KACHESOVA,1:46:03,18538,52:11,1:27:32,1:39:51,1:46:03,RUS,1,51,Antwerpen,6:36,9.11,F50,f
33762,Luc,VANDEPUTTE,1:46:03,18539,54:09,1:28:54,1:40:39,1:46:03,BEL,1,58,Nieuwrode,6:36,9.11,M55,m
32293,Romy,LINGIER,1:46:04,18540,53:14,1:28:23,1:39:48,1:46:04,BEL,1,39,Rupelmonde,6:36,9.11,F35,f
30845,Jurgen,DE CLEEN,1:46:04,18541,53:13,1:28:23,1:39:48,1:46:04,BEL,1,45,Rupelmonde,6:36,9.11,M45,m
33658,Ellen,VAN DE GINSTE,1:46:04,18542,53:04,1:28:25,1:40:23,1:46:04,BEL,1,31,Gent,6:36,9.11,SEF,f
23418,Eline,BOSMANS,1:46:04,18543,49:46,1:25:48,1:39:09,1:46:04,BEL,1,27,Sint-Lambrechts-Herk,6:36,9.11,SEF,f
4524,Farah,MIFTAH,1:46:04,18544,52:30,1:27:29,1:40:08,1:46:04,BEL,1,31,Hoboken,6:36,9.11,SEF,f
33518,Daisy,TRUYEN,1:46:04,18545,53:05,1:28:26,1:40:24,1:46:04,BEL,1,27,Beernem,6:36,9.11,SEF,f
38697,Sarah,DIMANI,1:46:05,18546,52:47,1:28:21,1:40:07,1:46:05,BEL,1,26,Antwerpen,6:36,9.1,SEF,f
5683,Ben,MODDERMAN,1:46:05,18547,51:50,1:26:44,1:40:10,1:46:05,NLD,1,59,Barendrecht,6:36,9.1,M55,m
16892,Vanessa,MENEGATTI,1:46:05,18548,51:57,1:27:17,1:40:08,1:46:05,BRA,1,39,Brasschaat,6:36,9.1,F35,f
44529,Kris,SMET,1:46:06,18549,54:07,1:28:20,1:40:22,1:46:06,BEL,1,51,Antwerpen,6:36,9.1,M50,m
35513,Sofie,LEYSSENS,1:46:06,18550,52:04,1:27:00,1:39:36,1:46:06,BEL,1,29,,6:36,9.1,SEF,f
31045,Katie,DE MEESTER,1:46:06,18551,51:12,1:26:47,1:39:46,1:46:06,BEL,1,31,Wortegem,6:36,9.1,SEF,f
22744,Alexander,VERHAEGEN,1:46:06,18552,53:03,1:28:26,1:40:22,1:46:06,BEL,1,24,Herentals,6:36,9.1,SEH,m
20552,Evy,VAN REMOORTEL,1:46:06,18553,49:49,1:25:19,1:39:43,1:46:06,BEL,1,25,Antwerpen,6:36,9.1,SEF,f
33359,Tiffany,STROBBE,1:46:06,18554,51:55,1:27:29,1:40:10,1:46:06,BEL,1,28,Vilvoorde,6:36,9.1,SEF,f
44613,Dennis,VERSCHUEREN,1:46:06,18555,49:41,1:24:59,1:39:03,1:46:06,BEL,1,23,Mortsel,6:36,9.1,SEH,m
33672,Tine,VANDENABEELE,1:46:06,18556,50:02,1:27:17,1:39:54,1:46:06,BEL,1,37,Antwerpen,6:36,9.1,F35,f
44580,Karen,SCHENK,1:46:07,18557,51:50,1:27:07,1:39:51,1:46:07,BEL,1,42,Merksem (Antwerpen),6:36,9.1,F40,f
20165,Nele,VAN DER HAEGEN,1:46:07,18558,51:09,1:26:50,1:39:51,1:46:07,BEL,1,34,Brussel,6:36,9.1,SEF,f
35948,Scha-Uri,CLAESENS,1:46:07,18559,52:07,1:27:26,1:40:05,1:46:07,BEL,1,20,,6:36,9.1,SEF,f
255,Rebecca,DE CLERCQ,1:46:07,18560,49:55,1:25:59,1:38:47,1:46:07,BEL,1,44,Assenede,6:36,9.1,F40,f
321,Tom,DE ROO,1:46:07,18561,49:56,1:26:00,1:38:47,1:46:07,BEL,1,43,Assenede,6:36,9.1,M40,m
36031,Matthias,VAN THILLO,1:46:07,18562,45:46,1:22:02,1:39:37,1:46:07,BEL,1,19,,6:36,9.1,SEH,m
30026,Frank,AERTS,1:46:07,18563,52:25,1:27:56,1:40:06,1:46:07,BEL,1,51,Westmalle,6:36,9.1,M50,m
37761,Sabine,BARTHOLOMEVIS,1:46:07,18564,48:37,1:25:08,1:38:53,1:46:07,BEL,1,41,Lummen,6:36,9.1,F40,f
29738,Sofie,DE KEERE,1:46:07,18565,56:54,1:29:31,1:40:52,1:46:07,BEL,1,30,Sint Amandsberg,6:36,9.1,SEF,f
30029,Lissa,AERTS,1:46:07,18566,52:26,1:27:56,1:40:06,1:46:07,BEL,1,20,Westmalle,6:36,9.1,SEF,f
18135,Hanne,VAN OPDENBOSCH,1:46:07,18567,52:42,1:27:44,1:40:04,1:46:07,BEL,1,30,Denderleeuw,6:36,9.1,SEF,f
221,Ulriche,DAENE,1:46:07,18568,51:45,1:26:19,1:39:59,1:46:07,BEL,1,45,St Kruis,6:36,9.1,F45,f
19556,Ilse,PEIRLINCK,1:46:07,18569,52:00,1:27:01,1:39:44,1:46:07,BEL,1,52,Waasmunster,6:36,9.1,F50,f
17418,,NR 17418,1:46:08,18570,None,None,None,1:46:08,BEL,1,0,,6:36,9.1,-,m
34525,Jo,VISSERS,1:46:08,18571,51:24,1:27:11,1:39:29,1:46:08,BEL,1,39,Merksem,6:36,9.1,F35,f
37871,Tessa,LORREYN,1:46:08,18572,52:29,1:28:19,1:40:20,1:46:08,BEL,1,25,Herent,6:36,9.1,SEF,f
1052,Marie-Désirée,VERSTRAETE,1:46:08,18573,54:01,1:28:18,1:40:22,1:46:08,BEL,1,21,Kortrijk,6:36,9.1,SEF,f
44314,Marleen,DE LAET,1:46:08,18574,52:18,1:28:03,1:40:04,1:46:08,BEL,1,50,Hoevenen,6:36,9.1,F50,f
34675,Dimitri,WITHOECK,1:46:08,18575,51:15,1:26:49,1:39:47,1:46:08,BEL,1,0,Wortegem,6:36,9.1,-,m
16896,Ellen,MERKI,1:46:08,18576,51:52,1:27:27,1:40:11,1:46:08,BEL,1,26,Meise,6:36,9.1,SEF,f
33103,Veerle,SCHENKELS,1:46:09,18577,51:24,1:27:11,1:39:29,1:46:09,BEL,1,36,Kalmthout,6:36,9.1,F35,f
611,Aline,MEHUYS,1:46:09,18578,54:01,1:28:18,1:40:22,1:46:09,BEL,1,23,Diksmuide,6:36,9.1,SEF,f
32622,Hoecke,NADINE Van,1:46:09,18579,50:50,1:27:04,1:39:43,1:46:09,BEL,1,53,Laarne,6:36,9.1,M50,m
30251,Jo,BOGAERT,1:46:09,18580,50:49,1:27:04,1:39:42,1:46:09,BEL,1,57,Laarne,6:36,9.1,M55,m
33601,Anne,VAN CAKENBERGH,1:46:09,18581,53:40,1:28:25,1:40:22,1:46:09,BEL,1,33,Leuven,6:36,9.1,SEF,f
3156,Saverio,ENRICO,1:46:09,18582,51:32,1:27:26,1:39:42,1:46:09,NLD,1,46,Amsterdam,6:36,9.1,M45,m
30069,Charlotte,ARIËN,1:46:09,18583,52:48,1:27:53,1:40:17,1:46:09,BEL,1,22,Mol,6:36,9.1,SEF,f
34038,Christel,VAN HYFTE,1:46:09,18584,52:58,1:27:59,1:40:02,1:46:09,BEL,1,35,Brussegem,6:36,9.1,F35,f
21725,Leni,VERSTOCKEN,1:46:09,18585,52:30,1:27:50,1:40:18,1:46:09,BEL,1,26,Sinaai,6:36,9.1,SEF,f
33971,Jens,VAN HAL,1:46:09,18586,51:33,1:27:35,1:39:43,1:46:09,BEL,1,21,Wechelderzande,6:36,9.1,SEH,m
31639,Leen,GILOPS,1:46:09,18587,52:28,1:28:00,1:40:11,1:46:09,BEL,1,51,Westmalle,6:36,9.1,F50,f
6852,Tanja,CEULEERS,1:46:10,18588,52:38,1:27:48,1:39:56,1:46:10,BEL,1,48,Antwerpen,6:36,9.1,F45,f
5800,Lut,JANSSEN,1:46:10,18589,53:39,1:28:09,1:40:23,1:46:10,BEL,1,50,Noorderwijk,6:36,9.1,F50,f
32687,Tim,NOVAK,1:46:10,18590,53:41,1:28:26,1:40:23,1:46:10,BEL,1,31,Leuven,6:36,9.1,SEH,m
16694,Nicky,LEMBRECHTS,1:46:10,18591,51:30,1:27:11,1:39:55,1:46:10,BEL,1,43,Lier,6:36,9.1,F40,f
21010,Wenke,COONE,1:46:11,18592,53:06,1:27:52,1:40:10,1:46:11,BEL,1,0,Machelen,6:36,9.1,-,f
2472,Philippe,VAN HOVE,1:46:11,18593,53:01,1:29:05,1:40:52,1:46:11,BEL,1,42,Bonheiden,6:36,9.1,M40,m
19992,Charlot,CALLENS,1:46:11,18594,50:05,1:27:26,1:40:53,1:46:11,BEL,1,35,Dendermonde,6:36,9.1,F35,f
19644,Lieve,DE SPLENTER,1:46:11,18595,54:31,1:28:23,1:40:24,1:46:11,BEL,1,0,Brasschaat,6:36,9.1,-,f
19072,Dorien,REYSKENS,1:46:12,18596,52:10,1:28:13,1:40:52,1:46:12,BEL,1,31,Bilzen,6:36,9.1,SEF,f
21314,Peter,SNOEK,1:46:12,18597,54:24,1:29:29,1:41:32,1:46:12,NLD,1,42,Xs Gorinchem,6:36,9.09,M40,m
30711,Steven,DAEMS,1:46:12,18598,53:59,1:28:49,1:40:49,1:46:12,BEL,1,38,Geel,6:36,9.09,M35,m
1318,Kim,DE BAERE,1:46:12,18599,53:18,1:27:53,1:39:56,1:46:12,BEL,1,41,Bornem,6:36,9.09,F40,f
35639,Evi,SCHOOVAERTS,1:46:12,18600,51:47,1:27:25,1:39:58,1:46:12,BEL,1,20,,6:36,9.09,SEF,f
38007,,NR 38007,1:46:12,18601,None,None,None,1:46:12,BEL,1,0,,6:36,9.09,-,m
2458,Carolien,VAN DER VELDEN,1:46:12,18602,50:14,1:25:30,1:39:33,1:46:12,BEL,1,25,Hoogstraten,6:36,9.09,SEF,f
6894,Annamaria,RUNA Eva,1:46:12,18603,53:56,1:28:23,1:40:22,1:46:12,HUN,1,37,Brussel,6:36,9.09,F35,f
15482,Dirk,COOPMANS,1:46:12,18604,52:10,1:28:14,1:40:51,1:46:12,BEL,1,34,Hoeselt,6:36,9.09,SEH,m
123,Jolien,BOONE,1:46:13,18605,52:42,1:28:29,1:40:47,1:46:13,BEL,1,22,Kontich,6:36,9.09,SEF,f
5956,Karen,BERGHMANS,1:46:13,18606,52:14,1:27:30,1:40:08,1:46:13,BEL,1,47,Emblem,6:36,9.09,F45,f
37433,Bert,VERMANT,1:46:13,18607,50:09,1:26:08,1:39:30,1:46:13,BEL,1,36,Puurs-Sint-Amands,6:36,9.09,M35,m
37380,Marika,TACK,1:46:13,18608,51:39,1:27:23,1:39:56,1:46:13,BEL,1,38,Wachtebeke,6:36,9.09,F35,f
37819,Kris,ROGGEMAN,1:46:13,18609,49:58,1:26:28,1:39:40,1:46:13,BEL,1,47,Belsele,6:36,9.09,M45,m
36594,Sven,PUELINGS,1:46:14,18610,51:17,1:26:33,1:39:31,1:46:14,BEL,1,44,Ezemaal,6:36,9.09,M40,m
21863,Jasper,LAUWERS,1:46:14,18611,51:17,1:26:32,1:39:26,1:46:14,BEL,1,29,Mechelen,6:36,9.09,SEH,m
31263,Clara,DEVRIENDT,1:46:14,18612,53:05,1:28:02,1:40:06,1:46:14,BEL,1,24,Antwerpen,6:36,9.09,SEF,f
34578,Beeckman,WALTER,1:46:14,18613,52:55,1:28:07,1:40:07,1:46:14,BEL,1,70,Wassmunster,6:36,9.09,M70,m
33129,Koen,SCHOONJANS,1:46:14,18614,52:06,1:27:07,1:40:12,1:46:14,BEL,1,53,Schilde,6:36,9.09,M50,m
31362,Maxim,DILLEN,1:46:14,18615,52:42,1:28:29,1:40:47,1:46:14,BEL,1,24,Oelegem,6:37,9.09,SEH,m
31773,Gill,HAVERHALS,1:46:15,18616,53:05,1:28:02,1:40:06,1:46:15,BEL,1,24,Antwerpen,6:37,9.09,SEF,f
31033,Stefanie,DE MAERSCHALCK,1:46:16,18617,52:17,1:27:50,1:40:18,1:46:16,BEL,1,26,Deurne,6:37,9.09,SEF,f
32651,Geert,NEUTENS,1:46:16,18618,50:41,1:26:50,1:39:40,1:46:16,BEL,1,59,Zwevegem,6:37,9.09,M55,m
250,Maxime,DE CLERCK,1:46:16,18619,51:33,1:26:52,1:39:48,1:46:16,BEL,1,27,Vollezele,6:37,9.09,SEH,m
37182,Sylvie,D'ANTONI,1:46:16,18620,54:38,1:29:21,1:41:06,1:46:16,BEL,1,39,Aartselaar,6:37,9.09,F35,f
2374,Philippe,RAMPELBERGH,1:46:16,18621,53:52,1:29:16,1:40:49,1:46:16,BEL,1,38,Groot-Bijgaarden,6:37,9.09,M35,m
31322,Stephan,DE ZWART,1:46:16,18622,52:42,1:27:53,1:40:18,1:46:16,NLD,1,49,Essen,6:37,9.09,M45,m
34535,Angelique,VLIERS,1:46:17,18623,51:30,1:27:24,1:40:09,1:46:17,BEL,1,47,Tongeren,6:37,9.09,F45,f
33373,John,SUCAET,1:46:17,18624,51:15,1:26:31,1:39:36,1:46:17,BEL,1,47,Leuven,6:37,9.09,M45,m
37858,Luc,VAN DE VYVER,1:46:17,18625,52:20,1:27:11,1:40:14,1:46:17,BEL,1,59,Destelbergen,6:37,9.09,M55,m
33695,Martine,VAN DEN BOSCCHE,1:46:17,18626,52:42,1:27:53,1:40:18,1:46:17,NLD,1,48,Essen,6:37,9.09,F45,f
29678,Frederik,VAN DE VELDE,1:46:17,18627,51:48,1:27:20,1:39:54,1:46:17,BEL,1,37,Kluizen,6:37,9.09,M35,m
32640,Jens,NEEFS,1:46:17,18628,51:58,1:27:46,1:40:10,1:46:17,BEL,1,16,Antwerpen,6:37,9.09,SEH,m
201,Astrid,COENS,1:46:18,18629,51:54,1:27:04,1:39:56,1:46:18,BEL,1,43,Mortsel,6:37,9.09,F40,f
2267,Femke,LIEVENS,1:46:18,18630,53:52,1:29:15,1:40:49,1:46:18,BEL,1,36,Borchtlombeek,6:37,9.09,F35,f
22615,Jan,DE GROOT,1:46:18,18631,50:32,1:26:10,1:40:05,1:46:18,BEL,1,52,Kruibeke,6:37,9.09,M50,m
7961,Vicky,COSEMANS,1:46:18,18632,52:55,1:27:26,1:40:05,1:46:18,BEL,1,50,,6:37,9.09,F50,f
17831,Liselotte,VAN DER HEYDEN,1:46:18,18633,51:58,1:27:50,1:40:06,1:46:18,BEL,1,25,Berchem,6:37,9.09,SEF,f
14516,Hans,DECKERS,1:46:18,18634,52:01,1:27:46,1:40:16,1:46:18,BEL,1,40,Duffel,6:37,9.09,M40,m
18733,Tatiana,TIBONI,1:46:18,18635,52:02,1:27:18,1:39:58,1:46:18,BEL,1,25,Borgerhout,6:37,9.09,SEF,f
19448,Peggy,DE SUTTER,1:46:18,18636,51:18,1:27:18,1:40:11,1:46:18,BEL,1,39,Kruishoutem,6:37,9.09,F35,f
15255,Marc,BOONS,1:46:18,18637,49:11,1:25:19,1:39:21,1:46:18,BEL,1,49,Lommel,6:37,9.09,M45,m
36249,Saskia,LAVRIJSEN,1:46:18,18638,55:10,1:28:55,1:40:41,1:46:18,BEL,1,29,Gierle,6:37,9.09,SEF,f
21673,Sara,WILLEMSENS,1:46:18,18639,50:10,1:26:24,1:39:38,1:46:18,BEL,1,30,Merksem,6:37,9.09,SEF,f
34715,Yueming,WU,1:46:19,18640,50:42,1:26:44,1:40:34,1:46:19,BEL,1,40,Deurne,6:37,9.08,F40,f
32641,Kris,NEEFS,1:46:19,18641,51:58,1:27:47,1:40:10,1:46:19,BEL,1,48,Antwerpen,6:37,9.08,M45,m
729,Peggy,ROELANDS,1:46:19,18642,52:47,1:29:05,1:40:37,1:46:19,BEL,1,49,Antwerpen,6:37,9.08,F45,f
32819,Tom,PEETERS,1:46:19,18643,52:41,1:27:34,1:40:03,1:46:19,BEL,1,55,Sint-Niklaas,6:37,9.08,M55,m
711,Inez,PUTTEMANS,1:46:19,18644,52:43,1:28:54,1:40:36,1:46:19,BEL,1,35,Linter,6:37,9.08,F35,f
171,Geoffrey,CARETTE,1:46:19,18645,51:54,1:27:04,1:39:56,1:46:19,BEL,1,52,Edegem,6:37,9.08,M50,m
6100,Ling,LIU,1:46:19,18646,53:05,1:28:56,1:40:53,1:46:19,BEL,1,40,,6:37,9.08,M40,m
32239,Ellen,LEERMAKERS,1:46:19,18647,54:05,1:28:48,1:40:45,1:46:19,BEL,1,32,Antwerpen 5,6:37,9.08,SEF,f
545,Jozefien,LAGA,1:46:20,18648,51:36,1:26:56,1:39:52,1:46:20,BEL,1,27,Vollezele,6:37,9.08,SEF,f
6696,Lieselotte,VAN LOOVEREN,1:46:20,18649,52:53,1:27:45,1:40:07,1:46:20,BEL,1,33,Zandhoven,6:37,9.08,SEF,f
22451,Zara,SIMONS,1:46:20,18650,54:16,1:30:48,1:41:16,1:46:20,BEL,1,17,Loenhout,6:37,9.08,SEF,f
30617,Ellen,COOMANS,1:46:20,18651,49:20,1:26:08,1:39:41,1:46:20,BEL,1,34,Bornem,6:37,9.08,SEF,f
37205,Ronny,VAN LEUVEN,1:46:20,18652,53:01,1:27:30,1:39:50,1:46:20,BEL,1,52,Nieuwkerken-Waas,6:37,9.08,M50,m
37193,Marco,LIBOT,1:46:20,18653,53:02,1:27:30,1:39:47,1:46:20,BEL,1,40,Merksem,6:37,9.08,M40,m
38739,Margriet,VERTONGEN,1:46:20,18654,51:59,1:28:12,1:40:16,1:46:20,BEL,1,53,Dendermonde,6:37,9.08,F50,f
37331,Sara,KIPS,1:46:20,18655,51:47,1:27:32,1:40:04,1:46:20,BEL,1,26,Merelbeke,6:37,9.08,SEF,f
20335,Christof,INGELS,1:46:20,18656,49:20,1:25:39,1:39:06,1:46:20,BEL,1,43,Sint-Niklaas,6:37,9.08,M40,m
5319,Wim,SMET,1:46:21,18657,53:55,1:28:14,1:40:23,1:46:21,BEL,1,57,Brecht,6:37,9.08,M55,m
5327,Glenn,VERELST,1:46:21,18658,53:56,1:28:14,1:40:23,1:46:21,BEL,1,42,Wuustwezel,6:37,9.08,M40,m
22139,Christophe,DE BOER,1:46:21,18659,50:41,1:25:58,1:39:58,1:46:21,BEL,1,25,Sint-Job-In-'T-Goor,6:37,9.08,SEH,m
32865,Marc,PISELE,1:46:21,18660,53:03,1:28:13,1:40:28,1:46:21,BEL,1,58,Nijlen,6:37,9.08,M55,m
31276,Julie,DE WEERDT,1:46:21,18661,54:00,1:28:27,1:40:38,1:46:21,BEL,1,34,Sint-Katelijne Waver,6:37,9.08,SEF,f
33236,Shana,SMET,1:46:21,18662,53:54,1:28:13,1:40:22,1:46:21,BEL,1,27,Zoersel,6:37,9.08,SEF,f
31275,André,DE WEERDT,1:46:21,18663,54:00,1:28:27,1:40:38,1:46:21,BEL,1,60,Onze-Lieve-Vrouw Waver,6:37,9.08,M60,m
37134,Anne-Caroline,KIEKENS,1:46:21,18664,52:24,1:28:01,1:40:09,1:46:21,BEL,1,35,Edegem,6:37,9.08,F35,f
7837,Geert,DIERICK,1:46:21,18665,49:20,1:25:39,1:39:54,1:46:21,BEL,1,56,Antwerpen,6:37,9.08,M55,m
35059,Oliwia,DRUMLAK,1:46:21,18666,53:05,1:28:36,1:40:55,1:46:21,BEL,1,17,,6:37,9.08,SEF,f
