runner id,name,lastname,time,rank,checkpt0,checkpt1,checkpt2,checkpt3,nationality,finished,age,city,team,pace,speed,category,sex
21925,Josie,MEANEY,1:40:30,16001,49:56,1:23:07,1:34:42,1:40:30,BEL,1,59,Kontich,6:15,9.61,F55,f
30770,Kristof,DE BLOCK,1:40:30,16002,49:28,1:22:19,1:34:57,1:40:30,BEL,1,40,Brugge,6:15,9.61,M40,m
30386,Katrien,BROWAEYS,1:40:30,16003,49:28,1:22:18,1:34:56,1:40:30,BEL,1,42,Oudenaarde,6:15,9.61,F40,f
35986,Maartje,LENAERTS,1:40:30,16004,49:10,1:22:32,1:34:57,1:40:30,BEL,1,19,,6:15,9.61,SEF,f
15106,Frauke,BAEYENS,1:40:30,16005,50:07,1:23:45,1:35:07,1:40:30,BEL,1,46,Antwerpen,6:15,9.61,F45,f
15138,Carolyn,BEDNARZ,1:40:31,16006,48:45,1:22:53,1:34:58,1:40:31,BEL,1,30,Vilvoorde,6:15,9.61,SEF,f
2562,Willy,WEETS,1:40:31,16007,49:11,1:22:27,1:34:26,1:40:31,BEL,1,60,Puurs,6:15,9.61,M60,m
16915,Laura,MEURIS,1:40:31,16008,50:12,1:23:49,1:35:25,1:40:31,BEL,1,19,Beerzel,6:15,9.61,SEF,f
22618,Seppe,ROELS,1:40:31,16009,50:32,1:24:16,1:35:19,1:40:31,BEL,1,22,Lokeren,6:15,9.61,SEH,m
23373,Philip,SPREUTELS,1:40:31,16010,51:18,1:23:53,1:34:55,1:40:31,BEL,1,43,Oelegem,6:15,9.61,M40,m
17938,Mathieu,VAN EYCKEN,1:40:31,16011,50:32,1:23:50,1:34:58,1:40:31,BEL,1,26,Tienen,6:15,9.61,SEH,m
33555,Dirk,VAN AKEN,1:40:31,16012,51:39,1:24:24,1:35:20,1:40:31,BEL,1,39,Aartselaar,6:15,9.61,M35,m
16289,Steven,GROENINCK,1:40:31,16013,48:46,1:22:20,1:34:46,1:40:31,BEL,1,41,Nederhasselt,6:15,9.61,M40,m
1840,Nikki,BOGAERTS,1:40:32,16014,49:51,1:22:50,1:34:36,1:40:32,BEL,1,31,Ekeren,6:15,9.61,SEF,f
16566,Ilse,KERSTENS,1:40:32,16015,48:04,1:21:57,1:34:25,1:40:32,NLD,1,38,Zundert,6:15,9.61,F35,f
35534,Jens,MATTHÉ,1:40:32,16016,49:38,1:22:44,1:34:43,1:40:32,BEL,1,22,,6:15,9.61,SEH,m
29802,Ian,SEVERINS,1:40:32,16017,49:50,1:22:49,1:34:36,1:40:32,BEL,1,32,Ekeren,6:15,9.61,SEH,m
15548,Jurgen,DAENEN,1:40:32,16018,51:47,1:23:43,1:35:16,1:40:32,BEL,1,25,Sint-Truiden,6:15,9.61,SEH,m
33119,Dominique,SCHODTS,1:40:32,16019,50:33,1:23:32,1:34:49,1:40:32,BEL,1,51,Diest,6:15,9.61,F50,f
1885,Guy,DE SMET,1:40:32,16020,50:07,1:22:54,1:34:48,1:40:32,BEL,1,56,Wanzele,6:15,9.61,M55,m
36788,Bart,STEYAERT,1:40:32,16021,51:40,1:24:21,1:35:22,1:40:32,BEL,1,31,Antwerpen,6:15,9.61,SEH,m
31379,Stephanie,DOM,1:40:32,16022,49:58,1:23:49,1:35:13,1:40:32,BEL,1,29,Kontich,6:15,9.61,SEF,f
21988,Veerle,SLOOTMANS,1:40:33,16023,50:00,1:23:16,1:34:55,1:40:33,BEL,1,52,Aartselaar,6:15,9.61,F50,f
17647,Ruben,VALGAERTS,1:40:33,16024,48:15,1:21:56,1:33:45,1:40:33,BEL,1,29,Leuven,6:15,9.61,SEH,m
7067,Vera,MEYSKENS,1:40:33,16025,49:55,1:23:09,1:34:42,1:40:33,BEL,1,56,Schoten,6:15,9.61,F55,f
8133,Joury,RUYS,1:40:33,16026,48:42,1:22:16,1:35:01,1:40:33,BEL,1,34,Huijbergen,6:15,9.61,SEH,m
7870,Linda,RAES,1:40:33,16027,47:58,1:21:55,1:34:13,1:40:33,BEL,1,52,Berchem,6:15,9.61,F50,f
21978,Sandra,EBERHARDT,1:40:33,16028,50:01,1:23:16,1:34:56,1:40:33,BEL,1,49,Reet,6:15,9.61,F45,f
1310,Boris,MUYLAERT,1:40:33,16029,50:31,1:23:24,1:35:04,1:40:33,BEL,1,41,Denderwindeke,6:15,9.61,M40,m
7867,Gaby,PHILIPS,1:40:34,16030,50:17,1:23:11,1:35:06,1:40:34,BEL,1,47,Stabroek,6:15,9.6,F45,f
30148,Lindsay,BEECKMAN,1:40:34,16031,49:57,1:23:19,1:35:03,1:40:34,BEL,1,27,Vilvoorde,6:15,9.6,SEF,f
18831,Hamed,AARAB,1:40:34,16032,53:20,1:26:04,1:35:59,1:40:34,BEL,1,44,Antwerpen,6:15,9.6,M40,m
21031,Glenn,GEZELS,1:40:34,16033,48:40,1:22:38,1:34:30,1:40:34,BEL,1,0,Machelen,6:15,9.6,-,m
5462,Skralan,LAMON,1:40:35,16034,49:41,1:22:56,1:35:18,1:40:35,BEL,1,32,Temse,6:15,9.6,SEH,m
17929,Geert,VAN EMELEN,1:40:35,16035,51:24,1:25:18,1:35:31,1:40:35,BEL,1,49,Vremde,6:15,9.6,M45,m
32385,Denis,MALCORPS,1:40:35,16036,50:26,1:23:57,1:35:16,1:40:35,BEL,1,31,Doel,6:15,9.6,SEH,m
21037,Lotte,JANSSEN,1:40:35,16037,47:42,1:21:42,1:34:15,1:40:35,BEL,1,0,Machelen,6:15,9.6,-,f
1054,Sabrina,VERSTRAETE,1:40:35,16038,52:23,1:24:11,1:35:24,1:40:35,BEL,1,25,Denderwindeke,6:15,9.6,SEF,f
4712,Sofie,ADEL,1:40:35,16039,50:38,1:23:36,1:34:56,1:40:35,BEL,1,42,Ekeren,6:15,9.6,F40,f
44349,Wim,HELLINCK,1:40:35,16040,49:57,1:23:20,1:34:42,1:40:35,BEL,1,55,Gent,6:15,9.6,M55,m
8086,Karine,DE JAEGER,1:40:35,16041,49:00,1:22:19,1:34:28,1:40:35,BEL,1,47,Geel,6:15,9.6,F45,f
34119,Kathleen,VANNESTE,1:40:35,16042,50:23,1:23:34,1:34:57,1:40:35,BEL,1,52,Izegem,6:15,9.6,F50,f
37477,Guido,SEGHERS,1:40:35,16043,50:47,1:23:59,1:34:46,1:40:35,BEL,1,59,Antwerpen,6:15,9.6,M55,m
16786,Patrick,MAEREVOET,1:40:36,16044,48:53,1:23:02,1:34:45,1:40:36,BEL,1,47,Bornem,6:15,9.6,M45,m
8258,Sacha,VAN HOEVER,1:40:36,16045,48:59,1:22:19,1:34:29,1:40:36,BEL,1,50,Geel,6:15,9.6,M50,m
2461,Jill,VAN DYCK,1:40:36,16046,50:52,1:23:13,1:34:52,1:40:36,BEL,1,35,Kallo,6:15,9.6,F35,f
17644,Michiel,VALEE,1:40:36,16047,45:20,1:19:46,1:34:25,1:40:36,BEL,1,25,Melsele,6:15,9.6,SEH,m
4813,Alicia,VAN DEN BOGAERT,1:40:36,16048,50:09,1:22:59,1:34:51,1:40:36,BEL,1,29,Rumst,6:15,9.6,SEF,f
15278,Sara,BOSSERS,1:40:36,16049,48:26,1:22:23,1:34:44,1:40:36,BEL,1,27,Ekeren,6:16,9.6,SEF,f
33066,David,SALENS,1:40:37,16050,51:21,1:23:30,1:34:53,1:40:37,BEL,1,27,Ninove,6:16,9.6,SEH,m
32471,Tom,MAXIMUS,1:40:37,16051,51:49,1:23:48,1:34:52,1:40:37,BEL,1,31,Boom,6:16,9.6,SEH,m
35645,Manon,SENELONGE,1:40:37,16052,50:56,1:24:06,1:35:15,1:40:37,BEL,1,28,,6:16,9.6,SEF,f
15628,Linda,DE BRUYNE,1:40:37,16053,49:35,1:22:35,1:34:37,1:40:37,NLD,1,52,Vlissingen,6:16,9.6,F50,f
1284,Jonas,JANSSENS,1:40:37,16054,49:34,1:24:48,1:35:08,1:40:37,BEL,1,33,Berlaar,6:16,9.6,SEH,m
6033,Jasmin,DANCKAERT,1:40:37,16055,49:43,1:23:38,1:34:58,1:40:37,BEL,1,31,,6:16,9.6,SEF,f
35615,Renzo,ROGIERS,1:40:37,16056,50:56,1:24:21,1:35:27,1:40:37,BEL,1,20,,6:16,9.6,SEH,m
3332,Sieg,HUYBRECHTS,1:40:37,16057,51:03,0,1:35:06,1:40:37,BEL,1,35,Baal,6:16,9.6,F35,f
5161,Eric,SONNEVILLE,1:40:37,16058,50:20,1:23:22,1:34:46,1:40:37,BEL,1,57,Eke,6:16,9.6,M55,m
20396,Koen,DE GROOF,1:40:37,16059,49:55,1:23:32,1:35:08,1:40:37,BEL,1,48,Antwerpen,6:16,9.6,M45,m
29360,Dieter,VERHAEGEN,1:40:37,16060,51:38,1:23:34,1:35:13,1:40:37,BEL,1,41,Antwerpen,6:16,9.6,M40,m
16565,Kathleen,KERREMANS,1:40:38,16061,50:21,1:23:32,1:35:03,1:40:38,BEL,1,41,Denderleeuw,6:16,9.6,F40,f
8048,Maarten,VANDER SCHUEREN,1:40:38,16062,46:57,1:19:44,1:34:16,1:40:38,BEL,1,29,,6:16,9.6,SEH,m
18720,Sarah,BULWIK,1:40:38,16063,49:29,1:22:59,1:34:49,1:40:38,BEL,1,29,'S Gravenwezel,6:16,9.6,SEF,f
32140,Jolien,KOUWENHOVEN,1:40:38,16064,49:35,1:23:27,1:34:50,1:40:38,BEL,1,24,Deurne,6:16,9.6,SEF,f
17126,Katrien,PEIRSMAN,1:40:38,16065,50:30,1:23:39,1:35:11,1:40:38,BEL,1,39,Heffen,6:16,9.6,F35,f
34439,Jurgen,VERMASSEN,1:40:38,16065,47:02,1:21:10,1:34:09,1:40:38,BEL,1,39,Berlare,6:16,9.6,M35,m
32280,Matthias,LIEKENS,1:40:38,16067,51:19,1:24:20,1:35:36,1:40:38,BEL,1,29,Aarschot,6:16,9.6,SEH,m
33229,Gunter,SMET,1:40:38,16068,47:09,1:21:14,1:34:07,1:40:38,BEL,1,51,Temse,6:16,9.6,M50,m
5742,Sarah,CALLEBAUT,1:40:38,16069,51:57,1:24:09,1:35:11,1:40:38,BEL,1,29,Geel,6:16,9.6,SEF,f
37614,Kate,DE MAEYER,1:40:38,16070,50:34,1:23:32,1:35:04,1:40:38,BEL,1,35,Sint-Gillis-Waas,6:16,9.6,F35,f
35730,Senne,VAN DER LINDEN,1:40:39,16071,50:56,1:24:21,1:35:27,1:40:39,BEL,1,20,,6:16,9.6,SEH,m
37459,Delphine,DE KEGEL,1:40:39,16072,48:50,1:22:22,1:34:35,1:40:39,BEL,1,34,Gavere,6:16,9.6,SEF,f
30593,Kim,COLONNE,1:40:39,16073,49:59,1:23:21,1:34:49,1:40:39,BEL,1,49,Lier,6:16,9.6,F45,f
33097,Sarah,SCHELFAUT,1:40:39,16074,50:09,1:23:34,1:34:57,1:40:39,BEL,1,31,Beervelde,6:16,9.6,SEF,f
5776,Celine,DIELS,1:40:39,16075,51:58,1:24:09,1:35:12,1:40:39,BEL,1,29,Geel,6:16,9.6,SEF,f
33810,Valerie,VAN DER OUDERAA,1:40:39,16076,50:42,1:23:59,1:34:59,1:40:39,BEL,1,27,Amsterdam,6:16,9.6,SEF,f
34416,Steven,VERHOEVEN,1:40:39,16077,51:10,1:24:08,1:35:29,1:40:39,BEL,1,45,Ranst,6:16,9.6,M45,m
38067,Jonas,DE RYCK,1:40:39,16078,51:25,1:23:36,1:34:58,1:40:39,BEL,1,33,Haasdonk,6:16,9.6,SEH,m
38071,Bart,DE BOCK,1:40:39,16079,51:24,1:23:48,1:34:57,1:40:39,BEL,1,39,Beveren,6:16,9.6,M35,m
5753,Pieter,COWÉ,1:40:40,16080,51:48,1:24:09,1:35:01,1:40:40,BEL,1,26,Geel,6:16,9.59,SEH,m
38690,Lander,VAN HEUKELOM,1:40:40,16081,50:25,1:24:15,1:35:35,1:40:40,BEL,1,18,Sint Niklaas,6:16,9.59,SEH,m
16898,Sofie,MERLO,1:40:40,16082,50:17,1:24:15,1:35:23,1:40:40,BEL,1,42,Mortsel,6:16,9.59,F40,f
22133,Jeroen,VANHOEYLANDT,1:40:40,16083,49:11,1:22:24,1:34:33,1:40:40,BEL,1,25,Temse,6:16,9.59,SEH,m
32701,Kristof,OEYEN,1:40:40,16084,50:27,1:24:13,1:35:14,1:40:40,BEL,1,36,Mortsel,6:16,9.59,M35,m
6242,Gideon,CRAUSE,1:40:40,16085,49:31,1:23:01,1:34:47,1:40:40,ZAF,1,31,Mechelen,6:16,9.59,SEH,m
19389,Inge,BEELDENS,1:40:40,16086,50:11,1:22:52,1:34:39,1:40:40,BEL,1,47,Melsele,6:16,9.59,F45,f
16291,Joren,GROENVYNCK,1:40:40,16087,50:22,1:22:52,1:34:37,1:40:40,BEL,1,35,Lint,6:16,9.59,F35,f
6867,Lieselot,DE SMEDT,1:40:41,16088,52:14,1:24:48,1:35:36,1:40:41,BEL,1,29,Gent,6:16,9.59,SEF,f
22802,Stijn,VAN HOOF,1:40:41,16089,50:23,1:22:52,1:34:37,1:40:41,AFG,1,36,Lint,6:16,9.59,M35,m
4584,Bert,VAN DE VIJVER,1:40:41,16090,49:48,1:22:53,1:34:39,1:40:41,BOL,1,46,Berchem,6:16,9.59,M45,m
30733,Michel,DAUWE,1:40:41,16091,50:37,1:24:23,1:35:28,1:40:41,BEL,1,50,Adegem,6:16,9.59,M50,m
32077,Niomi,KELLY,1:40:41,16092,50:21,1:23:27,1:34:49,1:40:41,BEL,1,39,Antwerpen,6:16,9.59,F35,f
32046,Gunter,JOOSEN,1:40:41,16093,50:21,1:23:27,1:34:49,1:40:41,BEL,1,45,Borgerhout,6:16,9.59,M45,m
2049,Malika,BROEKHOVEN,1:40:41,16094,49:09,1:22:51,1:34:49,1:40:41,BEL,1,40,Antwerpen,6:16,9.59,F40,f
18199,Rudy,VANSINGEL,1:40:41,16095,47:10,1:22:54,1:35:02,1:40:41,BEL,1,60,Eindhout,6:16,9.59,M60,m
30736,Simon,DAUWE,1:40:41,16096,50:37,1:24:23,1:35:29,1:40:41,BEL,1,18,Adegem,6:16,9.59,SEH,m
16113,Hadermann,EMMA,1:40:41,16097,49:35,1:23:27,1:35:10,1:40:41,BEL,1,21,Leuven,6:16,9.59,SEF,f
5545,Yun,YEUNG,1:40:42,16098,50:42,1:23:13,1:34:55,1:40:42,BEL,1,25,Hverlee,6:16,9.59,SEH,m
34465,Cedric,VERSCHAEREN,1:40:42,16099,50:46,1:24:41,1:35:52,1:40:42,BEL,1,21,Boortmeerbeek,6:16,9.59,SEH,m
35930,Ashley,VAN LEUVENHAEGE,1:40:42,16100,48:30,1:22:31,1:35:11,1:40:42,BEL,1,18,,6:16,9.59,SEH,m
7194,Joeri,BELDÉ,1:40:42,16101,48:58,1:22:18,1:34:33,1:40:42,BEL,1,38,Brussel,6:16,9.59,M35,m
7203,Nils,VERMEERSCH,1:40:43,16102,48:58,1:22:17,1:34:34,1:40:43,BEL,1,28,Brussel,6:16,9.59,SEH,m
21418,Kemp,MARTIN Van Der,1:40:43,16103,47:39,1:22:48,1:34:45,1:40:43,NLD,1,60,Sint-Gillis-Waas,6:16,9.59,M60,m
1717,Nevenka,SOTO GARCIA Lorena,1:40:43,16104,49:29,1:23:23,1:34:47,1:40:43,BEL,1,44,Antwerpen,6:16,9.59,F40,f
31549,Patrick,GALEYN,1:40:43,16105,49:19,1:23:04,1:34:48,1:40:43,BEL,1,47,Borsbeek,6:16,9.59,M45,m
31432,Krishanthi,EKANAYAKE,1:40:43,16106,48:49,1:22:46,1:34:59,1:40:43,LKA,1,43,Dpo,6:16,9.59,F40,f
6573,Edwig,LAENEN,1:40:43,16107,50:17,1:22:49,1:34:49,1:40:43,BEL,1,57,Schilde,6:16,9.59,M55,m
5624,Wim,DE HOON,1:40:43,16108,40:28,1:12:21,1:32:10,1:40:43,BEL,1,36,Antwerpen,6:16,9.59,M35,m
22613,Koen,VOET,1:40:43,16109,50:00,1:23:26,1:35:00,1:40:43,BEL,1,59,Antwerpen,6:16,9.59,M55,m
31248,Dominique,DEVOGEL,1:40:43,16110,49:07,1:23:01,1:34:52,1:40:43,BEL,1,49,Kessel-Lo,6:16,9.59,F45,f
44292,Bram,COOREMAN,1:40:43,16111,46:33,1:19:08,1:32:43,1:40:43,BEL,1,27,Gijzegem,6:16,9.59,SEH,m
29319,Crause,LYNDEL,1:40:44,16112,49:32,1:23:04,1:34:48,1:40:44,ZAF,1,31,Mechelen,6:16,9.59,SEF,f
16239,Thomas,GODON,1:40:44,16113,48:51,1:22:09,1:34:54,1:40:44,BEL,1,31,Mortsel,6:16,9.59,SEH,m
30423,Rani,BUYSSENS,1:40:44,16114,49:02,1:22:52,1:34:38,1:40:44,BEL,1,25,Lokeren,6:16,9.59,SEF,f
2075,Jessica,COOSEMANS,1:40:44,16115,51:12,1:24:13,1:35:18,1:40:44,BEL,1,26,Deurne,6:16,9.59,SEF,f
35290,Davy,COOLS,1:40:44,16116,48:43,1:23:29,1:34:51,1:40:44,BEL,1,20,,6:16,9.59,SEH,m
32968,Sofie,RENS,1:40:44,16117,49:44,1:23:42,1:35:25,1:40:44,BEL,1,22,Lint,6:16,9.59,SEF,f
35174,Omar,HAQBANE,1:40:45,16118,50:08,1:23:43,1:34:42,1:40:45,BEL,1,19,Antwerpen,6:16,9.59,SEH,m
32323,Chris,LOUAGIE,1:40:45,16119,50:26,1:23:51,1:35:18,1:40:45,BEL,1,57,Wespelaar,6:16,9.59,M55,m
36232,Diëgo,DEMAN,1:40:45,16120,50:24,1:23:33,1:34:58,1:40:45,BEL,1,24,Zomergem,6:16,9.59,SEH,m
21336,Alison,VANMECHELEN,1:40:45,16121,52:50,1:24:47,1:35:36,1:40:45,BEL,1,43,Lint,6:16,9.59,F40,f
2156,Maricarmen,DHOOGHE,1:40:45,16122,51:13,1:24:13,1:35:18,1:40:45,BEL,1,32,Schoten,6:16,9.59,SEF,f
23281,Liesl,VAN HOREBEEK,1:40:46,16123,49:59,1:23:05,1:34:58,1:40:46,BEL,1,22,Geel,6:16,9.59,SEF,f
19632,Maarten,VAN HERZEELE,1:40:46,16124,51:13,1:24:21,1:35:29,1:40:46,BEL,1,37,Deinze,6:16,9.59,M35,m
21548,Kristien,JANSSENS,1:40:46,16125,50:27,1:23:40,1:35:13,1:40:46,BEL,1,21,Zwijndrecht,6:16,9.59,SEF,f
35001,Cury,GRAMAL ALFUSI,1:40:46,16126,51:23,1:24:28,1:35:23,1:40:46,BEL,1,19,,6:16,9.58,SEH,m
31762,Koen,HANSSENS,1:40:46,16127,47:32,1:22:02,1:34:24,1:40:46,BEL,1,37,Diegem,6:16,9.58,M35,m
15453,Dimitri,CLÉMENT,1:40:46,16128,51:12,1:24:16,1:35:37,1:40:46,BEL,1,51,Antwerpen,6:16,9.58,M50,m
33368,Leen,STUER,1:40:46,16129,47:06,1:22:15,1:34:51,1:40:46,BEL,1,37,Sint Jansteen,6:16,9.58,F35,f
36250,Natascha,LEFEVRE,1:40:47,16130,48:27,1:22:34,1:35:00,1:40:47,BEL,1,49,Harelbeke,6:16,9.58,F45,f
32893,Marloes,POORTMANS,1:40:47,16131,51:54,1:25:22,1:35:37,1:40:47,BEL,1,21,Kontich,6:16,9.58,SEF,f
5812,Zohra,LEMAIRE,1:40:47,16132,52:11,1:24:52,1:35:25,1:40:47,BEL,1,16,Kontich,6:16,9.58,SEF,f
7018,Kurt,BAETENS,1:40:48,16133,49:40,1:23:26,1:34:45,1:40:48,BEL,1,48,Merksem,6:16,9.58,M45,m
34060,Lynn,VAN KEYMEULEN,1:40:48,16134,50:46,1:23:48,1:35:06,1:40:48,BEL,1,35,Westmalle,6:16,9.58,F35,f
31358,Thomas,DIERICKX,1:40:48,16135,49:01,1:22:06,1:34:33,1:40:48,BEL,1,42,Gent,6:16,9.58,M40,m
30092,Véronique,AVERMAETE,1:40:48,16136,49:58,1:23:07,1:34:52,1:40:48,BEL,1,22,Linter,6:16,9.58,SEF,f
17536,Ariane,STOFFELS,1:40:49,16137,47:51,1:22:23,1:34:43,1:40:49,BEL,1,50,Kontich,6:16,9.58,F50,f
8235,Nele,TRAPPENIERS,1:40:49,16138,48:50,1:23:50,1:35:12,1:40:49,BEL,1,29,Vilvoorde,6:16,9.58,SEF,f
38758,Laura,ELIAERTS,1:40:49,16139,49:39,1:23:24,1:34:48,1:40:49,BEL,1,27,Wilrijk,6:16,9.58,SEF,f
31034,Brigiet,DE MAERTELARE,1:40:49,16140,49:00,1:23:10,1:35:01,1:40:49,BEL,1,45,Sleidinge,6:16,9.58,F45,f
6543,Ellen,DE BIE,1:40:49,16141,53:21,1:25:21,1:35:54,1:40:49,BEL,1,25,Ekeren,6:16,9.58,SEF,f
14320,Lequenne,SHAUNITA,1:40:49,16142,51:46,1:24:15,1:35:18,1:40:49,BEL,1,27,Wommelgem,6:16,9.58,SEF,f
32523,Tinne,MERTENS,1:40:49,16143,50:48,1:24:08,1:35:24,1:40:49,BEL,1,33,Outgaarden,6:16,9.58,SEF,f
30147,David,BEECKMAN,1:40:49,16144,48:59,1:23:09,1:35:00,1:40:49,BEL,1,46,Sleidinge,6:16,9.58,M45,m
35284,Tiemen,COENE,1:40:49,16145,50:34,1:23:35,1:35:02,1:40:49,BEL,1,19,,6:16,9.58,SEH,m
1852,Jarrid,STABEL,1:40:50,16146,51:46,1:24:15,1:35:18,1:40:50,BEL,1,27,Wommelgem,6:16,9.58,SEH,m
22575,Veerle,VAN DAELE,1:40:50,16147,47:56,1:21:46,1:34:40,1:40:50,BEL,1,41,Bazel,6:16,9.58,F40,f
33405,Sibel,TAÇ,1:40:50,16148,49:40,1:23:25,1:34:56,1:40:50,BEL,1,27,Antwerpen,6:16,9.58,SEF,f
30438,Canan,CALISKAN,1:40:50,16149,49:40,1:23:25,1:34:57,1:40:50,BEL,1,28,Berchem,6:16,9.58,SEF,f
44668,Zola,DORJBAYAR,1:40:50,16150,49:39,1:23:24,1:34:48,1:40:50,BEL,1,28,Antwerpen,6:16,9.58,SEF,f
15238,Lena,BOLS,1:40:50,16151,50:13,1:23:10,1:35:03,1:40:50,BEL,1,18,Lochristi,6:16,9.58,SEF,f
29364,Joseph,MEES,1:40:50,16152,49:56,1:24:04,1:35:18,1:40:50,BEL,1,64,Merksem,6:16,9.58,M60,m
33047,Elien,ROUKAERTS,1:40:50,16153,50:48,1:24:08,1:35:23,1:40:50,BEL,1,26,Tienen,6:16,9.58,SEF,f
16987,Karin,MUZERIE,1:40:50,16154,47:01,1:23:02,1:34:43,1:40:50,NLD,1,59,Utrecht,6:16,9.58,F55,f
6041,Veerle,DE KOCK,1:40:50,16155,50:28,1:23:49,1:35:14,1:40:50,BEL,1,44,,6:16,9.58,F40,f
44296,Jan,SWENDEN,1:40:51,16156,48:07,1:22:03,1:34:13,1:40:51,BEL,1,53,Beerzel,6:16,9.58,M50,m
21222,Olivier,DEMEIJER,1:40:51,16157,49:53,1:23:31,1:35:39,1:40:51,BEL,1,27,Kalmthout,6:16,9.58,SEH,m
16499,Yannick,JANSSENS,1:40:51,16158,51:36,1:24:58,1:36:14,1:40:51,BEL,1,60,Marke,6:16,9.58,M60,m
23125,Karel,VAN DE MIEROOP,1:40:51,16159,47:51,1:22:17,1:35:01,1:40:51,BEL,1,54,Schoten,6:16,9.58,M50,m
23126,Kevin,VAN DE MIEROOP,1:40:51,16160,47:50,1:21:18,1:34:46,1:40:51,BEL,1,24,Schoten,6:16,9.58,SEH,m
23079,Kenny,KIEKENS,1:40:51,16161,51:27,1:24:33,1:35:31,1:40:51,BEL,1,34,Geraardsbergen,6:16,9.58,SEH,m
32800,Jeroen,PEETERS,1:40:51,16162,49:46,1:23:22,1:34:59,1:40:51,BEL,1,37,Aartselaar,6:16,9.58,M35,m
30883,Gynaika,DE COSTER,1:40:51,16163,48:19,1:23:03,1:34:59,1:40:51,BEL,1,23,Kapelle-Op-Den-Bos,6:16,9.58,SEF,f
138,Veerle,BRESSELEERS,1:40:51,16164,50:29,1:23:49,1:35:14,1:40:51,BEL,1,46,Beerse,6:16,9.58,F45,f
38688,Jurgen,VAN HEUKELOM,1:40:52,16165,50:25,1:24:15,1:35:35,1:40:52,BEL,1,41,Sint Niklaas,6:16,9.58,M40,m
19543,Salomé,HEYMAN,1:40:52,16166,49:19,1:23:35,1:35:21,1:40:52,BEL,1,21,Tielrode,6:16,9.58,SEF,f
33602,Ann,VAN CALSTER,1:40:52,16167,51:13,1:24:26,1:35:37,1:40:52,BEL,1,50,Wechelderzande,6:16,9.58,F50,f
35670,Yentl,STUYCK,1:40:52,16168,51:14,1:24:27,1:35:38,1:40:52,BEL,1,22,,6:16,9.58,SEF,f
30441,Lien,CALLEBAUT,1:40:52,16169,49:46,1:23:31,1:35:06,1:40:52,BEL,1,33,Olsene,6:16,9.57,SEF,f
31026,Margot,DELVA,1:40:52,16170,51:57,1:25:19,1:36:03,1:40:52,BEL,1,25,Leuven,6:16,9.57,SEF,f
36880,Wouter,KEGELS,1:40:52,16171,51:14,1:24:20,1:35:49,1:40:52,BEL,1,24,Sint-Gillis-Waas,6:17,9.57,SEH,m
2907,Nancy,DEBUSSCHERE,1:40:53,16172,50:11,1:23:50,1:35:10,1:40:53,BEL,1,0,Dadizele,6:17,9.57,-,f
37794,Bo,VANHOVE,1:40:53,16173,51:29,1:24:21,1:35:21,1:40:53,BEL,1,17,Lembeke,6:17,9.57,SEF,f
5401,Frank,CRAEN,1:40:53,16174,49:20,1:23:02,1:35:14,1:40:53,BEL,1,49,Beveren)Waas,6:17,9.57,M45,m
3393,Magda,JOYE,1:40:53,16175,50:11,1:23:50,1:35:09,1:40:53,BEL,1,0,Dadizele,6:17,9.57,-,f
5152,Luc,PEIRENS,1:40:53,16176,48:34,1:22:27,1:35:02,1:40:53,BEL,1,59,Kruisem,6:17,9.57,M55,m
32774,Kelly,PAUWELS,1:40:53,16177,49:29,1:23:29,1:34:51,1:40:53,BEL,1,30,Merksem,6:17,9.57,SEF,f
36170,Helene,DE VOS,1:40:53,16178,49:16,1:22:43,1:35:11,1:40:53,BEL,1,24,Wilrijk,6:17,9.57,SEF,f
38065,Mohamed,BENCHAHBOUN,1:40:53,16179,49:41,1:22:28,1:34:52,1:40:53,BEL,1,51,Antwerp,6:17,9.57,M50,m
32782,Lore,PAUWELYN,1:40:53,16179,48:47,1:22:36,1:34:39,1:40:53,BEL,1,23,Hooglede,6:17,9.57,SEF,f
34035,Marc,VAN HULLE Jean,1:40:53,16181,50:22,1:23:59,1:35:19,1:40:53,BEL,1,56,Destelbergen,6:17,9.57,M55,m
36159,Hanne,BOSMANS,1:40:53,16182,51:00,1:23:35,1:35:21,1:40:53,BEL,1,22,Itegem,6:17,9.57,SEF,f
32788,Ingrid,PEENEN,1:40:53,16183,49:47,1:23:23,1:35:01,1:40:53,BEL,1,35,Aartselaar,6:17,9.57,F35,f
23340,Hilda,VERMEIR Lutgardis,1:40:53,16184,48:23,1:22:20,1:34:34,1:40:53,BEL,1,64,Zele,6:17,9.57,F60,f
17932,Ilse,VAN ERMENGEM,1:40:54,16185,50:38,1:23:55,1:35:29,1:40:54,BEL,1,52,Baal,6:17,9.57,F50,f
35334,Lennert,DE GROOTE,1:40:54,16186,48:04,1:22:09,1:34:45,1:40:54,BEL,1,21,,6:17,9.57,SEH,m
35640,Sam,SCHROOYEN,1:40:54,16187,48:30,1:23:12,1:35:13,1:40:54,BEL,1,26,,6:17,9.57,SEH,m
33365,Bart,STROUVEN,1:40:54,16188,52:31,1:24:48,1:35:55,1:40:54,BEL,1,45,Kessel-Lo,6:17,9.57,M45,m
33638,Axel,VAN DAMME,1:40:54,16189,54:47,1:25:54,1:36:02,1:40:54,BEL,1,27,Aalter,6:17,9.57,SEH,m
4889,Sander,GEBRUERS,1:40:55,16190,51:53,1:24:10,1:35:46,1:40:55,BEL,1,26,Lier,6:17,9.57,SEH,m
30324,Eli,BOUDREAUX,1:40:55,16191,49:35,1:23:38,1:35:28,1:40:55,BEL,1,35,Lanaken,6:17,9.57,M35,m
32539,Femke,MEYNEN,1:40:55,16192,49:35,1:23:38,1:35:27,1:40:55,BEL,1,33,Lanaken,6:17,9.57,SEF,f
29271,Tijs,JANSSENS,1:40:55,16193,50:33,1:23:13,1:35:06,1:40:55,BEL,1,16,Hoboken,6:17,9.57,SEH,m
34040,Emma,VAN IMPE,1:40:55,16194,51:58,1:25:42,1:35:58,1:40:55,BEL,1,16,Pollare,6:17,9.57,SEF,f
33398,Frank,SYSMANS,1:40:55,16195,51:34,1:25:01,1:35:42,1:40:55,BEL,1,54,Geel,6:17,9.57,M50,m
17867,Tom,VAN DESSEL,1:40:55,16196,48:26,1:22:14,1:34:58,1:40:55,BEL,1,45,Hemiksem,6:17,9.57,M45,m
31689,Nina,GOOSSENS,1:40:55,16197,49:09,1:23:47,1:35:21,1:40:55,BEL,1,26,Langdorp,6:17,9.57,SEF,f
35219,Ryoko,ASARI,1:40:55,16198,46:37,1:20:59,1:34:23,1:40:55,BEL,1,37,,6:17,9.57,F35,f
16244,Antonio,GOEGEBEUR,1:40:55,16199,50:48,1:24:53,1:36:02,1:40:55,BEL,1,31,Antwerpen,6:17,9.57,SEH,m
3171,Thibault,FILIPPINI,1:40:56,16200,46:39,1:21:23,1:34:18,1:40:56,BEL,1,22,Maasmechelen,6:17,9.57,SEH,m
37228,Els,DE KONINCK,1:40:56,16201,48:57,1:22:33,1:35:08,1:40:56,BEL,1,49,Muizen,6:17,9.57,F45,f
32771,Els,PAUWELS,1:40:56,16201,51:29,1:24:43,1:35:44,1:40:56,BEL,1,34,Pulderbos,6:17,9.57,SEF,f
33888,Marie,VAN DIJCK,1:40:56,16203,51:26,1:23:56,1:35:20,1:40:56,BEL,1,16,Brasschaat,6:17,9.57,SEF,f
22739,Luc,VAN DEN ABEELE,1:40:56,16204,49:50,1:23:39,1:34:58,1:40:56,BEL,1,51,Sint-Niklaas,6:17,9.57,M50,m
33002,Jan,RODRIGUS,1:40:56,16205,51:30,1:24:42,1:35:45,1:40:56,BEL,1,37,Pulderbos,6:17,9.57,M35,m
37204,Robin,VAN GEHUCHTEN,1:40:56,16206,48:00,1:22:06,1:34:47,1:40:56,BEL,1,46,Lier,6:17,9.57,M45,m
33887,Jan,VAN DIJCK,1:40:56,16207,51:26,1:23:56,1:35:20,1:40:56,BEL,1,45,Brasschaat,6:17,9.57,M45,m
31833,Maarten,HERMANS,1:40:57,16208,51:07,1:24:14,1:35:35,1:40:57,BEL,1,38,Booischot,6:17,9.57,M35,m
6909,Luc,VAN HEMELRYCK,1:40:57,16209,50:51,1:23:51,1:35:08,1:40:57,BEL,1,52,Grimbergen,6:17,9.57,M50,m
33584,Eddy,VAN BOXSTAEL,1:40:57,16210,49:42,1:22:57,1:34:47,1:40:57,BEL,1,60,Vlierzele,6:17,9.57,M60,m
22732,Franciscus,DIERCKX,1:40:57,16211,49:51,1:23:40,1:34:59,1:40:57,BEL,1,53,Boechout,6:17,9.57,M50,m
30370,Vanessa,BRIERS,1:40:58,16212,51:47,1:24:46,1:35:51,1:40:58,BEL,1,36,Tessenderlo,6:17,9.57,F35,f
21389,Lien,NIJSSEN,1:40:58,16213,50:32,1:23:42,1:35:00,1:40:58,BEL,1,28,Antwerpen,6:17,9.57,SEF,f
34300,Andy,VERBAEYS,1:40:58,16214,51:05,1:23:37,1:35:31,1:40:58,BEL,1,43,Ruisbroek,6:17,9.57,M40,m
779,Sofie,SONCK,1:40:58,16215,50:08,1:23:38,1:35:16,1:40:58,BEL,1,45,Denderleeuw,6:17,9.57,F45,f
5651,Eric,VERMEYLEN,1:40:58,16216,50:29,1:23:33,1:35:32,1:40:58,BEL,1,61,Antwerpen,6:17,9.57,M60,m
21515,Shingo,OKUNO,1:40:58,16217,49:59,1:23:06,1:34:50,1:40:58,JPN,1,34,Kraainem,6:17,9.57,SEH,m
823,Petra,TOMBEUR,1:40:58,16218,50:21,1:23:58,1:35:22,1:40:58,BEL,1,52,Ninove,6:17,9.57,F50,f
21823,Adinda,VAN GERVEN,1:40:59,16219,50:30,1:23:33,1:35:32,1:40:59,BEL,1,55,Brasschaat,6:17,9.56,F55,f
36996,Jasper,VANHAELEMEESCH,1:40:59,16220,52:07,1:24:44,1:35:40,1:40:59,BEL,1,28,Antwerpen,6:17,9.56,SEH,m
32837,Brookes,PETER,1:40:59,16221,48:44,1:23:19,1:35:18,1:40:59,GBR,1,51,Genval,6:17,9.56,M50,m
16232,Patrick,GODDERIE,1:40:59,16222,49:55,1:23:21,1:34:58,1:40:59,BEL,1,52,Genk,6:17,9.56,M50,m
37156,Yati,THIELS,1:40:59,16223,49:44,1:23:33,1:35:16,1:40:59,BEL,1,30,Affligem,6:17,9.56,SEF,f
15597,Marc,DE BOCK,1:40:59,16224,49:03,1:23:46,1:35:00,1:40:59,BEL,1,0,Burcht,6:17,9.56,-,m
19153,Nathalie,HUYBRECHTS,1:40:59,16225,50:40,1:24:28,1:35:42,1:40:59,BEL,1,34,Hasselt,6:17,9.56,SEF,f
29419,Guido,VANMASSENHOVE,1:40:59,16226,49:32,1:23:44,1:35:10,1:40:59,BEL,1,59,Zuienkerke,6:17,9.56,M55,m
32110,Leyla,KHOUNDA,1:41:00,16227,49:14,1:23:41,1:35:26,1:41:00,BEL,1,31,Sint-Niklaas,6:17,9.56,SEF,f
7110,Nele,VAN HOUTVEN,1:41:00,16228,50:36,1:23:12,1:35:02,1:41:00,BEL,1,37,Borgerhout,6:17,9.56,F35,f
5977,Julie,IMPE,1:41:00,16229,48:48,1:22:55,1:34:55,1:41:00,BEL,1,26,Antwerpen,6:17,9.56,SEF,f
6168,Bjorn,VAN BUGGENHOUT,1:41:00,16230,48:33,1:22:41,1:34:55,1:41:00,BEL,1,40,,6:17,9.56,M40,m
3454,Thierry,LANNOO,1:41:01,16231,49:40,1:23:34,1:34:57,1:41:01,BEL,1,39,Heule,6:17,9.56,M35,m
1430,Liesbet,VAN HOOSTE,1:41:01,16232,49:46,1:23:05,1:35:18,1:41:01,BEL,1,34,Stekene,6:17,9.56,SEF,f
15135,Luc,BECKERS,1:41:01,16233,49:55,1:23:22,1:34:58,1:41:01,BEL,1,58,Sint-Truiden,6:17,9.56,M55,m
1387,Jonathan,KRAEYE,1:41:01,16234,49:15,1:22:34,1:34:39,1:41:01,BEL,1,27,Antwerpen,6:17,9.56,SEH,m
31636,Jan,GILLIS,1:41:01,16235,49:07,1:23:05,1:35:07,1:41:01,BEL,1,36,Berchem,6:17,9.56,M35,m
34292,Airen,VEDASTO,1:41:01,16236,49:57,1:22:47,1:34:30,1:41:01,BEL,1,41,Sint-Eloois-Winkel,6:17,9.56,F40,f
33948,Eline,VANGERVEN,1:41:02,16237,50:13,1:23:27,1:35:15,1:41:02,BEL,1,27,Geel,6:17,9.56,SEF,f
34976,Sien,EVERAERT,1:41:02,16238,50:35,1:24:12,1:35:26,1:41:02,BEL,1,17,,6:17,9.56,SEF,f
18256,Lies,VERBANCK,1:41:02,16239,48:10,1:22:46,1:35:25,1:41:02,BEL,1,32,Adinkerke,6:17,9.56,SEF,f
29412,Jannik,BAERT,1:41:02,16240,49:35,1:23:46,1:35:21,1:41:02,BEL,1,51,Blankenberge,6:17,9.56,F50,f
36543,Pauline,DUVAL,1:41:02,16241,51:12,1:23:53,1:35:33,1:41:02,BEL,1,32,Wavre,6:17,9.56,SEF,f
6155,An,STROEYKENS,1:41:02,16242,48:32,1:22:41,1:34:55,1:41:02,BEL,1,44,,6:17,9.56,F40,f
8194,Ine,JUTTEN,1:41:02,16243,49:12,1:23:13,1:35:01,1:41:02,BEL,1,36,Antwerp,6:17,9.56,F35,f
34179,Guy,VAN REETH,1:41:02,16244,49:03,1:22:46,1:34:44,1:41:02,BEL,1,58,Kontich,6:17,9.56,M55,m
722,Dirk,REUSENS,1:41:03,16245,49:04,1:22:47,1:34:45,1:41:03,BEL,1,59,Kontich,6:17,9.56,M55,m
35263,Lien,BRUSSELAERS,1:41:03,16246,51:53,1:24:51,1:35:39,1:41:03,BEL,1,23,,6:17,9.56,SEF,f
16963,Jari,MOORS,1:41:03,16247,52:06,1:24:48,1:36:00,1:41:03,BEL,1,24,Ranst,6:17,9.56,SEH,m
30110,Astrid,BAEYENS,1:41:03,16248,51:54,1:24:52,1:35:39,1:41:03,BEL,1,23,Kasterlee,6:17,9.56,SEF,f
44542,Erwin,DIELENS,1:41:03,16249,47:08,1:21:12,1:34:40,1:41:03,BEL,1,43,Nijlen,6:17,9.56,M40,m
44205,Gino,BUKACKI,1:41:03,16250,49:53,1:22:41,1:34:53,1:41:03,BEL,1,44,Sint-Gillis-Waas,6:17,9.56,M40,m
14498,An,BEULLENS,1:41:03,16251,48:03,1:22:12,1:35:12,1:41:03,BEL,1,42,Kontich,6:17,9.56,F40,f
6893,Peter,ROOMS,1:41:04,16252,45:02,1:21:43,1:35:04,1:41:04,BEL,1,48,Berchem,6:17,9.56,M45,m
17424,Frans,SEGHERS,1:41:04,16253,50:15,1:23:08,1:35:12,1:41:04,BEL,1,65,Bornem,6:17,9.56,M65,m
18103,Paul,VAN MECHELEN,1:41:04,16254,48:45,1:23:08,1:35:29,1:41:04,BEL,1,60,Emblem,6:17,9.56,M60,m
35297,Lieselot,CORTHOUT,1:41:04,16255,50:12,1:23:30,1:35:24,1:41:04,BEL,1,21,,6:17,9.56,SEF,f
2416,Sven,SYBERS,1:41:04,16255,48:09,1:23:16,1:35:07,1:41:04,BEL,1,37,Goeferdinge,6:17,9.56,M35,m
16972,Elsie,MOUTON,1:41:04,16257,50:14,1:23:08,1:35:13,1:41:04,BEL,1,47,Bornem,6:17,9.56,F45,f
19778,Guillaume,LE QUÉMENT,1:41:04,16258,49:21,1:22:59,1:35:17,1:41:04,FRA,1,40,Forest,6:17,9.56,F40,f
23438,Sven,COOREMANS,1:41:04,16259,49:09,1:22:01,1:34:42,1:41:04,BEL,1,45,Westmalle,6:17,9.56,M45,m
21402,Anton,WIELS,1:41:04,16260,50:44,1:22:14,1:35:45,1:41:04,BEL,1,28,Gentbrugge,6:17,9.56,SEH,m
35079,Hade,HIJBRECHTS,1:41:04,16261,49:48,1:23:39,1:35:20,1:41:04,BEL,1,20,,6:17,9.56,SEF,f
33099,Dieter,SCHELTJENS,1:41:05,16262,52:06,1:25:12,1:36:09,1:41:05,BEL,1,37,Lier,6:17,9.56,M35,m
22352,Frank,VAN LAER,1:41:05,16263,49:40,1:23:39,1:35:11,1:41:05,BEL,1,60,Brasschaat,6:17,9.55,M60,m
33395,Emilie,SYEN,1:41:05,16264,50:18,1:24:26,1:35:52,1:41:05,BEL,1,30,Leuven,6:17,9.55,SEF,f
32437,Sandy,MARYSSE,1:41:05,16265,50:29,1:24:03,1:35:23,1:41:05,BEL,1,39,Kalken,6:17,9.55,F35,f
34532,Shari,VLEMINCKX,1:41:05,16266,48:57,1:25:25,1:35:47,1:41:05,BEL,1,32,Mechelen,6:17,9.55,SEF,f
31214,Kelly,DE SMET,1:41:05,16267,51:29,1:24:40,1:35:40,1:41:05,BEL,1,36,Tielrode,6:17,9.55,F35,f
37901,Benoit,DEVOS,1:41:05,16268,50:19,1:23:31,1:35:18,1:41:05,BEL,1,41,Kortrijk,6:17,9.55,M40,m
2292,Jill,MARINUS,1:41:05,16269,51:15,1:24:02,1:35:22,1:41:05,BEL,1,42,Sint Katelijne Waver,6:17,9.55,F40,f
15436,Maxim,CLAES,1:41:05,16270,49:59,1:22:55,1:35:15,1:41:05,BEL,1,27,Antwerpen,6:17,9.55,SEH,m
32612,Sophie,MÜLLER,1:41:05,16271,50:19,1:24:00,1:35:24,1:41:05,BEL,1,33,Wilrijk,6:17,9.55,SEF,f
17766,Pascale,VAN DEN BROECK,1:41:06,16272,50:13,1:23:50,1:35:26,1:41:06,BEL,1,44,Beerzel,6:17,9.55,F40,f
8232,Leen,TIMMERMANS,1:41:06,16273,49:01,1:23:12,1:35:09,1:41:06,BEL,1,31,Leuven,6:17,9.55,SEF,f
751,Tessy,SCHAERLAEKEN,1:41:06,16274,51:29,1:24:45,1:35:38,1:41:06,BEL,1,35,Mechelen,6:17,9.55,F35,f
20811,Celine,VANHOOYDONCK,1:41:06,16275,48:02,1:22:29,1:35:05,1:41:06,BEL,1,23,Loenhout,6:17,9.55,SEF,f
21399,Emma,VERDANIAN,1:41:06,16276,52:26,1:25:25,1:35:54,1:41:06,BEL,1,29,Wommelgem,6:17,9.55,SEF,f
30613,Kim,COOLS,1:41:06,16277,50:30,1:24:04,1:35:24,1:41:06,BEL,1,42,Hever,6:17,9.55,F40,f
2036,Hilde,BOECKX,1:41:07,16278,49:53,1:23:34,1:35:10,1:41:07,BEL,1,49,Boom,6:17,9.55,M45,m
880,Naomi,VAN DEN ABBEELE,1:41:07,16279,51:29,1:24:40,1:35:40,1:41:07,BEL,1,42,Dendermonde,6:17,9.55,F40,f
34382,Joke,VERHAEGE,1:41:07,16280,50:39,1:24:07,1:35:40,1:41:07,BEL,1,29,Sleidinge,6:17,9.55,SEF,f
31132,Jana,DE REU,1:41:07,16281,50:39,1:24:07,1:35:40,1:41:07,BEL,1,25,Waarschoot,6:17,9.55,SEF,f
34490,Karolien,VERTOMMEN,1:41:07,16282,52:24,1:25:13,1:35:55,1:41:07,BEL,1,28,Wilrijk (2610),6:17,9.55,SEF,f
37054,Cédric,ELSLANDER,1:41:07,16283,50:59,1:24:13,1:35:31,1:41:07,BEL,1,37,Gent,6:17,9.55,M35,m
3685,Benjamin,PAEME,1:41:07,16284,49:35,1:22:24,1:35:02,1:41:07,BEL,1,29,Kessel-Lo,6:17,9.55,SEH,m
34688,Anne-Lene,WOUTERS,1:41:08,16285,51:36,1:24:34,1:35:47,1:41:08,BEL,1,25,Heverlee,6:17,9.55,SEF,f
8272,Nathalie,VERSPECHT,1:41:08,16286,50:05,1:23:57,1:35:18,1:41:08,BE,1,37,Opwijk,6:17,9.55,F35,f
35742,Tom,VAN DONINCK,1:41:08,16287,50:22,1:23:42,1:35:06,1:41:08,BEL,1,23,,6:17,9.55,SEH,m
33826,Justine,VANDERSTRAETEN,1:41:08,16288,51:59,1:24:50,1:35:54,1:41:08,BEL,1,25,Gent,6:17,9.55,SEF,f
6170,Mathieu,VANDAMME,1:41:08,16289,52:19,1:24:49,1:35:48,1:41:08,BEL,1,33,,6:17,9.55,SEH,m
35316,Kevin,DE BIE,1:41:08,16290,50:22,1:23:42,1:35:06,1:41:08,BEL,1,23,,6:17,9.55,SEH,m
30966,Elien,DE KERF,1:41:08,16291,50:58,1:24:16,1:35:46,1:41:08,BEL,1,32,Bazel,6:17,9.55,SEF,f
16487,Julie,JANSSENS,1:41:08,16292,51:36,1:24:58,1:36:13,1:41:08,BEL,1,25,Antwerpen,6:17,9.55,SEF,f
34910,Karin,VAN GENEGEN,1:41:08,16293,50:27,1:24:32,1:35:32,1:41:08,BEL,1,47,,6:17,9.55,F45,f
31223,Marc,DE SOUTER,1:41:08,16294,52:48,1:24:42,1:35:44,1:41:08,BEL,1,50,Hoboken,6:17,9.55,M50,m
36981,Kathy,MOYAERT,1:41:08,16295,49:42,1:23:54,1:35:23,1:41:08,BEL,1,28,Antwerpen,6:17,9.55,SEF,f
30967,Lisa,DE KERF,1:41:08,16296,50:58,1:24:15,1:35:46,1:41:08,BEL,1,28,Bazel,6:17,9.55,SEF,f
6681,Fien,RAATS,1:41:08,16297,53:43,1:24:22,1:35:46,1:41:08,BEL,1,35,Wuustwezel,6:17,9.55,F35,f
38127,Dirk,PAUWELS,1:41:09,16298,49:57,1:24:06,1:35:36,1:41:09,BEL,1,50,Merksem,6:17,9.55,M50,m
6651,Niels,BEAUFAYS,1:41:09,16299,50:16,1:23:23,1:35:22,1:41:09,BEL,1,36,Antwerpen,6:17,9.55,M35,m
30250,Ngozi,BOGAERT Chinwe,1:41:09,16300,49:25,1:23:46,1:35:04,1:41:09,BEL,1,34,Sint-Niklaas,6:18,9.55,SEF,f
2328,Laura,MUYSHONDT,1:41:09,16301,50:55,1:24:04,1:35:33,1:41:09,BEL,1,43,Puurs-Sint-Amands,6:18,9.55,F40,f
2446,Dirk,VAN DEN STEEN,1:41:09,16302,54:53,1:25:41,1:35:56,1:41:09,BEL,1,57,Zoersel,6:18,9.55,M55,m
34320,Deborah,VERBRAEKEL,1:41:10,16303,50:50,1:24:08,1:35:39,1:41:10,BEL,1,36,Mere,6:18,9.55,F35,f
6961,Mohcine,IBN FAKIH,1:41:10,16304,50:34,1:24:12,1:35:35,1:41:10,BEL,1,50,Sint-Niklaas,6:18,9.55,M50,m
34654,Marleen,WILLEMS,1:41:10,16305,49:12,1:23:57,1:35:07,1:41:10,BEL,1,51,Eeklo,6:18,9.55,F50,f
21526,Evelien,DE MEY,1:41:10,16306,48:15,1:22:01,1:34:51,1:41:10,BEL,1,36,Berchem,6:18,9.55,F35,f
16932,Luc,MICHIELS,1:41:10,16307,49:11,1:22:57,1:35:13,1:41:10,BEL,1,62,Kapellen,6:18,9.55,M60,m
19687,Pauw,ANOUK De,1:41:10,16308,48:34,1:22:51,1:35:18,1:41:10,BEL,1,28,Temse,6:18,9.55,SEF,f
34033,Eline,VAN HULLE,1:41:10,16309,50:22,1:24:00,1:35:53,1:41:10,BEL,1,27,Destelbergen,6:18,9.55,SEF,f
32518,Joke,MERTENS,1:41:11,16310,50:43,1:24:21,1:35:34,1:41:11,BEL,1,30,Koersel,6:18,9.55,SEF,f
30928,Flo,DE GREEF,1:41:11,16311,49:59,1:22:59,1:35:05,1:41:11,BEL,1,19,Hove,6:18,9.55,SEF,f
1842,Sam,PEETERS,1:41:11,16312,50:31,1:24:02,1:35:26,1:41:11,BEL,1,36,Antwerpen,6:18,9.55,M35,m
2392,Alexis,SANSOGLOU,1:41:11,16313,54:53,1:25:42,1:35:57,1:41:11,BEL,1,47,Meise,6:18,9.55,M45,m
33454,Stefan,THOMAS,1:41:11,16314,50:05,1:24:22,1:35:32,1:41:11,BEL,1,50,Hoegaarden,6:18,9.55,M50,m
30942,Johan,DE HAES,1:41:11,16315,49:08,1:23:06,1:35:10,1:41:11,BEL,1,44,Leuven,6:18,9.55,M40,m
33722,Sofie,VAN DEN BUSSCHE,1:41:11,16316,49:59,1:22:59,1:35:05,1:41:11,BEL,1,19,Hove,6:18,9.55,SEF,f
19579,Juliette,VERSTRAETE,1:41:11,16317,49:19,1:23:34,1:35:22,1:41:11,BEL,1,22,Tielrode,6:18,9.54,SEF,f
530,Nadia,KHATTABI,1:41:11,16318,49:20,1:23:07,1:35:16,1:41:11,BEL,1,59,Hoeilaart,6:18,9.54,F55,f
36830,Kris,BAKELANTS,1:41:12,16319,51:34,1:25:02,1:35:40,1:41:12,BEL,1,53,Geel,6:18,9.54,M50,m
30010,Cemil,ADIYIL,1:41:12,16320,51:56,1:25:24,1:36:06,1:41:12,BEL,1,36,St-Denijs-Wes.,6:18,9.54,M35,m
31278,Babane,DEWILDE,1:41:12,16321,51:56,1:25:18,1:36:11,1:41:12,BEL,1,24,Kortrijk,6:18,9.54,SEF,f
35315,Sophie,DEBAENST,1:41:12,16322,50:40,1:23:51,1:35:14,1:41:12,BEL,1,23,,6:18,9.54,SEF,f
35377,Vivian,DORTLAND,1:41:12,16323,50:53,1:24:26,1:35:31,1:41:12,BEL,1,21,,6:18,9.54,SEF,f
17587,Mieke,THIELEMAN,1:41:12,16324,50:40,1:23:57,1:35:29,1:41:12,BEL,1,42,Kieldrecht,6:18,9.54,F40,f
32116,Lowie,KLAASEN,1:41:13,16325,49:38,1:23:20,1:35:15,1:41:13,BEL,1,17,Wilrijk,6:18,9.54,SEH,m
21741,Mathias,BUIJNSTERS,1:41:13,16326,52:07,1:24:43,1:36:01,1:41:13,BEL,1,0,Zwijndrecht,6:18,9.54,-,m
32083,Gala,KENIS,1:41:13,16327,49:54,1:24:01,1:35:30,1:41:13,BEL,1,25,Berlaar,6:18,9.54,SEF,f
37704,Eline,JANSSENS,1:41:13,16328,50:13,1:23:11,1:35:03,1:41:13,BEL,1,28,Borgerhout,6:18,9.54,SEF,f
31574,Mario,GEIRNAERT,1:41:13,16329,51:56,1:25:24,1:36:06,1:41:13,BEL,1,56,Ertvelde,6:18,9.54,M55,m
19782,Duncan,SEEKINGS,1:41:14,16330,49:21,1:22:59,1:35:17,1:41:14,BEL,1,55,Nivelles,6:18,9.54,M55,m
14241,Janinka,VANDE WALLE,1:41:14,16331,50:34,1:24:24,1:35:43,1:41:14,BEL,1,50,Roeselare,6:18,9.54,F50,f
35545,Simon,MICHIELSEN,1:41:14,16332,44:29,1:20:57,1:35:11,1:41:14,BEL,1,21,,6:18,9.54,SEH,m
16638,Raf,LAMBRECHTS,1:41:14,16333,48:57,1:23:44,1:35:15,1:41:14,BEL,1,41,Waasmunster,6:18,9.54,M40,m
20528,Luc,BRUGGEMAN,1:41:14,16334,47:36,1:22:19,1:34:44,1:41:14,BEL,1,56,Deinze,6:18,9.54,M55,m
21310,Luc,ENGHIEN,1:41:14,16335,51:42,1:23:59,1:35:29,1:41:14,BEL,1,55,Kessel,6:18,9.54,M55,m
35227,Mele,BAMMENS,1:41:14,16336,49:18,1:23:43,1:35:13,1:41:14,BEL,1,19,,6:18,9.54,SEF,f
17138,Jelle,PETERS,1:41:14,16337,51:44,1:25:05,1:36:20,1:41:14,NLD,1,28,Kontich,6:18,9.54,SEH,m
1743,Villance,ANNE-SOPHIE,1:41:14,16338,52:07,1:25:20,1:35:58,1:41:14,BEL,1,24,Geraardsbergen,6:18,9.54,SEF,f
21964,Rudy,OLESEN,1:41:14,16339,50:32,1:23:35,1:35:25,1:41:14,BEL,1,45,Antwerpen,6:18,9.54,M45,m
14314,Urriola,CHRISTOPHER ALEXANDE Dixon,1:41:15,16340,49:19,1:23:05,1:35:00,1:41:15,BEL,1,33,Schoten,6:18,9.54,SEH,m
34321,Davy,VERBRAEKEN,1:41:15,16341,50:35,1:24:25,1:35:44,1:41:15,BEL,1,48,Roeselare,6:18,9.54,M45,m
33883,Lia,VAN DE WEYER,1:41:15,16342,50:50,1:23:39,1:35:20,1:41:15,BEL,1,24,Beringen,6:18,9.54,SEF,f
5993,Inge,VAN CAUWENBERGH,1:41:15,16343,51:07,1:23:52,1:35:17,1:41:15,BEL,1,41,Stabroek,6:18,9.54,F40,f
30201,Nancy,BEVERS,1:41:15,16344,49:14,1:23:02,1:35:06,1:41:15,BEL,1,47,Grimbergen,6:18,9.54,F45,f
16764,Reijnders,LUUK,1:41:15,16345,51:05,1:24:04,1:36:01,1:41:15,NLD,1,47,Antwerpen,6:18,9.54,M45,m
16570,Lizzy,KESSELS,1:41:15,16346,50:25,1:24:01,1:35:28,1:41:15,BEL,1,40,Steendorp,6:18,9.54,F40,f
23403,Dirk,VAN LOON,1:41:15,16347,48:56,1:23:42,1:35:27,1:41:15,BEL,1,52,Antwerpen,6:18,9.54,M50,m
29964,Patrick,CLARYSSE,1:41:16,16348,51:10,1:23:53,1:35:42,1:41:16,BEL,1,59,Temse,6:18,9.54,M55,m
36272,Anne-Marie,ALDERWEIRELDT,1:41:16,16349,48:53,1:22:59,1:35:22,1:41:16,BEL,1,52,Wilrijk,6:18,9.54,F50,f
33507,Jean,TRAPPENIERS,1:41:16,16350,48:53,1:22:47,1:35:17,1:41:16,BEL,1,49,Poederlee,6:18,9.54,M45,m
30986,Sophie,DE KROCK,1:41:16,16351,49:19,1:22:59,1:35:19,1:41:16,BEL,1,24,Puurs,6:18,9.54,SEF,f
33175,Kalinin,SERGEI,1:41:16,16352,51:08,1:24:32,1:35:42,1:41:16,RUS,1,41,Gatchina,6:18,9.54,M40,m
38157,Rose,MATERNÉ,1:41:16,16353,47:17,1:21:23,1:34:33,1:41:16,BEL,1,19,Boechout,6:18,9.54,SEF,f
4051,Erwin,VAN CAUTEREN,1:41:16,16354,50:02,1:24:20,1:35:41,1:41:16,BEL,1,37,Gierle,6:18,9.54,M35,m
38158,Marianne,ANTONSEN,1:41:17,16355,48:42,1:22:27,1:34:34,1:41:17,BEL,1,46,Boechout,6:18,9.54,F45,f
32460,Gregory,MATTHYS,1:41:17,16356,49:15,1:23:03,1:35:07,1:41:17,BEL,1,18,Grimbergen,6:18,9.54,SEH,m
30985,Marc,DE KROCK,1:41:17,16357,49:18,1:22:59,1:35:19,1:41:17,BEL,1,59,Puurs,6:18,9.54,M55,m
23283,Anke,DE PRÉ,1:41:17,16358,48:55,1:22:53,1:34:59,1:41:17,BEL,1,36,Mechelen,6:18,9.54,F35,f
34664,Veerle,WILMANS,1:41:17,16359,51:16,1:24:56,1:35:52,1:41:17,BEL,1,47,Tongeren,6:18,9.54,F45,f
30752,Veronique,DEBAISSIEUX,1:41:17,16360,50:03,1:23:24,1:35:16,1:41:17,BEL,1,33,Aartselaar,6:18,9.54,SEF,f
30590,Kurt,COLMAN,1:41:17,16361,50:02,1:23:25,1:35:16,1:41:17,BEL,1,35,Aartselaar,6:18,9.54,M35,m
17428,Benthe,SENDERS,1:41:17,16362,46:50,1:20:15,1:34:19,1:41:17,NLD,1,22,Meerle,6:18,9.54,SEF,f
34077,Tine,VAN LEEMPUT-BOGAERTS,1:41:18,16363,51:50,1:24:24,1:36:02,1:41:18,BEL,1,43,Nijlen,6:18,9.53,F40,f
18583,Jana,VAN HAMME,1:41:18,16364,50:44,1:23:59,1:35:30,1:41:18,BEL,1,26,De Pinte,6:18,9.53,SEF,f
32502,David,MENNDEZ GARCIA,1:41:18,16365,50:52,1:25:27,1:36:37,1:41:18,BEL,1,40,Wanzele,6:18,9.53,M40,m
19300,Evi,DE HERT,1:41:18,16366,49:38,1:24:05,1:35:44,1:41:18,BEL,1,31,Wuustwezel,6:18,9.53,SEF,f
22842,Bianca,FOETS,1:41:18,16367,48:47,1:22:21,1:34:55,1:41:18,BEL,1,45,Temse,6:18,9.53,F45,f
35223,Stefanie,BAETENS,1:41:18,16368,51:55,1:25:27,1:36:06,1:41:18,BEL,1,21,,6:18,9.53,SEF,f
16867,Hilde,MEERSMAN,1:41:18,16369,49:44,1:23:16,1:35:32,1:41:18,BEL,1,55,Temse,6:18,9.53,F55,f
30287,Rita,BOONS,1:41:18,16370,51:18,1:24:58,1:35:52,1:41:18,BEL,1,60,Tongeren,6:18,9.53,F60,f
31329,Annelies,D'HAESE,1:41:19,16371,49:31,1:23:20,1:35:07,1:41:19,BEL,1,33,Mechelen,6:18,9.53,SEF,f
31101,Charlotte,DE PAUW,1:41:19,16372,48:53,1:23:13,1:35:14,1:41:19,BEL,1,20,Hoeilaart,6:18,9.53,SEF,f
30996,Valérie,DE LANGHE,1:41:19,16373,50:20,1:23:58,1:35:29,1:41:19,BEL,1,40,Lochristi,6:18,9.53,F40,f
2626,Geert,BAETENS,1:41:19,16374,51:56,1:25:27,1:36:06,1:41:19,BEL,1,53,Lier,6:18,9.53,M50,m
29908,Wesley,RAEYMAEKERS,1:41:19,16375,49:25,1:23:37,1:35:20,1:41:19,BEL,1,42,Antwerpen,6:18,9.53,M40,m
31673,Charlotte,GONZALEZ FRIAS,1:41:19,16376,49:48,1:23:54,1:35:39,1:41:19,BEL,1,26,Lier,6:18,9.53,SEF,f
16461,Jente,JACOBS,1:41:20,16377,48:56,1:22:45,1:35:19,1:41:20,BEL,1,29,Laakdal,6:18,9.53,SEF,f
21220,William,BEYST,1:41:20,16378,50:46,1:24:12,1:35:55,1:41:20,BEL,1,39,Brasschaat,6:18,9.53,M35,m
15744,Anita,DE KIMPE,1:41:20,16379,49:44,1:23:16,1:35:32,1:41:20,BEL,1,48,Bazel,6:18,9.53,F45,f
6214,Jan,VERELST,1:41:20,16380,50:59,1:24:24,1:35:39,1:41:20,BEL,1,56,,6:18,9.53,M55,m
38702,Manon,VERHAEGEN,1:41:20,16381,50:14,1:23:30,1:35:19,1:41:20,BEL,1,22,Schelle,6:18,9.53,SEF,f
30129,Jeroen,BASTAENS,1:41:20,16382,50:10,1:24:25,1:35:59,1:41:20,BEL,1,25,Duffel,6:18,9.53,SEH,m
37552,Julien,ODEURS,1:41:20,16383,48:05,1:22:00,1:34:58,1:41:20,BEL,1,57,Hoboken,6:18,9.53,M55,m
169,Marijke,CAP,1:41:20,16384,48:37,1:22:23,1:35:14,1:41:20,BEL,1,32,Sint-Niklaas,6:18,9.53,SEF,f
19739,Sciandri,JACQUES,1:41:20,16385,51:37,1:25:43,1:36:22,1:41:20,BEL,1,22,Harelbeke,6:18,9.53,SEH,m
32871,Catherine,PLAQUET,1:41:20,16386,49:21,1:23:43,1:35:20,1:41:20,BEL,1,38,Bruxelles,6:18,9.53,F35,f
37522,Guy,DE VOS,1:41:21,16387,48:06,1:22:01,1:34:59,1:41:21,BEL,1,59,Hoboken,6:18,9.53,M55,m
38794,Nina,SEYS,1:41:21,16388,48:49,1:23:17,1:35:18,1:41:21,BEL,1,19,Sint-Niklaas,6:18,9.53,SEF,f
33105,Toni,SCHEPENS,1:41:21,16389,51:06,1:24:08,1:35:43,1:41:21,BEL,1,50,Zelzate,6:18,9.53,M50,m
38793,Neu,PASCAL,1:41:21,16390,48:50,1:23:17,1:35:18,1:41:21,LUX,1,47,Everlange,6:18,9.53,M45,m
1800,Yana,CASSIER,1:41:21,16391,49:55,1:24:02,1:35:30,1:41:21,BEL,1,25,Nijlen,6:18,9.53,SEF,f
36959,Ana,BULENS,1:41:21,16392,51:18,1:25:13,1:36:36,1:41:21,BEL,1,28,Antwerpen,6:18,9.53,SEF,f
6659,Eva,DE BACKER,1:41:21,16393,49:03,1:22:47,1:35:20,1:41:21,BEL,1,45,Kessel,6:18,9.53,F45,f
38722,Eddy,PALINCKX,1:41:21,16394,50:30,1:23:44,1:35:33,1:41:21,BEL,1,57,Schoten,6:18,9.53,M55,m
5893,Karen,VAN DYCK,1:41:22,16395,48:54,1:22:29,1:35:13,1:41:22,BEL,1,27,Antwerpen,6:18,9.53,SEF,f
37709,Wesley,DE BOCK,1:41:22,16396,50:43,1:23:50,1:35:41,1:41:22,BEL,1,27,Beveren,6:18,9.53,SEH,m
22121,Katleen,ROOMAN,1:41:22,16397,50:55,1:24:37,1:35:41,1:41:22,BEL,1,48,Grembergen,6:18,9.53,F45,f
36246,Bram,LAUWAERT,1:41:22,16398,49:02,1:22:14,1:35:12,1:41:22,BEL,1,38,Zottegem,6:18,9.53,M35,m
1183,Nancy,OLLIVIER,1:41:22,16399,50:19,1:23:45,1:35:44,1:41:22,BEL,1,49,Ekeren,6:18,9.53,F45,f
35454,Emir,HÖKELEK,1:41:22,16400,47:36,1:23:27,1:35:13,1:41:22,BEL,1,23,,6:18,9.53,SEH,m
22123,Stefanie,VAN STEENBERGHE,1:41:22,16401,50:55,1:24:37,1:35:42,1:41:22,BEL,1,37,Gontrode,6:18,9.53,F35,f
35244,Sophie,BLEYS,1:41:22,16402,49:44,1:23:42,1:35:25,1:41:22,BEL,1,24,,6:18,9.53,SEF,f
34271,Cindy,VAN WALLENDAEL,1:41:23,16403,50:40,1:24:26,1:35:56,1:41:23,BEL,1,40,Berendrecht,6:18,9.53,F40,f
29782,Idries,AL-BENDER,1:41:23,16404,52:44,1:25:43,1:36:16,1:41:23,BEL,1,26,Brussel,6:18,9.53,SEH,m
33458,Carol,THYS,1:41:23,16405,50:24,1:24:14,1:35:46,1:41:23,BEL,1,47,Lochristi,6:18,9.53,F45,f
34946,Anneleen,DEBAVEYE,1:41:23,16406,50:32,1:24:44,1:35:43,1:41:23,BEL,1,17,,6:18,9.53,SEF,f
36476,Chloe,LAUWERS,1:41:23,16407,51:03,1:24:36,1:36:04,1:41:23,BEL,1,20,Kapellen,6:18,9.53,SEF,f
20167,Jill,VAN DER HEIJDEN,1:41:23,16408,51:03,1:24:36,1:36:04,1:41:23,BEL,1,21,Essen,6:18,9.53,SEF,f
37285,Marc,DE GRAVE,1:41:23,16409,49:08,1:22:53,1:35:33,1:41:23,BEL,1,59,Antwerpen,6:18,9.53,M55,m
143,Thierry,BROES,1:41:23,16410,52:48,1:25:22,1:36:11,1:41:23,BEL,1,47,Aartselaar,6:18,9.53,M45,m
35433,Shauni,HANNES,1:41:23,16411,49:45,1:23:13,1:35:33,1:41:23,BEL,1,21,,6:18,9.53,SEF,f
34663,Marie,WILLO,1:41:23,16412,50:09,1:23:47,1:35:54,1:41:23,BEL,1,39,Antwerpen,6:18,9.53,F35,f
29783,Sofie,DE COKER,1:41:23,16413,52:44,1:25:43,1:36:17,1:41:23,BEL,1,26,Brussel,6:18,9.53,SEF,f
7416,Kimberley,DE MULDER,1:41:23,16414,51:25,1:24:55,1:35:57,1:41:23,BEL,1,26,Schoten,6:18,9.53,SEF,f
246,Katelijne,DE CALUWÉ,1:41:23,16415,52:48,1:25:22,1:36:12,1:41:23,BEL,1,0,Mortsel,6:18,9.53,-,f
29680,Bart,LIEVENS,1:41:24,16416,47:41,1:22:52,1:35:23,1:41:24,BEL,1,37,Ertvelde,6:18,9.53,M35,m
21293,Patrick,VAN DOOREN,1:41:24,16417,50:42,1:24:25,1:35:35,1:41:24,BEL,1,33,Deurne,6:18,9.53,SEH,m
35442,Joyce,HENDRICKX,1:41:24,16418,49:45,1:23:15,1:35:33,1:41:24,BEL,1,22,,6:18,9.53,SEF,f
30255,Sara,BOGAERT,1:41:24,16419,51:09,1:24:55,1:36:02,1:41:24,BEL,1,39,Grembergen,6:18,9.53,F35,f
29675,Eline,HEMELSOET,1:41:24,16420,47:42,1:22:52,1:35:24,1:41:24,BEL,1,31,Ertvelde,6:18,9.53,SEF,f
15309,Tom,BROEKAERT,1:41:24,16421,49:16,1:22:55,1:35:18,1:41:24,BEL,1,47,Gent,6:18,9.52,M45,m
36279,Leny,NOBOA,1:41:24,16422,53:08,1:24:57,1:35:55,1:41:24,BEL,1,41,Antwerpen,6:18,9.52,F40,f
31720,Bart,GUNST,1:41:24,16423,50:25,1:24:14,1:35:47,1:41:24,BEL,1,48,Lochristi,6:18,9.52,M45,m
32153,Heleen,LACAEYSE,1:41:24,16423,50:08,1:23:47,1:35:42,1:41:24,BEL,1,23,Moerbeke-Waas,6:18,9.52,SEF,f
17344,Agnetha,VAN GILS,1:41:24,16425,49:18,1:23:57,1:35:58,1:41:24,NLD,1,31,Vm Breda,6:18,9.52,SEF,f
5965,Peter,DE MAEYER,1:41:24,16426,51:12,1:24:13,1:36:14,1:41:24,BEL,1,56,Temse,6:18,9.52,M55,m
23076,Ruth,TERWECOREN,1:41:25,16427,49:17,1:22:56,1:35:18,1:41:25,BEL,1,44,Gent,6:18,9.52,F40,f
17394,Kathleen,SCHOOVAERTS,1:41:25,16428,48:20,1:23:47,1:35:48,1:41:25,BEL,1,31,Mechelen,6:19,9.52,SEF,f
6342,Annick,VANNESTE,1:41:25,16429,50:14,1:23:26,1:35:16,1:41:25,BEL,1,47,Kapellen,6:19,9.52,F45,f
37631,Luc,HENDRIKX,1:41:26,16430,50:32,1:23:51,1:35:37,1:41:26,BEL,1,64,Lint,6:19,9.52,M60,m
22548,Charlotte,VANDEN BERGHE,1:41:26,16431,52:01,1:24:59,1:36:11,1:41:26,BEL,1,26,Bornem,6:19,9.52,SEF,f
6663,Erik,DE PAUW,1:41:26,16432,52:42,1:24:53,1:36:15,1:41:26,BEL,1,51,Hemiksem,6:19,9.52,M50,m
32071,Filip,KEGELS,1:41:26,16433,51:14,1:24:21,1:35:50,1:41:26,BEL,1,57,Sint-Gillis-Waas,6:19,9.52,M55,m
32242,Eva,LELOUP,1:41:26,16434,51:15,1:24:39,1:35:48,1:41:26,BEL,1,43,Lede,6:19,9.52,F40,f
29272,Sofie,BAUDEWIJN,1:41:26,16435,51:14,1:24:38,1:35:47,1:41:26,BEL,1,42,Lede,6:19,9.52,F40,f
1025,Dirk,VERHELLEN,1:41:26,16436,49:58,1:23:57,1:35:51,1:41:26,BEL,1,60,Waregem,6:19,9.52,M60,m
44395,Katrien,AELBRECHT,1:41:26,16437,51:02,1:24:29,1:35:53,1:41:26,BEL,1,45,Sint-Niklaas,6:19,9.52,F45,f
30529,Eddy,CLAES,1:41:26,16438,50:27,1:24:35,1:35:57,1:41:26,BEL,1,55,Beringen,6:19,9.52,M55,m
5039,Mehta,MIHIR,1:41:26,16439,48:07,1:22:39,1:35:01,1:41:26,IND,1,45,Wilrijk,6:19,9.52,M45,m
36572,Bart,STYNEN,1:41:27,16440,48:43,1:23:22,1:35:30,1:41:27,BEL,1,52,Liezele,6:19,9.52,M50,m
37122,Chantal,DE WITTE,1:41:27,16441,51:02,1:24:29,1:35:54,1:41:27,BEL,1,52,Sint-Niklaas,6:19,9.52,F50,f
31120,Annelies,DE PREST,1:41:27,16442,48:55,1:22:27,1:35:16,1:41:27,BEL,1,27,Gent,6:19,9.52,SEF,f
16248,Marleen,GOEMAN,1:41:27,16443,49:07,1:23:09,1:35:21,1:41:27,BEL,1,60,Sint-Niklaas,6:19,9.52,F60,f
17851,Michael,VANDERSMISSEN,1:41:27,16444,49:07,1:23:27,1:35:24,1:41:27,BEL,1,49,Mortsel,6:19,9.52,M45,m
19460,Filip,VANHASTEL,1:41:27,16445,51:37,1:24:57,1:36:03,1:41:27,BEL,1,39,Oudenaarde,6:19,9.52,M35,m
32224,Nathalie,LEBON,1:41:27,16446,50:23,1:24:06,1:35:36,1:41:27,BEL,1,41,Zele,6:19,9.52,F40,f
19446,Xavier,DEBRUYNE,1:41:27,16447,51:38,1:24:57,1:36:04,1:41:27,BEL,1,26,Meulebeke,6:19,9.52,SEH,m
30582,Kelly,COGEN,1:41:28,16448,50:23,1:24:06,1:35:37,1:41:28,BEL,1,37,Zele,6:19,9.52,F35,f
15190,Ronald,BIJL,1:41:28,16449,50:16,1:23:54,1:35:34,1:41:28,NLD,1,49,Rotterdam,6:19,9.52,M45,m
127,Jelle,BORIES,1:41:28,16450,53:54,1:25:16,1:36:18,1:41:28,BEL,1,32,Sint Niklaas,6:19,9.52,SEH,m
34265,Geert,VAN VOLSEM,1:41:28,16451,51:27,1:25:09,1:36:02,1:41:28,BEL,1,50,Mechelen,6:19,9.52,M50,m
17338,Patrick,SANTANA,1:41:28,16452,50:00,1:23:42,1:35:35,1:41:28,BEL,1,40,Londerzeel,6:19,9.52,M40,m
36729,Mireille,VAN BELLINGEN,1:41:28,16453,49:15,1:23:54,1:35:43,1:41:28,BEL,1,49,Baardegem,6:19,9.52,F45,f
19622,Flora,WARD,1:41:29,16454,49:09,1:23:37,1:35:19,1:41:29,BEL,1,20,Kontich,6:19,9.52,SEF,f
30609,Erwin,COOLS,1:41:29,16455,49:19,1:23:16,1:35:23,1:41:29,BEL,1,59,Arendonk,6:19,9.52,M55,m
4898,Yves,GOISTER,1:41:29,16456,50:16,1:23:45,1:35:34,1:41:29,BEL,1,52,Lint,6:19,9.52,M50,m
36134,Nina,HIEL,1:41:29,16457,51:53,1:24:48,1:36:03,1:41:29,BEL,1,18,,6:19,9.52,SEF,f
36133,Hannah,GEBOERS,1:41:29,16458,51:52,1:24:48,1:36:03,1:41:29,BEL,1,18,,6:19,9.52,SEF,f
33820,Marie-Christine,VANDERSTEEN,1:41:29,16459,49:16,1:23:06,1:35:20,1:41:29,BEL,1,50,Meerbeke,6:19,9.52,F50,f
18244,Kristien,VAN ZUNDERT,1:41:30,16460,52:11,1:24:35,1:35:56,1:41:30,BEL,1,53,België,6:19,9.52,F50,f
36825,Annelore,VAN TROYEN,1:41:30,16461,50:10,1:23:51,1:35:33,1:41:30,BEL,1,28,Mechelen,6:19,9.52,SEF,f
30278,Stijn,BONTE,1:41:30,16462,51:07,1:24:26,1:36:13,1:41:30,BEL,1,34,Antwerpen,6:19,9.52,SEH,m
36565,Jasmine,REEKMANS,1:41:30,16463,50:59,1:24:31,1:35:59,1:41:30,BEL,1,24,Beringen,6:19,9.52,SEF,f
32577,Katrien,MOEYS,1:41:30,16464,48:00,1:23:01,1:35:22,1:41:30,BEL,1,30,Sint-Gillis,6:19,9.52,SEF,f
15940,Ann,DE VOS,1:41:30,16465,50:48,1:24:10,1:35:45,1:41:30,BEL,1,48,Lier,6:19,9.52,F45,f
31542,Lara,FRUYT,1:41:30,16466,50:48,1:23:56,1:35:41,1:41:30,BEL,1,25,Zichem,6:19,9.52,SEF,f
17438,Laurens,SEYS,1:41:30,16467,50:15,1:24:11,1:35:48,1:41:30,BEL,1,28,Berchem,6:19,9.52,SEH,m
1219,Tiffany,WOUTERS,1:41:30,16468,50:47,1:24:25,1:35:51,1:41:30,BEL,1,36,Deurne,6:19,9.51,F35,f
16890,Sofiya,MELNITCHENKO,1:41:31,16469,48:23,1:22:51,1:35:07,1:41:31,BEL,1,25,Oostende,6:19,9.51,SEF,f
31403,Nitje,DUCHEYNE,1:41:31,16470,50:52,1:24:14,1:35:59,1:41:31,BEL,1,56,Zoersel,6:19,9.51,F55,f
16961,Mieke,MOONS,1:41:31,16471,50:49,1:24:11,1:35:46,1:41:31,BEL,1,44,Lier,6:19,9.51,F40,f
154,Kathleen,BRUYLANDT,1:41:31,16472,51:36,1:24:50,1:36:00,1:41:31,BEL,1,42,Lede,6:19,9.51,F40,f
18573,Suzan,COPPENS,1:41:31,16473,51:50,1:25:22,1:36:24,1:41:31,BEL,1,26,Nevele,6:19,9.51,SEF,f
22900,Verspecht,NICOLAS,1:41:32,16474,53:09,1:26:29,1:36:28,1:41:32,BEL,1,25,Wilrijk,6:19,9.51,SEH,m
2044,Guido,BRAEM,1:41:32,16475,50:18,1:23:51,1:35:39,1:41:32,BEL,1,65,Lint,6:19,9.51,M65,m
1208,Tom,SERNEELS,1:41:32,16476,49:24,1:23:17,1:35:16,1:41:32,BEL,1,30,Antwerpen,6:19,9.51,SEH,m
30790,Niels,DEBOES,1:41:33,16477,47:39,1:22:11,1:34:45,1:41:33,BEL,1,27,Hever,6:19,9.51,SEH,m
30190,Jean,BERTHELS,1:41:33,16478,50:57,1:23:52,1:35:35,1:41:33,BEL,1,62,Galmaarden,6:19,9.51,M60,m
17603,Sammy,TIJSMANS,1:41:33,16479,50:16,1:23:53,1:35:44,1:41:33,BEL,1,48,Kapellen,6:19,9.51,M45,m
36282,Lisbeth,PATTEET,1:41:33,16480,50:27,1:24:12,1:35:53,1:41:33,BEL,1,34,Kontich,6:19,9.51,SEF,f
33352,Jorg,STORMS,1:41:33,16481,49:21,1:23:16,1:35:34,1:41:33,BEL,1,47,Deurne,6:19,9.51,M45,m
18935,James,FINUB,1:41:33,16482,50:09,1:23:53,1:36:04,1:41:33,IND,1,29,Leuven,6:19,9.51,SEF,f
29714,Emma,VANDENBERGH,1:41:33,16483,51:26,1:24:34,1:35:59,1:41:33,BEL,1,29,,6:19,9.51,SEF,f
29240,Kempen,GEERT,1:41:33,16484,48:49,1:22:40,1:35:05,1:41:33,BEL,1,47,Wijnegem,6:19,9.51,M45,m
4760,Patrick,HEYLEN,1:41:33,16485,47:54,1:21:43,1:35:35,1:41:33,BEL,1,56,Oelegem,6:19,9.51,M55,m
34213,Sigrid,VAN SCHELSTRAETE,1:41:34,16486,50:51,1:24:19,1:35:46,1:41:34,BEL,1,47,Brasschaat,6:19,9.51,F45,f
15638,Jessica,DECEUNINCK,1:41:34,16487,49:50,1:23:32,1:35:29,1:41:34,BEL,1,38,Denderbelle,6:19,9.51,F35,f
34555,Sandra,VRANCKEN,1:41:34,16488,50:24,1:23:14,1:35:17,1:41:34,BEL,1,51,Melsele,6:19,9.51,F50,f
17992,Ina,VAN HAVER,1:41:34,16489,49:50,1:23:32,1:35:28,1:41:34,BEL,1,40,Denderbelle,6:19,9.51,F40,f
29299,Sophie,CLERCKX,1:41:34,16490,52:24,1:24:59,1:36:11,1:41:34,BEL,1,46,Wommelgem,6:19,9.51,F45,f
34483,Sarah,VERSTRAETEN,1:41:34,16491,50:24,1:23:14,1:35:18,1:41:34,BEL,1,0,Melsele,6:19,9.51,-,f
31100,Patricia,DE PATER,1:41:34,16492,52:14,1:24:59,1:36:09,1:41:34,NLD,1,44,Terheijden,6:19,9.51,F40,f
36265,Hanne,VANDIKKELEN,1:41:34,16493,50:41,1:24:09,1:35:55,1:41:34,BEL,1,30,Werchter,6:19,9.51,SEF,f
32715,Ilona,OONINCX,1:41:34,16494,52:14,1:25:00,1:36:10,1:41:34,NLD,1,41,Terheijden,6:19,9.51,F40,f
30246,Quiny,BOETS,1:41:34,16495,48:56,1:24:03,1:36:09,1:41:34,BEL,1,30,Leopoldsburg,6:19,9.51,SEH,m
8015,Nicky,NOTREDAME,1:41:34,16496,52:03,1:25:36,1:36:28,1:41:34,BEL,1,28,,6:19,9.51,SEF,f
29298,Arthur,SCHAUWVLIEGHE,1:41:34,16497,50:23,1:23:34,1:35:52,1:41:34,BEL,1,19,Wommelgem,6:19,9.51,SEH,m
30555,Matthias,CLAUS,1:41:35,16498,52:23,1:25:43,1:36:27,1:41:35,BEL,1,13,Tremelo,6:19,9.51,SEH,m
7528,Tim,PAUWELS,1:41:35,16499,49:28,1:23:15,1:35:30,1:41:35,BEL,1,50,Zoersel,6:19,9.51,M50,m
7526,Lore,PAUWELS,1:41:35,16500,49:28,1:23:15,1:35:31,1:41:35,BEL,1,22,Zoersel,6:19,9.51,SEF,f
