runner id,name,lastname,time,rank,checkpt0,checkpt1,checkpt2,checkpt3,nationality,finished,age,city,team,pace,speed,category,sex
17238,Bert,REESKENS,1:28:40,9001,44:19,1:13:20,1:23:40,1:28:40,BEL,1,37,Bree,5:31,10.89,M35,m
16287,Nicolaas,GRIJP,1:28:40,9002,43:41,1:12:51,1:23:34,1:28:40,BEL,1,37,Avelgem,5:31,10.89,M35,m
2772,Alain,CARON,1:28:40,9003,43:26,1:13:00,1:23:25,1:28:40,BEL,1,68,Kapellen,5:31,10.89,M65,m
16269,Tonnie,GOOSSENS,1:28:40,9004,44:42,1:13:57,1:23:51,1:28:40,NLD,1,55,Philippine,5:31,10.89,M55,m
22077,Joris,UYTTERHAEGEN,1:28:40,9005,46:55,1:14:03,1:23:52,1:28:40,BEL,1,35,Aalst,5:31,10.89,M35,m
23541,Inge,SEGERS,1:28:40,9006,44:20,1:13:21,1:23:41,1:28:40,BEL,1,36,Bree,5:31,10.89,F35,f
6215,Veronique,VERHAVERT,1:28:41,9007,45:34,1:14:06,1:24:09,1:28:41,BEL,1,41,,5:31,10.89,F40,f
6477,Stef,VAN AKEN,1:28:41,9008,45:02,1:13:33,1:23:30,1:28:41,BEL,1,30,Malderen,5:31,10.89,SEH,m
15779,Karel,DEMEERSSEMAN,1:28:41,9009,44:39,1:14:07,1:23:55,1:28:41,BEL,1,24,Hooglede,5:31,10.89,SEH,m
7142,Mike,JANSSENS,1:28:41,9010,43:37,1:12:43,1:23:32,1:28:41,BEL,1,42,Kalmthout,5:31,10.89,M40,m
6868,Arnd,DE WEIRDT,1:28:41,9011,44:00,1:12:31,1:23:01,1:28:41,BEL,1,29,Antwerpen,5:31,10.89,SEH,m
20332,Tamer,GURBUZ,1:28:41,9012,42:08,1:11:51,1:22:49,1:28:41,BEL,1,44,Beerse,5:31,10.89,M40,m
17312,Olivia,ROWAERT,1:28:41,9013,44:58,1:13:38,1:23:42,1:28:41,BEL,1,26,Antwerpen,5:31,10.89,SEF,f
22237,Rob,RAYMAEKERS,1:28:41,9014,46:35,1:14:29,1:24:22,1:28:41,BEL,1,35,Putte,5:31,10.89,M35,m
32776,Nico,PAUWELS,1:28:41,9015,44:34,1:13:55,1:24:16,1:28:41,BEL,1,17,Koewacht,5:31,10.89,SEH,m
19170,Brent,THOONEN,1:28:41,9016,44:22,1:13:11,1:23:26,1:28:41,BEL,1,29,Laakdal,5:31,10.89,SEH,m
15256,Simon,BOONS,1:28:41,9017,44:58,1:13:39,1:23:41,1:28:41,BEL,1,26,Antwerpen,5:31,10.89,SEH,m
17912,Tim,VAN DOORSLAER,1:28:42,9018,42:57,1:12:42,1:23:48,1:28:42,BEL,1,42,Schelle,5:31,10.89,M40,m
22567,Andrew,FAIOLA,1:28:42,9019,43:18,1:13:27,1:23:37,1:28:42,GBR,1,48,London,5:31,10.89,M45,m
16144,Ellen,FLOBERT,1:28:42,9020,44:13,1:13:35,1:23:27,1:28:42,BEL,1,27,Mere,5:31,10.89,SEF,f
15751,Kizzy,DE KUYPER,1:28:42,9021,45:59,1:14:18,1:24:16,1:28:42,BEL,1,38,Lede,5:31,10.89,F35,f
23095,Matthias,BUTS,1:28:42,9022,44:13,1:13:06,1:23:27,1:28:42,BEL,1,27,Hofstade (Vl.Br.),5:31,10.89,SEH,m
32297,Margaux,LISAERDE,1:28:42,9023,43:48,1:13:38,1:23:41,1:28:42,BEL,1,33,Borgerhout,5:31,10.89,SEF,f
15726,Ellen,DE HERT,1:28:42,9024,44:06,1:13:36,1:23:43,1:28:42,BEL,1,25,Antwerpen,5:31,10.89,SEF,f
5049,Delafonteyne,PATRICK,1:28:42,9025,45:28,1:14:20,1:24:00,1:28:42,BEL,1,44,Balen,5:31,10.89,M40,m
3462,Chantal,LAURET,1:28:42,9026,44:57,1:13:53,1:23:54,1:28:42,BEL,1,48,Kalmthout,5:31,10.89,F45,f
20375,Bart,MICHELS,1:28:42,9027,45:23,1:14:05,1:24:07,1:28:42,BEL,1,33,Oelegem,5:31,10.89,SEH,m
1109,Lucien,ZEGERS,1:28:42,9028,44:02,1:13:41,1:23:57,1:28:42,NLD,1,57,Hulst,5:31,10.89,M55,m
5021,Wendy,FRANSSEN,1:28:42,9029,45:29,1:14:20,1:24:00,1:28:42,BEL,1,45,Balen,5:31,10.89,F45,f
2771,Wim,CARDINAELS,1:28:43,9030,47:20,1:14:41,1:24:11,1:28:43,BEL,1,41,Leuven,5:31,10.89,M40,m
18462,Ursula,VOGL,1:28:43,9031,46:05,1:15:15,1:24:21,1:28:43,AUT,1,38,Vienna,5:31,10.89,F35,f
17008,Lucas,NELIS,1:28:43,9032,44:41,1:13:23,1:23:37,1:28:43,BEL,1,19,Mortsel,5:31,10.89,SEH,m
4834,Paco,VERMEIREN-PONCE,1:28:43,9033,44:15,1:13:19,1:23:38,1:28:43,BEL,1,55,Zoersel,5:31,10.89,M55,m
29261,Hendrik,CARMELIET,1:28:43,9034,43:20,1:13:33,1:23:49,1:28:43,BEL,1,28,Herent,5:31,10.89,SEH,m
31974,Vicky,JACOBS,1:28:43,9035,45:00,1:14:25,1:24:15,1:28:43,BEL,1,36,Peutie,5:31,10.89,F35,f
37989,Steff,GRUMIAU,1:28:43,9036,44:28,1:13:34,1:23:47,1:28:43,BEL,1,29,Antwerpen,5:31,10.89,SEH,m
19621,Sam,VERREPT,1:28:43,9037,46:02,1:14:14,1:23:52,1:28:43,BEL,1,20,Aarstelaar,5:31,10.89,SEH,m
6179,Erwin,VAN DER SANDE,1:28:43,9038,43:21,1:12:58,1:23:18,1:28:43,BEL,1,50,,5:31,10.89,M50,m
22247,Raedts,KRIS,1:28:43,9039,44:54,1:13:47,1:23:44,1:28:43,BEL,1,37,Alken,5:31,10.89,M35,m
37159,Frédéric,VAN DEN OSTENDE,1:28:43,9040,43:37,1:13:09,1:23:28,1:28:43,BEL,1,27,Berchem,5:31,10.89,SEH,m
29993,Victor,COOLS,1:28:43,9041,44:29,1:13:31,1:23:31,1:28:43,BEL,1,27,Schelle,5:31,10.89,SEH,m
36570,Sofie,SIX,1:28:43,9042,43:39,1:13:27,1:23:42,1:28:43,BEL,1,26,Ghent,5:31,10.89,SEF,f
7360,Jos,BOSSCHAERTS,1:28:43,9043,44:31,1:13:51,1:23:49,1:28:43,BEL,1,63,Kapellen,5:31,10.89,M60,m
15376,Dirk,CANT,1:28:43,9044,44:12,1:13:47,1:23:46,1:28:43,BEL,1,48,Antwerpen,5:31,10.89,M45,m
4031,Yves,VANBECELAERE,1:28:44,9045,43:22,1:13:29,1:23:50,1:28:44,BEL,1,51,Zwijndrecht,5:31,10.89,M50,m
3386,Lien,JONCKERS,1:28:44,9046,45:15,1:14:04,1:24:08,1:28:44,BEL,1,29,Mechelen,5:31,10.88,SEF,f
33290,Gianni,SPRENGERS,1:28:44,9047,44:26,1:13:48,1:23:40,1:28:44,BEL,1,28,Muizen,5:31,10.88,SEH,m
37952,Olivier,DESCHACHT,1:28:44,9048,46:25,1:15:22,1:24:32,1:28:44,BEL,1,38,Antwerpen,5:31,10.88,M35,m
6368,Andreas,AERTS,1:28:44,9049,43:38,1:11:56,1:23:21,1:28:44,BEL,1,22,Londerzeel,5:31,10.88,SEH,m
36047,Lucas,DE VOLDERE,1:28:44,9050,44:46,1:14:19,1:24:09,1:28:44,BEL,1,15,,5:31,10.88,SEH,m
20955,Ronny,MEYNCKENS,1:28:44,9051,44:25,1:13:44,1:23:50,1:28:44,BEL,1,61,Aarschot,5:31,10.88,M60,m
32108,Marie,KEYMOLEN,1:28:45,9052,43:29,1:13:24,1:23:46,1:28:45,BEL,1,37,Waasmunster,5:31,10.88,F35,f
8026,Peter,ROBEYNS,1:28:45,9053,43:31,1:13:33,1:24:04,1:28:45,BEL,1,56,Zoersel,5:31,10.88,M55,m
38152,Maxime,SCHELLEKENS,1:28:45,9054,41:07,1:12:11,1:23:04,1:28:45,BEL,1,26,Antwerpen,5:31,10.88,SEH,m
17121,Kris,PEETERS,1:28:45,9055,44:02,1:12:56,1:23:37,1:28:45,BEL,1,54,Kortenberg,5:31,10.88,M50,m
35408,Sofie,GHIELENS,1:28:45,9056,44:51,1:13:50,1:24:02,1:28:45,BEL,1,29,,5:31,10.88,SEF,f
1642,Toon,VANEYSENDEYK,1:28:45,9057,40:12,1:11:41,1:23:21,1:28:45,BEL,1,22,Vorselaar,5:31,10.88,SEH,m
17054,Thomas,ONZIA,1:28:45,9058,41:02,1:11:24,1:23:03,1:28:45,BEL,1,44,Mortsel,5:31,10.88,M40,m
22456,Kris,VANDERHALLEN,1:28:45,9059,43:56,1:13:34,1:23:45,1:28:45,BEL,1,49,Nieuwkerken-Waas,5:31,10.88,M45,m
37034,Maxime,BRAECKMAN,1:28:45,9060,46:26,1:15:23,1:24:34,1:28:45,BEL,1,34,Melle,5:31,10.88,SEH,m
2153,Renaud,DEWART,1:28:45,9061,42:03,1:11:37,1:23:19,1:28:45,BEL,1,27,Etterbeek,5:31,10.88,SEH,m
18338,Lukas,VERHOEVEN,1:28:45,9062,44:51,1:14:32,1:24:20,1:28:45,BEL,1,45,Sintpietersleeuw,5:31,10.88,M45,m
17077,Kenny,OST,1:28:45,9063,43:51,1:13:25,1:23:41,1:28:45,BEL,1,39,Erondegem,5:31,10.88,M35,m
30763,Goedele,DE BLESER,1:28:45,9064,44:39,1:13:57,1:23:51,1:28:45,BEL,1,25,Opwijk,5:31,10.88,SEF,f
37068,Xavier,MALISSE,1:28:45,9065,46:25,1:15:23,1:24:25,1:28:45,BEL,1,39,Antwerpen,5:31,10.88,M35,m
16470,Freja,JANSEN,1:28:46,9066,44:32,1:13:29,1:23:42,1:28:46,BEL,1,31,Lommel,5:31,10.88,SEF,f
2243,Mandjou,KOUYATE,1:28:46,9067,42:03,1:11:37,1:23:19,1:28:46,GNQ,1,36,Grace Hollogne,5:31,10.88,M35,m
19594,Tim,DE BAUW,1:28:46,9068,46:03,1:14:38,1:23:54,1:28:46,BEL,1,20,Aartselaar,5:31,10.88,SEH,m
16782,Jordy,MABBE,1:28:46,9069,45:55,1:14:11,1:23:52,1:28:46,BEL,1,26,Waregem,5:31,10.88,SEH,m
16491,Luc,JANSSENS,1:28:46,9070,43:25,1:12:43,1:23:28,1:28:46,BEL,1,49,Stabroek,5:31,10.88,M45,m
17350,Luigi,SCANDAGLIA,1:28:46,9071,45:09,1:14:03,1:24:01,1:28:46,ITA,1,54,Sciacca,5:31,10.88,M50,m
7170,Gitte,LEYSEN,1:28:46,9072,44:36,1:13:49,1:23:52,1:28:46,BEL,1,22,Kasterlee,5:31,10.88,SEF,f
895,Stefanie,VAN DEN HOUT,1:28:46,9073,43:01,1:12:57,1:23:15,1:28:46,BEL,1,31,Sint Gillis Waas,5:31,10.88,SEF,f
4538,Stephanie,DOBBELAERE,1:28:47,9074,44:17,1:13:13,1:23:30,1:28:47,BEL,1,27,Antwerpen,5:31,10.88,SEF,f
15573,Mike,DEBAERE,1:28:47,9075,45:56,1:14:12,1:23:53,1:28:47,BEL,1,29,Deerlijk,5:31,10.88,SEH,m
37322,Luc,JANSEN,1:28:47,9076,45:31,1:14:12,1:23:39,1:28:47,BEL,1,50,Brecht,5:31,10.88,M50,m
6404,Ruben,DE VIS,1:28:47,9077,44:55,1:13:19,1:23:35,1:28:47,BEL,1,25,Londerzeel,5:31,10.88,SEH,m
38041,Sander,DE PREZ,1:28:47,9078,39:35,1:09:25,1:22:30,1:28:47,BEL,1,27,Grembergen,5:31,10.88,SEH,m
31301,Nils,DE WIT,1:28:47,9079,43:34,1:14:00,1:23:33,1:28:47,BEL,1,28,Boom,5:31,10.88,SEH,m
35302,Elise,DAEMEN,1:28:47,9080,43:21,1:12:39,1:23:29,1:28:47,BEL,1,32,,5:31,10.88,SEF,f
15951,Pieter,DE VOS,1:28:47,9081,42:30,1:12:08,1:23:06,1:28:47,BEL,1,38,Nieuwkerken-Waas,5:31,10.88,M35,m
5213,Geertrui,COOLS,1:28:47,9082,44:53,1:13:22,1:23:17,1:28:47,BEL,1,34,Olen,5:31,10.88,SEF,f
22742,Rob,VERBIEST,1:28:48,9083,45:08,1:14:20,1:24:12,1:28:48,BEL,1,34,Lommel,5:31,10.88,SEH,m
15113,Harley,BAKKER,1:28:48,9084,41:27,1:12:19,1:23:04,1:28:48,BEL,1,18,Loenhout,5:31,10.88,SEH,m
4953,Bart,TALBOOM,1:28:48,9085,42:47,1:12:14,1:23:36,1:28:48,BEL,1,50,Kontich,5:31,10.88,M50,m
38642,Philip,VAN DYCK,1:28:48,9086,43:24,1:12:50,1:23:31,1:28:48,BEL,1,35,Zoersel,5:31,10.88,M35,m
44351,Eline,SCHOTSMANS,1:28:48,9087,44:18,1:14:01,1:24:01,1:28:48,BEL,1,27,Lier,5:32,10.88,SEF,f
17776,Karl,VANDENBUSSCHE,1:28:48,9088,43:07,1:13:06,1:23:24,1:28:48,BEL,1,45,Merksem,5:32,10.88,M45,m
16431,Daniël,HUBERT,1:28:48,9089,43:31,1:13:01,1:23:27,1:28:48,BEL,1,49,Mariakerke,5:32,10.88,M45,m
29236,Jonathan,LEFEVRE,1:28:48,9090,45:23,1:14:21,1:24:05,1:28:48,BEL,1,31,Brussels,5:32,10.88,SEH,m
37841,Thomas,LAUWERS,1:28:48,9091,42:10,1:11:16,1:22:10,1:28:48,BEL,1,44,Brussel,5:32,10.88,M40,m
2330,Verbruggen,NANCY,1:28:49,9092,44:53,1:13:54,1:23:50,1:28:49,BEL,1,51,Stekene,5:32,10.88,F50,f
18372,Iona,VERMET,1:28:49,9093,44:18,1:13:44,1:23:52,1:28:49,BEL,1,33,Wilsele,5:32,10.88,SEF,f
15199,Ielegems,BJORN,1:28:49,9094,42:56,1:12:48,1:23:13,1:28:49,BEL,1,35,Antwerpen,5:32,10.87,M35,m
30223,Peter,BLEWANUS,1:28:49,9095,44:22,1:13:50,1:23:48,1:28:49,BEL,1,50,Brasschaat,5:32,10.87,M50,m
38148,Farid,AIT MOULOUD,1:28:49,9096,44:27,1:13:01,1:22:21,1:28:49,BEL,1,38,Borgerhout,5:32,10.87,M35,m
18320,Magali,VERHEECKE,1:28:49,9097,44:18,1:13:45,1:23:52,1:28:49,BEL,1,33,Mechelen,5:32,10.87,SEF,f
44645,Augusta,VAN GILS Charlotte,1:28:49,9098,45:27,1:14:26,1:24:04,1:28:49,BEL,1,29,Turnhout,5:32,10.87,SEF,f
23104,Eveline,WYGAERTS,1:28:49,9098,45:45,1:14:25,1:24:04,1:28:49,BEL,1,37,Wilrijk,5:32,10.87,F35,f
17178,Nathalie,PLUVIER,1:28:49,9100,44:06,1:12:38,1:23:19,1:28:49,BEL,1,46,Zerkegem,5:32,10.87,F45,f
5715,Jef,BAUWENS,1:28:49,9101,41:39,1:12:28,1:23:27,1:28:49,BEL,1,45,Bazel,5:32,10.87,M45,m
35550,Cedric,MOLKENS,1:28:49,9102,44:21,1:12:58,1:23:24,1:28:49,BEL,1,22,,5:32,10.87,SEH,m
37292,Joris,DEROO,1:28:49,9103,44:38,1:13:45,1:23:55,1:28:49,BEL,1,37,Poederlee,5:32,10.87,M35,m
2069,Miguel,CLEMENT,1:28:49,9104,46:00,1:14:58,1:24:10,1:28:49,BEL,1,26,Haasdonk,5:32,10.87,SEH,m
7716,Karel,DOBBELAERE,1:28:49,9105,45:49,1:15:21,1:24:23,1:28:49,BEL,1,58,Gent,5:32,10.87,M55,m
19617,Vincent,VAN DOREN,1:28:50,9106,46:07,1:14:36,1:23:56,1:28:50,BEL,1,20,Edegem,5:32,10.87,SEH,m
22100,Timo,KOHLENBECK,1:28:50,9107,44:57,1:13:26,1:23:42,1:28:50,DEU,1,41,Sessenbach,5:32,10.87,M40,m
630,Wim,MICHIELS,1:28:50,9108,42:50,1:13:02,1:23:32,1:28:50,BEL,1,55,Grimbergen,5:32,10.87,M55,m
36455,Jan,D'ANVERS,1:28:50,9109,45:40,1:14:28,1:24:06,1:28:50,BEL,1,59,Wilrijk,5:32,10.87,M55,m
15078,Bjorn,ARSHAD,1:28:50,9110,44:06,1:12:37,1:23:21,1:28:50,BEL,1,41,Veldegem,5:32,10.87,M40,m
17797,Tony,VANDENHEUVEL,1:28:50,9111,44:27,1:13:34,1:23:39,1:28:50,BEL,1,59,Ranst,5:32,10.87,M55,m
5919,Laura,VERMEEREN,1:28:50,9112,44:20,1:13:44,1:23:57,1:28:50,BEL,1,28,Deurne,5:32,10.87,SEF,f
1479,Hannes,DE BOCK,1:28:50,9113,44:01,1:13:18,1:23:51,1:28:50,BEL,1,35,Wuustwezel,5:32,10.87,M35,m
2464,Eddy,VAN EYNDHOVEN,1:28:50,9114,43:43,1:13:17,1:23:45,1:28:50,BEL,1,60,Schilde,5:32,10.87,M60,m
16618,Yves,LAFERE,1:28:50,9115,47:44,1:15:02,1:24:08,1:28:50,BEL,1,31,Antwerpen,5:32,10.87,SEH,m
3843,Mido,SANDEE,1:28:51,9116,47:22,1:14:55,1:24:37,1:28:51,NLD,1,17,Goes,5:32,10.87,SEH,m
34125,Christophe,VAN NIEUWENHUYZE,1:28:51,9117,44:14,1:13:19,1:23:46,1:28:51,BEL,1,41,Lochristi,5:32,10.87,M40,m
36940,Gino,VERHULST,1:28:51,9118,43:21,1:13:26,1:23:40,1:28:51,BEL,1,49,Kruibeke,5:32,10.87,M45,m
19398,Leen,LEMMENS,1:28:51,9119,44:50,1:13:49,1:23:59,1:28:51,BEL,1,43,Melsele,5:32,10.87,F40,f
7544,Saskia,REYNAERT,1:28:51,9120,44:03,1:13:34,1:23:48,1:28:51,BEL,1,57,Leuven,5:32,10.87,F55,f
22443,Kris,MERTENS,1:28:51,9121,44:03,1:13:40,1:23:51,1:28:51,BEL,1,49,Wuustwezel,5:32,10.87,M45,m
35134,Ilyo,TAILDEMAN,1:28:51,9121,42:07,1:12:57,1:24:04,1:28:51,BEL,1,16,,5:32,10.87,SEH,m
14403,Gitte,VERHULST,1:28:51,9123,43:21,1:13:26,1:23:40,1:28:51,BEL,1,15,Kruibeke,5:32,10.87,SEF,f
2509,Didier,VANDEN BULCKE,1:28:51,9124,44:05,1:13:24,1:23:46,1:28:51,BEL,1,52,Ledeberg,5:32,10.87,M50,m
6050,Johan,DEVAUX,1:28:51,9125,44:28,1:13:26,1:23:40,1:28:51,BEL,1,57,,5:32,10.87,M55,m
22407,Thomas,DE VOS,1:28:51,9126,46:42,1:15:11,1:24:05,1:28:51,BEL,1,27,Puurs,5:32,10.87,SEH,m
30910,Ann,DEFORCHE,1:28:51,9127,44:34,1:14:16,1:24:12,1:28:51,BEL,1,57,Passendale,5:32,10.87,F55,f
35000,Janis,GOETHALS,1:28:51,9128,46:50,1:14:15,1:24:08,1:28:51,BEL,1,14,,5:32,10.87,SEH,m
20500,Fabienne,VAN DEN BROECKE,1:28:52,9129,44:22,1:13:51,1:23:52,1:28:52,BEL,1,50,Harelbeke,5:32,10.87,F50,f
35314,Tine,DE BACKER,1:28:52,9130,44:01,1:13:35,1:23:44,1:28:52,BEL,1,25,,5:32,10.87,SEF,f
16558,Fransen,KEN,1:28:52,9131,44:34,1:14:09,1:24:07,1:28:52,BEL,1,42,Edegem,5:32,10.87,M40,m
32216,Belinda,LAUWERS,1:28:52,9132,44:57,1:14:28,1:24:05,1:28:52,BEL,1,45,Zemst,5:32,10.87,F45,f
16183,François,GEERARDYN,1:28:52,9133,46:09,1:15:06,1:24:19,1:28:52,BEL,1,23,La Louvière,5:32,10.87,SEH,m
36488,Luis,PITTOORS,1:28:52,9134,45:47,1:14:49,1:24:08,1:28:52,BEL,1,13,Brasschaat,5:32,10.87,SEH,m
17674,Lieven,VAN BELLE,1:28:52,9135,43:24,1:13:12,1:23:46,1:28:52,BEL,1,54,Kampenhout,5:32,10.87,M50,m
15035,Jiri,ALBRECHT,1:28:52,9136,44:37,1:14:10,1:23:59,1:28:52,CZE,1,30,Antwerpen,5:32,10.87,SEH,m
16557,Michiel,KEMPENEER,1:28:52,9137,46:12,1:13:19,1:23:43,1:28:52,BEL,1,30,Schoten,5:32,10.87,SEH,m
29910,Nienke,BOOGMANS,1:28:52,9138,44:27,1:13:54,1:23:45,1:28:52,BEL,1,33,Moerbeke,5:32,10.87,SEF,f
16939,Laura,MILBAU,1:28:52,9139,45:07,1:14:02,1:24:00,1:28:52,BEL,1,29,Kapellen,5:32,10.87,SEF,f
21923,Donald,KNÖLLER,1:28:52,9140,41:36,1:11:36,1:23:31,1:28:52,BEL,1,53,Berchem,5:32,10.87,M50,m
3688,Laurent,PAQUOT,1:28:52,9141,43:39,1:13:30,1:23:56,1:28:52,BEL,1,39,Hodeige,5:32,10.87,M35,m
20667,Nathan,STEVENS,1:28:52,9142,43:02,1:12:47,1:23:23,1:28:52,BEL,1,14,Reet,5:32,10.87,SEH,m
31062,Kristof,DE MEY,1:28:52,9143,45:42,1:14:31,1:24:01,1:28:52,BEL,1,46,Zoersel,5:32,10.87,M45,m
21166,Aly,TALEN,1:28:53,9144,43:42,1:13:12,1:23:37,1:28:53,BEL,1,51,Antwerpen,5:32,10.87,F50,f
34998,Seppe,DE PAEP,1:28:53,9145,42:11,1:12:39,1:23:33,1:28:53,BEL,1,16,,5:32,10.87,SEH,m
2426,Paul-André,TORRELLE,1:28:53,9146,43:45,1:13:19,1:22:56,1:28:53,BEL,1,58,Schoten,5:32,10.87,M55,m
15474,Peggy,COMPERNOLLE PEGGY,1:28:53,9147,44:20,1:13:28,1:23:43,1:28:53,BEL,1,43,Knokke Heist,5:32,10.87,F40,f
1351,Mieke,DE GRYSSE,1:28:53,9148,44:10,1:13:48,1:23:49,1:28:53,BEL,1,36,De Panne,5:32,10.87,F35,f
34718,Jurt,WYFFELS,1:28:53,9149,44:34,1:14:16,1:24:11,1:28:53,BEL,1,48,Vlamertinge,5:32,10.87,M45,m
16439,Peggy,HUYGELEN,1:28:53,9150,43:30,1:13:41,1:23:46,1:28:53,BEL,1,45,Borgerhout,5:32,10.87,F45,f
19481,Peter,LANDSHEERE,1:28:53,9151,43:57,1:13:40,1:23:52,1:28:53,BEL,1,56,Zwijndrecht,5:32,10.87,M55,m
34818,Elke,GOOSSENS,1:28:53,9152,46:23,1:15:34,1:24:35,1:28:53,BEL,1,32,Merelbeke,5:32,10.87,SEF,f
5664,Stijn,VERHULST,1:28:53,9153,46:04,1:14:46,1:24:12,1:28:53,BEL,1,38,Sint-Niklaas,5:32,10.87,M35,m
18308,Luc,VERGAUWE,1:28:53,9154,44:04,1:13:44,1:23:49,1:28:53,BEL,1,52,Mortsel,5:32,10.87,M50,m
16311,Youssef,HADDAD,1:28:54,9155,43:48,1:13:41,1:23:38,1:28:54,BEL,1,50,Sint-Truiden,5:32,10.86,M50,m
36852,Christoph,DE KEULENAER,1:28:54,9156,43:51,1:13:24,1:23:44,1:28:54,BEL,1,34,Vrasene,5:32,10.86,SEH,m
3924,Danté,SOENEN,1:28:54,9157,43:23,1:12:18,1:24:07,1:28:54,BEL,1,15,Ekeren,5:32,10.86,SEH,m
29276,Olivier,DARGENT,1:28:54,9158,45:23,1:13:31,1:23:45,1:28:54,BEL,1,41,Beernem,5:32,10.86,M40,m
22751,Tom,DE KUYFFER,1:28:54,9159,44:39,1:14:17,1:24:02,1:28:54,BEL,1,45,Berchem,5:32,10.86,M45,m
15624,Ellen,DE BRUIJN,1:28:54,9160,45:11,1:14:19,1:24:04,1:28:54,NLD,1,48,Hulst,5:32,10.86,F45,f
29812,Shana,VALEE,1:28:54,9161,44:44,1:13:59,1:23:50,1:28:54,BEL,1,32,Hoeselt,5:32,10.86,SEF,f
15623,Angelo,DE BRUIJN,1:28:54,9162,45:11,1:14:19,1:24:04,1:28:54,NLD,1,50,Hulst,5:32,10.86,M50,m
18764,Cherif,BARRY,1:28:54,9163,43:02,1:12:29,1:23:14,1:28:54,BEL,1,38,Aalst,5:32,10.86,M35,m
30274,Jana,BONGAERTS,1:28:54,9164,44:48,1:14:28,1:24:07,1:28:54,BEL,1,25,Mechelen,5:32,10.86,SEF,f
4362,Joyce,VERHEES,1:28:54,9165,44:12,1:13:22,1:23:46,1:28:54,BEL,1,51,Wilrijk,5:32,10.86,F50,f
29853,Jacques,MEEKERS,1:28:55,9166,43:40,1:13:13,1:23:34,1:28:55,BEL,1,64,Genk,5:32,10.86,M60,m
22735,Kristof,MAES,1:28:55,9167,44:15,1:13:35,1:23:47,1:28:55,BEL,1,35,Lommel,5:32,10.86,M35,m
3741,Hubert,PLOUVIER HUBERT,1:28:55,9168,42:35,1:12:54,1:23:47,1:28:55,BEL,1,54,Kapellen,5:32,10.86,M50,m
17063,Francis,OOSTVOGELS,1:28:55,9169,45:03,1:13:57,1:23:51,1:28:55,BEL,1,58,Brecht,5:32,10.86,M55,m
5766,Greet,DE KORT,1:28:55,9170,43:47,1:13:19,1:23:30,1:28:55,BEL,1,51,Turnhout,5:32,10.86,F50,f
29739,Lisa,VANLUCHENE,1:28:55,9171,46:00,1:14:50,1:24:33,1:28:55,BEL,1,28,Aalst,5:32,10.86,SEF,f
16458,Bert,JACOBS,1:28:55,9172,44:43,1:14:08,1:23:44,1:28:55,BEL,1,37,Deurne,5:32,10.86,M35,m
44242,Tommy,VAN DEN BEMPT,1:28:55,9173,45:03,1:13:54,1:23:58,1:28:55,BEL,1,20,Boechout,5:32,10.86,SEH,m
2942,Ronald,DE GROOT,1:28:55,9174,44:16,1:13:39,1:23:47,1:28:55,BEL,1,40,Tervuren,5:32,10.86,M40,m
15570,Jo,DE BACKER,1:28:55,9175,43:10,1:12:42,1:23:28,1:28:55,BEL,1,61,Londerzeel,5:32,10.86,M60,m
15438,Annelies,CLAESSEN,1:28:55,9176,43:49,1:13:00,1:23:27,1:28:55,BEL,1,28,Vosselaar,5:32,10.86,SEF,f
38054,Gunter,MERTENS,1:28:55,9177,43:51,1:12:58,1:23:50,1:28:55,BEL,1,62,Hemiksem,5:32,10.86,M60,m
919,Lucien,VAN DE VELDE,1:28:55,9178,42:40,1:11:42,1:23:25,1:28:55,BEL,1,67,Lede,5:32,10.86,M65,m
17353,Maureen,SCHAEKERS,1:28:55,9179,44:02,1:13:27,1:23:46,1:28:55,BEL,1,36,Linter,5:32,10.86,F35,f
17040,Michelle,NUYENS,1:28:56,9180,43:49,1:13:00,1:23:27,1:28:56,BEL,1,28,Vosselaar,5:32,10.86,SEF,f
5437,Kjell,GLADINÉ,1:28:56,9181,43:40,1:12:57,1:23:29,1:28:56,BEL,1,26,Bevel,5:32,10.86,SEH,m
6608,Marc,POECK,1:28:56,9182,44:34,1:14:15,1:24:00,1:28:56,BEL,1,59,Ranst,5:32,10.86,M55,m
889,Nathalie,VAN DEN BRANDE NATHA,1:28:56,9183,44:56,1:13:36,1:23:59,1:28:56,BEL,1,37,Reet,5:32,10.86,F35,f
37007,Stefan,DEBRUYNE,1:28:56,9184,45:59,1:14:33,1:24:16,1:28:56,BEL,1,45,Berlare,5:32,10.86,M45,m
7187,Dieter,VAN WAELDEREN,1:28:56,9185,45:54,1:14:12,1:24:07,1:28:56,BEL,1,35,Oud-Turnhout,5:32,10.86,M35,m
38143,Bram,DREXELER,1:28:56,9186,46:05,1:14:42,1:24:11,1:28:56,BEL,1,37,Halle,5:32,10.86,M35,m
7324,Ludo,VAN VLIERBERGHE,1:28:56,9187,43:22,1:13:33,1:23:46,1:28:56,BEL,1,56,Brasschaat,5:32,10.86,M55,m
15369,Karolien,CALUWAERTS,1:28:56,9188,44:10,1:13:35,1:24:00,1:28:56,BEL,1,42,Blaasveld,5:32,10.86,F40,f
1683,Agathe,DHERSIN,1:28:56,9189,42:45,1:12:55,1:23:32,1:28:56,FRA,1,28,Lille,5:32,10.86,SEF,f
7760,Tom,SELLESLAGH,1:28:56,9190,43:54,1:13:12,1:23:27,1:28:56,BEL,1,50,Melsele,5:32,10.86,M50,m
4663,Sophie,PEPERSTRAETE,1:28:56,9191,45:49,1:14:48,1:24:19,1:28:56,BEL,1,44,Reet,5:32,10.86,F40,f
20407,Ben,VERCAMMEN,1:28:57,9192,47:47,1:15:25,1:24:14,1:28:57,BEL,1,34,Antwerpen,5:32,10.86,SEH,m
37381,Sarah,THYS,1:28:57,9193,44:31,1:13:43,1:23:59,1:28:57,BEL,1,20,Boechout,5:32,10.86,SEF,f
18494,Adinda,WAUTERS,1:28:57,9194,44:20,1:13:31,1:23:48,1:28:57,BEL,1,45,Vlierzele,5:32,10.86,F45,f
7892,Bjorn,VAN SPRUNDEL,1:28:57,9195,46:56,1:15:24,1:24:31,1:28:57,BEL,1,24,Merksem,5:32,10.86,SEH,m
16281,Davy,GREF,1:28:57,9196,45:27,1:14:34,1:24:12,1:28:57,BEL,1,38,Wachtebeke,5:32,10.86,M35,m
22229,Marijn,PEETERS,1:28:57,9197,45:59,1:14:34,1:24:17,1:28:57,BEL,1,26,Essen,5:32,10.86,SEH,m
20304,Davy,WEEMAES,1:28:57,9198,45:17,1:14:14,1:24:16,1:28:57,BEL,1,38,De Klinge,5:32,10.86,M35,m
15772,Dirk,DE MAEYER,1:28:57,9199,44:11,1:13:35,1:24:01,1:28:57,BEL,1,44,Blaasveld,5:32,10.86,M40,m
20296,Jessica,LOQUET,1:28:57,9200,45:17,1:14:15,1:24:16,1:28:57,BEL,1,31,De Klinge,5:32,10.86,SEF,f
16443,Michael,HUYSMANS,1:28:57,9201,45:26,1:14:03,1:24:15,1:28:57,BEL,1,30,Mechelen,5:32,10.86,SEH,m
17194,Caroline,POSTELMANS,1:28:57,9202,44:30,1:14:06,1:24:02,1:28:57,BEL,1,30,Hasselt,5:32,10.86,SEF,f
31123,Nicola,DEPREZ,1:28:57,9203,45:10,1:14:21,1:23:49,1:28:57,BEL,1,27,Desselgem,5:32,10.86,SEH,m
23176,Ilias,BOUBOUT,1:28:57,9204,42:19,1:12:26,1:23:46,1:28:57,BEL,1,25,Antwerpen,5:32,10.86,SEH,m
17061,Erna,OOSTERLINCK,1:28:58,9205,43:03,1:13:19,1:23:46,1:28:58,BEL,1,60,Deurne (Antwerpen),5:32,10.86,F60,f
7433,Silke,DILLEN,1:28:58,9206,45:18,1:14:31,1:24:05,1:28:58,BEL,1,26,Leuven,5:32,10.86,SEF,f
20131,Stijn,LAMBRECHT,1:28:58,9207,45:43,1:14:22,1:24:24,1:28:58,BEL,1,36,Kortrijk,5:32,10.86,M35,m
7476,Glen,HUYBRECHTS,1:28:58,9208,46:27,1:15:56,1:24:55,1:28:58,BEL,1,38,Emblem,5:32,10.86,M35,m
34662,Dries,WILLOCKX,1:28:58,9209,44:26,1:13:45,1:23:51,1:28:58,BEL,1,44,Lede,5:32,10.86,M40,m
44342,Jeroen,JEROEN VAN CRAENENBROECK,1:28:58,9210,44:42,1:14:05,1:24:00,1:28:58,BEL,1,43,Hofstade,5:32,10.86,M40,m
2987,Axel,DEMARET,1:28:59,9211,46:20,1:13:38,1:23:44,1:28:59,BEL,1,43,Sint-Truiden,5:32,10.85,M40,m
15764,Mieke,DE LILLE,1:28:59,9212,44:36,1:14:04,1:24:02,1:28:59,BEL,1,45,Jabbeke,5:32,10.85,F45,f
17071,Kristof,OPRINS,1:28:59,9213,42:55,1:13:16,1:23:32,1:28:59,BEL,1,30,Sint-Lenaarts,5:32,10.85,SEH,m
17053,Maxime,ONSIA,1:28:59,9214,46:10,1:14:47,1:24:23,1:28:59,BEL,1,21,Bonheiden,5:32,10.85,SEF,f
19357,Ben,DEMEYERE,1:28:59,9215,44:09,1:13:29,1:23:50,1:28:59,BEL,1,35,Merelbeke,5:32,10.85,M35,m
16056,Erwin,DREESEN,1:28:59,9216,43:46,1:12:56,1:23:31,1:28:59,BEL,1,33,Leuven,5:32,10.85,SEH,m
44219,Vanessa,VERHEYEN,1:28:59,9217,43:28,1:13:19,1:23:44,1:28:59,BEL,1,38,Schoten,5:32,10.85,F35,f
18222,Tim,VANUYTSEL,1:28:59,9218,43:47,1:12:56,1:23:31,1:28:59,BEL,1,37,Leuven,5:32,10.85,M35,m
16460,Els,JACOBS,1:28:59,9219,43:34,1:13:25,1:23:55,1:28:59,BEL,1,45,Haasrode,5:32,10.85,F45,f
23419,Jonathan,RAES,1:28:59,9220,42:10,1:12:59,1:23:39,1:28:59,BEL,1,34,Antwerpen,5:32,10.85,SEH,m
15916,Margot,DE SPIEGELEER,1:29:00,9221,44:27,1:14:10,1:24:24,1:29:00,BEL,1,24,Oosterzele,5:32,10.85,SEF,f
6270,Jolan,OCULA,1:29:00,9222,43:47,1:13:28,1:23:56,1:29:00,BEL,1,26,Haasrode,5:32,10.85,SEH,m
33663,Sarah,VANDEKERCKHOVE,1:29:00,9223,45:14,1:14:30,1:24:05,1:29:00,BEL,1,34,Tielt,5:32,10.85,SEF,f
16905,Frank,MERTENS,1:29:00,9224,44:58,1:13:55,1:24:00,1:29:00,BEL,1,45,Wetteren,5:32,10.85,M45,m
17115,Goedele,PEETERS,1:29:00,9225,43:40,1:13:29,1:23:57,1:29:00,BEL,1,52,Bierbeek,5:32,10.85,F50,f
4916,Jari,LEYSEN,1:29:00,9226,44:25,1:14:14,1:23:59,1:29:00,BEL,1,27,Niel,5:32,10.85,SEH,m
15075,Wits,ARNO,1:29:00,9227,44:16,1:14:12,1:24:09,1:29:00,BEL,1,19,Duisburg,5:32,10.85,SEH,m
18517,Guido,WILLEKENS,1:29:00,9228,43:45,1:13:42,1:23:47,1:29:00,BEL,1,69,Kontich,5:32,10.85,M65,m
3927,Baelen,SOFIE Van,1:29:00,9229,44:16,1:14:02,1:23:57,1:29:00,BEL,1,30,Boechout,5:32,10.85,SEF,f
22702,Melissa,VAN PARYS,1:29:00,9230,45:16,1:14:27,1:24:02,1:29:00,BEL,1,35,Evergem,5:32,10.85,F35,f
3701,Hanne,PEETERS,1:29:01,9231,45:14,1:14:03,1:24:08,1:29:01,BEL,1,27,Mechelen,5:32,10.85,SEF,f
15079,Cornelis,ARTO,1:29:01,9232,43:56,1:13:35,1:23:52,1:29:01,BEL,1,39,Antwerpen,5:32,10.85,M35,m
3290,Toon,HENDRICKX,1:29:01,9233,44:07,1:13:05,1:23:39,1:29:01,BEL,1,23,Kasterlee,5:32,10.85,SEH,m
2605,Werner,ALPAERTS,1:29:01,9234,48:23,1:15:08,1:24:32,1:29:01,BEL,1,51,Heist Op Den Berg,5:32,10.85,M50,m
15534,Wesly,CROYMANS,1:29:01,9235,46:12,1:14:43,1:24:17,1:29:01,BEL,1,28,Berchem,5:32,10.85,SEH,m
7073,Tom,PEETERS,1:29:01,9236,41:58,1:12:05,1:23:28,1:29:01,BEL,1,41,Merksem,5:32,10.85,M40,m
34586,Kenneth,WARTEL,1:29:01,9237,45:15,1:14:31,1:24:06,1:29:01,BEL,1,36,Wondelgem,5:32,10.85,M35,m
5655,Steven,VAN GASTEL,1:29:01,9238,45:02,1:13:48,1:23:58,1:29:01,BEL,1,29,Brecht,5:32,10.85,SEH,m
16065,Patrick,DRUWÉ,1:29:01,9239,44:04,1:13:40,1:24:02,1:29:01,BEL,1,55,Lint,5:32,10.85,M55,m
3139,Valerie,EDIERS,1:29:02,9240,44:14,1:13:38,1:23:48,1:29:02,BEL,1,42,Lokeren,5:32,10.85,F40,f
18233,Renee,VAN VLIJMEN,1:29:02,9241,44:08,1:13:37,1:23:57,1:29:02,NLD,1,49,Peer,5:32,10.85,F45,f
4350,Jill,VERCRUYSSEN,1:29:02,9242,44:59,1:13:59,1:23:56,1:29:02,BEL,1,24,Ertvelde,5:32,10.85,SEF,f
37057,Bertrand,FOURNIER,1:29:02,9243,44:26,1:14:05,1:24:08,1:29:02,FRA,1,43,Bruxelles,5:32,10.85,M40,m
37575,Thomas,VAN LOOCK,1:29:02,9244,46:00,1:14:44,1:24:21,1:29:02,BEL,1,27,Niel,5:32,10.85,SEH,m
6196,Sabine,VAN MEERBEEK,1:29:02,9245,43:50,1:13:06,1:23:39,1:29:02,BEL,1,49,,5:32,10.85,F45,f
16093,Arthur,DUYSENS,1:29:02,9246,46:42,1:15:37,1:24:54,1:29:02,BEL,1,16,Asse,5:32,10.85,SEH,m
20894,Francine,VAN DE PEER,1:29:02,9247,44:39,1:13:42,1:24:03,1:29:02,BEL,1,59,Zandhoven,5:32,10.85,F55,f
4218,Robbe,VAN GORP,1:29:02,9248,44:07,1:13:07,1:23:40,1:29:02,BEL,1,23,Kasterlee,5:32,10.85,SEH,m
33763,Kristof,VAN DER AUWERA,1:29:02,9249,45:56,1:14:47,1:24:20,1:29:02,BEL,1,42,Merksem,5:32,10.85,M40,m
33520,Wan-Chen,TSAI,1:29:02,9250,43:34,1:13:25,1:23:47,1:29:02,BEL,1,40,Aartselaar,5:32,10.85,F40,f
7143,Wannes,KOYEN,1:29:02,9251,43:53,1:13:49,1:24:00,1:29:02,BEL,1,36,Antwerpen,5:32,10.85,M35,m
1483,Tom,HAERBOS,1:29:03,9252,43:52,1:13:49,1:23:59,1:29:03,BEL,1,41,Antwerpen,5:32,10.85,M40,m
15586,Hans,DE BIE,1:29:03,9253,43:45,1:13:40,1:23:59,1:29:03,BEL,1,32,Diest,5:32,10.85,SEH,m
34115,Luc,VAN MULDERS,1:29:03,9254,43:10,1:12:50,1:23:40,1:29:03,BEL,1,51,Buggenhout,5:32,10.85,M50,m
4949,Koen,STANDAERT,1:29:03,9255,44:47,1:14:11,1:24:25,1:29:03,BEL,1,51,Beveren,5:32,10.85,M50,m
33464,Lisa,TIELEMAN,1:29:03,9256,43:10,1:12:50,1:23:42,1:29:03,BEL,1,18,Buggenhout,5:32,10.85,SEF,f
34008,An,VAN HOEY,1:29:03,9257,43:10,1:12:50,1:23:40,1:29:03,BEL,1,44,Buggenhout,5:32,10.85,F40,f
35892,Liam,GOOS,1:29:03,9258,46:38,1:15:32,1:25:01,1:29:03,BEL,1,17,,5:32,10.85,SEH,m
35874,Xavier,BRUYNSEELS,1:29:03,9259,46:37,1:15:31,1:25:00,1:29:03,BEL,1,19,,5:32,10.85,SEH,m
15846,Robin,DEPUYDT,1:29:03,9260,44:18,1:13:26,1:23:52,1:29:03,BEL,1,31,Herfelingen,5:32,10.85,SEH,m
38674,Roy,AERTS,1:29:03,9261,46:35,1:15:03,1:24:32,1:29:03,BEL,1,24,Mortsel,5:32,10.85,SEH,m
4838,David,VOLLAND,1:29:03,9262,43:36,1:13:45,1:23:58,1:29:03,BEL,1,41,Antwerpen,5:32,10.85,M40,m
16968,Geert,MORTELMANS,1:29:03,9263,43:26,1:13:03,1:23:38,1:29:03,BEL,1,42,Lier,5:32,10.84,M40,m
35524,Stephen,MACHIELSE,1:29:03,9264,43:46,1:13:40,1:24:14,1:29:03,BEL,1,20,,5:32,10.84,SEH,m
23268,Toon,MARIEN,1:29:04,9265,43:01,1:12:40,1:23:38,1:29:04,BEL,1,25,Kontich,5:32,10.84,SEH,m
36245,Nicolas,KOEVOETS,1:29:04,9266,44:23,1:14:04,1:24:07,1:29:04,BEL,1,30,Schilde,5:32,10.84,SEH,m
19611,Siska,SOMERS,1:29:04,9267,47:05,1:14:52,1:24:12,1:29:04,BEL,1,20,Mechelen,5:32,10.84,SEF,f
6899,Ben,THIJS,1:29:04,9268,44:21,1:14:38,1:24:12,1:29:04,BEL,1,20,Antwerpen,5:32,10.84,SEH,m
6756,Dominique,VAN DEN BOSCH,1:29:04,9269,46:37,1:15:21,1:24:23,1:29:04,BEL,1,45,Wuustwezel,5:32,10.84,M45,m
7025,Guy,CALLENS,1:29:04,9270,45:31,1:14:13,1:24:14,1:29:04,BEL,1,38,Brasschaat,5:33,10.84,M35,m
7435,Thabita,DRIESEN,1:29:04,9271,45:01,1:13:56,1:24:06,1:29:04,BEL,1,49,Stabroek,5:33,10.84,F45,f
3745,Niels,POLFLIET,1:29:04,9272,42:30,1:12:20,1:23:09,1:29:04,BEL,1,32,Gent,5:33,10.84,SEH,m
20589,Kevin,BRESINSKI,1:29:04,9273,44:24,1:13:13,1:23:44,1:29:04,BEL,1,28,Bruxelles,5:33,10.84,SEH,m
18377,Michel,VERMEULEN,1:29:04,9274,43:03,1:12:32,1:23:34,1:29:04,BEL,1,48,Kontich,5:33,10.84,M45,m
877,Gerard,VAN DEN AARSEN,1:29:05,9275,43:00,1:12:42,1:23:47,1:29:05,NLD,1,33,Bergen Op Zoom,5:33,10.84,SEH,m
2066,Kaat,CLAESSENS,1:29:05,9276,44:00,1:13:05,1:23:34,1:29:05,BEL,1,20,Zwalm,5:33,10.84,SEF,f
1726,Brent,DECKERS,1:29:05,9277,44:52,1:13:34,1:24:10,1:29:05,BEL,1,18,Duffel,5:33,10.84,SEH,m
4260,Dirk,VAN LOOY,1:29:05,9278,43:05,1:13:06,1:23:50,1:29:05,BEL,1,61,'S Gravenwezel,5:33,10.84,M60,m
886,Clio,VAN DEN BOSSCHE,1:29:05,9279,44:31,1:13:32,1:23:52,1:29:05,BEL,1,28,Antwerpen,5:33,10.84,SEF,f
7516,Solange,MUHAWELIMANA Marie,1:29:05,9280,43:56,1:13:17,1:23:47,1:29:05,BEL,1,33,Avelgem,5:33,10.84,SEF,f
21614,Frederik,DUDAL,1:29:05,9281,45:36,1:14:28,1:24:25,1:29:05,BEL,1,23,'S Gravenwezel,5:33,10.84,SEH,m
30419,Veerle,BUYENS,1:29:05,9282,42:44,1:13:01,1:23:28,1:29:05,BEL,1,38,Wuustwezel,5:33,10.84,F35,f
15967,Dries,DE WEERDT,1:29:05,9283,44:17,1:13:30,1:23:59,1:29:05,BEL,1,22,Mechelen,5:33,10.84,SEH,m
37790,Anne-Sophie,VAN GOUBERGEN,1:29:06,9284,45:30,1:14:31,1:24:11,1:29:06,BEL,1,17,Vosselaar,5:33,10.84,SEF,f
15270,Daisy,BOSMANS,1:29:06,9285,43:26,1:13:11,1:23:44,1:29:06,BEL,1,34,Betekom,5:33,10.84,SEF,f
5418,Jels,DE MAEGHT,1:29:06,9286,44:54,1:13:21,1:23:52,1:29:06,BEL,1,27,Halle,5:33,10.84,SEH,m
38675,Edward,VEROUGSTRAETE,1:29:06,9287,46:22,1:13:47,1:23:59,1:29:06,BEL,1,29,Lokeren,5:33,10.84,SEH,m
36864,Luc,DILS,1:29:06,9288,40:57,1:11:23,1:23:41,1:29:06,BEL,1,58,Berendrecht,5:33,10.84,M55,m
31079,Frank,DENEEF,1:29:06,9289,44:24,1:13:23,1:23:46,1:29:06,BEL,1,52,Dilbeek,5:33,10.84,M50,m
37782,Senne,MISPOULLIER,1:29:06,9290,45:30,1:14:31,1:24:12,1:29:06,BEL,1,17,Oud-Turnhout,5:33,10.84,SEH,m
22393,Lukas,VANSANTEN,1:29:06,9291,43:25,1:13:39,1:23:34,1:29:06,BEL,1,19,Keerbergen,5:33,10.84,SEH,m
19348,Rogier,STROBBE,1:29:07,9292,44:34,1:14:12,1:24:20,1:29:07,BEL,1,45,Asse,5:33,10.84,M45,m
36064,Florian,CEUPPERS,1:29:07,9293,44:31,1:13:57,1:23:55,1:29:07,BEL,1,18,,5:33,10.84,SEH,m
1557,Laurent,VAN CUTSEM,1:29:07,9294,45:49,1:14:48,1:24:19,1:29:07,BEL,1,46,Reet,5:33,10.84,M45,m
19806,Liephout,KURT,1:29:07,9295,46:48,1:14:43,1:24:21,1:29:07,BEL,1,53,Evergem,5:33,10.84,M50,m
36063,Brent,CEUPENS,1:29:07,9296,44:31,1:13:57,1:23:55,1:29:07,BEL,1,18,,5:33,10.84,SEH,m
36932,Niels,VAN LOOVEREN,1:29:07,9297,45:08,1:14:05,1:24:24,1:29:07,BEL,1,26,Viersel,5:33,10.84,SEH,m
22308,Rien,JAGERS,1:29:07,9298,46:19,1:14:33,1:24:12,1:29:07,BEL,1,39,Antwerpen,5:33,10.84,M35,m
18046,Stefanie,VAN HOYWEGHEN,1:29:07,9299,44:56,1:14:55,1:24:28,1:29:07,BEL,1,32,Sint-Pauwels,5:33,10.84,SEF,f
3387,Stijn,JONCKHEERE,1:29:07,9300,43:48,1:12:56,1:23:28,1:29:07,BEL,1,34,Ieper,5:33,10.84,SEH,m
7369,Fabian,BUYS,1:29:07,9301,44:51,1:13:30,1:23:59,1:29:07,BEL,1,39,Brasschaat,5:33,10.84,M35,m
36804,Jason,DYCK,1:29:07,9302,44:48,1:13:26,1:23:56,1:29:07,BEL,1,27,Kontich,5:33,10.84,SEH,m
33250,Maartje,SMITS,1:29:08,9303,45:32,1:14:44,1:24:23,1:29:08,BEL,1,25,Antwerpen,5:33,10.84,SEF,f
2667,Patrick,BEVERS,1:29:08,9304,39:28,1:11:26,1:23:21,1:29:08,BEL,1,28,België,5:33,10.84,SEH,m
16070,Cindy,DUBOIS,1:29:08,9305,45:23,1:14:55,1:24:26,1:29:08,BEL,1,37,Blankenberge,5:33,10.84,F35,f
1744,Mats,VERBELEN,1:29:08,9306,44:35,1:13:51,1:24:09,1:29:08,BEL,1,29,Galmaarden,5:33,10.84,SEH,m
4615,Michel,HUCQ,1:29:08,9307,45:25,1:14:29,1:24:28,1:29:08,BEL,1,47,Brugge,5:33,10.84,M45,m
21583,Deyaert,LENY,1:29:08,9308,44:07,1:13:56,1:23:57,1:29:08,BEL,1,47,Beveren,5:33,10.84,F45,f
15362,Salih,CAKAL,1:29:08,9309,45:14,1:14:24,1:24:13,1:29:08,NLD,1,36,Delft,5:33,10.83,M35,m
16174,Hoecke,FRED Van,1:29:08,9310,44:07,1:13:25,1:23:47,1:29:08,BEL,1,43,Bazel,5:33,10.83,M40,m
21020,Tina,DENEEF,1:29:08,9311,44:26,1:13:25,1:23:49,1:29:08,BEL,1,0,Machelen,5:33,10.83,-,f
30155,Guido,BEERTEN,1:29:09,9312,44:40,1:13:27,1:23:56,1:29:09,BEL,1,61,Tessenderlo,5:33,10.83,M60,m
33523,Jo,TUBEX,1:29:09,9313,43:28,1:13:12,1:23:35,1:29:09,BEL,1,22,Noorderwijk,5:33,10.83,SEH,m
16686,Steven,LEHAEN,1:29:09,9314,47:08,1:15:34,1:24:50,1:29:09,BEL,1,48,Lommel,5:33,10.83,M45,m
22117,Laurent,BUISSERET,1:29:09,9315,43:35,1:13:22,1:23:58,1:29:09,BEL,1,44,Gaasbeek,5:33,10.83,M40,m
20557,Pascal,DE MEESTER,1:29:09,9316,45:42,1:14:48,1:24:24,1:29:09,BEL,1,46,Hoboken,5:33,10.83,M45,m
19637,Glenn,CEUSTERS,1:29:10,9317,43:52,1:13:44,1:24:06,1:29:10,BEL,1,29,Wuustwezel,5:33,10.83,SEH,m
8186,Julien,GOMBERT,1:29:10,9318,44:07,1:13:20,1:24:06,1:29:10,BEL,1,24,8460,5:33,10.83,SEH,m
20245,Geert,ADAMS,1:29:10,9319,44:44,1:13:41,1:24:11,1:29:10,BEL,1,44,Schilde,5:33,10.83,M40,m
22131,Lobke,TAVERNIER,1:29:10,9320,46:42,1:14:53,1:24:22,1:29:10,BEL,1,26,Sint-Niklaas,5:33,10.83,SEF,f
5856,Alec,SCHEEREN,1:29:10,9321,46:47,1:15:10,1:24:35,1:29:10,BEL,1,16,Edegem,5:33,10.83,SEH,m
15827,Luc,DE PAUW,1:29:10,9322,44:40,1:13:48,1:24:08,1:29:10,BEL,1,65,Hove,5:33,10.83,M65,m
36174,Robrecht,DRIESEN,1:29:10,9323,42:50,1:14:01,1:24:04,1:29:10,BEL,1,59,Antwerpen,5:33,10.83,M55,m
35080,Indy,HOOREBEKE,1:29:10,9324,45:55,1:14:02,1:24:18,1:29:10,BEL,1,21,,5:33,10.83,SEH,m
35031,Kevynn,AERTSSENS,1:29:10,9325,45:55,1:14:02,1:24:18,1:29:10,BEL,1,22,,5:33,10.83,SEH,m
598,Jonathan,MARTIN,1:29:11,9326,45:40,1:14:36,1:24:25,1:29:11,BEL,1,26,Oudenaarde,5:33,10.83,SEH,m
17657,Anne-Marie,VAN ASBROECK,1:29:11,9327,44:38,1:14:24,1:24:08,1:29:11,BEL,1,44,Berchem,5:33,10.83,F40,f
23140,Michael,BERENS,1:29:11,9328,43:52,1:13:19,1:23:42,1:29:11,DEU,1,51,Bersenbrück,5:33,10.83,M50,m
31585,Hubrecht,GERDY,1:29:11,9329,42:47,1:13:25,1:23:55,1:29:11,BEL,1,43,Eernegem,5:33,10.83,M40,m
15889,Patrick,DE SCHRYVER,1:29:11,9330,44:13,1:13:48,1:23:56,1:29:11,BEL,1,50,Kapellen,5:33,10.83,M50,m
498,Roy,HUIJSMANS,1:29:11,9331,43:39,1:13:48,1:24:12,1:29:11,BEL,1,30,Hoboken,5:33,10.83,SEH,m
29407,Hugo,LINTHOUT,1:29:11,9332,44:24,1:14:33,1:24:30,1:29:11,BEL,1,64,Lokeren,5:33,10.83,M60,m
21449,Kris,DE KEULENAER,1:29:11,9333,45:44,1:14:44,1:24:29,1:29:11,BEL,1,37,Melsele,5:33,10.83,M35,m
15165,Anja,BERENS,1:29:11,9334,43:51,1:13:18,1:23:41,1:29:11,DEU,1,50,Bersenbrück,5:33,10.83,F50,f
32758,Conroy,PATRICK,1:29:11,9335,45:02,1:15:28,1:25:01,1:29:11,GBR,1,48,Newmarket,5:33,10.83,M45,m
17203,Iurie,PROTASCIC,1:29:12,9336,46:23,1:15:22,1:24:37,1:29:12,BEL,1,30,Asse,5:33,10.83,SEH,m
739,Joke,ROTTIERS,1:29:12,9337,43:40,1:13:49,1:24:13,1:29:12,BEL,1,26,Hoboken,5:33,10.83,SEF,f
36523,Benjamin,BAIDOO,1:29:12,9338,46:22,1:14:57,1:24:43,1:29:12,BEL,1,26,Berchem,5:33,10.83,SEH,m
16472,Rudi,JANSEN,1:29:12,9339,47:08,1:15:33,1:24:56,1:29:12,BEL,1,48,Hamont,5:33,10.83,M45,m
36470,Stijn,HOUET,1:29:12,9340,45:41,1:14:47,1:24:24,1:29:12,BEL,1,40,Wilrijk,5:33,10.83,M40,m
17222,Kevin,RAES,1:29:12,9341,43:22,1:12:21,1:23:43,1:29:12,BEL,1,30,Boechout,5:33,10.83,SEH,m
14435,David,CORTEN,1:29:12,9342,47:51,1:16:09,1:24:53,1:29:12,BEL,1,34,Ranst,5:33,10.83,SEH,m
8021,Jérôme,PIERREUX,1:29:12,9343,44:36,1:13:48,1:23:59,1:29:12,BEL,1,25,Beert,5:33,10.83,SEH,m
21060,Giel,SIMONS,1:29:12,9344,44:22,1:13:20,1:23:48,1:29:12,BEL,1,0,Machelen,5:33,10.83,-,m
6869,Kris,D'HONDT,1:29:12,9345,40:06,1:11:28,1:23:40,1:29:12,BEL,1,48,Dendermonde,5:33,10.83,M45,m
20110,Dag,DE BACKER,1:29:12,9346,43:07,1:13:08,1:23:56,1:29:12,BEL,1,39,Schriek,5:33,10.83,M35,m
16887,Linda,MELIS,1:29:12,9347,44:19,1:13:28,1:23:57,1:29:12,BEL,1,0,Nijlen,5:33,10.83,-,f
16250,Kevin,GOEMINNE,1:29:12,9348,46:24,1:15:26,1:24:34,1:29:12,BEL,1,34,Anderlecht,5:33,10.83,SEH,m
20588,Christophe,BOTTU,1:29:12,9349,45:31,1:14:38,1:24:34,1:29:12,BEL,1,40,Zwijndrecht,5:33,10.83,M40,m
23123,Marieke,DE BATSELIER,1:29:12,9350,44:32,1:13:59,1:24:33,1:29:12,BEL,1,25,Landen,5:33,10.83,SEF,f
20369,Magali,VAN LANDEGEM,1:29:13,9351,42:48,1:13:05,1:23:43,1:29:13,BEL,1,28,Brugge,5:33,10.83,SEF,f
15420,Annie,CLAES,1:29:13,9352,45:24,1:14:24,1:24:22,1:29:13,BEL,1,58,Betekom,5:33,10.83,F55,f
17158,Sara,PIETERS,1:29:13,9353,44:41,1:14:06,1:24:12,1:29:13,BEL,1,39,Eppegem,5:33,10.83,F35,f
5228,Johan,SLEECKX,1:29:13,9354,45:35,1:15:11,1:24:45,1:29:13,BEL,1,44,Kalmhout,5:33,10.83,M40,m
17641,Kevin,VAERTEN,1:29:13,9355,44:25,1:13:42,1:24:03,1:29:13,BEL,1,41,Tisselt,5:33,10.83,M40,m
37914,Mohamed,EMOLA,1:29:13,9356,45:28,1:14:36,1:24:05,1:29:13,BEL,1,64,Royan,5:33,10.83,M60,m
35249,Victor,BORTIER,1:29:13,9357,44:13,1:13:57,1:24:13,1:29:13,BEL,1,23,,5:33,10.83,SEH,m
31141,Mark,DE RIJCKE,1:29:13,9358,44:03,1:13:41,1:24:00,1:29:13,BEL,1,25,Overijse,5:33,10.82,SEH,m
23388,Eric,VERHAEGEN,1:29:13,9359,43:13,1:13:34,1:23:50,1:29:13,BEL,1,60,Boechout,5:33,10.82,M60,m
15504,Evelien,COSIJN,1:29:13,9360,45:44,1:14:22,1:24:17,1:29:13,BEL,1,32,Outer,5:33,10.82,SEF,f
8039,Wesley,VAN DE MEIRSSCHE,1:29:14,9361,45:02,1:14:08,1:24:17,1:29:14,BEL,1,34,,5:33,10.82,SEH,m
16988,Maarten,MYS,1:29:14,9362,44:41,1:14:06,1:24:12,1:29:14,BEL,1,39,Sint-Pauwels,5:33,10.82,M35,m
37786,Stijn,STRAUVEN,1:29:14,9363,44:43,1:14:16,1:24:23,1:29:14,BEL,1,39,Lummen,5:33,10.82,M35,m
15617,Kelly,DE BRABANTER,1:29:14,9364,45:44,1:14:21,1:24:17,1:29:14,BEL,1,33,Outer,5:33,10.82,SEF,f
16375,Joachim,HERREMAN,1:29:14,9365,45:38,1:15:06,1:24:31,1:29:14,BEL,1,43,Koksijde,5:33,10.82,M40,m
15633,Pieter,DE BRUYN,1:29:14,9366,44:57,1:14:24,1:24:15,1:29:14,BEL,1,15,Edegem,5:33,10.82,SEH,m
7182,Ben,SWERTS,1:29:14,9367,46:25,1:15:10,1:24:32,1:29:14,BEL,1,31,Antwerpen,5:33,10.82,SEH,m
34738,Dieter,ZEEUWS,1:29:14,9368,46:01,1:14:55,1:24:52,1:29:14,BEL,1,42,Beveren,5:33,10.82,M40,m
36153,Keith,BURLISON,1:29:14,9369,44:08,1:13:49,1:24:04,1:29:14,GBR,1,55,Rotterdam,5:33,10.82,M55,m
16945,Wouter,MINNE,1:29:14,9370,45:05,1:14:37,1:24:30,1:29:14,BEL,1,34,Kontich,5:33,10.82,SEH,m
15824,Vincent,DE PAEP,1:29:14,9371,44:48,1:14:08,1:24:02,1:29:14,BEL,1,32,Poederlee,5:33,10.82,SEH,m
29957,Philippe,MEIRE,1:29:14,9372,45:57,1:14:57,1:24:27,1:29:14,BEL,1,30,Antwerpen,5:33,10.82,SEH,m
20339,Nick,KIEWIK,1:29:14,9373,44:21,1:13:51,1:24:09,1:29:14,BEL,1,38,Antwerpen,5:33,10.82,M35,m
22959,Sebastian,DORY,1:29:14,9374,43:48,1:13:24,1:24:02,1:29:14,BEL,1,25,Deurne,5:33,10.82,SEH,m
5845,Michel,PEETERS,1:29:14,9375,44:54,1:13:43,1:24:21,1:29:14,BEL,1,46,Vosselaar,5:33,10.82,M45,m
8013,Hans,MORTIER,1:29:15,9376,43:11,1:13:15,1:23:55,1:29:15,BEL,1,53,Herdersem,5:33,10.82,M50,m
36048,Lotte,GOOSSENS,1:29:15,9377,44:44,1:14:03,1:24:17,1:29:15,BEL,1,18,,5:33,10.82,SEF,f
18800,Cienfuegos,MANUEL,1:29:15,9378,43:58,1:14:03,1:24:15,1:29:15,ESP,1,29,Antwerpen,5:33,10.82,SEH,m
36947,Wim,WYNANTS,1:29:15,9378,45:13,1:14:16,1:24:19,1:29:15,BEL,1,50,Tongerlo,5:33,10.82,M50,m
15613,Robin,DE BOOM,1:29:15,9380,44:57,1:14:56,1:24:29,1:29:15,BEL,1,35,Sint-Pauwels,5:33,10.82,F35,f
44350,Wouter,VIERSTRAETE,1:29:15,9381,44:04,1:13:51,1:24:16,1:29:15,BEL,1,34,Gent,5:33,10.82,SEH,m
18785,Paul,HANJOUL,1:29:15,9382,43:57,1:13:07,1:23:33,1:29:15,BEL,1,49,Deurne,5:33,10.82,M45,m
38658,Gilbert,SWENNEN,1:29:15,9383,43:44,1:14:00,1:24:08,1:29:15,BEL,1,69,Huy,5:33,10.82,M65,m
15448,Filip,CLAUS,1:29:15,9384,44:12,1:13:45,1:24:05,1:29:15,BEL,1,48,Sint-Truiden,5:33,10.82,M45,m
36053,Helga,MONDELAERS,1:29:16,9385,44:42,1:14:03,1:24:18,1:29:16,BEL,1,15,,5:33,10.82,SEF,f
7410,Tom,DE KETELAERE,1:29:16,9386,46:23,1:14:22,1:24:30,1:29:16,BEL,1,38,Brasschaat,5:33,10.82,M35,m
2082,Thomas,COVEMAEKER,1:29:16,9387,46:58,1:15:14,1:24:56,1:29:16,BEL,1,29,Anderlecht,5:33,10.82,SEH,m
7390,Kris,CROONEN,1:29:16,9388,42:24,1:11:31,1:23:46,1:29:16,BEL,1,57,Leuven,5:33,10.82,M55,m
4721,Edith,BLEYEN,1:29:16,9389,45:13,1:14:17,1:24:20,1:29:16,BEL,1,51,Tongerlo,5:33,10.82,F50,f
932,Patrick,VANDYCK,1:29:16,9390,43:37,1:12:36,1:23:33,1:29:16,BEL,1,56,Meerbeek,5:33,10.82,M55,m
23427,,NR 23427,1:29:17,9391,None,None,None,1:29:17,BEL,1,0,,5:33,10.82,-,m
17814,Louis,VAN DE POL,1:29:16,9392,43:35,1:13:11,1:23:54,1:29:16,BEL,1,58,Wommelgem,5:33,10.82,M55,m
33087,Julie,SCHAILLIE,1:29:16,9393,45:50,1:15:02,1:24:35,1:29:16,BEL,1,25,Geraardsbergen,5:33,10.82,SEF,f
23408,Roel,PEETERS,1:29:16,9394,45:17,1:14:56,1:24:31,1:29:16,BEL,1,43,Schilde,5:33,10.82,M40,m
4428,Valery,VOETEN,1:29:16,9395,46:55,1:15:08,1:24:34,1:29:16,NLD,1,29,Zundert,5:33,10.82,SEF,f
7098,Natasha,VAN DEN BROECKE,1:29:17,9396,44:40,1:14:19,1:24:12,1:29:17,BEL,1,29,Merksem,5:33,10.82,SEF,f
20712,Steven,BROUX,1:29:17,9397,44:30,1:13:41,1:23:44,1:29:17,BEL,1,29,Munsterbilzen,5:33,10.82,SEH,m
22298,Stevens,JACHYM,1:29:17,9398,41:52,1:12:00,1:23:02,1:29:17,BEL,1,28,Schoten,5:33,10.82,SEH,m
35348,Ruben,DEMYTTENAERE,1:29:17,9399,43:07,1:13:34,1:24:14,1:29:17,BEL,1,24,,5:33,10.82,SEH,m
16563,Benjamin,KERREMANS,1:29:17,9400,43:49,1:13:12,1:23:57,1:29:17,BEL,1,37,Mechelen,5:33,10.82,M35,m
34921,Hannes,GODDAERT,1:29:17,9401,44:53,1:14:26,1:24:33,1:29:17,BEL,1,29,,5:33,10.82,SEH,m
29810,Paul,SOENS,1:29:17,9402,44:51,1:14:27,1:24:18,1:29:17,BEL,1,44,Zaventem,5:33,10.82,M40,m
31569,Vincent,GEERTS,1:29:18,9403,43:18,1:13:24,1:23:54,1:29:18,BEL,1,29,Schoten,5:33,10.82,SEH,m
21153,Tim,DEBREE,1:29:18,9404,45:36,1:14:38,1:24:33,1:29:18,BEL,1,30,Rumbeke,5:33,10.82,SEH,m
6192,Stefan,VAN HULST,1:29:18,9405,44:31,1:13:52,1:24:22,1:29:18,BEL,1,38,,5:33,10.82,M35,m
30994,Evi,DE LANGE,1:29:18,9406,43:19,1:14:00,1:24:37,1:29:18,BEL,1,35,Vilvoorde,5:33,10.82,F35,f
16534,Raphael,JORIS,1:29:18,9406,43:04,1:12:45,1:23:35,1:29:18,BEL,1,35,Itegem,5:33,10.82,M35,m
22053,Christophe,REYNDERS,1:29:18,9408,43:49,1:13:13,1:23:49,1:29:18,BEL,1,35,Boechout,5:33,10.82,M35,m
16657,Julie,LATEUR,1:29:18,9409,43:53,1:13:27,1:24:04,1:29:18,BEL,1,21,Tervuren,5:33,10.82,SEF,f
7590,Lieve,VAN DEN HENDE,1:29:18,9410,45:27,1:14:23,1:24:23,1:29:18,BEL,1,36,Borgerhout,5:33,10.82,F35,f
23447,Felix,BELMANS,1:29:18,9411,43:14,1:13:43,1:23:47,1:29:18,BEL,1,22,Antwerpen,5:33,10.81,SEH,m
16564,Dirk,KERREMANS,1:29:18,9412,43:49,1:13:12,1:23:58,1:29:18,BEL,1,60,Zemst,5:33,10.81,M60,m
16077,Michel,DULLIER,1:29:19,9413,43:19,1:13:06,1:23:59,1:29:19,BEL,1,57,Sombreffe,5:33,10.81,M55,m
5835,Ian,NAGLE,1:29:19,9414,44:24,1:14:43,1:24:07,1:29:19,GBR,1,52,Geel,5:33,10.81,M50,m
29809,Nathaie,DRUINE,1:29:19,9415,44:51,1:14:27,1:24:18,1:29:19,BEL,1,49,Zaventem,5:33,10.81,F45,f
29796,Frederic,DE MAESSCHALCK,1:29:19,9416,44:56,1:14:25,1:24:18,1:29:19,BEL,1,18,Keerbergen,5:33,10.81,SEH,m
3578,Joris,MERCKX,1:29:19,9417,44:04,1:13:34,1:24:01,1:29:19,BEL,1,57,Appels,5:33,10.81,M55,m
2144,Quinten,DEMEERSMAN,1:29:19,9418,45:01,1:14:12,1:24:31,1:29:19,BEL,1,19,Lier,5:33,10.81,SEH,m
2813,Angelo,CLOOF,1:29:19,9419,43:54,1:13:27,1:24:07,1:29:19,BEL,1,31,Sint Niklaas,5:33,10.81,SEH,m
2206,Jonas,HERMAN,1:29:19,9420,44:20,1:14:19,1:24:34,1:29:19,BEL,1,18,Boom,5:33,10.81,SEH,m
29731,Vicky,DE ROECK,1:29:19,9421,44:01,1:14:00,1:24:15,1:29:19,BEL,1,42,Mariakerke,5:33,10.81,F40,f
17164,Toon,PIRARD,1:29:19,9422,42:36,1:12:15,1:23:43,1:29:19,BEL,1,35,Borgloon,5:33,10.81,M35,m
17086,Kristel,PARDAEN,1:29:19,9423,44:26,1:13:51,1:24:11,1:29:19,BEL,1,47,Belsele,5:33,10.81,F45,f
17433,Luc,SEUNTIENS,1:29:19,9424,44:13,1:13:35,1:23:57,1:29:19,BEL,1,65,Turnhout,5:33,10.81,M65,m
18889,Rob,VAN HOOREWEDER,1:29:19,9425,46:14,1:15:33,1:25:09,1:29:19,BEL,1,28,Zwijndrecht,5:33,10.81,SEH,m
32650,Edward,NEUTENS,1:29:20,9426,45:09,1:14:19,1:24:11,1:29:20,BEL,1,14,Wevelgem,5:33,10.81,SEH,m
19071,Daan,DE JAEGER,1:29:20,9427,43:24,1:13:22,1:24:13,1:29:20,BEL,1,56,Wemmel,5:33,10.81,M55,m
17545,Jurgen,STRUYLAART,1:29:20,9428,44:27,1:13:51,1:24:10,1:29:20,BEL,1,49,Belsele,5:33,10.81,M45,m
15210,Joost,BODDAERT,1:29:20,9429,42:45,1:13:24,1:24:05,1:29:20,BEL,1,26,Gent,5:33,10.81,SEH,m
8226,Anne-Fien,STOCKMAN,1:29:20,9430,44:42,1:13:57,1:24:16,1:29:20,BEL,1,27,Oudenaarde,5:33,10.81,SEF,f
15487,Elise,COPPENS,1:29:20,9431,43:23,1:13:44,1:24:08,1:29:20,BEL,1,23,Lier,5:34,10.81,SEF,f
20903,Christophe,DEKONINCK,1:29:20,9432,44:30,1:14:06,1:24:11,1:29:20,BEL,1,48,Schilde,5:34,10.81,M45,m
15514,Remko,COUMANS,1:29:21,9433,44:51,1:13:49,1:23:56,1:29:21,NLD,1,46,Eeklo,5:34,10.81,M45,m
6053,Kathleen,DE WEVER,1:29:21,9434,44:43,1:14:13,1:24:17,1:29:21,BEL,1,53,,5:34,10.81,F50,f
30946,Andy,DE HERDT,1:29:21,9435,44:10,1:13:48,1:23:54,1:29:21,BEL,1,30,Hallaar,5:34,10.81,SEH,m
4761,Geert,HONTIS,1:29:21,9436,43:55,1:13:50,1:24:07,1:29:21,BEL,1,36,Berchem,5:34,10.81,M35,m
16434,Ambroos,HUYBRECHTS,1:29:21,9437,45:31,1:15:10,1:24:31,1:29:21,BEL,1,40,Antwerpen,5:34,10.81,M40,m
20849,Robin,VAN DEN NESTE,1:29:21,9438,45:38,1:14:44,1:24:38,1:29:21,BEL,1,37,Affligem,5:34,10.81,M35,m
38762,Gudrun,HESPEL,1:29:21,9439,42:52,1:12:40,1:24:00,1:29:21,BEL,1,28,Oud-Heverlee,5:34,10.81,SEF,f
3401,Fien,KEIJZER,1:29:21,9440,44:32,1:13:48,1:24:14,1:29:21,BEL,1,35,Meise,5:34,10.81,F35,f
14267,Andreas,SAP,1:29:21,9441,45:49,1:14:40,1:25:05,1:29:21,BEL,1,26,Beernem,5:34,10.81,SEH,m
29742,Filip,ROUSSEAU,1:29:21,9442,45:29,1:14:47,1:24:44,1:29:21,BEL,1,47,Sint-Denijs-Westrem,5:34,10.81,M45,m
3238,Fried,GOOSSENS,1:29:21,9443,43:24,1:13:56,1:24:06,1:29:21,NLD,1,59,Hapert,5:34,10.81,M55,m
15605,Kilian,DE BOEVER,1:29:22,9444,45:12,1:14:14,1:24:34,1:29:22,BEL,1,26,Oostrozebeke,5:34,10.81,SEH,m
22160,Manu,WANLIN,1:29:22,9445,44:01,1:13:11,1:23:43,1:29:22,BEL,1,19,Antwerpen,5:34,10.81,SEH,m
17478,Maurice,SMITS,1:29:22,9446,44:44,1:13:46,1:24:20,1:29:22,BEL,1,59,Zandhoven,5:34,10.81,M55,m
29734,Thibauld,BRAET,1:29:22,9447,44:29,1:13:48,1:24:10,1:29:22,BEL,1,23,Lissewege,5:34,10.81,SEH,m
4526,Rodrigue,AVIMADJESSI,1:29:22,9448,44:07,1:13:11,1:23:59,1:29:22,BEN,1,30,Vilvorde,5:34,10.81,SEH,m
17581,Ellen,THEEUWES,1:29:22,9449,45:56,1:14:33,1:24:17,1:29:22,BEL,1,36,Sint-Pauwels,5:34,10.81,F35,f
33447,Tom,THIJS,1:29:22,9450,46:24,1:15:11,1:24:30,1:29:22,BEL,1,40,Sint-Truiden,5:34,10.81,M40,m
29707,Peter,DE BOCK,1:29:22,9451,43:23,1:13:10,1:24:00,1:29:22,NLD,1,57,Evergem,5:34,10.81,M55,m
20173,Toon,BERVOETS,1:29:22,9452,45:24,1:15:09,1:24:39,1:29:22,BEL,1,30,Oostmalle,5:34,10.81,SEH,m
16766,Fien,LUYCKX,1:29:22,9453,43:36,1:13:49,1:24:01,1:29:22,BEL,1,28,Oostrozebeke,5:34,10.81,SEF,f
44398,Rhesa,MICHIEL,1:29:22,9454,44:53,1:14:01,1:24:15,1:29:22,BEL,1,41,Ekeren,5:34,10.81,M40,m
6301,Maxim,CLEEMPUT,1:29:23,9455,45:26,1:14:30,1:24:20,1:29:23,BEL,1,27,Heverlee,5:34,10.81,SEH,m
14336,Olivier,VAN DER STEICHEL,1:29:23,9456,46:05,1:14:47,1:24:32,1:29:23,BEL,1,39,Antwerpen,5:34,10.81,M35,m
7534,Willy,PEUSS,1:29:23,9457,43:24,1:13:37,1:24:01,1:29:23,BEL,1,62,Stabroek,5:34,10.81,M60,m
6530,Eveline,BORRÉ,1:29:23,9458,45:06,1:13:54,1:24:06,1:29:23,BEL,1,27,Mechelen,5:34,10.81,SEF,f
5839,Michael,OKKONEN,1:29:23,9459,42:45,1:11:51,1:23:31,1:29:23,FIN,1,33,Antwerpen,5:34,10.81,SEH,m
1060,Anthony,VERVYNCKT,1:29:23,9460,44:25,1:13:42,1:23:54,1:29:23,BEL,1,26,Wilrijk,5:34,10.81,SEH,m
37086,Patrick,STEVENS,1:29:23,9461,45:00,1:14:10,1:24:07,1:29:23,BEL,1,70,Gentbrugge,5:34,10.8,M70,m
36774,Kevin,DE SMET,1:29:23,9462,45:46,1:14:55,1:24:40,1:29:23,BEL,1,26,Sint-Pauwels,5:34,10.8,SEH,m
16740,Thomas,LODEWEYCKX,1:29:23,9463,43:43,1:13:11,1:24:01,1:29:23,BEL,1,27,Booischot,5:34,10.8,SEH,m
16591,Susanna,KÖYKKÄ-LEMPIÄINEN,1:29:23,9464,43:50,1:13:39,1:24:04,1:29:23,FIN,1,54,Helsinki,5:34,10.8,F50,f
37366,Peter,ROELS,1:29:23,9465,46:13,1:15:06,1:24:36,1:29:23,BEL,1,50,Hamme,5:34,10.8,M50,m
35188,Els,LIEVENS,1:29:23,9466,43:21,1:13:37,1:24:19,1:29:23,BEL,1,41,,5:34,10.8,F40,f
18926,Tjen,CEUPPENS,1:29:23,9467,45:13,1:14:08,1:24:23,1:29:23,BEL,1,60,Tielen,5:34,10.8,M60,m
44295,Stephenson,GREG,1:29:24,9468,44:23,1:14:28,1:24:23,1:29:24,GBR,1,0,Antwerp,5:34,10.8,-,m
30416,Griet,BUYCK,1:29:24,9469,44:58,1:14:35,1:24:50,1:29:24,BEL,1,48,Bellegem,5:34,10.8,F45,f
1352,Gino,DESOT,1:29:24,9470,44:47,1:14:24,1:24:20,1:29:24,BEL,1,52,Adinkerke,5:34,10.8,M50,m
15383,Thomas,CARLIER,1:29:24,9471,46:42,1:15:29,1:24:59,1:29:24,BEL,1,27,Bornem,5:34,10.8,SEH,m
7235,Yannick,SPILLEMAECKERS,1:29:24,9472,44:53,1:14:37,1:24:28,1:29:24,BEL,1,31,Brasschaat,5:34,10.8,SEH,m
6392,Sebastiaan,DEBROYER,1:29:24,9473,45:50,1:14:16,1:24:33,1:29:24,BEL,1,30,Londerzeel,5:34,10.8,SEH,m
1341,Kobe,HOSTYN,1:29:24,9474,44:28,1:14:08,1:24:20,1:29:24,BEL,1,42,Wilrijk,5:34,10.8,M40,m
29972,Jeroen,VANELSLANDER,1:29:24,9475,46:52,1:15:42,1:24:56,1:29:24,BEL,1,33,Gent,5:34,10.8,SEH,m
31822,Pascal,HERMAN,1:29:24,9476,44:58,1:14:35,1:24:50,1:29:24,BEL,1,48,Bellegem,5:34,10.8,M45,m
6284,Glenn,VAN DER HORST,1:29:24,9477,43:33,1:13:05,1:23:53,1:29:24,BEL,1,36,Essen,5:34,10.8,M35,m
31921,Stijn,HUIJSMANS,1:29:25,9478,44:50,1:14:39,1:24:56,1:29:25,NLD,1,17,Wouw,5:34,10.8,SEH,m
17640,Marc,UYTTENDAELE,1:29:25,9479,45:03,1:14:27,1:24:45,1:29:25,BEL,1,56,Wemmel,5:34,10.8,M55,m
16030,Eros,DIONISI,1:29:25,9480,45:25,1:14:34,1:24:38,1:29:25,ITA,1,29,Antwerpen,5:34,10.8,SEH,m
16117,Tollenaere,ESTEBAN De,1:29:25,9481,43:55,1:13:45,1:24:18,1:29:25,BEL,1,27,Gent,5:34,10.8,SEH,m
29994,Peter,FRANCK,1:29:25,9482,46:13,1:14:49,1:24:25,1:29:25,BEL,1,49,Niel,5:34,10.8,M45,m
18342,Elly,VERHOOSEL,1:29:25,9483,44:58,1:14:40,1:24:27,1:29:25,BEL,1,41,Ranst,5:34,10.8,F40,f
16900,Arne,MERTENS,1:29:25,9484,47:16,1:15:13,1:24:45,1:29:25,BEL,1,24,Emblem,5:34,10.8,SEH,m
34922,Zynke,HUYSMANS,1:29:25,9485,44:05,1:13:59,1:24:09,1:29:25,BEL,1,30,,5:34,10.8,SEF,f
38100,Ekaterina,SARAFANOVA,1:29:25,9486,45:01,1:14:40,1:24:28,1:29:25,BEL,1,31,Heverlee,5:34,10.8,SEF,f
1792,,NR 1792,1:29:26,9487,None,None,None,1:29:26,BEL,1,0,,5:34,10.8,-,m
16408,Bruno,HOLLANTS,1:29:26,9488,42:50,1:13:02,1:24:21,1:29:26,BEL,1,64,Mortsel,5:34,10.8,M60,m
5716,Yves,PEERAER,1:29:26,9489,45:12,1:14:37,1:24:47,1:29:26,BEL,1,43,Kruibeke,5:34,10.8,M40,m
4284,Julie,VANPEE,1:29:26,9490,43:17,1:13:17,1:24:03,1:29:26,BEL,1,27,Zoersel,5:34,10.8,SEF,f
29973,Tom,GOOSSENS,1:29:26,9491,46:53,1:15:43,1:24:58,1:29:26,BEL,1,40,Breendonk,5:34,10.8,M40,m
31766,Pierre,HARDY,1:29:26,9492,45:57,1:14:26,1:24:25,1:29:26,BEL,1,21,Lasne,5:34,10.8,SEH,m
23277,Wim,NUYTS,1:29:26,9493,44:43,1:14:19,1:24:15,1:29:26,BEL,1,53,Oud Turnhout,5:34,10.8,M50,m
7692,Toon,ROBEYNS,1:29:26,9494,47:43,1:15:03,1:24:47,1:29:26,BEL,1,30,Antwerpen,5:34,10.8,SEH,m
22374,Michael,MARCKX,1:29:26,9495,45:56,1:14:58,1:24:48,1:29:26,BEL,1,31,Zelzate,5:34,10.8,SEH,m
19707,Tom,PUTTEMANS,1:29:26,9496,41:51,1:12:36,1:24:07,1:29:26,BEL,1,34,Destelbergen,5:34,10.8,SEH,m
19341,Beatrice,MAGNIER,1:29:26,9497,45:20,1:14:30,1:24:26,1:29:26,FRA,1,60,Outreau,5:34,10.8,F60,f
6066,Margaux,FLAMÉE,1:29:26,9498,44:33,1:13:53,1:24:15,1:29:26,BEL,1,26,,5:34,10.8,SEF,f
3108,Chris,DILLES,1:29:27,9499,42:55,1:13:42,1:24:26,1:29:27,BEL,1,52,Wijnegem,5:34,10.8,M50,m
37180,Colin,DAELEMANS,1:29:27,9500,41:37,1:14:08,1:24:10,1:29:27,BEL,1,16,Kontich,5:34,10.8,SEH,m
