runner id,name,lastname,time,rank,checkpt0,checkpt1,checkpt2,checkpt3,nationality,finished,age,city,team,pace,speed,category,sex
34934,Ann,MANNES,1:58:16,21501,54:37,1:36:25,1:51:26,1:58:16,BEL,1,34,,7:21,8.17,SEF,f
7273,Tine,JESPERS,1:58:16,21502,57:16,1:36:56,1:51:22,1:58:16,BEL,1,47,Mortsel,7:21,8.17,M45,m
18848,Hans,MUS,1:58:17,21503,56:26,1:36:54,1:51:06,1:58:17,BEL,1,51,Schelle,7:21,8.17,M50,m
44688,Kaat,LAUREYSSENS,1:58:17,21504,56:26,1:36:55,1:51:07,1:58:17,BEL,1,36,Schelle,7:21,8.17,F35,f
35268,Nette,BUYENS,1:58:17,21505,59:48,1:38:29,1:52:15,1:58:17,BEL,1,22,,7:21,8.17,SEF,f
14269,Cato,MARSTBOOM,1:58:17,21506,59:48,1:38:29,1:52:15,1:58:17,BEL,1,21,Kalmthout,7:21,8.17,SEF,f
31535,Verbraak,FRAN,1:58:17,21507,59:48,1:38:29,1:52:14,1:58:17,BEL,1,21,Kalmthout,7:21,8.17,SEF,f
32096,Patrick,KESTENS,1:58:18,21508,58:07,1:37:36,1:52:20,1:58:18,BEL,1,54,Ieper,7:21,8.16,M50,m
33603,Jolien,VAN CALSTER,1:58:18,21509,59:37,1:38:45,1:51:36,1:58:18,BEL,1,28,Wuustwezel,7:21,8.16,SEF,f
31608,Annick,GEYSEN,1:58:19,21510,58:52,1:37:55,1:51:50,1:58:19,BEL,1,55,Lille,7:21,8.16,F55,f
31186,Romy,DE SCHUTTER,1:58:19,21511,58:51,1:37:55,1:51:49,1:58:19,BEL,1,35,Malle,7:22,8.16,F35,f
34185,Caroline,VAN RHIJN,1:58:20,21512,55:55,1:36:35,1:51:15,1:58:20,BEL,1,38,Brecht,7:22,8.16,F35,f
30057,Maria,BISKUP Halina,1:58:20,21513,57:05,1:36:29,1:51:13,1:58:20,BEL,1,40,Deinze,7:22,8.16,F40,f
32245,Pieter,LEMBREGTS,1:58:20,21514,56:49,1:35:55,1:51:51,1:58:20,BEL,1,24,Keerbergen,7:22,8.16,SEH,m
30167,Pauline,BELLOY,1:58:22,21515,58:35,1:38:10,1:51:31,1:58:22,BEL,1,22,Weelde,7:22,8.16,SEF,f
30073,Nancy,ARTOOS,1:58:22,21516,59:45,1:39:02,1:52:09,1:58:22,BEL,1,44,Berlaar,7:22,8.16,F40,f
29737,Debbei,MARTENS,1:58:23,21517,56:55,1:36:30,1:52:09,1:58:23,BEL,1,32,Lievegem,7:22,8.16,SEF,f
22641,Lonneke,VAN HINSBERG,1:58:25,21518,57:18,1:37:28,1:51:52,1:58:25,BEL,1,39,Berchem,7:22,8.16,F35,f
30088,Carolien,AUGUSTYNEN,1:58:26,21519,58:04,1:37:58,1:51:40,1:58:26,BEL,1,38,Duffel,7:22,8.16,F35,f
21759,Christoph,CLAESSENS,1:58:26,21520,55:47,1:35:15,1:50:52,1:58:26,BEL,1,35,Linkeroever Antwerpen,7:22,8.16,M35,m
32753,Ilse,PASMANS,1:58:26,21521,58:43,1:37:52,1:51:53,1:58:26,BEL,1,48,Deurne,7:22,8.15,F45,f
7593,Veerle,VANDERMARLIERE,1:58:26,21522,58:45,1:37:57,1:51:46,1:58:26,BEL,1,29,Kessel-Lo,7:22,8.15,SEF,f
21281,Oliver,SIRBU,1:58:26,21523,58:01,1:36:51,1:51:37,1:58:26,ROU,1,52,Boom,7:22,8.15,M50,m
19747,Freya,MERTENS,1:58:27,21524,55:23,1:36:53,1:51:40,1:58:27,BEL,1,27,Gent,7:22,8.15,SEF,f
7600,Jelle,VAN GOMPEL,1:58:27,21525,58:46,1:37:57,1:51:46,1:58:27,BEL,1,32,Kessel-Lo,7:22,8.15,SEH,m
32752,Ann,PASMANS,1:58:27,21526,58:44,1:37:54,1:51:55,1:58:27,BEL,1,52,Morainvilliers,7:22,8.15,F50,f
32963,Eric,RENAUD,1:58:28,21527,58:45,1:37:54,1:51:55,1:58:28,FRA,1,52,Morainvilliers,7:22,8.15,M50,m
21280,Fernando,SIRBU,1:58:28,21528,58:02,1:36:52,1:51:39,1:58:28,BEL,1,55,Boom,7:22,8.15,M55,m
33554,Bert,VANAKEN,1:58:28,21529,57:16,1:36:33,1:51:51,1:58:28,BEL,1,48,Sint-Truiden,7:22,8.15,M45,m
37611,Greet,DE CRAEN,1:58:28,21530,58:01,1:37:09,1:51:32,1:58:28,BEL,1,39,Kontich,7:22,8.15,F35,f
33238,Ilse,SMETS,1:58:29,21531,57:21,1:36:34,1:51:54,1:58:29,BEL,1,45,Sint-Truiden (Zepperen),7:22,8.15,F45,f
31747,Katrin,HAEST,1:58:29,21532,57:53,1:37:39,1:51:41,1:58:29,BEL,1,40,Wuustwezel,7:22,8.15,F40,f
1761,Tanja,VERSTRAETEN,1:58:29,21533,58:34,1:37:52,1:51:22,1:58:29,BEL,1,46,Middelkerke,7:22,8.15,F45,f
30728,Shari,DANIËLS,1:58:29,21534,57:52,1:37:38,1:51:41,1:58:29,BEL,1,33,Wuustwezel,7:22,8.15,SEF,f
32129,Hanke,KONIJNENBURG,1:58:30,21535,56:47,1:36:26,1:51:21,1:58:30,NLD,1,36,Dordrecht,7:22,8.15,F35,f
35409,Anoek,GHYS,1:58:30,21536,56:45,1:36:39,1:51:05,1:58:30,BEL,1,21,,7:22,8.15,SEF,f
35466,Wannes,JACOBS,1:58:30,21537,56:45,1:36:39,1:51:05,1:58:30,BEL,1,21,,7:22,8.15,SEH,m
33563,Joëlle,VAN BAARLE,1:58:30,21538,56:48,1:36:26,1:51:20,1:58:30,BEL,1,29,Wachtebeke-Overslag,7:22,8.15,SEF,f
38111,Lieze,DE GUSSEM,1:58:31,21539,57:19,1:38:00,1:51:20,1:58:31,BEL,1,25,Antwerpen,7:22,8.15,SEF,f
33792,Alain,VANDER LINDEN,1:58:32,21540,56:05,1:36:21,1:51:06,1:58:32,BEL,1,61,Romedenne,7:22,8.15,M60,m
36747,Jolien,VANDECASTEELE,1:58:33,21541,59:24,1:38:40,1:51:52,1:58:33,BEL,1,27,Bredene,7:22,8.15,SEF,f
30466,Lisa,CARDOEN,1:58:33,21542,58:22,1:37:53,1:52:10,1:58:33,BEL,1,28,Buggenhout,7:22,8.15,SEF,f
33829,Angelique,VAN DER VEKEN,1:58:33,21543,58:22,1:37:53,1:52:10,1:58:33,BEL,1,30,Buggenhout,7:22,8.15,SEF,f
44222,Jim,GOETSCHALCKX,1:58:34,21544,55:30,1:36:24,1:51:23,1:58:34,BEL,1,49,Zandhoven,7:22,8.15,M45,m
22000,Michiel,LEMMENS,1:58:34,21545,59:25,1:38:40,1:51:53,1:58:34,BEL,1,27,Leopoldsburg,7:22,8.15,SEH,m
5928,Tine,VLEUGELS,1:58:35,21546,57:48,1:37:02,1:51:45,1:58:35,BEL,1,33,Molenbeek,7:22,8.15,SEF,f
5849,Sarah,RABAU,1:58:35,21547,57:48,1:37:02,1:51:46,1:58:35,BEL,1,32,Antwerpen,7:22,8.15,SEF,f
7230,Frederica,GOOSSENS,1:58:35,21548,59:27,1:38:13,1:51:59,1:58:35,BEL,1,48,Brasschaat,7:23,8.14,F45,f
33069,Kim,SANDERS,1:58:35,21549,56:04,1:36:01,1:51:41,1:58:35,BEL,1,28,Stabroek,7:23,8.14,SEF,f
32336,Philip,LUYCKX,1:58:35,21550,56:04,1:36:01,1:51:41,1:58:35,BEL,1,30,Stabroek,7:23,8.14,SEH,m
37980,Peter,DE ROOVERE,1:58:36,21551,59:14,1:38:32,1:51:43,1:58:36,BEL,1,32,Heist-Op-Den-Berg,7:23,8.14,SEH,m
34337,Sofie,VERCAMMEN,1:58:36,21552,59:15,1:38:32,1:51:44,1:58:36,BEL,1,28,Heist-Op-Den-Berg,7:23,8.14,SEF,f
31227,Yorre,DETAVERNIER,1:58:36,21553,59:39,1:38:46,1:52:23,1:58:36,BEL,1,18,Marke,7:23,8.14,SEH,m
37448,Veerle,WIESMANN,1:58:36,21554,56:05,1:37:24,1:51:53,1:58:36,DEU,1,41,Niel,7:23,8.14,F40,f
8066,David,VERHENNE,1:58:36,21555,57:35,1:37:31,1:52:03,1:58:36,BEL,1,52,Maarkedal,7:23,8.14,M50,m
16124,Maxime,FAES,1:58:37,21556,59:16,1:38:36,1:52:07,1:58:37,BEL,1,29,Antwerpen,7:23,8.14,SEF,f
15673,Mireille,DE COEN,1:58:37,21557,57:03,1:36:26,1:51:04,1:58:37,BEL,1,49,Clinge,7:23,8.14,F45,f
16952,Julia,MOLHOEK,1:58:37,21558,57:03,1:36:27,1:51:05,1:58:37,NLD,1,18,Clinge,7:23,8.14,SEF,f
33364,Sophie,STROOBANTS,1:58:38,21559,58:05,1:37:21,1:51:44,1:58:38,BEL,1,36,Lier,7:23,8.14,F35,f
22992,Daphne,WOUDENBERG,1:58:39,21560,59:16,1:38:24,1:51:57,1:58:39,NLD,1,44,Rotterdam,7:23,8.14,F40,f
35336,Seppe,DE HOON,1:58:39,21561,58:23,1:37:27,1:51:41,1:58:39,BEL,1,20,,7:23,8.14,SEH,m
44259,Lutgart,BOEYKENS,1:58:39,21562,57:57,1:38:13,1:52:10,1:58:39,BEL,1,50,Z,7:23,8.14,F50,f
31459,Heyndrickx,ERIK,1:58:40,21563,59:10,1:38:20,1:51:49,1:58:40,NLD,1,52,Antwerp,7:23,8.14,M50,m
35483,Fien,KERCKHOFS,1:58:40,21564,58:23,1:37:27,1:51:41,1:58:40,BEL,1,20,,7:23,8.14,SEF,f
30950,Ilse,DE JAEGER,1:58:41,21565,57:08,1:37:21,1:51:38,1:58:41,BEL,1,48,Heldergem,7:23,8.14,F45,f
7233,Annick,SCHELLEMANS,1:58:43,21566,59:28,1:38:14,1:51:59,1:58:43,BEL,1,49,Brasschaat,7:23,8.14,F45,f
2259,Wouter,LEFEVRE,1:58:44,21567,52:26,1:35:22,1:50:50,1:58:44,BEL,1,49,Wespelaar,7:23,8.13,M45,m
7424,Janna,DEVOCHT,1:58:44,21568,56:07,1:37:09,1:51:25,1:58:44,BEL,1,46,Kontich,7:23,8.13,F45,f
37897,Joyce,VERLEY,1:58:45,21569,53:06,1:34:59,1:51:30,1:58:45,BEL,1,21,Antwerpen,7:23,8.13,SEF,f
37619,Sarah,D'HAESE,1:58:46,21570,54:49,1:36:51,1:51:45,1:58:46,BEL,1,31,Oostmalle,7:23,8.13,SEF,f
21754,Luc,AERTS,1:58:47,21571,58:16,1:38:11,1:52:01,1:58:47,BEL,1,53,Mol,7:23,8.13,M50,m
34177,Lisa,VAN RANSBEECK,1:58:47,21572,1:01:06,1:39:03,1:52:08,1:58:47,BEL,1,24,Kapelle-Op-Den-Bos,7:23,8.13,SEF,f
19006,Evelien,AERTS,1:58:47,21573,58:16,1:38:11,1:52:00,1:58:47,BEL,1,24,Mol,7:23,8.13,SEF,f
17162,Thomas,PINNEWAERT,1:58:48,21574,57:15,1:37:16,1:51:36,1:58:48,BEL,1,32,Gavere,7:23,8.13,SEH,m
34581,Anja,WARLOP,1:58:48,21575,58:06,1:37:36,1:52:20,1:58:48,BEL,1,48,Ieper,7:23,8.13,F45,f
31800,Nathalie,HELSEN,1:58:49,21576,57:28,1:36:59,1:51:48,1:58:49,BEL,1,27,Malle,7:23,8.13,SEF,f
7231,Arne,KERREMANS,1:58:49,21577,59:24,1:38:11,1:51:57,1:58:49,BEL,1,21,Brasschaat,7:23,8.13,SEH,m
33493,Eline,TOLLENAERE,1:58:49,21578,55:34,1:35:15,1:51:18,1:58:49,BEL,1,30,Zaffelare,7:23,8.13,SEF,f
23163,Velde,BRIGITTE Van De,1:58:50,21579,56:36,1:36:31,1:51:40,1:58:50,BEL,1,57,Antwerpen,7:23,8.13,F55,f
18817,Dennis,VAN RAEMDONCK,1:58:50,21580,57:29,1:37:48,1:52:18,1:58:50,BEL,1,26,Kapellen,7:23,8.13,SEH,m
37655,Dirk,PIETERS,1:58:51,21581,54:54,1:33:01,1:49:22,1:58:51,BEL,1,53,Lebbeke,7:24,8.13,M50,m
23056,Francesca,ALVINO,1:58:51,21582,57:30,1:37:48,1:52:18,1:58:51,ITA,1,38,Hemiksem,7:24,8.13,F35,f
30219,Rachid,BISMIR,1:58:51,21583,48:24,1:32:32,1:50:25,1:58:51,MAR,1,25,Antwerpen,7:24,8.13,SEH,m
37877,Karen,TRUYERS,1:58:53,21584,57:30,1:37:40,1:51:50,1:58:53,BEL,1,38,Peer,7:24,8.12,F35,f
30133,Laurine,BAUDRY,1:58:53,21585,55:54,1:36:51,1:51:40,1:58:53,BEL,1,20,Oostrozebeke,7:24,8.12,SEF,f
6349,Xiaojun,XU,1:58:53,21586,54:44,1:33:35,1:50:24,1:58:53,CHN,1,31,Antwerpen,7:24,8.12,SEH,m
15859,Yorben,DE RIDDER,1:58:53,21587,56:19,1:37:19,1:52:18,1:58:53,BEL,1,20,Terhagen,7:24,8.12,SEH,m
34137,Jo,VAN ONSEM,1:58:54,21588,55:49,1:36:24,1:51:36,1:58:54,BEL,1,55,Schilde,7:24,8.12,M55,m
7354,Dorien,BOLS,1:58:54,21589,58:09,1:38:01,1:52:12,1:58:54,BEL,1,37,Hoogstraten,7:24,8.12,F35,f
21233,Eveline,VAN DEN BRANDE,1:58:55,21590,58:21,1:38:43,1:52:21,1:58:55,BEL,1,25,Kallo,7:24,8.12,SEF,f
34574,Tatjana,WALLAYS,1:58:55,21591,58:47,1:39:03,1:52:28,1:58:55,BEL,1,30,Mechelen,7:24,8.12,SEF,f
31439,Putte,ELISE Van De,1:58:56,21592,58:20,1:38:14,1:52:00,1:58:56,BEL,1,25,Itegem,7:24,8.12,SEF,f
33415,Fatma,TASPINAR,1:58:56,21593,58:48,1:39:04,1:52:28,1:58:56,BEL,1,37,Mechelen,7:24,8.12,F35,f
22637,Karin,CAUBERGS,1:58:57,21594,59:48,1:39:20,1:52:34,1:58:57,BEL,1,44,Borgerhout,7:24,8.12,F40,f
22640,Saskia,HEYLEN,1:58:57,21595,59:48,1:39:20,1:52:34,1:58:57,BEL,1,39,Antwerpen,7:24,8.12,F35,f
30912,Sonja,DEFOSSE,1:58:57,21596,57:49,1:37:34,1:51:57,1:58:57,BEL,1,34,Borgerhout,7:24,8.12,SEF,f
30052,Els,ANDRIES,1:58:57,21597,59:37,1:38:45,1:52:05,1:58:57,BEL,1,46,Beveren,7:24,8.12,F45,f
32847,Veerle,PHILIPS,1:58:57,21598,56:48,1:36:51,1:52:09,1:58:57,BEL,1,49,Lommel,7:24,8.12,F45,f
7006,Marijke,VERVAET,1:58:58,21599,59:46,1:39:12,1:52:44,1:58:58,BEL,1,40,Haasdonk,7:24,8.12,F40,f
5741,Roos,BUDTS,1:58:58,21600,59:15,1:37:49,1:52:06,1:58:58,BEL,1,18,Noorderwijk,7:24,8.12,SEF,f
31792,Carine,HELLEMANS,1:58:58,21601,59:10,1:38:46,1:52:18,1:58:58,BEL,1,54,Wilebroek,7:24,8.12,F50,f
30053,Marijke,ANDRIES,1:58:58,21602,59:38,1:38:45,1:52:23,1:58:58,BEL,1,41,Nieuwkerken-Waas,7:24,8.12,F40,f
19619,Sara,VERBERT,1:59:01,21603,56:59,1:37:29,1:51:59,1:59:01,BEL,1,20,Kontich,7:24,8.12,SEF,f
30641,Lien,CORNELISSEN,1:59:02,21604,58:13,1:37:45,1:52:23,1:59:02,BEL,1,28,Schoten,7:24,8.11,SEF,f
33122,Bert,SCHOENMAEKERS,1:59:02,21605,58:12,1:37:45,1:52:23,1:59:02,BEL,1,34,Schoten,7:24,8.11,SEH,m
30456,Simon,CAMPS,1:59:02,21606,54:45,1:35:33,1:51:47,1:59:02,BEL,1,35,Hoegaarden,7:24,8.11,M35,m
37629,Hanne,GORIS,1:59:03,21607,58:43,1:38:28,1:51:52,1:59:03,BEL,1,31,Arendonk,7:24,8.11,SEF,f
5457,Valerie,JANSSENS,1:59:03,21608,55:09,1:33:21,1:50:48,1:59:03,BEL,1,40,Lokeren,7:24,8.11,F40,f
35394,Oumaima,FILALI,1:59:04,21609,54:27,1:37:18,1:51:45,1:59:04,BEL,1,19,,7:24,8.11,SEF,f
18231,Leen,VAN VLIERBERGHE,1:59:04,21610,59:41,1:38:53,1:52:45,1:59:04,BEL,1,41,Mortsel,7:24,8.11,F40,f
20263,Philip,BRUGHMANS,1:59:07,21611,57:14,1:35:45,1:52:34,1:59:07,BEL,1,32,Brussel,7:24,8.11,SEH,m
990,Veerle,VAN ROOSENDAEL,1:59:07,21612,59:43,1:38:56,1:52:47,1:59:07,BEL,1,44,Mortsel,7:25,8.11,F40,f
35971,Ward,GIELIS,1:59:07,21613,54:30,1:38:00,1:53:49,1:59:07,BEL,1,19,,7:25,8.11,SEH,m
34318,Indra,VERBOVEN,1:59:10,21614,58:14,1:39:20,1:53:45,1:59:10,BEL,1,19,Schoten,7:25,8.1,SEF,f
35468,Pleun,JANSEN,1:59:11,21615,56:51,1:37:33,1:52:39,1:59:11,BEL,1,21,,7:25,8.1,SEF,f
35661,Moyra,SOMERS,1:59:12,21616,58:22,1:38:44,1:52:23,1:59:12,BEL,1,20,,7:25,8.1,SEF,f
5874,Isabel,VALEROG,1:59:12,21617,54:00,1:35:27,1:51:44,1:59:12,ESP,1,30,Antwerpen,7:25,8.1,SEF,f
31738,Angelo,HAELMAN,1:59:12,21618,56:09,1:37:22,1:52:31,1:59:12,BEL,1,43,Waarschoot,7:25,8.1,M40,m
6379,Patrick,CNAPELINCKX,1:59:12,21619,58:05,1:38:15,1:52:10,1:59:12,BEL,1,56,Steenhuffel,7:25,8.1,M55,m
34469,Annick,VERSCHRAEVEN,1:59:13,21620,57:04,1:36:07,1:52:12,1:59:13,BEL,1,38,Borgerhout,7:25,8.1,F35,f
30265,Joke,BOIY,1:59:14,21621,57:48,1:37:43,1:52:19,1:59:14,BEL,1,41,Schoten,7:25,8.1,F40,f
33463,Wendy,THYS,1:59:14,21622,57:48,1:37:42,1:52:19,1:59:14,BEL,1,38,Kapellen (Antw.),7:25,8.1,F35,f
5761,Joris,DE BRUYNE,1:59:15,21623,57:25,1:37:47,1:52:07,1:59:15,BEL,1,33,Antwerpen,7:25,8.1,SEH,m
5862,Joanna,SOSNOWSKA,1:59:15,21624,54:00,1:35:30,1:51:47,1:59:15,POL,1,31,Antwerpen,7:25,8.1,SEF,f
5872,Maria,TINOCO,1:59:15,21625,57:24,1:37:47,1:52:09,1:59:15,VEN,1,28,Antwerpen,7:25,8.1,SEF,f
29293,Carl,DE QUINT,1:59:16,21626,59:20,1:36:18,1:52:05,1:59:16,BEL,1,59,Wommelgem,7:25,8.1,M55,m
32434,Sabine,MARTIN,1:59:20,21627,57:50,1:37:42,1:52:04,1:59:20,BEL,1,46,Deurne,7:25,8.09,F45,f
33337,Roger,STEVENS,1:59:22,21628,58:16,1:38:12,1:52:26,1:59:22,BEL,1,65,Mechelen,7:25,8.09,M65,m
6347,Christiaan,WILMS,1:59:23,21629,58:13,1:37:40,1:52:30,1:59:23,BEL,1,25,Geel,7:25,8.09,SEH,m
35944,Kobe,BROECKX,1:59:23,21630,54:02,1:38:13,1:54:01,1:59:23,BEL,1,19,,7:26,8.09,SEH,m
31450,Annelies,ENGELEN,1:59:24,21631,57:39,1:37:42,1:52:35,1:59:24,BEL,1,26,Bornem,7:26,8.09,SEF,f
31157,Sanne,DE RUYSSCHER,1:59:25,21632,55:20,1:35:59,1:52:10,1:59:25,BEL,1,31,Antwerpen,7:26,8.09,SEF,f
32486,Mimi,MEEUS,1:59:25,21633,57:39,1:37:42,1:52:34,1:59:25,BEL,1,25,Aartselaar,7:26,8.09,SEF,f
21771,Kathleen,DEPOORTER,1:59:25,21634,57:09,1:37:46,1:52:13,1:59:25,BEL,1,48,Evergem,7:26,8.09,F45,f
18561,Christopher,ZAAZI,1:59:25,21635,55:11,1:36:18,1:52:25,1:59:25,BEL,1,31,Dworp,7:26,8.09,SEH,m
32410,Lissa,MARIEN,1:59:25,21636,1:00:50,1:39:20,1:52:52,1:59:25,BEL,1,20,Zwijndrecht,7:26,8.09,SEF,f
21773,Els,DESMEDT,1:59:25,21637,57:09,1:37:46,1:52:13,1:59:25,BEL,1,53,Evergem,7:26,8.09,F50,f
1633,Wim,GOOSSENS,1:59:26,21638,58:39,1:38:04,1:52:17,1:59:26,BEL,1,54,Roosdaal,7:26,8.09,M50,m
1634,Hilde,ELPERS,1:59:26,21639,58:40,1:38:04,1:52:17,1:59:26,BEL,1,54,Roosdaal,7:26,8.09,F50,f
30600,Heleen,CONAERTS,1:59:26,21640,58:41,1:37:44,1:52:28,1:59:26,BEL,1,33,Antwerpen,7:26,8.09,SEF,f
33196,Dorien,SIMILON,1:59:26,21641,55:12,1:36:19,1:52:25,1:59:26,BEL,1,31,Lembeek,7:26,8.09,SEF,f
21609,Ronald,RIJNBOUT,1:59:26,21642,56:21,1:37:05,1:52:29,1:59:26,NLD,1,44,Brasschaat,7:26,8.09,M40,m
30601,Margo,CONAERTS,1:59:26,21643,58:42,1:37:44,1:52:27,1:59:26,BEL,1,27,Boom,7:26,8.09,SEF,f
21908,Badria,HAOUARI,1:59:28,21644,57:54,1:37:44,1:52:24,1:59:28,BEL,1,31,Brussel,7:26,8.08,SEF,f
1494,Leo,SCHOUWAERTS,1:59:28,21645,55:42,1:36:47,1:52:23,1:59:28,BEL,1,69,Schoten,7:26,8.08,M65,m
6957,Stephanie,HENNISSEN,1:59:31,21646,59:46,1:39:11,1:52:51,1:59:31,BEL,1,37,Melsele,7:26,8.08,F35,f
37828,Nancy,VAN DEN EYNDE,1:59:34,21647,58:26,1:37:50,1:52:34,1:59:34,BEL,1,47,Vorselaar,7:26,8.08,F45,f
2163,Wim,FABECK,1:59:34,21648,57:42,1:38:37,1:53:25,1:59:34,BEL,1,50,Berlaar,7:26,8.08,M50,m
31802,Kris,HEMMERYCKX,1:59:35,21649,58:23,1:38:21,1:52:34,1:59:35,BEL,1,53,Hoboken,7:26,8.08,M50,m
30454,Sandra,CAMPBELL,1:59:36,21650,58:23,1:38:22,1:52:34,1:59:36,BEL,1,46,Hoboken,7:26,8.08,F45,f
22366,Bram,SPOLSPOEL,1:59:36,21651,59:35,1:39:16,1:53:20,1:59:36,BEL,1,35,Veltem-Beisem,7:26,8.08,M35,m
22365,Laura,SIMONS,1:59:36,21652,59:35,1:39:16,1:52:58,1:59:36,NLD,1,32,Breda,7:26,8.08,SEF,f
7608,Ingrid,VAN KEILEGOM,1:59:37,21653,1:01:30,1:40:37,1:53:56,1:59:37,BEL,1,48,Hoeilaart,7:26,8.07,F45,f
32841,Ravi,PETILLION,1:59:37,21654,55:37,1:37:18,1:51:35,1:59:37,BEL,1,40,Zutendaal,7:26,8.07,M40,m
32326,Marijke,LOZIE,1:59:37,21655,56:37,1:37:19,1:52:10,1:59:37,BEL,1,46,Zutendaal,7:26,8.07,F45,f
32879,Andreas,POECK,1:59:38,21656,58:47,1:38:51,1:52:51,1:59:38,BEL,1,17,Kemzeke (Stekene),7:26,8.07,SEH,m
19573,Bram,VAN WEYENBERGE,1:59:41,21657,55:03,1:36:39,1:51:58,1:59:41,BEL,1,32,Lebbeke,7:27,8.07,SEH,m
34044,Marie,VAN IMPE,1:59:42,21658,59:52,1:39:19,1:52:37,1:59:42,BEL,1,20,Schilde,7:27,8.07,SEF,f
23320,Omer,JACOBS Francis,1:59:42,21659,1:02:15,1:39:40,1:53:04,1:59:42,BEL,1,35,Beveren,7:27,8.07,M35,m
23319,Stefanie,SCHIPPERS,1:59:42,21660,1:02:15,1:39:40,1:53:04,1:59:42,BEL,1,33,Melsele,7:27,8.07,SEF,f
32465,Xuxa,MATTHYS,1:59:43,21661,59:53,1:39:19,1:52:39,1:59:43,BEL,1,19,Berlaar Heikant,7:27,8.07,SEF,f
34470,Anja,VERSCHUERE,1:59:44,21662,57:52,1:37:42,1:52:31,1:59:44,BEL,1,29,Beringen,7:27,8.07,SEF,f
31364,Jing,DING,1:59:45,21663,55:01,1:35:37,1:52:04,1:59:45,CHN,1,44,Brussels,7:27,8.07,F40,f
37919,Eva,VANTONGELEN,1:59:45,21664,56:41,1:36:52,1:52:06,1:59:45,BEL,1,41,Herent,7:27,8.07,F40,f
35073,Elisabeth,GUERRERO,1:59:46,21665,54:17,1:39:02,1:53:06,1:59:46,BEL,1,17,,7:27,8.06,SEF,f
907,Elise,VAN DER PERRE,1:59:46,21666,58:48,1:38:59,1:52:44,1:59:46,BEL,1,18,Antwerpen,7:27,8.06,SEF,f
37101,An,VEREECKEN,1:59:47,21667,57:43,1:38:04,1:52:37,1:59:47,BEL,1,48,Koningshooikt,7:27,8.06,F45,f
31474,Saar,EYERS,1:59:49,21668,1:01:51,1:39:51,1:53:25,1:59:49,BEL,1,23,Tienen,7:27,8.06,SEF,f
19961,Marleen,OOMS,1:59:49,21669,57:24,1:38:19,1:53:13,1:59:49,BEL,1,63,Mol,7:27,8.06,F60,f
31799,Amanda,HELSEN,1:59:50,21670,1:00:09,1:39:46,1:53:07,1:59:50,BEL,1,29,Steendorp,7:27,8.06,SEF,f
6303,Daniel,DEPEÑA,1:59:50,21671,56:07,1:36:52,1:52:35,1:59:50,PHL,1,43,Hoboken,7:27,8.06,M40,m
7434,Caroline,DOSSOGNE,1:59:52,21672,55:08,1:37:29,1:52:35,1:59:52,BEL,1,44,Leuven,7:27,8.06,F40,f
6832,Tina,SEGEBARTH,1:59:52,21673,57:57,1:38:18,1:52:58,1:59:52,BEL,1,39,Brugge,7:27,8.06,F35,f
23466,Rimme,BERTELS,1:59:52,21674,53:37,1:36:04,1:52:36,1:59:52,BEL,1,15,Herentals,7:27,8.06,SEH,m
908,Jan,VAN DER PERRE,1:59:53,21675,58:44,1:39:25,1:52:43,1:59:53,BEL,1,50,Antwerpen,7:27,8.06,M50,m
35022,Helena,JESPERS,1:59:55,21676,57:58,1:38:13,1:53:18,1:59:55,BEL,1,17,,7:27,8.05,SEF,f
17995,Bram,VANHEE,1:59:55,21677,55:55,1:37:14,1:52:40,1:59:55,BEL,1,32,Langemark,7:27,8.05,SEH,m
38798,Johanna,VAN HOOF Annelies,1:59:55,21678,58:14,1:38:09,1:52:46,1:59:55,BEL,1,37,Lier,7:27,8.05,F35,f
32503,Tamara,MENNES,1:59:55,21679,57:32,1:37:56,1:52:58,1:59:55,BEL,1,39,Schoten,7:28,8.05,F35,f
32724,Tippawan,OSTYN,1:59:57,21680,58:30,1:38:31,1:52:37,1:59:57,BEL,1,50,Maldagem,7:28,8.05,F50,f
35552,Valerie,MOOENS,2:00:00,21681,59:38,1:38:23,1:53:05,2:00:00,BEL,1,19,,7:28,8.05,SEF,f
33437,Leen,THIELEMANS,2:00:00,21682,56:44,1:36:49,1:52:22,2:00:00,BEL,1,53,Arendonk,7:28,8.05,F50,f
32292,Brande,LINDSEY Van Den,2:00:00,21683,57:37,1:37:37,1:52:43,2:00:00,BEL,1,33,Lichtaart,7:28,8.05,SEF,f
3516,Brian,MACDOUGALL,2:00:00,21684,59:28,1:38:43,1:52:52,2:00:00,CAN,1,62,Dartmouth,7:28,8.05,M60,m
30508,Mitch,CEULEMANS,2:00:03,21685,56:01,1:36:53,1:52:52,2:00:03,BEL,1,32,Hemiksem,7:28,8.05,SEH,m
31060,Sandy,DE MEYER,2:00:03,21686,59:41,1:39:08,1:53:07,2:00:03,BEL,1,34,Deurne,7:28,8.04,SEF,f
36511,Carine,VAN HEES,2:00:04,21687,57:24,1:38:00,1:52:35,2:00:04,BEL,1,52,Brasschaat,7:28,8.04,F50,f
30701,Ben,DAELEMANS,2:00:05,21688,57:31,1:38:17,1:53:42,2:00:05,BEL,1,27,Bevel,7:28,8.04,SEH,m
30704,Patrik,DAELEMANS,2:00:05,21689,57:31,1:38:17,1:53:42,2:00:05,BEL,1,52,Herenthout,7:28,8.04,M50,m
622,Nancy,METTEPENNINGEN,2:00:06,21690,57:09,1:37:58,1:53:32,2:00:06,BEL,1,51,Bornem,7:28,8.04,F50,f
22510,Rob,DE LUYCK,2:00:06,21691,58:27,1:39:10,1:53:11,2:00:06,BEL,1,44,Bornem,7:28,8.04,M40,m
22487,Els,CALLENS,2:00:07,21692,58:27,1:39:11,1:53:12,2:00:07,BEL,1,49,Bornem,7:28,8.04,F45,f
37467,Peter,HEERWEGH,2:00:07,21693,58:27,1:39:11,1:53:11,2:00:07,BEL,1,50,Bornem,7:28,8.04,M50,m
931,Kurt,VAN DRIESSCHE,2:00:07,21694,57:12,1:37:40,1:52:25,2:00:07,BEL,1,38,Nieuwkerken-Waas,7:28,8.04,M35,m
37510,Stijn,CARDINAELS,2:00:08,21695,56:23,1:37:06,1:52:44,2:00:08,BEL,1,37,Bocholt,7:28,8.04,M35,m
32806,Larissa,PEETERS,2:00:08,21696,57:46,1:37:55,1:52:35,2:00:08,BEL,1,26,Retie,7:28,8.04,SEF,f
44600,Herman,PEETERS,2:00:09,21697,55:54,1:37:18,1:52:55,2:00:09,BEL,1,68,Borsbeek,7:28,8.04,M65,m
34112,Stephanie,VANMOL,2:00:09,21698,58:28,1:38:02,1:53:16,2:00:09,BEL,1,37,Ronse,7:28,8.04,F35,f
34935,Abir,BELHADJ,2:00:11,21699,59:25,1:39:52,1:53:18,2:00:11,BEL,1,16,,7:28,8.04,SEF,f
22484,Koen,BREBELS,2:00:11,21700,58:31,1:39:14,1:53:15,2:00:11,BEL,1,50,Bornem,7:28,8.04,M50,m
30358,Andy,BRANDERS,2:00:11,21701,58:26,1:38:39,1:53:44,2:00:11,BEL,1,48,Borsbeek,7:29,8.04,M45,m
8254,Maxime,VAN GESTEL,2:00:12,21702,57:04,1:38:07,1:52:54,2:00:12,BEL,1,25,Oelegm,7:29,8.04,SEF,f
22534,Sophie,NAGELS,2:00:12,21703,58:31,1:39:15,1:52:56,2:00:12,BEL,1,36,Bornem,7:29,8.04,F35,f
38728,Zsolt,BEKE,2:00:12,21704,56:57,1:36:45,1:52:22,2:00:12,BEL,1,39,Boortmeerbeek,7:29,8.03,M35,m
7579,Jorden,VAN BOGAERT,2:00:13,21705,55:35,1:36:15,1:53:06,2:00:13,BEL,1,22,Brasschaat,7:29,8.03,SEH,m
34808,Manea,EUGEN,2:00:13,21706,56:57,1:36:45,1:52:22,2:00:13,ROU,1,40,Antwerp,7:29,8.03,M40,m
23087,Valerie,BRYS,2:00:13,21707,55:55,1:37:30,1:53:09,2:00:13,BEL,1,26,Berchem,7:29,8.03,SEF,f
22553,Bjorn,VANDEWEGE,2:00:13,21708,58:34,1:39:16,1:53:17,2:00:13,BEL,1,47,Bornem,7:29,8.03,M45,m
44574,Frerik,MATHYSSEN,2:00:13,21709,58:49,1:38:52,1:53:03,2:00:13,BEL,1,30,Merksem,7:29,8.03,SEH,m
38649,Elodie,DEWAELE,2:00:14,21710,54:56,1:36:32,1:52:06,2:00:14,BEL,1,30,Bredene,7:29,8.03,SEF,f
33251,Sandra,SMITS,2:00:14,21711,59:45,1:39:58,1:53:27,2:00:14,BEL,1,42,Herenthout,7:29,8.03,F40,f
7442,Sonja,EVENS,2:00:14,21712,59:48,1:39:12,1:53:52,2:00:14,BEL,1,46,Hechtel,7:29,8.03,F45,f
33650,Sara,VANDEBORNE,2:00:16,21713,1:00:24,1:39:50,1:53:50,2:00:16,BEL,1,36,Tienen,7:29,8.03,F35,f
34694,Julie,WOUTERS,2:00:16,21714,59:27,1:39:18,1:53:34,2:00:16,BEL,1,37,Olen,7:29,8.03,F35,f
44273,Frans,MATHIJSSEN,2:00:17,21715,58:49,1:38:51,1:53:03,2:00:17,BEL,1,61,Deurne,7:29,8.03,M60,m
32232,Corinne,LECLUYSE,2:00:17,21716,57:07,1:37:16,1:52:47,2:00:17,NLD,1,42,Ijzendijke,7:29,8.03,F40,f
33656,Koen,VAN DE GAER,2:00:17,21717,58:09,1:38:22,1:53:19,2:00:17,BEL,1,29,Wezemaal,7:29,8.03,SEH,m
44567,Annelies,MOLS,2:00:17,21718,58:16,1:39:01,1:53:37,2:00:17,BEL,1,33,Borgerhout,7:29,8.03,SEF,f
33749,Mieke,VANDEN POEL,2:00:18,21719,58:09,1:38:22,1:53:19,2:00:18,BEL,1,31,Heusden-Zolder,7:29,8.03,SEF,f
1791,Robin,DEYCK,2:00:18,21720,58:12,1:39:24,1:54:01,2:00:18,BEL,1,35,Hallaar,7:29,8.03,M35,m
30027,Isabel,AERTS,2:00:19,21721,57:56,1:38:46,1:53:11,2:00:19,BEL,1,42,Westerlo,7:29,8.03,F40,f
30680,Annick,CROONENBORGHS,2:00:19,21722,57:56,1:38:46,1:53:11,2:00:19,BEL,1,44,Westerlo,7:29,8.03,F40,f
7014,Godelieve,ADRIAENSEN,2:00:20,21723,56:11,1:35:49,1:51:49,2:00:20,BEL,1,60,Malle,7:29,8.03,F60,f
34251,Lotte,VANTONGERLOO,2:00:20,21724,57:18,1:38:15,1:53:04,2:00:20,BEL,1,23,Brasschaat,7:29,8.03,SEF,f
32088,Katty,KERKHOFS,2:00:20,21725,58:51,1:39:05,1:53:14,2:00:20,BEL,1,50,Izegem,7:29,8.03,F50,f
38029,Melissa,VANTONGERLOO,2:00:20,21726,57:18,1:38:16,1:53:04,2:00:20,BEL,1,23,Brasschaat,7:29,8.03,SEF,f
37801,Kenny,CAILLIAU,2:00:20,21727,57:45,1:39:02,1:53:36,2:00:20,BEL,1,31,Borsbeek,7:29,8.03,SEH,m
36406,Vicky,CAILLIAU,2:00:20,21728,57:46,1:39:02,1:53:34,2:00:20,BEL,1,34,Vremde,7:29,8.03,SEF,f
32463,Kim,MATTHYSSEN,2:00:21,21729,57:24,1:39:16,1:53:42,2:00:21,BEL,1,33,Deurne,7:29,8.03,SEF,f
30436,Roger,CAILLIAU,2:00:21,21730,57:48,1:39:02,1:53:34,2:00:21,BEL,1,60,Boechout,7:29,8.03,M60,m
7614,Eliene,VANMONTFORT,2:00:21,21731,1:00:14,1:39:50,1:54:00,2:00:21,BEL,1,29,Zoersel,7:29,8.02,SEF,f
21886,Michelle,NEYS,2:00:21,21732,56:10,1:37:51,1:53:29,2:00:21,BEL,1,23,Hoboken,7:29,8.02,SEF,f
38709,Cindy,COP,2:00:21,21733,57:20,1:39:24,1:53:30,2:00:21,BEL,1,38,Edegem,7:29,8.02,F35,f
22101,Ralf,KRAFT,2:00:22,21734,1:00:22,1:40:23,1:54:05,2:00:22,DEU,1,47,Gladbeck,7:29,8.02,M45,m
33777,Gertjan,VANDERBRUGGE,2:00:22,21735,1:00:43,1:39:44,1:53:45,2:00:22,NLD,1,66,Philippine,7:29,8.02,M65,m
34520,Cynthia,VINK,2:00:22,21736,54:15,1:37:34,1:52:46,2:00:22,NLD,1,47,Leusden,7:29,8.02,F45,f
17780,Eline,VANDEN DAELE,2:00:22,21737,59:42,1:38:59,1:53:31,2:00:22,BEL,1,42,Berchem,7:29,8.02,F40,f
35911,Yana,PEETERS,2:00:22,21738,57:15,1:38:00,1:53:39,2:00:22,BEL,1,18,,7:29,8.02,SEF,f
32361,Jeliese,MAES,2:00:23,21739,56:01,1:37:04,1:52:46,2:00:23,BEL,1,30,Wilrijk,7:29,8.02,SEF,f
35912,Larissa,RAES,2:00:23,21740,57:15,1:38:00,1:53:40,2:00:23,BEL,1,17,,7:29,8.02,SEF,f
580,Liesbeth,LUTS,2:00:25,21741,59:45,1:39:02,1:53:35,2:00:25,BEL,1,39,Mortsel,7:29,8.02,F35,f
37971,Jurgen,MASSCHELEIN,2:00:26,21742,1:00:35,1:42:27,1:54:41,2:00:26,DEU,1,42,Ekeren,7:29,8.02,M40,m
6933,Sloovere,BIEKE De,2:00:26,21743,59:09,1:39:02,1:53:46,2:00:26,BEL,1,24,Putte,7:29,8.02,SEF,f
21775,Cindy,DHAENENS,2:00:27,21744,58:47,1:39:11,1:53:47,2:00:27,BEL,1,43,Putte,7:29,8.02,F40,f
3675,Stéphanie,OUACHAN,2:00:27,21745,57:53,1:37:01,1:53:07,2:00:27,BEL,1,31,Antwerpen,7:29,8.02,SEF,f
218,Chloé,CROLS,2:00:31,21746,56:23,1:38:03,1:53:07,2:00:31,BEL,1,21,Kalmthout,7:30,8.01,SEF,f
19804,Angelique,HAESENDONCKX,2:00:32,21747,57:25,1:39:17,1:53:19,2:00:32,BEL,1,38,Stekene,7:30,8.01,F35,f
19808,Caroline,VERMEIR,2:00:32,21748,57:27,1:39:17,1:53:20,2:00:32,BEL,1,36,Bornem,7:30,8.01,F35,f
36809,Paul,LEMMENS,2:00:33,21749,58:11,1:38:54,1:53:20,2:00:33,BEL,1,72,Kallo,7:30,8.01,M70,m
31352,Michael,DIERCKX,2:00:34,21750,1:03:42,1:35:27,1:52:06,2:00:34,BEL,1,24,Sint-Lenaarts,7:30,8.01,SEH,m
17209,Matti,QUAEDVLIEG,2:00:35,21751,58:52,1:39:36,1:53:54,2:00:35,NLD,1,76,Lint,7:30,8.01,M75,m
34681,Peggy,WOLFAERT,2:00:38,21752,54:29,1:34:11,1:51:17,2:00:38,BEL,1,35,Zelzate,7:30,8.01,F35,f
20658,Peter,BEVERS,2:00:38,21753,58:24,1:39:10,1:54:18,2:00:38,BEL,1,41,Heindonk,7:30,8.01,M40,m
33863,Kim,VAN DE VLIET,2:00:39,21754,57:36,1:38:19,1:53:09,2:00:39,BEL,1,32,Oud-Turnhout,7:30,8.01,SEF,f
32717,Sandra,OPDEKAMP,2:00:39,21755,57:37,1:38:19,1:53:10,2:00:39,BEL,1,37,Ramsel,7:30,8.01,F35,f
31829,Helena,HERMANS,2:00:39,21756,1:01:09,1:41:25,1:54:41,2:00:39,BEL,1,22,Lint,7:30,8.01,SEF,f
32740,Lise,PAPPAERT,2:00:40,21757,58:59,1:39:35,1:53:50,2:00:40,BEL,1,28,Meerbeke,7:30,8.0,SEF,f
32351,Livine,MAERSCHALCK,2:00:40,21758,58:59,1:39:35,1:53:50,2:00:40,BEL,1,28,Merendree,7:30,8.0,SEF,f
34117,Ilse,VAN NEDERKASSEL,2:00:40,21759,54:30,1:34:12,1:51:19,2:00:40,BEL,1,39,Wachtebeke,7:30,8.0,F35,f
37512,Dario,COLLIER,2:00:40,21760,55:16,1:36:45,1:53:45,2:00:40,BEL,1,23,Hoboken,7:30,8.0,SEH,m
18773,Mohamed,BAHADDOU,2:00:40,21761,57:37,1:38:06,1:53:34,2:00:40,BEL,1,50,Antwerpen,7:30,8.0,M50,m
36141,Anja,DE ROECK,2:00:41,21762,58:17,1:38:58,1:53:30,2:00:41,BEL,1,48,,7:30,8.0,F45,f
30639,Anke,CORNELISSEN,2:00:41,21763,58:38,1:38:58,1:53:10,2:00:41,BEL,1,49,Turnhout,7:30,8.0,F45,f
36019,Melissa,VAN DONINCK,2:00:41,21764,58:12,1:38:13,1:53:11,2:00:41,BEL,1,19,,7:30,8.0,SEF,f
33639,Bart,VAN DAMME,2:00:42,21765,58:38,1:38:58,1:53:17,2:00:42,BEL,1,57,Turnhout,7:30,8.0,M55,m
33183,Mary-Anne,SEWELL,2:00:42,21766,59:09,1:39:33,1:53:40,2:00:42,NLD,1,43,Middelharnis,7:30,8.0,F40,f
20372,Peter,EMPSTEN,2:00:43,21767,55:12,1:36:57,1:53:12,2:00:43,BEL,1,36,Zandhoven,7:30,8.0,M35,m
35668,Julie,STOOP,2:00:44,21768,59:02,1:38:44,1:53:19,2:00:44,BEL,1,23,,7:31,8.0,SEF,f
6408,Caroline,DE WIT,2:00:46,21769,56:41,1:37:53,1:53:34,2:00:46,BEL,1,39,Merchtem,7:31,8.0,F35,f
35814,Cathy,VERHULST,2:00:47,21770,57:33,1:37:32,1:53:02,2:00:47,BEL,1,26,,7:31,8.0,SEF,f
34577,Mireille,WALRY,2:00:47,21771,59:03,1:39:34,1:53:33,2:00:47,BEL,1,46,Westmalle,7:31,8.0,F45,f
30367,Katleen,BREUGELMANS,2:00:48,21772,59:03,1:39:34,1:53:33,2:00:48,BEL,1,45,Westmalle,7:31,8.0,F45,f
17930,Suzanne,VAN ENGELEN,2:00:49,21773,59:09,1:38:57,1:53:45,2:00:49,NLD,1,24,Kruibeke,7:31,7.99,SEF,f
22282,Nicolas,THOREAU,2:00:50,21774,51:23,1:33:44,1:51:59,2:00:50,BEL,1,44,Zaventem,7:31,7.99,M40,m
31225,Carolien,DE SUTTER,2:00:50,21775,59:14,1:39:21,1:53:39,2:00:50,BEL,1,37,Heusden,7:31,7.99,F35,f
23542,Cristel,DE KESEL,2:00:51,21776,59:51,1:39:20,1:54:04,2:00:51,NLD,1,52,De Klinge,7:31,7.99,F50,f
5041,Tim,MOENS,2:00:51,21777,1:00:33,1:41:16,1:54:54,2:00:51,BEL,1,24,Gent,7:31,7.99,SEH,m
4364,Cedric,VERHEIRE,2:00:54,21778,58:16,1:37:46,1:53:33,2:00:54,BEL,1,31,Maldegem,7:31,7.99,SEH,m
31735,Celine,HAEGEMAN,2:00:54,21779,58:17,1:37:47,1:53:35,2:00:54,BEL,1,37,Aalter,7:31,7.99,F35,f
34523,Cedric,VISSERS,2:00:55,21780,55:19,1:36:54,1:53:22,2:00:55,BEL,1,22,Beveren,7:31,7.99,SEH,m
33146,Monique,SCHUCHART,2:00:55,21781,57:45,1:39:01,1:54:12,2:00:55,NLD,1,54,Almelo,7:31,7.99,F50,f
6311,Jesus,JACINTO,2:00:56,21782,55:30,1:36:53,1:52:37,2:00:56,BEL,1,43,Wilrijk,7:31,7.99,M40,m
22028,Firdaouss,AMEZIAN,2:00:56,21783,56:22,1:38:45,1:53:36,2:00:56,BEL,1,24,Antwerpen,7:31,7.99,SEF,f
18814,Pieter,VAN GEEL,2:00:59,21784,58:43,1:38:16,1:52:37,2:00:59,BEL,1,29,Bornem,7:31,7.98,SEH,m
32288,Ginger,LIMA,2:01:00,21785,59:07,1:40:55,1:54:37,2:01:00,NLD,1,26,Rotterdam,7:32,7.98,SEF,f
23094,Marcel,CORVILAIN,2:01:00,21786,59:17,1:38:52,1:53:25,2:01:00,BEL,1,62,Alken,7:32,7.98,M60,m
33517,Gwenn,TROUKENS,2:01:02,21787,58:03,1:39:13,1:53:55,2:01:02,BEL,1,39,Hemiksem,7:32,7.98,F35,f
35707,Wout,VAN DE HEYNING,2:01:03,21788,55:23,1:36:52,1:53:32,2:01:03,BEL,1,19,,7:32,7.98,SEH,m
35727,Chloé,VAN DER AUWERA,2:01:03,21789,1:00:12,1:41:44,1:55:05,2:01:03,BEL,1,21,,7:32,7.98,SEF,f
37846,Eva,GIELEN,2:01:04,21790,58:03,1:39:13,1:53:55,2:01:04,BEL,1,34,Antwerpen,7:32,7.98,SEF,f
20593,Christophe,CLAES,2:01:05,21791,1:00:48,1:39:22,1:55:26,2:01:05,BEL,1,39,Liedekerke,7:32,7.98,M35,m
19729,Madieke,D'HAENE,2:01:05,21792,1:00:31,1:40:40,1:54:25,2:01:05,BEL,1,28,Bissegem,7:32,7.98,SEH,m
19738,Flore,HOUTHOOFD,2:01:06,21793,1:00:32,1:40:41,1:54:27,2:01:06,BEL,1,28,Ingelmunster,7:32,7.98,SEF,f
33436,Galina,THIELEMANS,2:01:06,21794,55:55,1:38:27,1:54:05,2:01:06,BEL,1,31,Peutie,7:32,7.98,SEF,f
20606,Mariangela,DI VITTORIO,2:01:06,21795,57:28,1:39:32,1:54:08,2:01:06,ITA,1,34,Schaerbeek,7:32,7.98,SEF,f
34593,Emily,WAUTERS,2:01:06,21796,55:56,1:38:28,1:54:06,2:01:06,BEL,1,35,Strombeek,7:32,7.98,F35,f
34309,Nicky,VERBERCKMOES,2:01:06,21797,58:27,1:39:43,1:54:16,2:01:06,BEL,1,34,Wilrijk,7:32,7.98,SEF,f
20772,Stefan,MERTENS,2:01:07,21798,1:02:09,1:43:26,1:55:37,2:01:07,BEL,1,48,Wilrijk,7:32,7.97,M45,m
5010,Victorine,CLEMENT,2:01:08,21799,1:00:34,1:41:17,1:54:54,2:01:08,BEL,1,24,Zwijnaarde,7:32,7.97,SEF,f
33598,Nancy,VAN BUGGENHOUT NANCY,2:01:08,21800,1:02:09,1:43:26,1:55:37,2:01:08,BEL,1,50,Grobbendonk,7:32,7.97,F50,f
31113,Olivier,DE POOTER,2:01:10,21801,56:16,1:39:21,1:54:17,2:01:10,BEL,1,24,Antwerpen,7:32,7.97,SEH,m
31343,Arts,DIAZ,2:01:11,21802,56:17,1:39:23,1:54:20,2:01:11,BEL,1,25,Wommelgem,7:32,7.97,SEH,m
1227,Bruno,STRUYVEN,2:01:12,21803,57:49,1:38:55,1:53:44,2:01:12,BEL,1,55,Berg,7:32,7.97,M55,m
23375,Fatchima,ILLO-IBRAHIM,2:01:13,21804,58:30,1:40:03,1:54:16,2:01:13,BEL,1,49,Halle,7:32,7.97,F45,f
38732,Stefan,BREBELS,2:01:13,21805,57:44,1:39:03,1:53:42,2:01:13,BEL,1,50,Zandhoven,7:32,7.97,M50,m
34521,Chloé,VINTEVOGEL,2:01:14,21806,58:59,1:40:07,1:54:44,2:01:14,BEL,1,22,Bissegem,7:32,7.97,SEF,f
5033,Ranjith,LOGANATHAN,2:01:14,21807,57:57,1:37:31,1:52:48,2:01:14,IND,1,27,Antwerpen,7:32,7.97,SEH,m
21665,An-Katrien,DE POOTER,2:01:14,21808,56:40,1:37:27,1:53:38,2:01:14,BEL,1,27,Merksem,7:32,7.97,SEF,f
37787,Laure,VAN BELLE,2:01:18,21809,59:15,1:39:46,1:54:04,2:01:18,BEL,1,25,Gooik,7:33,7.96,SEF,f
30134,Nicole,BAUMANN,2:01:19,21810,1:02:36,1:41:39,1:54:57,2:01:19,USA,1,23,Heverlee,7:33,7.96,SEF,f
22856,Christophe,0474524535,2:01:20,21811,57:04,1:38:37,1:54:11,2:01:20,BEL,1,33,Antwerpen,7:33,7.96,SEH,m
31550,Sandra,GALLEMAERT,2:01:21,21812,1:00:26,1:39:56,1:54:40,2:01:21,BEL,1,51,Wilrijk,7:33,7.96,F50,f
30899,Claire,DE DEKEN,2:01:22,21813,58:38,1:39:36,1:54:23,2:01:22,BEL,1,46,Willebroek,7:33,7.96,F45,f
5606,Mary,NYE NGUMO,2:01:22,21814,58:44,1:40:32,1:54:42,2:01:22,BEL,1,35,Kruibeke,7:33,7.96,F35,f
19896,Brahim,BOUREHTIT,2:01:22,21815,1:01:32,1:44:29,1:56:46,2:01:22,NLD,1,54,Essen,7:33,7.96,M50,m
33612,Ann,VAN CAUTER,2:01:23,21816,58:43,1:39:25,1:55:04,2:01:23,BEL,1,47,Sint-Niklaas,7:33,7.96,F45,f
31538,Cathy,FREITAG,2:01:23,21817,58:32,1:39:12,1:54:21,2:01:23,BEL,1,32,Temse,7:33,7.96,SEF,f
32087,Phillip,KERCKX,2:01:23,21818,1:14:49,1:45:22,1:56:05,2:01:23,BEL,1,49,Londerzeel,7:33,7.96,M45,m
20379,Christel,VAN DE VELDE,2:01:24,21819,58:54,1:39:39,1:54:00,2:01:24,BEL,1,53,Berchem,7:33,7.96,F50,f
6414,Flore,ESSELENS,2:01:24,21820,59:03,1:39:32,1:54:50,2:01:24,BEL,1,16,Mollem,7:33,7.96,SEF,f
19019,Mourad,AZARKAN,2:01:25,21821,57:31,1:38:50,1:54:16,2:01:25,BEL,1,26,Merelbeke,7:33,7.95,SEH,m
19528,Frank,DE PROFT,2:01:27,21822,58:02,1:38:42,1:54:07,2:01:27,BEL,1,50,Kapelle-Op-Den-Bos,7:33,7.95,M50,m
36082,Inge,STEURBAUT,2:01:30,21823,57:50,1:39:24,1:53:50,2:01:30,BEL,1,52,,7:33,7.95,F50,f
6674,Maxime,LAGRILLIÈRE,2:01:31,21824,1:02:13,1:41:57,1:54:53,2:01:31,BEL,1,28,Lier,7:33,7.95,SEF,f
34582,Marie,WARLOP,2:01:32,21825,1:00:11,1:41:44,1:55:06,2:01:32,BEL,1,21,Boortmeerbeek,7:34,7.95,SEF,f
35745,Sofie,VAN DROM,2:01:32,21826,58:12,1:39:21,1:55:01,2:01:32,BEL,1,21,,7:34,7.95,SEF,f
6623,Nicole,RECOURDON,2:01:33,21827,57:26,1:38:52,1:55:08,2:01:33,BEL,1,55,Kapellen,7:34,7.95,F55,f
16623,Frédérique,LAGRILLIERE,2:01:33,21828,1:02:12,1:41:57,1:54:53,2:01:33,BEL,1,27,Nijlen,7:34,7.95,SEF,f
37490,Kimberley,VAN BERGEN,2:01:35,21829,57:15,1:38:52,1:54:02,2:01:35,BEL,1,28,Antwerpen,7:34,7.94,SEF,f
19910,Peter,SMET,2:01:35,21830,1:01:34,1:44:35,1:56:49,2:01:35,BEL,1,45,Kalmthout,7:34,7.94,M45,m
30995,Kathleen,DE LANGE,2:01:36,21831,59:16,1:40:05,1:54:34,2:01:36,BEL,1,22,Keerbergen,7:34,7.94,SEF,f
36092,Indchy,VANGAUWEN,2:01:39,21832,54:32,1:37:46,1:54:27,2:01:39,BEL,1,18,,7:34,7.94,SEF,f
31555,Danny,GAUTHIER,2:01:39,21833,1:00:08,1:38:52,1:53:39,2:01:39,BEL,1,45,België,7:34,7.94,M45,m
19746,Annelies,MATTEN,2:01:40,21834,57:02,1:40:06,1:55:02,2:01:40,BEL,1,26,Poelkapelle,7:34,7.94,SEF,f
36079,Dien,QUIRIJNEN,2:01:40,21835,57:27,1:37:34,1:53:51,2:01:40,BEL,1,19,,7:34,7.94,SEF,f
2035,Brenda,BLOMMAERT,2:01:41,21836,1:00:32,1:40:40,1:55:04,2:01:41,BEL,1,45,Denderleeuw,7:34,7.94,F45,f
32911,Sarah,PRAET,2:01:42,21837,57:26,1:40:33,1:55:16,2:01:42,BEL,1,29,Gent,7:34,7.94,SEF,f
30865,Murielle,DE COCK,2:01:42,21838,59:49,1:39:58,1:54:41,2:01:42,BEL,1,20,Westerlo,7:34,7.94,SEF,f
35027,Lara,VAN DE WAL,2:01:43,21839,57:55,1:39:10,1:54:43,2:01:43,BEL,1,17,,7:34,7.94,SEF,f
23437,Pokharel,ARPAN,2:01:44,21840,58:25,1:39:59,1:54:43,2:01:44,NPL,1,27,Amsterdam,7:34,7.93,SEH,m
30679,Helene,CROOM,2:01:44,21841,59:36,1:40:01,1:54:22,2:01:44,BEL,1,24,Beerse,7:34,7.93,SEF,f
44396,Evi,CORNELIS,2:01:45,21842,59:22,1:39:57,1:54:42,2:01:45,BEL,1,33,Aartselaar,7:34,7.93,SEF,f
17079,Laurent,OU,2:01:45,21843,52:33,1:33:41,1:53:46,2:01:45,BEL,1,26,Merksem,7:34,7.93,SEH,m
33450,Gilbert,THOMAES,2:01:45,21844,1:00:38,1:40:54,1:54:55,2:01:45,BEL,1,73,Beveren -Waas,7:34,7.93,M70,m
30474,Lauri,CARPENTIER,2:01:45,21845,59:36,1:40:01,1:54:21,2:01:45,BEL,1,24,Beerse,7:34,7.93,SEF,f
35947,Njusja,CENENS,2:01:45,21846,57:05,1:38:54,1:54:30,2:01:45,BEL,1,23,,7:34,7.93,SEF,f
32009,Martha,JANSSENS,2:01:46,21847,1:02:16,1:42:32,1:55:48,2:01:46,BEL,1,24,Hove,7:34,7.93,SEF,f
34411,Ines,VERHOEVEN,2:01:48,21848,1:01:51,1:41:21,1:55:00,2:01:48,BEL,1,27,Wilrijk,7:34,7.93,SEF,f
32516,Jade,MERTENS,2:01:48,21849,1:01:52,1:41:22,1:55:02,2:01:48,BEL,1,26,Wilrijk,7:35,7.93,SEF,f
36015,Yoni,VANDERHAEGEN,2:01:49,21850,58:25,1:40:31,1:54:30,2:01:49,BEL,1,20,,7:35,7.93,SEF,f
34104,Eva,VANMARCKE,2:01:50,21851,58:10,1:39:20,1:54:57,2:01:50,BEL,1,29,Oekene,7:35,7.93,SEF,f
33768,Francis,VAN DER BEKEN,2:01:50,21852,58:07,1:37:48,1:53:46,2:01:50,BEL,1,52,Melle,7:35,7.93,M50,m
33088,Sharona,SCHALLENBERGH,2:01:51,21853,1:01:40,1:41:36,1:55:15,2:01:51,BEL,1,26,Koningshooikt,7:35,7.93,SEF,f
44283,David,SLOOTMAEKERS,2:01:52,21854,56:02,1:38:43,1:54:50,2:01:52,BEL,1,0,Emblem,7:35,7.92,-,m
30298,Jolien,BOSMANS,2:01:52,21855,59:58,1:40:05,1:54:42,2:01:52,BEL,1,29,Borgerhout,7:35,7.92,SEF,f
19182,Paulien,VISKENS,2:01:53,21856,1:01:42,1:41:38,1:54:56,2:01:53,BEL,1,29,Laakdal,7:35,7.92,SEF,f
44497,Nancy,BAUWENS,2:01:54,21857,57:57,1:39:49,1:54:53,2:01:54,BEL,1,18,Ekeren,7:35,7.92,SEF,f
20074,Stoffel,DE VIDTS,2:01:55,21858,55:28,1:38:15,1:55:12,2:01:55,BEL,1,39,Berchem,7:35,7.92,M35,m
20088,Debbie,STOELS,2:01:55,21859,58:31,1:39:32,1:54:38,2:01:55,BEL,1,31,Berchem,7:35,7.92,SEF,f
38089,Bodi,PIJUK,2:01:57,21860,59:57,1:39:48,1:55:11,2:01:57,BEL,1,26,Antwerpen,7:35,7.92,SEH,m
21439,Dirk,AERTS,2:01:57,21861,56:27,1:39:25,1:54:53,2:01:57,BEL,1,40,Edegem,7:35,7.92,M40,m
44621,Saar,VAN POTTELBERGHE,2:02:00,21862,59:59,1:40:17,1:54:51,2:02:00,BEL,1,18,Belg Antwerpen,7:35,7.92,SEF,f
22616,Nele,DE VLEESCHOUWER,2:02:00,21863,1:02:25,1:41:25,1:55:20,2:02:00,BEL,1,37,Antwerpen,7:35,7.92,F35,f
32967,Pascal,RENQUIN,2:02:00,21864,57:21,1:37:34,1:53:50,2:02:00,BEL,1,46,Sint-Truiden,7:35,7.92,M45,m
2801,Victor,CIMPEAN,2:02:02,21865,57:53,1:37:00,1:53:07,2:02:02,BEL,1,33,Antwerpen,7:35,7.91,SEH,m
33021,Veronique,ROMAN,2:02:02,21866,58:33,1:40:28,1:54:48,2:02:02,BEL,1,41,Berendrecht,7:35,7.91,F40,f
34938,Julie,HULSTAERT,2:02:03,21867,59:28,1:41:32,1:55:11,2:02:03,BEL,1,28,,7:35,7.91,SEF,f
36146,Catherine,TAHON,2:02:05,21868,59:21,1:39:33,1:55:12,2:02:05,BEL,1,17,,7:36,7.91,SEF,f
14368,Bruno,STORME,2:02:07,21869,55:32,1:37:19,1:53:49,2:02:07,BEL,1,54,Grimbergen,7:36,7.91,M50,m
21690,Ellen,DE GRAVE,2:02:08,21870,56:51,1:39:15,1:55:15,2:02:08,BEL,1,38,Lievegem,7:36,7.91,F35,f
37482,Cis,VERHOEVEN,2:02:09,21871,56:31,1:38:26,1:56:20,2:02:09,BEL,1,23,Kontich,7:36,7.91,SEH,m
16416,Liesbeth,HOOYBERGHS,2:02:09,21872,56:14,1:38:26,1:53:52,2:02:09,BEL,1,46,Mol,7:36,7.91,F45,f
30628,Isabelle,COPPENS,2:02:10,21873,1:02:01,1:41:29,1:55:55,2:02:10,BEL,1,36,Zoersel,7:36,7.91,F35,f
31965,Inge,JACOBS,2:02:11,21874,58:51,1:40:05,1:54:51,2:02:11,BEL,1,35,Kalmthout,7:36,7.91,F35,f
16791,Dorien,MAES,2:02:11,21875,59:21,1:38:58,1:54:50,2:02:11,BEL,1,36,Dessel,7:36,7.9,F35,f
32098,Lode,KETELE,2:02:11,21876,1:02:02,1:41:30,1:56:04,2:02:11,BEL,1,56,Zoersel,7:36,7.9,M55,m
15569,Inge,DEBACKER,2:02:12,21877,59:20,1:38:58,1:54:50,2:02:12,BEL,1,36,Dessel,7:36,7.9,F35,f
16024,Ariane,DILLEN,2:02:12,21878,56:15,1:38:26,1:53:53,2:02:12,BEL,1,49,Mol,7:36,7.9,F45,f
15595,Anja,DE BOCK,2:02:12,21879,0,1:47:02,0,2:02:12,BEL,1,50,Wetteren,7:36,7.9,F50,f
37121,Kathy,DECLERCQ,2:02:12,21880,55:33,1:37:20,1:53:50,2:02:12,BEL,1,52,Brasschaat,7:36,7.9,F50,f
18803,Kelly,MERTENS,2:02:13,21881,58:42,1:39:27,1:55:20,2:02:13,BEL,1,26,Kapellen,7:36,7.9,SEF,f
34226,Ilse,VAN STEELANT,2:02:15,21882,58:16,1:39:55,1:55:04,2:02:15,BEL,1,47,Sint-Niklaas,7:36,7.9,F45,f
2747,Mies,BUELENS,2:02:15,21883,59:20,1:40:55,1:56:00,2:02:15,BEL,1,38,Keerbergen,7:36,7.9,F35,f
35430,Susmita,GURUNG,2:02:16,21884,59:48,1:40:29,1:55:00,2:02:16,BEL,1,22,,7:36,7.9,SEF,f
7923,Sarah,VAN HOVE,2:02:17,21885,1:02:00,1:41:07,1:55:20,2:02:17,AFG,1,40,Korbeek-Dijle,7:36,7.9,F40,f
5799,Niamh,IRWIN,2:02:17,21886,59:23,1:40:21,1:55:06,2:02:17,IRL,1,31,Antwerpen,7:36,7.9,SEF,f
36820,Annelies,VAN DER WEE,2:02:17,21887,57:29,1:40:05,1:54:42,2:02:17,BEL,1,0,Wilrijk,7:36,7.9,-,f
20607,Wendy,HEYLEN,2:02:18,21888,57:44,1:39:48,1:54:58,2:02:18,BEL,1,44,Oud-Turnhout,7:36,7.9,F40,f
34288,Natasja,VAN ZON-JACOBS,2:02:18,21889,59:43,1:40:29,1:55:02,2:02:18,NLD,1,41,Achtmaal,7:36,7.9,F40,f
7540,Johanna,QI,2:02:18,21890,57:44,1:39:35,1:54:46,2:02:18,BEL,1,18,Rhode-Saint-Genese,7:36,7.9,SEF,f
32313,Jeff,LOONEN,2:02:18,21891,57:42,1:38:25,1:53:54,2:02:18,BEL,1,48,Saintes,7:36,7.9,M45,m
32241,Magali,LEJEUNE,2:02:18,21892,57:43,1:38:20,1:53:54,2:02:18,BEL,1,46,Saintes,7:36,7.9,F45,f
7419,India,DEPOORTERE,2:02:18,21893,57:44,1:39:35,1:54:46,2:02:18,BEL,1,18,Rhode-Saint-Genese,7:36,7.9,SEF,f
6478,Yannick,VAN AKEN,2:02:18,21894,59:01,1:40:01,1:55:24,2:02:18,BEL,1,31,Londerzeel,7:36,7.9,SEH,m
5795,Karolien,HUYBRECHTS,2:02:19,21895,57:45,1:39:50,1:54:58,2:02:19,BEL,1,42,Geel,7:36,7.9,F40,f
34589,Raf,WATERSCHOOT,2:02:20,21896,58:43,1:39:25,1:55:03,2:02:20,BEL,1,49,Sint-Niklaas,7:36,7.9,M45,m
36846,Ludo,DAVIDSON,2:02:20,21897,55:11,1:37:43,1:55:08,2:02:20,BEL,1,57,Kessel,7:37,7.89,M55,m
17255,Agustin,REYNA,2:02:20,21898,56:07,1:39:39,1:55:07,2:02:20,BEL,1,34,Ternat,7:37,7.89,SEH,m
33204,Liesbet,SINAEVE,2:02:21,21899,58:19,1:39:41,1:55:23,2:02:21,BEL,1,27,Ieper,7:37,7.89,SEF,f
31209,Evi,DE SMET,2:02:23,21900,1:00:11,1:42:05,1:55:39,2:02:23,BEL,1,28,Beervelde,7:37,7.89,SEF,f
34093,Els,VAN LOOVEREN,2:02:24,21901,54:37,1:38:33,1:54:45,2:02:24,BEL,1,35,Sint-Lenaarts,7:37,7.89,F35,f
7357,Sonja,BONGAERS,2:02:24,21902,1:01:10,1:41:00,1:55:38,2:02:24,BEL,1,49,Neerharen,7:37,7.89,F45,f
32156,Det,LAGAE,2:02:24,21903,1:01:00,1:41:38,1:55:40,2:02:24,BEL,1,57,Bissegem,7:37,7.89,F55,f
19354,Liesbeth,AELTERMAN,2:02:24,21904,1:01:55,1:42:07,1:56:01,2:02:24,BEL,1,28,Gent,7:37,7.89,SEF,f
22678,Jana,VANTIEGHEM,2:02:24,21905,58:24,1:37:28,1:54:16,2:02:24,BEL,1,24,Eeklo,7:37,7.89,SEF,f
19363,Barbara,VANDE MAELE,2:02:24,21906,1:01:55,1:42:07,1:56:01,2:02:24,BEL,1,24,Heusden,7:37,7.89,SEF,f
2013,Yonie,AUGUSTYNS,2:02:25,21907,59:07,1:40:12,1:55:10,2:02:25,BEL,1,21,Bornem,7:37,7.89,SEF,f
22669,Thomas,DE RECHTER,2:02:25,21908,58:24,1:37:28,1:54:17,2:02:25,BEL,1,30,Sint-Niklaas,7:37,7.89,SEH,m
7555,Marianne,SCHOUPS,2:02:26,21909,1:01:11,1:41:01,1:55:39,2:02:26,BEL,1,58,Bilzen,7:37,7.89,F55,f
32373,Sofie,MAES,2:02:27,21910,1:02:27,1:43:22,1:56:24,2:02:27,BEL,1,28,Sint-Gillis-Waas,7:37,7.89,SEF,f
31094,Maxim,DENOYETTE,2:02:27,21911,1:05:59,1:43:46,1:56:38,2:02:27,BEL,1,20,Nazareth,7:37,7.89,SEH,m
15452,Inge,CLEEMPUT,2:02:27,21912,1:00:00,1:41:20,1:55:33,2:02:27,BEL,1,29,Willebroek,7:37,7.89,SEF,f
32157,Liza,LAGAE,2:02:28,21913,1:00:18,1:41:09,1:55:34,2:02:28,BEL,1,22,Bissegem,7:37,7.89,SEF,f
32159,Marie,LAGAE,2:02:28,21914,1:00:18,1:41:08,1:55:35,2:02:28,BEL,1,22,Bissegem,7:37,7.89,SEF,f
5832,Frederick,MYLEMANS,2:02:28,21915,57:30,1:38:05,1:55:14,2:02:28,BEL,1,30,Noorderwijk,7:37,7.89,SEH,m
18566,Mark,ZEMSTA,2:02:29,21916,57:57,1:39:42,1:55:03,2:02:29,BEL,1,43,Antwerpen,7:37,7.89,M40,m
18997,Yan,CHAN Hiu,2:02:29,21917,54:39,1:39:07,1:54:44,2:02:29,HKG,1,40,Antwerpen,7:37,7.88,F40,f
36090,Louise,VAN DER WANGEN,2:02:30,21918,1:00:26,1:40:54,1:55:24,2:02:30,BEL,1,18,,7:37,7.88,SEF,f
35973,Marieke,HELIN,2:02:30,21919,58:35,1:40:02,1:55:00,2:02:30,BEL,1,19,,7:37,7.88,SEF,f
36096,Caro,VERBIEST,2:02:30,21920,1:00:26,1:40:54,1:55:24,2:02:30,BEL,1,18,,7:37,7.88,SEF,f
32304,Sofie,LIVENS,2:02:30,21921,55:28,1:38:38,1:55:00,2:02:30,BEL,1,22,Berchem,7:37,7.88,SEH,m
36088,Veerle,VAN DEN HEUVEL,2:02:31,21922,1:00:26,1:40:52,1:55:24,2:02:31,BEL,1,18,,7:37,7.88,SEF,f
36344,Lien,DE BUCK,2:02:32,21923,1:00:39,1:40:54,1:55:21,2:02:32,BEL,1,39,Oudenaarde,7:37,7.88,F35,f
35787,Thibaut,VAN STEELANDT,2:02:32,21924,58:10,1:39:54,1:55:19,2:02:32,BEL,1,20,,7:37,7.88,SEH,m
23546,Jenny,HARRIS,2:02:33,21925,56:26,1:38:20,1:55:50,2:02:33,GBR,1,39,Sl4 3Pf Berkshire,7:37,7.88,F35,f
34706,Severine,WROBEL,2:02:33,21926,57:33,1:39:43,1:55:14,2:02:33,BEL,1,39,Ixelles,7:37,7.88,F35,f
725,Maithe,ROBERTI,2:02:34,21927,59:35,1:40:33,1:55:28,2:02:34,BEL,1,29,Gent,7:37,7.88,SEF,f
14505,Guy,VAN SEVEREN,2:02:35,21928,55:44,1:36:53,1:54:20,2:02:35,BEL,1,74,Lievegem,7:37,7.88,M70,m
1989,Bjorn,NELEN,2:02:35,21929,55:44,1:36:52,1:54:20,2:02:35,BEL,1,43,Boortmeerbeek,7:37,7.88,M40,m
2377,Isabelle,ROBRECHTS,2:02:35,21930,55:44,1:36:53,1:54:19,2:02:35,BEL,1,42,Heist-Op-Den-Berg,7:37,7.88,F40,f
38135,Lieselotte,PEETERS,2:02:35,21931,57:50,1:40:34,1:55:29,2:02:35,BEL,1,23,Antwerpen,7:37,7.88,SEF,f
35751,Veerle,VAN EECKHOVEN,2:02:37,21932,1:04:20,1:43:47,1:56:04,2:02:37,BEL,1,32,,7:38,7.88,SEF,f
5199,Kathleen,VERGOTE,2:02:40,21933,58:17,1:40:52,1:55:29,2:02:40,BEL,1,51,Brussel,7:38,7.87,F50,f
31517,Maria,FORTES,2:02:41,21934,59:08,1:40:56,1:55:41,2:02:41,NLD,1,51,Rotterdam,7:38,7.87,F50,f
32854,Evelien,PIETERS,2:02:43,21935,59:45,1:40:41,1:55:18,2:02:43,BEL,1,28,Lede,7:38,7.87,SEF,f
32928,Rinda,PUTTENAERS,2:02:44,21936,58:45,1:41:08,1:56:09,2:02:44,BEL,1,28,Beerzel,7:38,7.87,SEF,f
8247,Hadewych,VANDERSTICHELE,2:02:45,21937,59:25,1:40:49,1:55:36,2:02:45,BEL,1,26,Langemark,7:38,7.87,SEF,f
18034,Ingrid,VAN HORENBEECK,2:02:45,21938,58:45,1:41:07,1:56:10,2:02:45,BEL,1,61,Mechelen,7:38,7.87,F60,f
20637,Britt,VAN LAER,2:02:49,21939,57:44,1:39:48,1:55:29,2:02:49,BEL,1,14,Geel,7:38,7.86,SEF,f
20642,Liesbeth,VERWIMP,2:02:49,21940,57:44,1:39:49,1:55:29,2:02:49,BEL,1,37,Geel,7:38,7.86,F35,f
32542,Carolien,MEYS,2:02:50,21941,59:17,1:41:15,1:55:40,2:02:50,BEL,1,40,Lint,7:38,7.86,F40,f
36404,Annelien,VERSCHAEREN,2:02:50,21942,59:16,1:41:01,1:55:55,2:02:50,BEL,1,23,Kallo,7:38,7.86,SEF,f
7822,Sofie,DEBAENE,2:02:50,21943,59:03,1:41:05,1:55:27,2:02:50,BEL,1,39,Berchem,7:38,7.86,F35,f
6327,Theo,SMEDTS Bruno,2:02:50,21944,59:55,1:40:27,1:55:42,2:02:50,BEL,1,45,Antwerpen,7:38,7.86,M45,m
37915,Jozef,VLYMINCKX Nils,2:02:50,21945,58:37,1:40:08,1:55:41,2:02:50,BEL,1,49,Antwerpen,7:38,7.86,M45,m
30095,Leen,BACCAERT,2:02:50,21946,59:17,1:41:16,1:55:43,2:02:50,BEL,1,40,Wijgmaal,7:38,7.86,F40,f
30081,Elien,AUDENAERT,2:02:52,21947,58:24,1:41:03,1:55:34,2:02:52,BEL,1,27,Gent,7:38,7.86,SEF,f
33901,Elien,VAN DRIESSCHE,2:02:53,21948,58:25,1:41:04,1:55:36,2:02:53,BEL,1,27,Temse,7:39,7.86,SEF,f
7842,Halima,EL BARJERAJI,2:02:54,21949,59:57,1:41:08,1:55:46,2:02:54,BEL,1,41,Wilrijk,7:39,7.86,F40,f
23162,Sarah,VAN HAEVERMAET,2:02:54,21950,1:00:23,1:40:53,1:55:45,2:02:54,BEL,1,36,Wilrijk,7:39,7.86,F35,f
7838,Hanne,DILDICK,2:02:54,21951,59:58,1:41:09,1:55:46,2:02:54,BEL,1,29,Berchem,7:39,7.86,SEF,f
19566,Delphine,VANDAMME,2:02:54,21952,1:00:01,1:41:24,1:56:35,2:02:54,BEL,1,35,Roeselare,7:39,7.86,F35,f
33802,Gerda,VANDERMAST,2:02:55,21953,58:44,1:40:29,1:55:18,2:02:55,BEL,1,48,Wuustwezel,7:39,7.86,F45,f
21636,Greet,VERBRUGGEN,2:02:56,21954,58:52,1:39:45,1:55:53,2:02:56,BEL,1,53,Blaasveld,7:39,7.86,F50,f
31158,Vienna,DE RUYSSCHER,2:02:57,21955,57:25,1:39:50,1:55:36,2:02:57,BEL,1,21,Antwerpen,7:39,7.86,SEF,f
966,Macha,VAN LISHOUT,2:02:58,21956,58:03,1:40:21,1:55:39,2:02:58,BEL,1,23,Turnhout,7:39,7.85,SEF,f
31667,Dirk,GOETSTOUWERS,2:02:59,21957,1:00:52,1:42:08,1:55:58,2:02:59,BEL,1,52,Wuustwezel,7:39,7.85,M50,m
30174,Crombrugge,BENNY Van,2:02:59,21958,59:27,1:40:03,1:55:27,2:02:59,BEL,1,32,Aaigem,7:39,7.85,SEH,m
35095,Andreas,KRYEZIU,2:03:00,21959,59:56,1:41:58,1:56:44,2:03:00,BEL,1,15,,7:39,7.85,SEH,m
32772,Hannelore,PAUWELS,2:03:00,21960,56:58,1:38:44,1:54:46,2:03:00,BEL,1,31,Schiplaken,7:39,7.85,SEF,f
34260,Louisa,VANVELTHOVEN,2:03:00,21961,1:00:52,1:42:08,1:55:58,2:03:00,BEL,1,50,Wuustwezel,7:39,7.85,F50,f
33273,Crisje,SOMERS,2:03:00,21962,1:00:25,1:40:24,1:55:44,2:03:00,BEL,1,53,Ruisbroek,7:39,7.85,F50,f
37843,Rameshkumar,PALANISAMY,2:03:00,21963,57:18,1:38:27,1:54:50,2:03:00,IND,1,30,Udumalpet,7:39,7.85,SEH,m
33407,Nastassia,TAELS,2:03:02,21964,59:22,1:41:00,1:56:25,2:03:02,BEL,1,24,Herentals,7:39,7.85,SEF,f
1201,Lieve,MOONS,2:03:02,21965,59:34,1:41:17,1:55:36,2:03:02,BEL,1,59,Borgerhout,7:39,7.85,F55,f
32575,Hilde,MOESKOPS,2:03:03,21966,58:47,1:40:31,1:55:16,2:03:03,BEL,1,36,Brasschaat,7:39,7.85,F35,f
1194,Peter,FISCHER,2:03:03,21967,59:34,1:41:17,1:55:36,2:03:03,BEL,1,57,Mortsel,7:39,7.85,M55,m
32312,Samanta,LONGVILLE,2:03:03,21968,58:47,1:40:31,1:55:16,2:03:03,BEL,1,36,Merksem,7:39,7.85,F35,f
1187,Koen,BUIJSEN,2:03:03,21969,59:35,1:41:17,1:55:36,2:03:03,BEL,1,34,Merksem,7:39,7.85,SEH,m
35389,Oksana,ERSHOVA,2:03:03,21970,59:07,1:40:26,1:56:16,2:03:03,BEL,1,22,,7:39,7.85,SEF,f
4704,Ingrid,CUYPERS,2:03:04,21971,59:34,1:41:17,1:55:36,2:03:04,BEL,1,58,Deurne,7:39,7.85,F55,f
2299,Anthony,MASSON,2:03:06,21972,56:17,1:37:26,1:54:51,2:03:06,BEL,1,29,Gentbrugge,7:39,7.85,SEH,m
44282,Ruben,SLOOTMAEKERS,2:03:06,21973,56:04,1:38:44,1:54:50,2:03:06,BEL,1,16,Emblem,7:39,7.85,SEH,m
44505,Nathalie,HOEFNAGELS,2:03:08,21974,58:19,1:39:48,1:55:51,2:03:08,BEL,1,22,Schilde,7:39,7.84,SEF,f
30926,Sarah,DE GRAAF,2:03:09,21975,58:20,1:39:49,1:55:51,2:03:09,BEL,1,22,Stabroek,7:40,7.84,SEF,f
1142,Khalid,EL YOUSFI,2:03:10,21976,56:15,1:38:50,1:54:52,2:03:10,BEL,1,28,Wilrijk,7:40,7.84,SEH,m
19426,Anh,VU Tuan,2:03:11,21977,57:42,1:38:55,1:54:39,2:03:11,BEL,1,46,Hever,7:40,7.84,M45,m
4511,Sandra,KOCKX,2:03:11,21978,58:37,1:40:26,1:56:05,2:03:11,BEL,1,44,Evergem,7:40,7.84,F40,f
21313,Urbain,SCHOETERS,2:03:11,21979,59:55,1:41:11,1:56:24,2:03:11,BEL,1,52,Merksem,7:40,7.84,M50,m
29331,Anne,MONSEUR,2:03:11,21980,1:00:45,1:41:16,1:55:59,2:03:11,BEL,1,55,Edegem,7:40,7.84,F55,f
32565,Gemma,MINKE,2:03:13,21981,59:41,1:41:21,1:56:18,2:03:13,NLD,1,46,Pelt,7:40,7.84,F45,f
6080,Els,HOEFMAN,2:03:14,21982,56:20,1:39:11,1:55:38,2:03:14,BEL,1,42,,7:40,7.84,F40,f
21322,Inge,VAN MEERBERGEN,2:03:14,21983,59:57,1:41:15,1:56:25,2:03:14,BEL,1,48,Ekeren,7:40,7.84,F45,f
20655,Michel,VERZWYVELEN,2:03:16,21984,59:01,1:39:41,1:56:25,2:03:16,BEL,1,51,Kieldrecht,7:40,7.84,M50,m
21104,Hilde,KLEISZ,2:03:20,21985,58:12,1:40:07,1:55:19,2:03:20,BEL,1,52,Bazel,7:40,7.83,F50,f
30299,Wannes,BOSMAN,2:03:20,21986,59:41,1:41:10,1:56:03,2:03:20,BEL,1,27,Beveren,7:40,7.83,SEH,m
17818,Cynthia,VAN DER AUWERA,2:03:21,21987,57:39,1:38:47,1:56:21,2:03:21,BEL,1,24,Bonheiden,7:40,7.83,SEF,f
31136,Kathleen,DE RIDDER,2:03:21,21988,59:42,1:41:11,1:56:04,2:03:21,BEL,1,29,Beveren,7:40,7.83,SEF,f
32404,Alvaro,MARIA Rica,2:03:24,21989,59:07,1:40:32,1:55:50,2:03:24,ESP,1,43,Aranda De Duero,7:40,7.83,F40,f
819,Leen,TIMMERMANS,2:03:25,21990,1:00:01,1:40:36,1:55:37,2:03:25,BEL,1,39,Denderhoutem,7:41,7.83,F35,f
32068,Groote,KATHY De,2:03:25,21991,59:36,1:41:13,1:56:15,2:03:25,BEL,1,34,Serskamp,7:41,7.83,SEF,f
31791,D'Haese,HELENA,2:03:27,21992,59:41,1:41:23,1:56:04,2:03:27,BEL,1,25,Sint-Niklaas,7:41,7.82,SEF,f
7305,Elien,VAN AERDE,2:03:27,21993,1:03:36,1:43:55,1:57:07,2:03:27,BEL,1,16,Brecht,7:41,7.82,SEF,f
36080,Emma,SCHEYVAERTS,2:03:28,21994,1:01:56,1:41:57,1:57:21,2:03:28,BEL,1,18,,7:41,7.82,SEF,f
34606,Yannis,WELLEMANS,2:03:29,21995,55:12,1:34:20,1:54:37,2:03:29,BEL,1,21,Schepdaal,7:41,7.82,SEH,m
31196,Elke,DE SMEDT,2:03:30,21996,1:00:57,1:42:29,1:56:48,2:03:30,BEL,1,28,Wolvertem,7:41,7.82,SEF,f
22403,San,MEULEMAN,2:03:30,21997,57:16,1:39:36,1:56:03,2:03:30,BEL,1,40,Eke,7:41,7.82,F40,f
32041,Maere,JOERI De,2:03:31,21998,58:19,1:40:27,1:55:52,2:03:31,BEL,1,43,Melsele,7:41,7.82,M40,m
33311,Kim,STEENWINCKEL,2:03:31,21999,1:02:33,1:42:40,1:56:35,2:03:31,BEL,1,27,Ekeren,7:41,7.82,SEF,f
30721,Patrick,DALVINCK,2:03:31,22000,58:19,1:40:27,1:55:51,2:03:31,BEL,1,54,Melsele,7:41,7.82,M50,m
