runner id,name,lastname,time,rank,checkpt0,checkpt1,checkpt2,checkpt3,nationality,finished,age,city,pace,speed,category,sex
30613,Brecht,COOLS,1:55:46,17501,58:31,0,1:49:28,1:55:46,BEL,1,27,Herent,7:12,8.34,SEH,m
38119,Ine,DE DAELE,1:55:46,17502,54:26,1:36:04,1:49:35,1:55:46,BEL,1,32,Sint-Niklaas,7:12,8.34,SEF,f
35042,Lore,BRICHAU,1:55:46,17503,57:23,1:35:40,1:49:44,1:55:46,BEL,1,17,Antwerpen,7:12,8.34,SEF,f
7246,Renaud,DE BORMAN,1:55:46,17504,55:22,1:35:23,1:49:44,1:55:46,BEL,1,50,Brugge,7:12,8.34,M50,m
7243,Aurelie,DE BORMAN,1:55:46,17505,55:22,1:35:23,1:49:44,1:55:46,BEL,1,20,Brugge,7:12,8.34,SEF,f
21228,Jonas,DONVIL,1:55:46,17506,53:19,1:36:18,1:49:13,1:55:46,BEL,1,40,Deurne,7:12,8.34,M40,m
3513,Luc,SLUISMANS,1:55:46,17507,55:10,1:35:37,1:49:35,1:55:46,BEL,1,57,Maaseik,7:12,8.34,M55,m
7245,Laetitia,DE BORMAN,1:55:46,17508,55:22,1:35:24,1:49:45,1:55:46,BEL,1,22,Brugge,7:12,8.34,SEF,f
5950,Els,VAN DEN BERGH,1:55:46,17509,55:33,1:34:35,1:49:08,1:55:46,BEL,1,51,Leuven,7:12,8.34,F50,f
84,Elmahdi,BENNANI LAHKIM,1:55:46,17510,1:00:35,1:37:17,1:50:26,1:55:46,MAR,1,20,Leuven,7:12,8.34,SEH,m
7234,Louis,ALSTEENS,1:55:46,17511,55:22,1:35:24,1:49:43,1:55:46,BEL,1,21,Brugge,7:12,8.34,SEH,m
31605,Sara,GORREBEECK,1:55:47,17512,57:20,1:36:46,1:49:32,1:55:47,BEL,1,32,Rupelmonde,7:12,8.34,SEF,f
29870,Ward,VERTONGHEN,1:55:47,17513,54:28,1:35:55,1:49:29,1:55:47,BEL,1,32,Kruibeke,7:12,8.34,SEH,m
5853,Danny,HOUBEN,1:55:47,17514,55:38,1:35:33,1:49:22,1:55:47,BEL,1,53,Leuven,7:12,8.34,F50,f
37100,Patrick,BRASSART,1:55:47,17515,57:50,1:36:06,1:49:55,1:55:47,BEL,1,50,Cantillon,7:12,8.34,M50,m
22331,Ingrid,DE GEEST,1:55:47,17516,51:44,1:33:39,1:48:23,1:55:47,BEL,1,59,Sint-Pauwels,7:12,8.34,F55,f
5398,Tine,KRUYNIERS,1:55:47,17517,55:57,1:36:00,1:49:31,1:55:47,BEL,1,39,Arendonk,7:12,8.34,F35,f
21301,Nancy,SCHACHT,1:55:47,17518,56:19,1:37:15,1:50:12,1:55:47,BEL,1,54,Beveren,7:12,8.34,F50,f
16512,Sander,HERBERS,1:55:47,17519,55:10,1:36:37,1:49:37,1:55:47,NLD,1,46,Antwerpen,7:12,8.34,M45,m
37021,Jiska,COART,1:55:48,17520,55:33,1:36:28,1:49:25,1:55:48,BEL,1,31,Mechelen,7:12,8.34,SEF,f
5366,Suzie,GORIS,1:55:48,17521,55:57,1:36:00,1:49:31,1:55:48,BEL,1,40,Arendonk,7:12,8.34,F40,f
18830,Valérie,VROOME,1:55:48,17522,54:18,1:35:54,1:49:39,1:55:48,BEL,1,51,Antwerpen,7:12,8.34,F50,f
6573,Leen,VAN LIERDE,1:55:48,17523,55:57,1:35:24,1:49:11,1:55:48,BE,1,35,Sint-Niklaas,7:12,8.34,F35,f
6168,Jorn,CLEREBOUT,1:55:48,17524,55:41,1:35:27,1:49:29,1:55:48,BEL,1,24,Reet,7:12,8.34,SEH,m
5138,Nathalie,MULDERS,1:55:48,17525,56:56,1:36:23,1:49:45,1:55:48,BEL,1,30,Brasschaat,7:12,8.34,SEF,f
18978,Serge,CRAEGHS,1:55:48,17526,52:03,1:34:37,1:49:30,1:55:48,BEL,1,43,Tessenderlo,7:12,8.34,M40,m
29879,Henri,PORCHER,1:55:48,17527,52:45,1:36:02,1:49:42,1:55:48,BEL,1,27,Strombeek-Bever,7:12,8.34,SEH,m
29534,Charlotte,SUY,1:55:48,17528,52:45,1:36:02,1:49:43,1:55:48,BEL,1,27,Strombeek-Bever,7:12,8.34,SEF,f
31532,Alexandra,GEVERS,1:55:48,17529,56:37,1:36:05,1:49:46,1:55:48,BEL,1,54,Bierbeek,7:12,8.34,F50,f
35803,Ellen,VERMEEREN,1:55:48,17530,58:06,1:36:46,1:49:42,1:55:48,BEL,1,38,Sint-Job,7:12,8.34,F35,f
36725,Cindy,PELGROMS,1:55:48,17531,57:29,1:36:21,1:49:35,1:55:48,BEL,1,43,Balen,7:12,8.34,F40,f
44697,Elke,VAN DE SYPE,1:55:49,17532,57:56,1:36:35,1:49:27,1:55:49,BEL,1,26,Eke,7:12,8.34,SEF,f
20392,Frederic,EX,1:55:49,17533,53:35,1:33:39,1:48:54,1:55:49,BEL,1,42,Mortsel,7:12,8.34,M40,m
34546,Mieke,SANNEN,1:55:49,17534,57:30,1:36:21,1:49:36,1:55:49,BEL,1,43,Geel,7:12,8.34,F40,f
36536,Ingrid,VERPOORTEN,1:55:49,17535,58:23,1:36:33,1:49:17,1:55:49,BEL,1,49,Kessel,7:12,8.34,F45,f
35048,Lien,LENAERTS,1:55:49,17536,57:22,1:35:50,1:49:43,1:55:49,BEL,1,17,Antwerpen,7:12,8.34,SEF,f
36818,Free,COONEN,1:55:49,17537,55:37,1:36:57,1:49:38,1:55:49,BEL,1,32,Burcht,7:12,8.34,SEH,m
44990,Marie,VAN ZUNDERT,1:55:49,17538,58:07,1:36:15,1:49:28,1:55:49,BEL,1,27,Westmalle,7:12,8.34,SEF,f
1301,Pieter,DE COCK,1:55:50,17539,53:22,1:36:21,1:49:17,1:55:50,BEL,1,25,Merksem,7:12,8.34,SEH,m
17621,Bernard,SIRONVAL,1:55:50,17540,54:45,1:35:28,1:49:20,1:55:50,BEL,1,45,Mortsel,7:12,8.34,M45,m
33066,Elly,SPIERING,1:55:50,17541,54:17,1:36:07,1:49:31,1:55:50,BEL,1,24,Deurne,7:12,8.34,SEF,f
30081,Grada,ASTA,1:55:50,17542,54:09,1:32:29,1:48:38,1:55:50,NLD,1,70,Driebergen,7:12,8.34,F70,f
37764,Dirk,VAN BRITSOM Daan,1:55:50,17543,54:06,1:34:52,1:48:51,1:55:50,BEL,1,32,Lokeren,7:12,8.34,SEH,m
8838,Sophie,LAMBERT,1:55:50,17544,57:56,1:36:09,1:49:56,1:55:50,BEL,1,44,Molenbeek,7:12,8.34,F40,f
8277,Stanley,KUMA,1:55:51,17545,58:29,1:37:00,1:48:59,1:55:51,BEL,1,31,Antwerpen,7:12,8.34,SEH,m
21259,Benjamin,WEYTS,1:55:51,17546,53:28,1:36:22,1:49:23,1:55:51,BEL,1,30,Deurne,7:12,8.34,SEH,m
4220,Annelies,ABBEEL,1:55:51,17547,53:39,1:34:59,1:49:15,1:55:51,BEL,1,36,Schelle,7:12,8.34,F35,f
31139,Hanne,DE SCHUTTER,1:55:51,17548,56:45,1:36:34,1:49:32,1:55:51,BEL,1,28,Lille,7:12,8.34,SEF,f
17910,Monique,VAN BERKEL,1:55:51,17549,57:27,1:37:18,1:49:41,1:55:51,NLD,1,52,Zoetermeer,7:12,8.34,F50,f
33798,Anna,VANHOOF,1:55:51,17550,57:29,1:37:22,1:50:31,1:55:51,BEL,1,48,Nijlen,7:12,8.34,F45,f
21258,Sam,VOETEN,1:55:51,17551,53:24,1:36:27,1:49:18,1:55:51,BEL,1,30,Merksem,7:12,8.34,SEH,m
21217,Jan,BRAECKMANS,1:55:51,17552,53:25,1:36:26,1:49:21,1:55:51,BEL,1,29,Antwerpen,7:12,8.34,SEH,m
33020,Ann,SMETS,1:55:51,17553,1:01:05,1:36:23,1:49:11,1:55:51,BEL,1,45,Arendonk,7:12,8.34,F45,f
33197,Brenda,THIJSSEN,1:55:51,17554,57:29,1:37:22,1:50:30,1:55:51,BEL,1,44,Nijlen,7:12,8.34,F40,f
15127,Lucien,BECKAND,1:55:51,17555,57:27,1:37:18,1:49:40,1:55:51,NLD,1,54,Zoetermeer,7:12,8.34,M50,m
17393,Luuk,REIJNDERS,1:55:51,17556,56:07,1:36:32,1:49:50,1:55:51,NLD,1,46,Antwerpen,7:12,8.34,M45,m
19447,Maria,GEENS,1:55:51,17557,57:32,1:36:23,1:49:38,1:55:51,BEL,1,62,Lommel,7:12,8.34,F60,f
21331,Samuel,DE ROECK,1:55:52,17558,52:10,0,1:49:46,1:55:52,BEL,1,39,Antwerpen,7:12,8.34,M35,m
36658,Nico,DECONINCK,1:55:52,17559,55:33,1:35:08,1:49:20,1:55:52,BEL,1,46,Puurs,7:12,8.34,M45,m
23502,Mieke,ELAUT,1:55:52,17560,55:41,1:35:47,1:49:32,1:55:52,BEL,1,39,Borgerhout,7:12,8.34,F35,f
6314,Joke,BRUSSELEERS,1:55:52,17561,58:03,1:36:59,1:49:30,1:55:52,BEL,1,29,Aalter,7:12,8.34,SEF,f
30288,Valerie,BOOGAERTS,1:55:52,17562,57:59,1:36:19,1:49:35,1:55:52,BEL,1,35,Lier,7:12,8.34,F35,f
37180,Melanie,VAN RIEMSDIJK,1:55:53,17563,57:39,1:36:08,1:49:22,1:55:53,NLD,1,47,Nieuwerkerk Aan Den Ijsse,7:12,8.33,F45,f
19301,Isabel,TESCHKE,1:55:53,17564,54:00,1:34:37,1:49:22,1:55:53,DEU,1,32,Antwerpen,7:12,8.33,SEF,f
21394,Sophie,DE DECKER,1:55:53,17565,55:27,1:36:06,1:49:48,1:55:53,BEL,1,40,Dilbeek,7:12,8.33,F40,f
34542,Tine,HOSKENS,1:55:53,17566,57:33,1:36:25,1:49:40,1:55:53,BEL,1,35,Dessel,7:12,8.33,F35,f
29943,Krista,VAN DEN BERGH,1:55:53,17566,55:24,1:36:15,1:49:12,1:55:53,BEL,1,43,Sint-Gillis-Waas,7:12,8.33,F40,f
3641,Jeroen,TOSSYN,1:55:53,17568,56:41,1:36:59,1:50:19,1:55:53,BEL,1,29,Tielt-Winge,7:12,8.33,SEH,m
33143,Dasha,SUETENS,1:55:53,17569,58:03,1:36:32,1:49:32,1:55:53,BEL,1,29,Hingene,7:12,8.33,SEF,f
34475,Claudia,ZYLA,1:55:53,17570,57:58,1:36:19,1:49:35,1:55:53,BEL,1,41,Lier,7:12,8.33,F40,f
7158,Philip,DE CLEENE,1:55:53,17571,52:29,1:36:10,1:50:11,1:55:53,BEL,1,34,Vrasene,7:12,8.33,SEH,m
1544,Edwin,VERBERGHT,1:55:53,17572,59:02,1:36:39,1:49:44,1:55:53,BEL,1,37,Wilrijk,7:12,8.33,M35,m
33140,Yasmin,STUER,1:55:53,17573,59:28,0,1:49:32,1:55:53,BEL,1,44,Schoten,7:12,8.33,F40,f
5624,Eric,DOMS,1:55:53,17574,54:55,1:34:23,1:49:47,1:55:53,BEL,1,55,Tielrode,7:12,8.33,M55,m
30189,Nick,BERKVENS,1:55:53,17575,56:59,1:36:13,1:49:23,1:55:53,BEL,1,24,Lichtaart,7:12,8.33,SEH,m
30187,An,BERKVENS,1:55:53,17576,56:59,1:36:13,1:49:23,1:55:53,BEL,1,36,Zwijndrecht,7:12,8.33,F35,f
18908,Benny,WOUTERS,1:55:54,17577,56:57,1:37:41,1:50:02,1:55:54,BEL,1,40,Borsbeek,7:12,8.33,M40,m
37165,Wachter,RUDI De,1:55:54,17578,58:25,1:36:22,1:49:42,1:55:54,BEL,1,56,Meise,7:12,8.33,M55,m
23819,Thomas,WITTE,1:55:54,17579,56:13,1:36:01,1:48:28,1:55:54,NLD,1,32,Brasschaat,7:13,8.33,SEH,m
16199,Michèle,DUYCK,1:55:54,17580,56:13,1:36:01,1:49:46,1:55:54,BEL,1,28,Antwerpen,7:13,8.33,SEF,f
16987,Ermanno,MASA,1:55:54,17581,56:14,1:36:53,1:49:25,1:55:54,ITA,1,50,Sondrio,7:13,8.33,M50,m
31140,Johan,DE SCHUTTER,1:55:54,17582,56:30,1:35:44,1:49:17,1:55:54,BEL,1,34,Deurne,7:13,8.33,SEH,m
21541,Steven,VANDERBORGHT,1:55:55,17583,56:24,1:37:41,1:50:20,1:55:55,BEL,1,40,Huizingen,7:13,8.33,M40,m
34487,Hilde,DE BOITSELIER,1:55:55,17584,58:03,1:36:24,1:49:41,1:55:55,BEL,1,56,Antwerpen,7:13,8.33,F55,f
22365,Holvoet,DRIES,1:55:55,17585,55:47,1:35:36,1:50:16,1:55:55,BEL,1,36,Antwerpen,7:13,8.33,M35,m
21178,Benny,GOETSCHALCKX,1:55:55,17586,55:45,1:35:27,1:49:31,1:55:55,BEL,1,54,Wortel,7:13,8.33,M50,m
36247,Abdullah,AKCAOGLU,1:55:55,17587,55:39,1:34:49,1:48:46,1:55:55,BEL,1,33,Deurne,7:13,8.33,SEH,m
30007,Irina,ADRIAENSEN,1:55:55,17588,57:56,1:37:25,1:49:53,1:55:55,BEL,1,37,Antwerpen,7:13,8.33,F35,f
8090,Leni,VAN PEEL,1:55:55,17589,55:46,1:36:23,1:49:41,1:55:55,BEL,1,26,Antwerpen,7:13,8.33,SEF,f
33098,Katrien,STEURS,1:55:55,17590,58:53,1:37:27,1:50:06,1:55:55,BEL,1,32,Mechelen,7:13,8.33,SEF,f
23155,Matthias,VAN DEN NESTE,1:55:55,17591,55:43,1:36:21,1:49:38,1:55:55,BEL,1,0,,7:13,8.33,-,m
35728,Danny,OTTEN,1:55:56,17592,55:04,1:37:04,1:49:44,1:55:56,BEL,1,46,Brasschaat,7:13,8.33,M45,m
38271,Ricardo,GHEKIERE,1:55:56,17593,55:39,1:34:48,1:48:46,1:55:56,BEL,1,25,Kortrijk,7:13,8.33,SEH,m
18033,Bieke,VANDENBROUCKE,1:55:56,17594,56:10,1:37:02,1:49:50,1:55:56,BEL,1,35,Waregem,7:13,8.33,F35,f
31919,Koenraad,JANSSENS,1:55:56,17595,54:09,1:36:12,1:49:34,1:55:56,BEL,1,65,Berchem,7:13,8.33,M65,m
32979,Olivier,SEYSSENS,1:55:57,17596,55:14,1:35:56,1:49:28,1:55:57,BEL,1,38,Antwerpen,7:13,8.33,M35,m
15511,Kevin,COLSON,1:55:57,17597,50:19,0,1:49:49,1:55:57,BEL,1,33,Dendermonde,7:13,8.33,SEH,m
4113,Dominique,VERGAUWE,1:55:57,17598,53:35,1:35:37,1:49:43,1:55:57,BEL,1,50,Nieuwpoort,7:13,8.33,M50,m
4075,Mo,VELDHUIZEN-DE VRIES,1:55:57,17599,53:35,1:35:36,1:49:43,1:55:57,NLD,1,49,Heerhugowaard,7:13,8.33,F45,f
3448,Natas,SCHABBING,1:55:57,17600,53:35,1:35:39,1:49:44,1:55:57,NLD,1,47,Heerhugowaard,7:13,8.33,F45,f
17341,Yves,PONNETTE,1:55:57,17601,56:54,0,1:50:25,1:55:57,BEL,1,58,Aartselaar,7:13,8.33,M55,m
33526,Justine,VANDEPOELE,1:55:57,17602,55:11,1:36:08,1:50:24,1:55:57,BEL,1,25,Beveren-Leie,7:13,8.33,SEF,f
36210,Laurent,DUBOIS,1:55:57,17603,52:34,1:35:16,1:50:35,1:55:57,BEL,1,32,Lessines,7:13,8.33,SEH,m
21565,Sam,ROOBROECK,1:55:57,17604,56:03,1:36:18,1:49:40,1:55:57,BEL,1,25,Oostrozebeke,7:13,8.33,SEH,m
44786,Jens,DE SNEYDER,1:55:58,17605,59:45,1:39:19,1:50:42,1:55:58,BEL,1,22,Kampenhout,7:13,8.33,SEH,m
30017,Wesley,AECK,1:55:58,17606,1:00:49,1:36:41,1:50:06,1:55:58,BEL,1,25,Gentbrugge,7:13,8.33,SEH,m
33708,William,VAN GENECHTEN,1:55:58,17607,55:55,1:34:38,1:49:05,1:55:58,BEL,1,30,Wilrijk,7:13,8.33,SEH,m
14743,Heleen,WILS,1:55:58,17608,55:39,1:35:57,1:49:16,1:55:58,BEL,1,28,Laakdal,7:13,8.33,SEF,f
16332,Bart,GENYN,1:55:58,17609,53:39,1:35:16,1:49:34,1:55:58,BEL,1,47,Hoboken,7:13,8.33,M45,m
16641,Nicolas,JONCKHEERE,1:55:58,17610,52:22,1:36:19,1:50:24,1:55:58,BEL,1,32,Schoten,7:13,8.33,SEH,m
30787,Eveline,DE BRUYNE,1:55:58,17611,55:56,1:34:38,1:49:05,1:55:58,BEL,1,26,Wilrijk,7:13,8.33,SEF,f
20531,Stefan,BLEUKX,1:55:58,17612,54:21,1:35:19,1:49:20,1:55:58,BEL,1,57,Hasselt,7:13,8.33,M55,m
4570,Emilie,BOUCQUEY,1:55:58,17613,54:48,1:35:17,1:49:27,1:55:58,BEL,1,25,Brasschaat,7:13,8.33,SEF,f
31553,Hilde,GILLIS,1:55:58,17614,56:25,1:36:14,1:49:42,1:55:58,BEL,1,56,Merchtem,7:13,8.33,F55,f
34670,Yani,PAUWELS,1:55:58,17615,55:25,1:34:24,1:49:44,1:55:58,BEL,1,19,Hoboken,7:13,8.33,SEH,m
5418,Chistoph,MANDERVELT,1:55:59,17616,56:10,1:35:16,1:49:09,1:55:59,BEL,1,45,Vosselaar,7:13,8.33,M45,m
32399,Anny,MESKENS,1:55:59,17617,56:25,1:36:14,1:49:42,1:55:59,BEL,1,54,Merchtem,7:13,8.33,F50,f
18710,Glenn,VERMEYLEN,1:55:59,17618,53:04,1:33:53,1:49:22,1:55:59,BEL,1,30,Heist-Op-Den-Berg,7:13,8.33,SEH,m
31231,Anne,DE VRY,1:55:59,17619,54:46,1:36:18,1:49:23,1:55:59,BEL,1,20,Merksplas,7:13,8.33,SEF,f
35609,Charlotte,STAS,1:55:59,17620,55:36,1:35:52,1:50:07,1:55:59,BEL,1,19,Antwerpen,7:13,8.33,SEF,f
5547,Ann,VROMAN,1:55:59,17621,56:11,1:35:16,1:49:06,1:55:59,BEL,1,18,Vosselaar,7:13,8.33,SEF,f
6255,Dimitri,SOEBERT,1:55:59,17622,57:26,1:36:09,1:49:49,1:55:59,BEL,1,37,Edegem,7:13,8.33,M35,m
18263,Kris,VANHAMME,1:55:59,17623,56:23,1:37:38,1:49:31,1:55:59,BEL,1,52,Bonheiden,7:13,8.33,M50,m
30715,Ann,DANEELS,1:56:00,17624,59:39,1:37:34,1:49:55,1:56:00,BEL,1,41,Antwerpen,7:13,8.33,F40,f
19640,Dimitrios,CHRISTOPOULOS,1:56:00,17625,54:52,1:36:00,1:49:54,1:56:00,GRC,1,32,Belgium,7:13,8.33,SEH,m
17923,Julie,VAN BRABANT,1:56:00,17626,54:39,1:35:42,1:49:24,1:56:00,BEL,1,40,Bruxelles,7:13,8.33,F40,f
23215,Mitch,PEETERS,1:56:00,17627,50:38,1:37:13,1:50:04,1:56:00,BEL,1,23,Boechout,7:13,8.33,SEH,m
20984,Luc,MEEUS,1:56:00,17628,52:15,1:42:22,1:51:37,1:56:00,BEL,1,53,Kessel,7:13,8.33,M50,m
37128,Jose,GALVEZ,1:56:01,17629,57:47,1:36:02,1:49:37,1:56:01,ESP,1,28,Brussels,7:13,8.33,SEH,m
19670,Kurt,KERREMANS,1:56:01,17630,56:15,1:37:26,1:50:03,1:56:01,BEL,1,41,Ruisbroek,7:13,8.33,M40,m
6913,Maarten,WINNELINCKX,1:56:01,17631,57:16,1:37:50,1:50:35,1:56:01,BEL,1,33,Tienen,7:13,8.32,SEH,m
35569,Liam,HEYRMAN,1:56:01,17632,51:54,1:32:08,1:49:57,1:56:01,BEL,1,18,Antwerpen,7:13,8.32,SEH,m
5878,Rientje,LUTS,1:56:01,17633,55:33,1:36:54,1:50:07,1:56:01,BEL,1,44,Leuven,7:13,8.32,F40,f
5887,Tamara,MEERS,1:56:01,17634,55:33,1:36:54,1:50:06,1:56:01,BEL,1,40,Leuven,7:13,8.32,F40,f
22374,Marie,ANTONIOU,1:56:02,17635,54:31,1:37:08,1:50:04,1:56:02,BEL,1,35,Rhode-Saint-Genèse,7:13,8.32,F35,f
19377,Pascal,GOOSSENS,1:56:02,17636,56:30,1:36:04,1:50:01,1:56:02,BEL,1,49,Turnhout,7:13,8.32,M45,m
36098,Hans,VANDALE,1:56:02,17637,58:11,1:37:31,1:49:53,1:56:02,BEL,1,51,Zedelgem,7:13,8.32,M50,m
20318,Marina,PIERLOZ,1:56:02,17638,58:11,1:37:31,1:50:24,1:56:02,BEL,1,59,Lier,7:13,8.32,F55,f
22624,Christophe,VAN HOOF,1:56:02,17639,56:43,1:38:12,1:50:12,1:56:02,BEL,1,35,Schriek,7:13,8.32,M35,m
33012,Carolien,SMET,1:56:02,17640,58:41,1:36:28,1:49:50,1:56:02,BEL,1,31,Sint-Pauwels,7:13,8.32,SEF,f
37092,Claire,BIGOT,1:56:03,17641,57:12,1:35:44,1:49:36,1:56:03,FRA,1,28,Bruxelles,7:13,8.32,SEF,f
30948,Jozef,HUYGE Dirk,1:56:03,17642,56:13,1:37:31,1:50:10,1:56:03,BEL,1,46,Mechelen,7:13,8.32,M45,m
29538,Dieter,VAN PARYS,1:56:03,17643,55:06,1:36:08,1:49:16,1:56:03,BEL,1,44,Oostkamp,7:13,8.32,M40,m
30176,Liesbet,BERCKMANS,1:56:03,17644,58:23,1:36:41,1:50:11,1:56:03,BEL,1,38,Berlaar,7:13,8.32,F35,f
29887,Karel,RENIER,1:56:03,17645,55:06,1:36:09,1:49:18,1:56:03,BEL,1,40,Roeselare,7:13,8.32,M40,m
8767,Steven,BOLOGNE,1:56:03,17646,55:59,1:36:17,1:49:32,1:56:03,BEL,1,33,Antwerpen,7:13,8.32,SEH,m
22118,Stefan,DEBRUYNE,1:56:04,17647,55:47,1:39:19,1:50:28,1:56:04,BEL,1,44,Berlare,7:13,8.32,M40,m
5099,Ingrid,JONES,1:56:04,17648,55:59,1:35:52,1:50:00,1:56:04,BEL,1,46,Brasschaat,7:13,8.32,F45,f
21905,Leslyn,RONSYN,1:56:04,17649,1:01:33,1:39:10,1:50:45,1:56:04,BEL,1,28,Ledeberg,7:13,8.32,SEF,f
7954,Peter,BRANSWYK,1:56:04,17650,56:29,1:36:11,1:49:51,1:56:04,BEL,1,48,Reet,7:13,8.32,M45,m
29940,Dirk,HESSE,1:56:04,17651,51:03,1:36:53,1:49:37,1:56:04,BEL,1,52,Antwerpen Berchem,7:13,8.32,M50,m
5861,Karen,JONCKERS,1:56:04,17652,56:03,1:35:24,1:49:49,1:56:04,BEL,1,35,Leuven,7:13,8.32,F35,f
32418,Sandra,MICHIELS,1:56:05,17653,1:01:04,1:37:35,1:50:11,1:56:05,BEL,1,32,Mechelen,7:13,8.32,SEF,f
21899,Matthias,FLEMENT,1:56:05,17654,1:01:33,1:39:10,1:50:45,1:56:05,BEL,1,28,Gent,7:13,8.32,SEH,m
31828,Marie,HOORNAERT,1:56:05,17655,58:03,1:36:18,1:49:44,1:56:05,BEL,1,40,Everberg,7:13,8.32,F40,f
38326,Sofie,VANGANSBEKE,1:56:05,17656,58:19,1:37:16,1:50:08,1:56:05,BEL,1,35,De Pinte,7:13,8.32,F35,f
35854,Evi,DEMARET,1:56:05,17657,58:24,1:36:25,1:49:46,1:56:05,BEL,1,29,Brecht,7:13,8.32,SEF,f
35788,Gitti,VACAS,1:56:05,17658,57:50,1:36:47,1:50:00,1:56:05,BEL,1,41,Hemiksem,7:13,8.32,F40,f
33475,Mien,VANDENBROUCKE,1:56:05,17659,58:20,1:37:16,1:50:08,1:56:05,BEL,1,32,Nazareth,7:13,8.32,SEF,f
31198,Sofie,DE VEUSTER,1:56:05,17660,1:01:04,1:37:35,1:50:11,1:56:05,BEL,1,33,Muizen,7:13,8.32,SEF,f
236,Susan,DE CONINCK,1:56:05,17661,58:48,1:36:14,1:49:52,1:56:05,BEL,1,38,Sint Amandsberg,7:13,8.32,F35,f
9027,Marc,DHAENENS,1:56:06,17662,55:31,1:35:13,1:49:34,1:56:06,BEL,1,55,Remich,7:13,8.32,M55,m
33613,Emma,VAN DE VELDE,1:56:06,17663,56:29,1:36:25,1:49:56,1:56:06,BEL,1,21,Oudenaarde,7:13,8.32,SEF,f
37799,Marie,D'HONDT Laurent,1:56:06,17664,53:41,1:35:23,1:50:40,1:56:06,BEL,1,36,Antwerpen,7:13,8.32,M35,m
37145,Tim,LUYPAERT,1:56:06,17665,56:49,1:35:49,1:49:53,1:56:06,BEL,1,21,Brasschaat,7:13,8.32,SEH,m
5248,Joke,VANHOUDT,1:56:07,17666,55:45,1:36:14,1:49:55,1:56:07,BEL,1,46,Brasschaat,7:13,8.32,F45,f
8881,Rosemien,MAGNUS,1:56:07,17667,55:54,1:35:34,1:49:31,1:56:07,BEL,1,32,Kallo,7:13,8.32,SEF,f
35704,Jan,TIMMERMANS,1:56:07,17668,52:37,1:36:15,1:50:00,1:56:07,BEL,1,32,Kallo,7:13,8.32,SEH,m
32402,Hanne,MEULEMANS,1:56:07,17669,52:36,1:36:15,1:49:59,1:56:07,BEL,1,24,Kallo,7:13,8.32,SEF,f
34154,Evelien,VERHEYEN,1:56:07,17670,58:21,1:37:12,1:50:16,1:56:07,BEL,1,27,Nijlen,7:13,8.32,SEF,f
36042,Rob,KRUITWAGEN,1:56:08,17671,54:39,1:35:00,1:49:14,1:56:08,NLD,1,54,Hoogstraten,7:13,8.32,M50,m
33306,Ann,VAN BAELEN,1:56:08,17672,57:22,1:36:28,1:50:07,1:56:08,BEL,1,42,Tremelo,7:13,8.32,F40,f
6487,Anna,EMELYANOVA,1:56:08,17673,58:48,1:36:07,1:50:47,1:56:08,RUS,1,29,Brussels,7:13,8.32,SEF,f
31691,Wivine,HAUTECOEUR,1:56:08,17674,57:46,1:37:37,1:50:27,1:56:08,BEL,1,51,Nivelles,7:13,8.32,F50,f
21174,Jo,CARMEN,1:56:08,17675,55:42,1:35:52,1:49:13,1:56:08,BEL,1,53,Hove,7:13,8.32,M50,m
20464,Filip,COLSON,1:56:09,17676,58:18,1:37:03,1:49:42,1:56:09,BEL,1,44,Bree,7:13,8.32,M40,m
33486,Claude,VANDENDORPE,1:56:09,17677,55:47,1:36:10,1:49:18,1:56:09,BEL,1,46,Lokeren,7:13,8.32,M45,m
23966,Wim,BIJNENS,1:56:09,17678,54:07,1:35:48,1:50:19,1:56:09,BEL,1,46,Hasselt,7:13,8.32,M45,m
33310,Dago,VAN BALBERGHE,1:56:09,17679,59:11,1:36:42,1:49:48,1:56:09,BEL,1,39,Onze-Lieve-Vrouw-Waver,7:13,8.32,M35,m
18255,Kurt,VAN GORP,1:56:09,17680,55:24,1:40:17,1:50:04,1:56:09,BEL,1,47,Buggenhout,7:13,8.31,M45,m
15054,Dries,ANTHONISSEN,1:56:09,17681,54:26,1:36:51,1:50:14,1:56:09,BEL,1,30,Gent,7:13,8.31,SEH,m
20435,Nele,VANDERHEIDEN,1:56:09,17682,53:33,1:37:28,1:50:32,1:56:09,BEL,1,35,Oostende,7:13,8.31,F35,f
17496,Vincenzo,SAMMARTANO,1:56:09,17683,51:27,1:32:53,1:49:25,1:56:09,ITA,1,43,Antwerp,7:13,8.31,M40,m
6310,Danny,BOONE,1:56:10,17684,55:52,1:35:10,1:49:54,1:56:10,BEL,1,56,,7:13,8.31,M55,m
33370,Mireille,VAN CRAENENBROECK,1:56:10,17685,1:00:10,1:38:00,1:50:40,1:56:10,BEL,1,48,Nijlen,7:13,8.31,F45,f
33662,Jasmien,VANDORPE,1:56:10,17686,56:53,1:36:20,1:49:38,1:56:10,BEL,1,25,Waregem,7:13,8.31,SEF,f
17424,Klara,ROBIN,1:56:10,17687,54:30,1:37:05,1:50:07,1:56:10,BEL,1,37,Ganshoren,7:14,8.31,F35,f
32480,Els,NAEGELS,1:56:10,17688,59:11,1:36:41,1:49:48,1:56:10,BEL,1,37,Onze-Lieve-Vrouw-Waver,7:14,8.31,F35,f
34116,Merle,VERCRUYSSE,1:56:10,17689,57:17,1:36:31,1:49:32,1:56:10,BEL,1,37,Halen,7:14,8.31,F35,f
35140,Amine,AZAHAF,1:56:10,17690,54:48,1:34:29,1:49:52,1:56:10,BEL,1,19,Antwerpen,7:14,8.31,SEH,m
33371,Sylvia,VAN CRAENENBROECK,1:56:10,17691,1:00:10,1:38:00,1:50:41,1:56:10,BEL,1,46,Nijlen,7:14,8.31,F45,f
9045,Jeroen,BECKSTEDDE,1:56:11,17692,1:00:14,1:37:28,1:50:16,1:56:11,BEL,1,25,Aartselaar,7:14,8.31,SEH,m
22244,Aitana,DE VALCK,1:56:11,17693,55:42,1:37:07,1:49:54,1:56:11,BEL,1,23,Opwijk,7:14,8.31,SEF,f
31813,Ann,HOFLACK,1:56:11,17694,59:19,1:37:45,1:50:20,1:56:11,BEL,1,49,Koksijde,7:14,8.31,F45,f
18541,Tine,VAN STEIRTEGHEM,1:56:11,17695,55:02,1:36:45,1:50:08,1:56:11,BEL,1,15,Belsele,7:14,8.31,SEF,f
7353,Kris,VAN GOETHEM,1:56:11,17696,55:13,1:35:58,1:49:52,1:56:11,BEL,1,43,Wondelgem,7:14,8.31,M40,m
21828,Peter,SJONGERS,1:56:12,17697,57:01,1:36:09,1:49:45,1:56:12,BEL,1,49,Antwerpen,7:14,8.31,M45,m
21827,Ella,SJONGERS,1:56:12,17698,57:01,1:36:09,1:49:44,1:56:12,NLD,1,14,Antwerpen,7:14,8.31,SEF,f
34901,Antonio,PEÑA ROCA,1:56:12,17699,57:13,1:37:49,1:51:37,1:56:12,BEL,1,17,Niel,7:14,8.31,SEH,m
30032,Veerle,AERTS,1:56:12,17700,58:25,1:37:15,1:49:54,1:56:12,BEL,1,32,Terhagen,7:14,8.31,SEF,f
24342,Amida,KADRIESKI,1:56:12,17701,55:42,1:37:07,1:49:54,1:56:12,BEL,1,28,Hoboken,7:14,8.31,SEF,f
613,Dis,QUAEYHAEGENS,1:56:12,17702,55:10,1:35:40,1:49:04,1:56:12,BEL,1,64,Lier,7:14,8.31,M60,m
20319,Benno,PRESENT,1:56:13,17703,55:03,1:36:46,1:50:09,1:56:13,BEL,1,58,Zwijndrecht,7:14,8.31,M55,m
31924,Marijn,JANSSENS,1:56:13,17704,56:24,1:35:22,1:49:15,1:56:13,BEL,1,33,Pulderbos,7:14,8.31,SEF,f
16019,Bernardus,DE VAAL,1:56:13,17705,56:12,1:36:28,1:50:21,1:56:13,BEL,1,29,Gent,7:14,8.31,SEH,m
17537,Yvonne,SCHIPPERS,1:56:13,17706,55:57,1:36:34,1:49:54,1:56:13,NLD,1,44,Roosendaal,7:14,8.31,F40,f
14811,Jan,VERMEULEN,1:56:13,17707,53:32,1:36:12,1:50:09,1:56:13,BEL,1,38,Bazel,7:14,8.31,M35,m
19476,Sanne,BREUGELMANS,1:56:13,17708,55:44,1:36:03,1:49:23,1:56:13,BEL,1,37,Edegem,7:14,8.31,F35,f
210,Jannick,DE BAERE,1:56:13,17709,55:28,1:35:46,1:50:19,1:56:13,BEL,1,46,Ardooie,7:14,8.31,M45,m
1534,Leen,DE BOEVER,1:56:13,17710,56:18,1:37:09,1:50:15,1:56:13,BEL,1,48,Hever,7:14,8.31,F45,f
7957,Eva,CORNELIS,1:56:13,17711,58:13,1:36:45,1:49:55,1:56:13,BEL,1,29,Edegem,7:14,8.31,SEF,f
19512,Gunter,VERSWYVELT,1:56:13,17712,55:44,1:36:03,1:49:25,1:56:13,BEL,1,42,Edegem,7:14,8.31,M40,m
24376,Chris,VANDENHENDE,1:56:14,17713,53:07,1:34:36,1:49:25,1:56:14,BEL,1,48,Schoten,7:14,8.31,M45,m
16722,Nevra,KÖSE,1:56:14,17714,53:02,1:35:46,1:50:04,1:56:14,TUR,1,33,34077 Istanbul,7:14,8.31,SEF,f
30767,Mark,DE BOECK,1:56:14,17715,57:45,1:37:33,1:51:04,1:56:14,BEL,1,56,Lippelo,7:14,8.31,M55,m
21664,Bea,VUYLSTEKE,1:56:14,17716,56:25,1:35:18,1:48:56,1:56:14,BEL,1,59,Antwerpen,7:14,8.31,F55,f
35146,Mirnes,BUKVIC,1:56:14,17717,54:49,0,1:49:54,1:56:14,BEL,1,18,Borgerhout,7:14,8.31,SEH,m
37756,,NR 37756,1:56:15,17718,None,None,None,1:56:15,BEL,1,0,,7:14,8.31,-,m
15484,Bart,CLOETENS,1:56:14,17719,55:03,1:37:09,1:50:25,1:56:14,BEL,1,37,Sint-Michiels,7:14,8.31,M35,m
8531,Ruud,ARDON,1:56:15,17720,56:28,1:36:00,1:49:54,1:56:15,NLD,1,56,Oostvoorne,7:14,8.31,M55,m
18308,Jerome,VAN HOOF,1:56:15,17721,53:21,1:35:48,1:50:23,1:56:15,BEL,1,28,Wolvertem,7:14,8.31,SEH,m
15466,Steven,CLAESSENS,1:56:15,17722,53:21,1:35:48,1:50:23,1:56:15,BEL,1,28,Vilvoorde,7:14,8.31,SEH,m
34437,Patrick,WOUTERS,1:56:15,17723,59:29,1:38:13,1:50:18,1:56:15,BEL,1,47,Borsbeek,7:14,8.31,M45,m
7845,Danny,VAN DEN BROECK,1:56:15,17724,58:09,1:37:54,1:50:29,1:56:15,BEL,1,58,Zoersel,7:14,8.31,M55,m
34504,Ben,CORNELIS,1:56:15,17725,58:14,1:36:46,1:49:55,1:56:15,BEL,1,58,Ranst,7:14,8.31,M55,m
7956,Annabel,CORNELIS,1:56:15,17726,58:15,1:36:47,1:49:56,1:56:15,BEL,1,27,Ranst,7:14,8.31,SEF,f
31498,Dieter,GEERAERTS,1:56:15,17727,58:11,1:37:28,1:50:32,1:56:15,BEL,1,32,Gent,7:14,8.31,SEH,m
20788,Lucia,FRANS,1:56:15,17728,56:21,1:36:49,1:50:24,1:56:15,BEL,1,54,Schilde,7:14,8.31,F50,f
16201,Arno,DUYVESTEIN,1:56:15,17729,55:51,1:36:47,1:49:46,1:56:15,NLD,1,49,Nootdorp,7:14,8.31,M45,m
37757,Quentin,REGNIER,1:56:15,17730,56:37,1:36:28,1:49:56,1:56:15,FRA,1,26,Mechelen,7:14,8.31,SEH,m
785,Daniel,VANDERHUST,1:56:15,17731,59:43,1:36:46,1:50:12,1:56:15,BEL,1,38,Knokke-Heist,7:14,8.31,M35,m
22728,Guy,CAEYERS,1:56:16,17732,52:53,1:34:40,1:49:27,1:56:16,BEL,1,51,Schilde,7:14,8.31,M50,m
8669,Bernard,VERHENNE,1:56:16,17733,56:29,1:36:07,1:49:37,1:56:16,BEL,1,65,Zandhoven,7:14,8.31,M65,m
18037,Valerie,VANDENBROUCKE,1:56:16,17734,57:58,1:38:08,1:50:13,1:56:16,BEL,1,41,Brugge,7:14,8.31,F40,f
30125,Lucie,BANKEN,1:56:16,17735,58:12,1:37:29,1:50:33,1:56:16,BEL,1,29,Gent,7:14,8.31,SEF,f
19324,Elisa,BAERT,1:56:16,17736,57:13,1:36:39,1:50:07,1:56:16,BEL,1,26,Ledeberg,7:14,8.31,SEF,f
32475,A.,MUSTAFA Mustafa,1:56:16,17737,57:33,1:37:14,1:50:47,1:56:16,BGR,1,34,Leuven,7:14,8.31,SEH,m
8672,Joris,DAMS,1:56:16,17738,51:29,1:36:55,1:49:54,1:56:16,BEL,1,58,Malle,7:14,8.31,M55,m
33666,Rowan,VANDUREN,1:56:16,17739,57:06,1:35:24,1:49:29,1:56:16,BEL,1,35,Dendermonde,7:14,8.31,M35,m
36568,Robin,VAN LOON,1:56:16,17740,58:04,1:37:06,1:50:13,1:56:16,BEL,1,24,Essen,7:14,8.31,SEH,m
31048,Cindy,DE NIL,1:56:17,17741,57:07,1:35:24,1:49:32,1:56:17,BEL,1,32,Dendermonde,7:14,8.31,SEF,f
32259,Elise,MAES,1:56:17,17742,58:35,1:36:00,1:49:37,1:56:17,BEL,1,25,Sinaai,7:14,8.31,SEF,f
5531,Kris,VERHAERT,1:56:17,17743,55:02,1:35:31,1:49:33,1:56:17,BEL,1,58,Beerse,7:14,8.31,M55,m
15837,Kathy,DELENDECKER,1:56:17,17744,55:55,1:36:45,1:50:04,1:56:17,BEL,1,44,Sint-Kruis,7:14,8.31,F40,f
15009,Steven,ACKX,1:56:18,17745,55:55,1:36:45,1:50:04,1:56:18,BEL,1,44,Sint-Kruis,7:14,8.31,M40,m
17841,Michael,TORFS,1:56:18,17746,56:23,1:36:12,1:49:33,1:56:18,BEL,1,45,Antwerpen,7:14,8.31,M45,m
31353,Linde,DOMUS,1:56:18,17747,58:27,1:36:24,1:50:24,1:56:18,BEL,1,28,Merksem Antwerpen,7:14,8.3,SEF,f
9229,Modest,KIK,1:56:18,17748,56:56,1:37:33,1:50:50,1:56:18,BEL,1,62,Kalmthout,7:14,8.3,M60,m
6584,Kris,VAN STEENBERGHE,1:56:18,17749,55:55,1:36:31,1:50:30,1:56:18,BEL,1,46,Schendelbeke,7:14,8.3,M45,m
5530,Julie,VERHAERT,1:56:18,17750,55:03,1:35:32,1:49:34,1:56:18,BEL,1,26,Borgerhout,7:14,8.3,SEF,f
36767,Louise,DESMIT,1:56:18,17751,59:39,1:37:57,1:50:36,1:56:18,BEL,1,24,Kessel-Lo,7:14,8.3,SEF,f
38336,Mateo,KENIS,1:56:18,17752,57:22,1:36:42,1:50:00,1:56:18,BEL,1,13,Wilrijk,7:14,8.3,SEH,m
14585,Nick,VAN DAMME,1:56:19,17753,51:28,1:37:14,1:49:55,1:56:19,BEL,1,37,Hemiksem,7:14,8.3,M35,m
34213,Chrétienne,VERMEULEN,1:56:19,17754,59:13,1:36:59,1:50:07,1:56:19,NLD,1,36,Breda,7:14,8.3,F35,f
32151,Jan,LENS,1:56:19,17755,57:57,1:37:23,1:50:33,1:56:19,BEL,1,26,Heverlee,7:14,8.3,SEH,m
3963,Kim,VAN KUYK,1:56:19,17756,58:27,1:36:25,1:50:24,1:56:19,BEL,1,29,Merksem,7:14,8.3,SEF,f
34038,Iris,VAN UFFEL,1:56:19,17757,59:44,1:37:57,1:50:38,1:56:19,BEL,1,30,Sint Job,7:14,8.3,SEF,f
15660,Peter,DE BONDT,1:56:19,17758,54:13,1:38:08,1:51:16,1:56:19,BEL,1,44,Deurne,7:14,8.3,M40,m
30794,Jolien,DE BRUYN,1:56:19,17759,57:53,1:36:58,1:50:17,1:56:19,BEL,1,28,Melsele,7:14,8.3,SEF,f
24035,Wouter,VERHULST,1:56:20,17760,57:21,1:36:41,1:50:00,1:56:20,BEL,1,57,Antwerpen,7:14,8.3,M55,m
34575,Annebelle,SMETS,1:56:20,17761,57:54,1:37:05,1:50:26,1:56:20,BEL,1,37,Mortsel,7:14,8.3,F35,f
8164,Laura,PEELMAN,1:56:21,17762,56:41,1:36:44,1:50:04,1:56:21,BEL,1,24,Schoten,7:14,8.3,SEF,f
23403,Annelies,VAN DEN EYNDE,1:56:21,17763,54:36,1:36:43,1:50:16,1:56:21,BEL,1,30,Booischot,7:14,8.3,SEF,f
24177,Liesbeth,DEN HAERYNCK,1:56:21,17764,56:22,1:37:05,1:50:09,1:56:21,BEL,1,41,Rijmenam,7:14,8.3,F40,f
8814,Sophie,KELLENS,1:56:22,17765,56:24,1:36:18,1:50:01,1:56:22,BEL,1,21,Edingen,7:14,8.3,SEF,f
23703,Kim,COENEN,1:56:22,17766,55:22,1:36:38,1:50:06,1:56:22,BEL,1,32,Neeroeteren,7:14,8.3,SEF,f
22790,Joris,AERTSSEN,1:56:22,17767,55:09,1:35:48,1:50:11,1:56:22,BEL,1,35,Borgerhout,7:14,8.3,M35,m
8686,Jonathan,TAELMAN,1:56:22,17768,55:05,1:35:54,1:50:09,1:56:22,BEL,1,37,Merchtem,7:14,8.3,M35,m
20120,Michel,VAN DER VEN,1:56:22,17769,52:40,1:35:56,1:50:28,1:56:22,NLD,1,28,Utrecht,7:14,8.3,SEH,m
22781,Karl,DE NAUW,1:56:23,17770,59:09,1:37:56,1:50:51,1:56:23,BEL,1,56,Oostende,7:14,8.3,M55,m
6776,Stefan,VERLINDEN,1:56:23,17771,58:01,1:36:13,1:50:26,1:56:23,BEL,1,39,Wiekevorst,7:14,8.3,M35,m
8811,Jurgen,VAN VOLSEM,1:56:23,17772,56:24,1:36:16,1:50:01,1:56:23,BEL,1,24,Oudenaken,7:14,8.3,SEH,m
37321,Christel,DUBOIS,1:56:23,17773,54:34,1:36:25,1:50:03,1:56:23,BEL,1,43,Antwerpen,7:14,8.3,F40,f
31493,Aline,GAROFIL,1:56:23,17774,56:30,1:36:20,1:49:43,1:56:23,BEL,1,27,Deurne,7:14,8.3,SEF,f
7057,Michael,DE KEYSER,1:56:23,17775,50:57,1:31:08,1:48:04,1:56:23,BEL,1,36,Grobbendonk,7:14,8.3,M35,m
34130,Christine,VERGAUWEN,1:56:23,17776,56:27,1:36:56,1:49:48,1:56:23,BEL,1,37,Lochristi,7:14,8.3,F35,f
22780,Eric,DEMEULENAERE,1:56:23,17777,59:10,1:37:57,1:50:51,1:56:23,BEL,1,52,Aartselaar,7:14,8.3,M50,m
22391,Tom,STICHELBOUT,1:56:23,17778,51:50,1:31:37,1:47:31,1:56:23,BEL,1,54,Deinze,7:14,8.3,M50,m
7055,Kyo,DE FRAEYE,1:56:23,17779,50:57,1:31:08,1:48:04,1:56:23,BEL,1,36,Mechelen,7:14,8.3,M35,m
32503,Johan,NERINCKX,1:56:24,17780,58:31,1:37:29,1:50:23,1:56:24,BEL,1,54,Tessenderlo,7:14,8.3,M50,m
20932,Annemie,VAN DIJCK,1:56:24,17781,56:46,1:37:44,1:49:48,1:56:24,BEL,1,33,Aartselaar,7:14,8.3,SEF,f
16562,Colin,HOPMANN,1:56:24,17782,54:23,1:33:44,1:49:36,1:56:24,BEL,1,37,Brasschaat,7:14,8.3,M35,m
32221,Sandra,LOOTS,1:56:24,17783,58:31,1:37:30,1:50:24,1:56:24,BEL,1,46,Tessenderlo,7:14,8.3,F45,f
37284,Els,DEVENYNS,1:56:24,17784,57:25,1:37:06,1:50:02,1:56:24,BEL,1,54,Berchem,7:14,8.3,F50,f
23546,Stefaan,LOOSVELT,1:56:24,17785,55:27,1:35:34,1:49:28,1:56:24,BEL,1,54,Rekkem,7:14,8.3,M50,m
30343,Charlotte,BOVÉ,1:56:24,17786,54:48,1:38:05,1:50:17,1:56:24,BEL,1,24,Kaulille,7:14,8.3,SEF,f
32880,Marjon,SCHATTEMAN,1:56:24,17787,54:49,1:38:06,1:50:17,1:56:24,BEL,1,25,Lovendegem,7:14,8.3,SEF,f
15565,Nancy,COVELIERS,1:56:24,17788,55:32,1:36:58,1:50:12,1:56:24,BEL,1,58,Mechelen,7:14,8.3,F55,f
4775,Hannes,NICASY,1:56:24,17789,1:03:23,1:36:53,1:50:10,1:56:24,BEL,1,19,Putte,7:14,8.3,SEH,m
35547,Yuki,DEJONCKHEERE,1:56:24,17790,1:00:03,1:38:01,1:50:53,1:56:24,BEL,1,17,Antwerpen,7:14,8.3,SEF,f
23327,Kristel,VAN MALDEREN,1:56:25,17791,51:37,1:38:13,1:50:22,1:56:25,BEL,1,45,Ekeren,7:14,8.3,F45,f
16141,Mieke,DODION,1:56:25,17792,55:42,1:37:55,1:50:45,1:56:25,BEL,1,39,Holsbeek,7:14,8.3,F35,f
30445,Bart,CALLENS,1:56:25,17793,56:32,1:35:12,1:49:28,1:56:25,BEL,1,39,Niel,7:14,8.3,M35,m
2857,Hilde,HUYBEN,1:56:25,17794,57:55,1:37:24,1:50:21,1:56:25,BEL,1,46,Rupelmonde,7:14,8.3,F45,f
20140,Marleen,HENDRIKS,1:56:25,17795,59:21,1:37:54,1:50:15,1:56:25,BEL,1,38,Zoersel,7:14,8.3,F35,f
17804,An-Katrien,THEUNIS,1:56:25,17796,50:46,1:36:00,1:50:17,1:56:25,BEL,1,26,Wilrijk,7:14,8.3,SEF,f
6297,Peter,VOORBOGT,1:56:26,17797,59:22,1:37:54,1:50:14,1:56:26,BEL,1,49,Zoersel,7:14,8.3,M45,m
618,Anniek,RAES,1:56:26,17798,56:45,1:36:14,1:49:30,1:56:26,BEL,1,45,Evergem,7:14,8.3,F45,f
30057,Evy,ANDRIES,1:56:26,17799,56:01,1:36:16,1:49:51,1:56:26,BEL,1,40,Hever,7:14,8.3,F40,f
30598,Rani,COLLAERT,1:56:26,17800,57:07,1:36:26,1:50:05,1:56:26,BEL,1,25,Waasmunster,7:14,8.3,SEF,f
18326,Philippe,VAN HOVE,1:56:26,17801,56:24,1:37:38,1:49:43,1:56:26,BEL,1,41,Bonheiden,7:14,8.3,M40,m
17205,Steven,OP DE BEECK,1:56:26,17802,56:25,1:37:38,1:49:43,1:56:26,BEL,1,45,Rijmenam,7:15,8.29,M45,m
32520,Sofie,NOBELS,1:56:27,17803,57:07,1:36:26,1:49:27,1:56:27,BEL,1,24,Hamme,7:15,8.29,SEF,f
20673,Evi,DE BROUWER,1:56:27,17804,56:31,1:37:28,1:50:14,1:56:27,BEL,1,36,Lier,7:15,8.29,F35,f
16808,Bart,LAURYSSEN,1:56:27,17805,55:01,1:35:25,1:49:41,1:56:27,BEL,1,53,Zoersel,7:15,8.29,M50,m
1397,Leander,SMET,1:56:27,17806,55:38,1:36:46,1:50:52,1:56:27,BEL,1,26,Sint Niklaas,7:15,8.29,SEH,m
9007,Sabine,COENEN,1:56:27,17807,54:40,1:34:43,1:49:41,1:56:27,BEL,1,21,Borgerhout,7:15,8.29,SEF,f
20665,Pommelien,BASTAENS,1:56:27,17808,54:39,1:37:28,1:50:00,1:56:27,BEL,1,21,Lier,7:15,8.29,SEF,f
20589,Charlotte,DE COCK,1:56:27,17809,57:00,1:37:51,1:50:30,1:56:27,BEL,1,17,Lokeren,7:15,8.29,SEF,f
32994,Sofie,SIX,1:56:27,17810,57:08,1:36:27,1:50:05,1:56:27,BEL,1,25,Gent,7:15,8.29,SEF,f
15426,Sarah,CAUBERGHS,1:56:27,17811,59:02,1:36:58,1:50:07,1:56:27,BEL,1,24,Hoboken,7:15,8.29,SEF,f
38416,Dan,SCALAIS,1:56:27,17812,59:00,1:37:04,1:50:24,1:56:27,BEL,1,16,Antwerpen,7:15,8.29,SEH,m
30605,Yentl,COLPAERT,1:56:28,17813,56:23,1:36:25,1:49:57,1:56:28,BEL,1,26,Edegem,7:15,8.29,SEF,f
8064,John,ANTONET,1:56:28,17814,57:36,1:37:15,1:50:08,1:56:28,IND,1,34,Etterbeek,7:15,8.29,SEH,m
34917,Ellen,GYSEN,1:56:28,17815,55:08,1:34:43,1:49:14,1:56:28,BEL,1,18,Wilrijk,7:15,8.29,SEF,f
14769,Peter,PEETERS,1:56:28,17816,57:31,1:36:41,1:50:07,1:56:28,BEL,1,47,Kontich,7:15,8.29,M45,m
17501,Kevin,SANTON,1:56:28,17817,53:24,1:35:14,1:50:08,1:56:28,BEL,1,22,Haasdonk,7:15,8.29,SEH,m
24135,Nageswaran,N,1:56:28,17818,57:36,1:37:15,1:50:10,1:56:28,IND,1,44,Zaventam,7:15,8.29,M40,m
17217,Ysbrand,OUD,1:56:29,17819,51:50,1:34:59,1:49:18,1:56:29,NLD,1,57,Schoten,7:15,8.29,M55,m
35996,Julie,ROOVERS,1:56:29,17820,57:51,1:36:55,1:50:12,1:56:29,BEL,1,28,Antwerpen,7:15,8.29,SEF,f
34916,Kizzy,COLIN,1:56:29,17821,55:08,1:34:43,1:49:14,1:56:29,BEL,1,18,Wilrijk,7:15,8.29,SEF,f
33651,Tineke,VAN DIXHOORN,1:56:29,17822,58:46,1:36:25,1:49:54,1:56:29,NLD,1,36,Terneuzen,7:15,8.29,F35,f
36702,Joris,GARRE,1:56:29,17823,56:12,0,1:50:04,1:56:29,BEL,1,57,Sint Amandsberg,7:15,8.29,M55,m
18511,Natalie,VAN ROOIJ,1:56:29,17824,57:18,1:38:21,1:50:33,1:56:29,NLD,1,37,Oosterhout,7:15,8.29,F35,f
33675,Tom,VAN DYCK,1:56:29,17825,56:46,0,1:50:01,1:56:29,BEL,1,35,Mol,7:15,8.29,M35,m
33846,Marga,VAN LAERE,1:56:30,17826,56:05,1:36:19,1:49:55,1:56:30,BEL,1,48,Antwerp,7:15,8.29,F45,f
16368,Gunther,GILISSEN,1:56:30,17827,55:18,1:37:07,1:50:07,1:56:30,BEL,1,39,Geel,7:15,8.29,M35,m
29660,Eline,HOLVOET,1:56:30,17828,55:43,1:36:26,1:49:54,1:56:30,BEL,1,20,Merelbeke,7:15,8.29,SEF,f
33247,Chantal,TORFS,1:56:30,17829,55:37,1:35:57,1:49:52,1:56:30,BEL,1,50,Duffel,7:15,8.29,F50,f
31248,Karen,DE WEERDT,1:56:30,17830,1:00:16,1:37:41,1:50:26,1:56:30,BEL,1,34,Heist O/D Berg,7:15,8.29,SEF,f
31644,Annelies,GUTSCHOVEN,1:56:30,17831,58:07,1:37:25,1:50:22,1:56:30,BEL,1,34,Haacht,7:15,8.29,SEF,f
33292,Evi,VAN AERSCHOT,1:56:30,17832,58:08,1:37:25,1:50:23,1:56:30,BEL,1,35,Werchter,7:15,8.29,F35,f
8679,Steven,PEERSMANS,1:56:30,17833,57:54,1:36:57,1:50:17,1:56:30,BEL,1,44,Kapellen,7:15,8.29,M40,m
30939,Caroline,DE KINDER,1:56:30,17834,57:35,1:37:27,1:50:11,1:56:30,BEL,1,36,Stekene,7:15,8.29,F35,f
31101,Gaelle,BUNTINX,1:56:31,17835,56:48,1:36:58,1:50:17,1:56:31,BEL,1,29,Antwerpen,7:15,8.29,SEF,f
8680,Mieke,HAAGDORENS,1:56:31,17836,57:54,1:36:58,1:50:17,1:56:31,BEL,1,44,Kalmthout,7:15,8.29,F40,f
16775,Eric,LAMBRECHTS,1:56:31,17837,54:57,1:36:57,1:49:55,1:56:31,BEL,1,56,Schoten,7:15,8.29,M55,m
37833,Mike,VOLPIN,1:56:31,17838,56:06,1:36:12,1:50:57,1:56:31,BEL,1,44,Estinnes,7:15,8.29,M40,m
35932,Filip,APERS,1:56:31,17839,57:36,1:37:28,1:50:13,1:56:31,BEL,1,44,Stekene,7:15,8.29,M40,m
32168,Bart,LEUS,1:56:31,17840,56:52,1:36:20,1:49:45,1:56:31,BEL,1,43,Edegem,7:15,8.29,M40,m
36452,Nele,AVERENS,1:56:32,17841,57:55,1:37:36,1:50:29,1:56:32,BEL,1,36,Aartselaar,7:15,8.29,F35,f
22892,Julie,DE WEERDT,1:56:32,17842,57:02,1:37:01,1:50:03,1:56:32,BEL,1,29,Borgerhout,7:15,8.29,SEF,f
22902,Frederik,VAN DEN BRIL,1:56:32,17843,57:02,1:36:59,1:50:03,1:56:32,BEL,1,30,Borgerhout,7:15,8.29,SEH,m
33593,Mark,VANDERVOORT,1:56:32,17844,57:27,1:35:53,1:49:58,1:56:32,BEL,1,40,Meerhout,7:15,8.29,M40,m
44963,Eleni,MANDILA,1:56:32,17845,54:22,1:36:16,1:50:07,1:56:32,GRC,1,36,Alexandroupoli,7:15,8.29,F35,f
18751,Karolien,VERTOMMEN,1:56:32,17846,55:00,1:36:47,1:50:35,1:56:32,BEL,1,27,Wilrijk (2610),7:15,8.29,SEF,f
21673,Lieve,COOPMANS,1:56:32,17847,57:18,1:37:29,1:50:50,1:56:32,BEL,1,45,Westerlo,7:15,8.29,F45,f
24315,Arthur,ORLIANS,1:56:32,17848,55:50,1:34:59,1:49:32,1:56:32,BEL,1,23,Mechelen,7:15,8.29,SEH,m
31645,Marieke,GUTSCHOVEN,1:56:32,17849,58:08,1:37:25,1:50:23,1:56:32,BEL,1,34,Assent,7:15,8.29,SEF,f
4784,Bart,PACQUETS,1:56:33,17850,54:09,1:36:36,1:50:47,1:56:33,BEL,1,22,Boom,7:15,8.29,SEH,m
16959,Shanna,MARCKX,1:56:33,17851,56:33,1:37:00,1:50:07,1:56:33,BEL,1,30,Antwerpen,7:15,8.29,SEF,f
31152,Katrien,DE SMEDT,1:56:33,17852,51:34,0,1:49:39,1:56:33,BEL,1,27,Torhout,7:15,8.29,SEF,f
4743,Paulien,MAENHOUT,1:56:33,17853,55:39,1:36:58,1:50:12,1:56:33,BEL,1,21,Ledegem,7:15,8.29,SEF,f
38383,Thomas,DEBY,1:56:34,17854,54:16,1:35:31,1:50:31,1:56:34,BEL,1,23,Mortsel,7:15,8.29,SEH,m
31932,Filip,JENNEN,1:56:34,17855,56:11,1:35:54,1:50:11,1:56:34,BEL,1,50,Antwerpen,7:15,8.29,M50,m
32403,Kaat,MEULEMANS,1:56:34,17856,58:20,1:37:12,1:50:17,1:56:34,BEL,1,27,Laken,7:15,8.29,SEF,f
4868,Leander,VAN DEN BROECK,1:56:34,17857,57:26,1:37:16,1:50:23,1:56:34,BEL,1,19,Puurs,7:15,8.29,SEH,m
8117,Pietro,PINTI,1:56:34,17858,56:01,1:36:31,1:50:40,1:56:34,BEL,1,55,Houthalen,7:15,8.29,M55,m
32583,Zoë,PAESSCHESOONE,1:56:34,17859,55:02,1:36:09,1:50:14,1:56:34,BEL,1,24,Moorsele,7:15,8.29,SEF,f
4781,Anaelle,OOSTERLYNCK,1:56:34,17860,54:36,1:35:28,1:49:51,1:56:34,BEL,1,21,Zoersel,7:15,8.29,SEF,f
4589,Inez,CLAUWENS,1:56:34,17861,57:27,1:37:14,1:50:24,1:56:34,BEL,1,19,Mechelen,7:15,8.29,SEF,f
18527,Ronny,VAN STAEY,1:56:35,17862,53:42,1:34:59,1:49:29,1:56:35,BEL,1,49,Merksem,7:15,8.28,M45,m
37401,Danny,VERRESEN,1:56:35,17863,53:41,0,1:49:30,1:56:35,BEL,1,48,Brasschaat,7:15,8.28,M45,m
14910,Stefan,BRANTS,1:56:35,17864,56:07,1:35:47,1:50:34,1:56:35,BEL,1,48,Boom,7:15,8.28,M45,m
29603,Kathleen,RUTTEN,1:56:35,17865,46:23,1:37:53,1:50:04,1:56:35,BEL,1,47,Zaffelare,7:15,8.28,F45,f
32582,Justine,PAESSCHESOONE,1:56:35,17866,55:02,1:36:10,1:50:15,1:56:35,BEL,1,27,Ledeberg,7:15,8.28,SEF,f
8325,Carl,CONINX,1:56:35,17867,58:38,1:37:19,1:50:50,1:56:35,BEL,1,30,Westmalle,7:15,8.28,SEH,m
30175,Jaimy,BERCKMANS,1:56:36,17868,58:02,1:36:55,1:50:22,1:56:36,BEL,1,39,Balen,7:15,8.28,F35,f
33635,Bram,VANDEWALLE,1:56:36,17869,55:26,1:35:50,1:50:00,1:56:36,BEL,1,29,Wetteren,7:15,8.28,SEH,m
19486,Hooreweghe,HANNAH Van,1:56:36,17870,55:25,1:37:14,1:50:13,1:56:36,BEL,1,35,Geel,7:15,8.28,F35,f
16988,Nico,MASSCHARIS,1:56:36,17871,56:36,0,1:50:42,1:56:36,BEL,1,58,Roosdaal,7:15,8.28,M55,m
14717,Dimitri,MEEUS,1:56:36,17872,58:02,1:36:55,1:50:18,1:56:36,BEL,1,32,Meerhout,7:15,8.28,SEH,m
8995,Ivan,SLEECKX,1:56:37,17873,53:08,1:34:41,1:48:49,1:56:37,BEL,1,42,Leuven,7:15,8.28,M40,m
38013,Walter,VAN DER MEIREN,1:56:37,17874,54:14,1:34:47,1:50:11,1:56:37,BEL,1,59,Elewijt,7:15,8.28,M55,m
38417,Zohreir,LOUCIF,1:56:37,17875,47:51,1:33:59,1:49:49,1:56:37,DZA,1,38,Antwerpen,7:15,8.28,M35,m
23219,Casper,DE DECKER,1:56:37,17876,55:42,1:37:13,1:50:24,1:56:37,BEL,1,25,Sint-Katelijne-Waver,7:15,8.28,SEH,m
20050,Sabine,GESSLER,1:56:37,17877,1:00:57,1:38:47,1:50:52,1:56:37,CHE,1,36,Mortsel,7:15,8.28,F35,f
29995,Lieven,VERSLEGERS,1:56:37,17878,56:58,1:37:47,1:50:34,1:56:37,BEL,1,32,Antwerpen,7:15,8.28,SEH,m
37909,Laura,DE BISSCHOP,1:56:37,17879,57:37,1:36:50,1:50:00,1:56:37,BEL,1,23,9451,7:15,8.28,SEF,f
5812,Tess,DE KEYZER,1:56:37,17880,55:36,0,1:50:12,1:56:37,BEL,1,26,Leuven,7:15,8.28,SEF,f
32801,Linde,ROELS,1:56:37,17881,1:00:58,1:38:21,1:50:41,1:56:37,BEL,1,24,Ledeberg,7:15,8.28,SEF,f
21257,Guy,VERVOORT,1:56:37,17882,52:16,1:35:34,1:49:26,1:56:37,BEL,1,64,Putte,7:15,8.28,M60,m
37156,Christophe,PEDRON,1:56:37,17883,57:07,1:36:28,1:50:09,1:56:37,BEL,1,43,Ekeren,7:15,8.28,M40,m
33423,Bart,VANDEN ABEELE,1:56:37,17884,56:53,1:37:42,1:50:15,1:56:37,BEL,1,57,Eke,7:15,8.28,M55,m
32417,Magali,MICHIELS,1:56:37,17885,56:52,1:36:37,1:50:11,1:56:37,BEL,1,41,Lennik,7:15,8.28,F40,f
22679,Will,ALTHUIJZEN,1:56:37,17886,55:31,1:35:59,1:50:35,1:56:37,BEL,1,62,Zaventem,7:15,8.28,M60,m
32802,Marieke,ROELS,1:56:37,17887,1:00:58,1:38:21,1:50:42,1:56:37,BEL,1,30,Gent,7:15,8.28,SEF,f
32885,Nicolaas,SCHEERS,1:56:38,17888,58:16,1:36:55,1:50:06,1:56:38,BEL,1,30,Deurne,7:15,8.28,SEH,m
34325,Sofie,VUNCKX,1:56:38,17889,58:08,1:37:27,1:50:08,1:56:38,BEL,1,38,Assse,7:15,8.28,F35,f
33935,Patricia,VAN ONSEM,1:56:38,17890,56:52,1:36:38,1:50:12,1:56:38,BEL,1,45,Lennik,7:15,8.28,F45,f
33085,Kim,STANS,1:56:38,17891,58:03,1:36:56,1:50:23,1:56:38,BEL,1,39,Lommel,7:15,8.28,F35,f
22161,Jan,MATERNE,1:56:38,17892,58:07,1:36:50,1:50:05,1:56:38,BEL,1,39,Dendermonde,7:15,8.28,M35,m
33112,Karolien,STEYLEMANS,1:56:38,17893,58:09,1:37:27,1:50:08,1:56:38,BEL,1,31,Asse,7:15,8.28,SEF,f
31875,Chrisje,IVO,1:56:38,17894,57:44,1:35:42,1:50:10,1:56:38,BEL,1,67,Knokke,7:15,8.28,F65,f
207,Inge,DAUWE,1:56:38,17895,56:43,1:36:13,1:50:02,1:56:38,BEL,1,49,Sleidinge,7:15,8.28,F45,f
881,Laura,VAN UYTFANGE,1:56:38,17896,56:43,1:36:13,1:49:29,1:56:38,BEL,1,30,Scheldewindeke,7:15,8.28,SEF,f
18891,Iris,WILLEMS,1:56:38,17897,1:00:58,1:38:21,1:50:38,1:56:38,BEL,1,23,Maldegem,7:15,8.28,SEF,f
31877,An,JACOBS,1:56:38,17898,59:51,1:38:08,1:50:46,1:56:38,BEL,1,44,Sint-Katherina-Lombeek,7:15,8.28,F40,f
32278,Steven,MAES,1:56:38,17899,56:03,1:36:20,1:49:56,1:56:38,BEL,1,46,Oud-Turnhout,7:15,8.28,M45,m
31879,Carl,JACOBS,1:56:39,17900,59:51,1:38:07,1:50:46,1:56:39,BEL,1,40,Schepdaal,7:15,8.28,M40,m
34904,Jarich,VAN DEN BROECK,1:56:39,17901,57:44,1:35:42,1:50:10,1:56:39,BEL,1,18,,7:15,8.28,SEH,m
15356,Carlo,BUELENS,1:56:39,17902,56:36,1:37:26,1:50:57,1:56:39,BEL,1,46,Zellik,7:15,8.28,M45,m
33671,Julie,VAN DYCK,1:56:39,17903,56:15,1:35:29,1:49:39,1:56:39,BEL,1,27,Antwerpen,7:15,8.28,SEF,f
37894,Julie-Pascale,MORTIER,1:56:39,17904,58:18,1:37:04,1:49:56,1:56:39,BEL,1,24,Roeselare,7:15,8.28,SEF,f
20926,Ruben,VAN BRITSOM,1:56:39,17905,56:23,1:37:11,1:50:56,1:56:39,BEL,1,29,Temse,7:15,8.28,SEH,m
37070,Leen,VAN HEDDEGEM,1:56:39,17906,57:49,1:36:36,1:50:08,1:56:39,BEL,1,34,Lovendegem,7:15,8.28,SEF,f
17233,Lionel,PARET,1:56:40,17907,55:07,1:34:35,1:49:07,1:56:40,BEL,1,29,Mechelen,7:15,8.28,SEH,m
33238,Eva,TOLLENEER,1:56:40,17908,57:14,1:36:31,1:50:17,1:56:40,BEL,1,45,Beerzel,7:15,8.28,F45,f
37895,Fleur,DECROOS,1:56:40,17909,58:18,1:37:06,1:50:03,1:56:40,BEL,1,24,Roeselare,7:15,8.28,SEF,f
564,Serge,MPARANYI,1:56:41,17910,52:25,1:37:15,1:49:56,1:56:41,BEL,1,39,Wilrijk,7:15,8.28,M35,m
35941,Catherine,SEELS,1:56:41,17911,55:46,1:35:14,1:50:12,1:56:41,BEL,1,52,Hove,7:15,8.28,F50,f
4586,Cindy,CHEUNG,1:56:41,17912,58:13,1:37:58,1:50:54,1:56:41,BEL,1,26,Deurne,7:15,8.28,SEF,f
30551,Sofie,CLAES,1:56:41,17913,57:12,1:36:40,1:50:08,1:56:41,BEL,1,27,Mol,7:15,8.28,SEF,f
31539,Els,GIEDTS,1:56:41,17914,55:46,1:35:14,1:50:12,1:56:41,BEL,1,54,Lier,7:15,8.28,F50,f
19770,Dimitri,VANLOMMEL,1:56:41,17915,54:11,1:36:08,1:50:30,1:56:41,BEL,1,31,Stabroek,7:15,8.28,SEH,m
37213,Piessens,FRANS,1:56:41,17916,56:24,1:38:18,1:50:28,1:56:41,BEL,1,50,Antwerpen,7:15,8.28,M50,m
31844,Karine,HULBOJ,1:56:41,17917,58:44,1:37:55,1:50:24,1:56:41,BEL,1,54,Malderen,7:15,8.28,F50,f
33607,An,VAN DE SOMPELE,1:56:41,17918,58:39,1:37:26,1:50:34,1:56:41,BEL,1,33,Gent,7:15,8.28,SEF,f
36774,Riet,VERHAEREN,1:56:42,17919,57:15,1:36:13,1:50:00,1:56:42,BEL,1,26,Antwerpen,7:15,8.28,SEF,f
37131,Els,HAECK,1:56:42,17920,58:10,1:36:56,1:50:19,1:56:42,BEL,1,43,Merelbeke,7:15,8.28,F40,f
17368,Livine,QUINTENS,1:56:42,17921,58:10,1:36:56,1:50:19,1:56:42,BEL,1,37,Merelbeke,7:15,8.28,F35,f
36394,Solange,DE BONDT,1:56:42,17922,56:15,1:35:59,1:49:55,1:56:42,BEL,1,58,Diegem,7:15,8.28,F55,f
33608,Marijke,VAN DE SOMPELE,1:56:42,17923,58:39,1:37:27,1:50:35,1:56:42,BEL,1,35,Ruddervoorde,7:15,8.28,F35,f
31784,Nel,HEYLEN,1:56:42,17924,58:23,1:37:12,1:50:17,1:56:42,BEL,1,27,Olen,7:16,8.28,SEF,f
21182,Dorien,HOFKENS,1:56:42,17925,53:30,1:35:28,1:50:12,1:56:42,BEL,1,38,Dessel,7:16,8.28,F35,f
20398,Alec,HENDRICKX,1:56:42,17926,54:42,1:36:18,1:50:15,1:56:42,BEL,1,25,Temse,7:16,8.28,SEH,m
20264,Tom,ARGYL,1:56:42,17927,58:07,1:38:12,1:50:53,1:56:42,BEL,1,21,Antwerpen,7:16,8.28,SEH,m
22164,Tom,VERMEYLEN,1:56:42,17928,51:56,1:35:43,1:50:09,1:56:42,BEL,1,46,Gent,7:16,8.28,M45,m
20263,Michel,ARGYL,1:56:42,17929,58:06,1:38:13,1:50:53,1:56:42,BEL,1,54,Antwerpen,7:16,8.28,M50,m
7485,Amber,COPPENS,1:56:43,17930,56:02,1:38:44,1:51:26,1:56:43,BEL,1,17,Halle-Zoersel,7:16,8.28,SEF,f
24389,Geneviève,ROUSSEAU,1:56:43,17931,58:46,1:38:00,1:50:29,1:56:43,BEL,1,44,Beigem,7:16,8.28,F40,f
33506,Gerlinde,VAN DEN HOUTE,1:56:43,17932,58:45,1:38:00,1:50:25,1:56:43,BEL,1,56,Wolvertem,7:16,8.28,F55,f
15805,Renilde,DE JONGH,1:56:43,17933,54:48,1:37:29,1:50:56,1:56:43,BEL,1,61,Sint-Job-In-'T-Goor,7:16,8.28,F60,f
37414,Anouk,DE PAUW,1:56:43,17934,59:30,1:37:04,1:50:51,1:56:43,BEL,1,27,Temse,7:16,8.28,SEF,f
30234,Eva,BOECKX,1:56:43,17935,58:42,1:37:43,1:50:37,1:56:43,BEL,1,35,Gent,7:16,8.28,F35,f
9032,Gudrun,GHESQUIERE,1:56:43,17936,55:32,1:37:19,1:50:38,1:56:43,BEL,1,28,Antwerpen,7:16,8.27,SEF,f
17066,Nicky,MEYTEN,1:56:43,17937,54:52,1:36:35,0,1:56:43,BEL,1,32,Leuven,7:16,8.27,SEF,f
22452,Bart,KUPPENS,1:56:43,17938,56:25,1:38:17,1:50:27,1:56:43,BEL,1,35,Oud-Turnhout,7:16,8.27,M35,m
17680,Pierre,SPELTINCX,1:56:43,17939,50:29,1:31:09,1:48:27,1:56:43,BEL,1,65,Wuustwezel,7:16,8.27,M65,m
30675,Helene,CRIEL,1:56:44,17940,1:01:34,1:39:44,1:51:45,1:56:44,BEL,1,15,Brasschaat,7:16,8.27,SEF,f
18960,Kurt,BUYTAERT,1:56:44,17941,55:58,1:37:45,1:50:57,1:56:44,BEL,1,46,Melsele,7:16,8.27,M45,m
18519,Hannah,VANRUSSELT,1:56:44,17942,52:35,1:37:41,1:50:51,1:56:44,BEL,1,23,Nieuwrode,7:16,8.27,SEF,f
35925,Sofie,LORIE,1:56:44,17943,56:21,1:37:10,1:50:55,1:56:44,BEL,1,26,Sint-Pauwels,7:16,8.27,SEF,f
7217,Peter,VERCOUTERE,1:56:44,17944,55:15,1:36:27,1:51:00,1:56:44,BEL,1,48,Deurne,7:16,8.27,M45,m
31972,Shahab,KEMALI ZENOZI,1:56:45,17945,58:26,1:37:24,1:50:50,1:56:45,IRN,1,17,2020 Antwerpen,7:16,8.27,SEH,m
36128,Jelle,COOLS,1:56:45,17946,56:24,1:38:19,1:50:28,1:56:45,BEL,1,35,Turnhout,7:16,8.27,M35,m
22447,David,DEMEESTER,1:56:45,17947,56:25,1:38:16,1:50:25,1:56:45,BEL,1,50,Turnhout,7:16,8.27,M50,m
30702,Nicole,DAEMEN - DEN HAAN,1:56:45,17948,58:56,1:37:39,1:50:36,1:56:45,NLD,1,39,Venray,7:16,8.27,F35,f
7843,Karlin,THEUNKENS,1:56:45,17949,53:13,1:35:09,1:50:08,1:56:45,BEL,1,35,Boom,7:16,8.27,F35,f
30224,Karine,BLOCK,1:56:45,17950,1:01:35,1:39:44,1:51:48,1:56:45,BEL,1,45,Brasschaat,7:16,8.27,F45,f
33877,Bjorn,VAN LONDERZEELE,1:56:45,17951,58:53,1:36:59,1:50:13,1:56:45,BEL,1,39,Haaltert,7:16,8.27,M35,m
21469,Karim,TRIBAK,1:56:45,17952,56:06,1:34:31,1:51:05,1:56:45,BEL,1,34,Dilbeek,7:16,8.27,SEH,m
30597,Stijn,COLE,1:56:45,17953,57:30,1:36:19,1:50:46,1:56:45,BEL,1,42,Antwerpen,7:16,8.27,M40,m
19807,Koen,HOOGHE,1:56:45,17954,54:12,1:36:46,1:50:19,1:56:45,BEL,1,52,Berchem,7:16,8.27,M50,m
30633,Dorien,COREMANS,1:56:45,17955,56:58,1:36:38,1:50:40,1:56:45,BEL,1,31,Borgerhout,7:16,8.27,SEF,f
7844,Davy,VAN DEN BOSSCHE,1:56:45,17956,53:13,1:35:10,1:50:08,1:56:45,BEL,1,39,Boom,7:16,8.27,M35,m
22451,Dave,GIELIS,1:56:45,17957,56:25,1:38:17,1:50:27,1:56:45,BEL,1,39,Turnhout,7:16,8.27,M35,m
33852,Marjolein,VAN LAERHOVEN,1:56:46,17958,59:42,1:38:08,1:50:56,1:56:46,BEL,1,19,Wuustwezel,7:16,8.27,SEF,f
17237,Piersoul,PATRICK,1:56:46,17959,54:34,1:37:12,1:50:31,1:56:46,BEL,1,61,Wezembeek-Oppem,7:16,8.27,M60,m
23229,Noa,KONINGS,1:56:46,17960,58:49,1:37:42,1:50:12,1:56:46,BEL,1,16,Houthalen,7:16,8.27,SEF,f
33993,Katrien,VAN ROOSENDAEL,1:56:46,17961,58:27,1:39:21,1:51:15,1:56:46,BEL,1,36,Werchter,7:16,8.27,F35,f
36277,Martial,ERPELS,1:56:46,17962,59:29,1:37:41,1:50:40,1:56:46,BEL,1,59,Eke,7:16,8.27,M55,m
30036,Amber,AKKERMANS,1:56:46,17963,59:42,1:38:07,1:50:56,1:56:46,BEL,1,19,Kalmthout,7:16,8.27,SEF,f
15839,Ayla,DELESIE,1:56:47,17964,57:04,1:37:04,1:50:43,1:56:47,BEL,1,25,Waregem,7:16,8.27,SEF,f
33318,Hans,VANBEDTS,1:56:47,17965,58:28,1:39:22,1:51:15,1:56:47,BEL,1,51,Blaasveld,7:16,8.27,M50,m
16116,Alex,DIDDENS,1:56:47,17966,54:52,1:38:17,1:51:15,1:56:47,BEL,1,42,Hoboken,7:16,8.27,M40,m
29684,Luc,VAN DE PLAS,1:56:47,17967,56:03,1:36:02,1:50:02,1:56:47,BEL,1,65,Hove,7:16,8.27,M65,m
31695,Lut,HAVET,1:56:47,17968,57:20,1:37:16,1:50:33,1:56:47,BEL,1,36,Bertem,7:16,8.27,F35,f
36505,Karolien,NIEMEGEERS,1:56:47,17969,56:35,1:35:39,1:50:33,1:56:47,BEL,1,30,Antwerpen,7:16,8.27,SEF,f
29634,Melanie,DE PAUW,1:56:47,17970,57:18,1:36:35,1:50:19,1:56:47,BEL,1,28,Evergem,7:16,8.27,SEF,f
22943,Cindy,ARDEEL,1:56:47,17971,1:00:56,1:39:04,1:51:02,1:56:47,BEL,1,31,Wetteren,7:16,8.27,SEF,f
34772,Cazz,BOLS,1:56:47,17972,1:00:33,1:38:52,1:51:15,1:56:47,BEL,1,20,,7:16,8.27,SEF,f
21721,Steven,POST,1:56:48,17973,51:26,1:35:12,1:50:13,1:56:48,BEL,1,31,Lier,7:16,8.27,SEH,m
44841,Inge,VAN EYCK,1:56:48,17974,57:45,1:36:46,1:50:26,1:56:48,BEL,1,40,Hasselt,7:16,8.27,F40,f
34780,Keith,DECKERS,1:56:48,17975,1:00:33,1:38:52,1:51:14,1:56:48,BEL,1,21,,7:16,8.27,SEH,m
7837,Martine,DE BIE,1:56:48,17976,58:09,1:37:54,1:50:37,1:56:48,BEL,1,54,Zoersel,7:16,8.27,F50,f
20361,Marc,BEERLANDT,1:56:48,17977,55:29,1:35:50,1:50:18,1:56:48,BEL,1,55,Antwerpen,7:16,8.27,M55,m
34354,Wendy,WAUTERS,1:56:48,17978,58:40,1:37:18,1:50:34,1:56:48,BEL,1,41,Moorsel,7:16,8.27,F40,f
35087,Laura,LEBRUN,1:56:48,17979,1:01:46,1:39:30,1:51:31,1:56:48,BEL,1,18,Berchem,7:16,8.27,SEF,f
14883,Christine,VAN GOETHEM,1:56:49,17980,1:05:16,1:34:34,1:49:45,1:56:49,BEL,1,47,Melsele,7:16,8.27,F45,f
33807,Lies,VANHOOMISSEN,1:56:49,17981,57:40,1:37:28,1:51:11,1:56:49,BEL,1,24,Lippelo,7:16,8.27,SEF,f
31135,Lensy,DE SCHOUWER,1:56:49,17982,59:04,1:37:21,1:50:39,1:56:49,BEL,1,30,Ekeren,7:16,8.27,SEF,f
14885,Charlotte,KRUGER,1:56:49,17983,1:05:16,1:34:34,1:49:45,1:56:49,BEL,1,19,Melsele,7:16,8.27,SEF,f
34576,Thierry,VAN AELST,1:56:49,17984,59:02,1:37:20,1:50:22,1:56:49,BEL,1,40,Mortsel,7:16,8.27,M40,m
7747,Tessa,DE WILDE,1:56:49,17985,54:11,1:37:11,1:50:14,1:56:49,BEL,1,35,Lokeren,7:16,8.27,F35,f
30721,Rebecca,DAS,1:56:50,17986,57:05,1:37:50,1:50:55,1:56:50,BEL,1,22,Bree,7:16,8.27,SEF,f
36134,Maja,FAES,1:56:50,17987,59:02,1:37:19,1:50:22,1:56:50,BEL,1,37,Kessel,7:16,8.27,F35,f
33588,Ellen,VAN DER VELDEN,1:56:50,17988,57:57,1:37:11,1:50:04,1:56:50,BEL,1,24,Loenhout,7:16,8.27,SEF,f
14603,Ilse,DE VULDER,1:56:50,17989,55:55,1:36:31,1:50:31,1:56:50,BEL,1,47,Antwerpen,7:16,8.27,F45,f
17502,Jeannet,SARELSE,1:56:50,17990,56:33,1:37:19,1:50:51,1:56:50,NLD,1,51,Sommelsdijk,7:16,8.27,F50,f
33517,Harold,VAN DEN WEGHE,1:56:50,17991,53:54,1:35:52,1:50:27,1:56:50,BEL,1,32,Schilde,7:16,8.27,SEH,m
19011,Jeroen,SANDERS,1:56:50,17992,53:59,1:37:13,1:50:54,1:56:50,BEL,1,25,Humbeek,7:16,8.27,SEH,m
31388,Stan,DUPON,1:56:50,17993,1:00:11,1:39:13,1:51:09,1:56:50,BEL,1,14,'S-Gravenwezel,7:16,8.27,SEH,m
19840,Rogier,FRANCOIS,1:56:51,17994,54:43,1:36:59,1:51:11,1:56:51,NLD,1,48,Son,7:16,8.27,M45,m
33940,Stijn,VANOPSTAL,1:56:51,17995,1:00:01,1:38:00,1:50:47,1:56:51,BEL,1,51,Temse,7:16,8.27,M50,m
33851,Charlotte,VAN LAERHOVEN,1:56:51,17996,55:28,1:36:10,1:50:54,1:56:51,BEL,1,16,Wuustwezel,7:16,8.27,SEF,f
31128,Audrey,DE SAEGER,1:56:51,17997,59:51,1:38:19,1:50:49,1:56:51,BEL,1,27,Brecht,7:16,8.27,SEF,f
31822,Ellen,HOMBROUCKX,1:56:51,17998,59:51,1:38:19,1:50:43,1:56:51,BEL,1,26,Schriek,7:16,8.27,SEF,f
30620,Bjorn,COOPMANS,1:56:51,17999,54:58,1:36:32,1:50:02,1:56:51,BEL,1,39,Berlaar,7:16,8.27,M35,m
32993,Maxim,SION,1:56:51,18000,1:00:03,1:38:01,1:50:48,1:56:51,BEL,1,26,Sint-Niklaas,7:16,8.27,SEH,m
