runner id,name,lastname,time,rank,checkpt0,checkpt1,checkpt2,checkpt3,nationality,finished,age,city,pace,speed,category,sex
1240,Maarten,DE PRYCKER,1:11:55,501,34:46,59:46,1:07:55,1:11:55,BEL,1,42,Kallo,4:29,13.43,M40,m
3799,Hervé,VAN DER PUTTEN,1:11:56,502,34:57,58:50,1:07:45,1:11:56,BEL,1,36,Londerzeel,4:29,13.43,M35,m
8580,Taeymans,ZEGER,1:11:56,503,36:19,59:49,1:07:58,1:11:56,BEL,1,33,Antwerpen,4:29,13.43,SEH,m
32710,José Miguel,POSTIGO SANCHEZ,1:11:57,504,36:00,1:00:21,1:08:05,1:11:57,ESP,1,42,Kasterlee,4:29,13.42,M40,m
7174,Karl,HUTS,1:11:58,505,36:42,1:00:08,1:08:07,1:11:58,BEL,1,41,Melsele,4:29,13.42,M40,m
34665,Wanne,LIBOT,1:11:58,506,35:56,59:56,1:08:10,1:11:58,BEL,1,30,Hoboken,4:29,13.42,SEH,m
6853,Christophe,LEENAERTS,1:11:58,507,36:24,59:57,1:08:11,1:11:58,BEL,1,39,Merksem,4:29,13.42,M35,m
22832,Kristof,VAN LOON,1:11:59,508,34:27,58:49,1:07:26,1:11:59,BEL,1,29,Kalmthout,4:29,13.42,SEH,m
969,Jeroen,YSEBAERT,1:11:59,509,35:25,59:19,1:07:49,1:11:59,BEL,1,30,Oelegem,4:29,13.42,SEH,m
3828,Stijn,VAN DE VIJVER,1:11:59,510,34:57,1:00:02,1:08:21,1:11:59,BEL,1,31,Ledeberg,4:29,13.42,SEH,m
7787,Gert,LENAERTS,1:12:00,511,33:27,58:20,1:07:33,1:12:00,BEL,1,40,Sint-Lenaerts,4:29,13.42,M40,m
4441,Koen,LIEKENS,1:12:00,512,35:31,59:50,1:08:04,1:12:00,BEL,1,51,Aartselaar,4:29,13.41,M50,m
8115,Carles,MOLINER,1:12:01,513,36:01,59:38,1:07:55,1:12:01,ESP,1,45,Cabrils Barcelona,4:29,13.41,M45,m
9111,Marc,TRUYERS,1:12:02,514,35:13,59:20,1:08:01,1:12:02,BEL,1,63,Sint-Katelijne-Waver,4:29,13.41,M60,m
124,Bowout,BROUCKE,1:12:03,515,33:40,59:02,1:07:42,1:12:03,BEL,1,20,Bornem,4:29,13.41,SEH,m
3612,Robin,THIERS,1:12:03,516,35:10,59:04,1:07:40,1:12:03,BEL,1,32,Antwerpen,4:29,13.4,SEH,m
1446,Michiel,VAN ASSCHE,1:12:04,517,33:52,59:12,1:07:46,1:12:04,BEL,1,29,Buggenhout,4:29,13.4,SEH,m
1246,Jolien,STEELS,1:12:04,518,34:17,59:15,1:07:50,1:12:04,BEL,1,32,Edegem,4:29,13.4,SEF,f
4446,Mario,CARVALHO,1:12:05,519,36:08,1:00:01,1:08:12,1:12:05,PRT,1,27,Antwerp,4:29,13.4,SEH,m
321,Jeroen,DIERIKS,1:12:06,520,35:22,59:58,1:08:23,1:12:06,BEL,1,33,Puurs,4:29,13.4,SEH,m
6942,Matthias,SAEN,1:12:06,521,36:47,59:59,1:08:14,1:12:06,BEL,1,27,Antwerpen,4:29,13.39,SEH,m
2509,Arnaud,DE ROUCK,1:12:07,522,36:03,1:00:08,1:08:08,1:12:07,BEL,1,24,Zele,4:29,13.39,SEH,m
2437,Yann,VIVIER,1:12:07,523,37:22,1:00:52,1:08:37,1:12:07,BEL,1,22,Schoten,4:29,13.39,SEH,m
8263,Dominic,BERTIN,1:12:08,524,34:37,59:00,1:07:49,1:12:08,BEL,1,57,Fleurus,4:29,13.39,M55,m
4402,Robby,DE BOCK,1:12:11,525,36:15,1:00:08,1:08:18,1:12:11,BEL,1,30,Melsele,4:30,13.38,SEH,m
2663,Karel,FRANS,1:12:11,526,34:02,59:36,1:07:48,1:12:11,BEL,1,23,Edegem,4:30,13.38,SEH,m
8856,Ewald,DE SCHRYVER,1:12:12,527,35:36,0,1:08:13,1:12:12,BEL,1,36,Gent,4:30,13.38,M35,m
1475,Peter,KOM,1:12:13,528,0,46:00,1:06:23,1:12:13,BEL,1,32,Mortsel,4:30,13.37,SEH,m
8336,Niels,LIÉGEOIS,1:12:17,529,34:21,58:49,1:08:15,1:12:17,BEL,1,29,Borgerhout,4:30,13.36,SEH,m
6800,Joeri,EVERS,1:12:18,530,35:40,59:50,1:08:16,1:12:18,BEL,1,24,Zonhoven,4:30,13.36,SEH,m
2798,Olivier,HENDRICKX,1:12:18,531,36:08,58:53,1:08:07,1:12:18,BEL,1,23,Waarloos,4:30,13.36,SEH,m
2929,Bror Martin,KARLSSON,1:12:19,532,34:16,59:07,1:07:53,1:12:19,SWE,1,31,Degeberga,4:30,13.36,SEH,m
4120,Joris,VERHAGEN,1:12:19,533,36:16,59:56,1:08:01,1:12:19,BEL,1,29,Antwerpen,4:30,13.36,SEH,m
7609,Bram,UYTTERSPROT,1:12:19,534,34:33,58:59,1:07:50,1:12:19,BEL,1,28,Buggenhout,4:30,13.35,SEH,m
6624,Stijn,DE COCK,1:12:21,535,34:49,59:20,1:08:06,1:12:21,BEL,1,30,Nieuwkerken-Waas,4:30,13.35,SEH,m
614,Klaas,QUAGHEBEUR,1:12:22,536,35:06,59:11,1:07:59,1:12:22,BEL,1,40,Ekeren,4:30,13.35,M40,m
3362,Bram,RAYMAEKERS,1:12:22,537,33:49,59:11,1:08:09,1:12:22,BEL,1,24,Zoutleeuw,4:30,13.35,SEH,m
20394,Raf,FRANS,1:12:23,538,34:21,1:00:27,1:08:10,1:12:23,BEL,1,31,2930,4:30,13.34,SEH,m
397,Pieter,GOVAERTS,1:12:23,539,34:14,59:15,1:08:00,1:12:23,BEL,1,35,Oostakker,4:30,13.34,M35,m
555,Yvonne,MOERLAND,1:12:23,540,35:47,1:00:01,1:08:26,1:12:23,NLD,1,37,Jg,4:30,13.34,F35,f
8323,Thomas,STEENACKERS,1:12:24,541,35:06,58:57,1:07:45,1:12:24,BEL,1,22,Oostakker,4:30,13.34,SEH,m
96,Nico,BOGAERT,1:12:25,542,34:43,59:15,1:08:07,1:12:25,BEL,1,38,Duffel,4:30,13.34,M35,m
14646,Pieter,AVONTS,1:12:28,543,36:35,1:00:28,1:08:35,1:12:28,BEL,1,37,Laken,4:31,13.33,M35,m
36682,Luc,HOPPENBROUWERS,1:12:28,544,35:21,1:00:15,1:08:30,1:12:28,BEL,1,34,Kalmthout,4:31,13.33,SEH,m
30301,Vicky,BORGHS,1:12:28,545,36:32,1:00:37,1:08:27,1:12:28,BEL,1,45,Kasterlee,4:31,13.33,F45,f
23047,Jonas,SABLON,1:12:28,546,35:59,1:00:05,1:08:19,1:12:28,BEL,1,24,Opwijk,4:31,13.33,SEH,m
7588,Johnny,GHEERAERTS,1:12:29,547,35:31,59:38,1:08:16,1:12:29,BEL,1,49,Wilskerke,4:31,13.32,M45,m
472,Frederik,KEERIS,1:12:30,548,36:05,1:00:31,1:08:34,1:12:30,BEL,1,33,Beerse,4:31,13.32,SEH,m
5671,Lionel,MAZAUD,1:12:31,549,34:46,58:59,1:08:17,1:12:31,FRA,1,47,Antwerpen,4:31,13.32,M45,m
7309,Michael,DE FEYTER,1:12:31,550,35:12,1:00:16,1:08:29,1:12:31,BEL,1,46,Aalst,4:31,13.32,M45,m
4525,Elias,VAN DE VIJVER,1:12:31,551,35:56,1:00:25,1:08:37,1:12:31,BEL,1,26,Gent,4:31,13.32,SEH,m
761,Koen,VAN DE MIEROOP,1:12:34,552,33:30,59:39,1:08:13,1:12:34,BEL,1,41,Schoten,4:31,13.31,M40,m
1006,Korneel,WILLEM,1:12:35,553,36:18,1:00:23,1:08:46,1:12:35,BEL,1,25,Deurne,4:31,13.31,SEH,m
14949,Bart,MEIRELEIRE,1:12:35,554,30:50,59:10,1:08:25,1:12:35,BEL,1,41,Sint-Pauwels,4:31,13.31,M40,m
35639,Tuur,WILLEMS,1:12:35,555,34:57,1:00:32,1:08:55,1:12:35,BEL,1,18,Antwerpen,4:31,13.31,SEH,m
7040,Dominic,BEDNAS,1:12:37,556,36:30,1:00:23,1:08:28,1:12:37,NLD,1,28,Kerkrade,4:31,13.3,SEF,f
1343,Marc,VERSCHUEREN,1:12:38,557,35:10,59:28,1:08:17,1:12:38,BEL,1,54,Lokeren,4:31,13.3,M50,m
24000,Jussi,SALOVAARA,1:12:39,558,36:55,1:00:30,1:08:37,1:12:39,FIN,1,38,Helsinki,4:31,13.29,M35,m
2856,Thomas,HUVENNE,1:12:39,559,35:21,1:00:26,1:08:44,1:12:39,BEL,1,34,Berchem,4:31,13.29,SEH,m
1278,Luc,GULDENTOPS,1:12:39,560,35:27,59:56,1:08:25,1:12:39,BEL,1,45,Kontich,4:31,13.29,M45,m
1181,Pieter-Jan,VAN LEEMPUTTEN,1:12:40,561,34:03,59:24,1:08:21,1:12:40,BEL,1,26,Berchem,4:31,13.29,SEH,m
14957,Farid,EL BOUTAHIRI,1:12:41,562,33:38,58:56,1:08:08,1:12:41,BEL,1,24,Deurne,4:31,13.29,SEH,m
31,Benny,BICKER,1:12:41,563,34:19,59:31,1:08:19,1:12:41,BEL,1,46,Wommelgem,4:31,13.29,M45,m
2329,Filip,CUYPERS,1:12:42,564,35:50,1:00:11,1:08:34,1:12:42,BEL,1,38,Scherpenheuvel-Zichem,4:31,13.29,M35,m
703,Bruno,STRUYF,1:12:42,565,36:19,1:00:17,1:08:44,1:12:42,BEL,1,56,Edegem,4:31,13.29,M55,m
1327,Bart,VERBRUGGEN,1:12:43,566,33:28,1:00:15,1:08:38,1:12:43,BEL,1,28,Wommelgem,4:32,13.28,SEH,m
1221,Andy,VERSTAPPEN,1:12:43,567,35:22,59:50,1:08:28,1:12:43,BEL,1,42,Herselt,4:32,13.28,M40,m
14940,Joerie,LANSSENS,1:12:45,568,35:56,1:00:01,1:08:29,1:12:45,BEL,1,37,Haasdonk,4:32,13.28,M35,m
14825,Wim,WUYTEN,1:12:46,569,35:17,1:00:06,1:08:38,1:12:46,BEL,1,48,Tremelo,4:32,13.27,M45,m
8101,Massimiliano Andrea,MILANI,1:12:47,570,38:02,1:01:39,1:09:21,1:12:47,ITA,1,46,Gorla Minore Va,4:32,13.27,M45,m
1330,Benny,DEBOEL,1:12:48,571,35:10,59:40,1:08:24,1:12:48,BEL,1,52,Laakdal,4:32,13.27,M50,m
4537,Shinto,VAN VOSSEL,1:12:48,572,35:35,1:00:22,1:09:00,1:12:48,BEL,1,18,Melsele,4:32,13.27,SEH,m
4523,Geert,VAN DAMME,1:12:49,573,36:04,59:58,1:08:37,1:12:49,BEL,1,54,Waasmunster,4:32,13.26,M50,m
14903,Mario,VAN HECKEN,1:12:49,574,37:20,1:01:27,1:09:00,1:12:49,BEL,1,38,Mortsel,4:32,13.26,M35,m
14597,Philip,GILLIS-D'HAMERS,1:12:50,575,33:58,59:50,1:08:28,1:12:50,BEL,1,44,Antwerpen,4:32,13.26,M40,m
1332,Steven,BECKERS,1:12:51,576,35:07,59:59,1:08:42,1:12:51,BEL,1,42,Hever,4:32,13.26,M40,m
110,Luc,BOUDRY,1:12:52,577,36:13,1:00:22,1:08:50,1:12:52,BEL,1,58,Aartselaar,4:32,13.25,M55,m
1399,Jean-Paul,COOL,1:12:52,578,34:16,59:46,1:08:19,1:12:52,BEL,1,30,Humbeek,4:32,13.25,SEH,m
6559,Manou,VANDENWEYER,1:12:53,579,36:18,1:00:25,1:08:49,1:12:53,BEL,1,27,Herent,4:32,13.25,SEF,f
5538,Dennis,VERSCHAEREN,1:12:54,580,36:00,1:00:43,1:08:56,1:12:54,BEL,1,47,Lier,4:32,13.25,M45,m
19083,Jonas,DECRETON,1:12:56,581,36:22,1:00:37,1:09:02,1:12:56,BEL,1,37,Dilbeek,4:32,13.24,M35,m
5029,Eddy,DEHOUX,1:12:57,582,37:33,1:00:59,1:09:10,1:12:57,BEL,1,48,Naast,4:32,13.24,M45,m
664,Rik,SCHOLIERS,1:12:57,583,35:14,59:44,1:08:29,1:12:57,BEL,1,33,Antwerpen-Berchem,4:32,13.24,SEH,m
37721,Jonathan,VAN WINKEL,1:12:59,584,32:17,56:53,1:08:35,1:12:59,BEL,1,26,Duffel,4:33,13.23,SEH,m
22621,Stijn,GULDENTOPS,1:12:59,585,36:07,1:00:39,1:08:59,1:12:59,BEL,1,30,Hulshout,4:33,13.23,SEH,m
3843,Bert,VANDEWIELE,1:12:59,586,35:20,59:54,1:08:45,1:12:59,BEL,1,40,Sint-Andries,4:33,13.23,M40,m
119,Broes,BREYNE,1:12:59,587,34:41,59:35,1:08:43,1:12:59,BEL,1,36,Antwerpen,4:33,13.23,M35,m
341,Azzeddine,EL MOUSSAOUI,1:13:00,588,35:21,1:00:52,1:09:04,1:13:00,BEL,1,19,Borgerhout,4:33,13.23,SEH,m
608,Tom,PRENEN,1:13:01,589,35:31,1:00:30,1:09:11,1:13:01,BEL,1,38,Erps-Kwerps,4:33,13.23,M35,m
16352,Maxence,GHALI,1:13:02,590,34:54,1:00:25,1:08:52,1:13:02,BEL,1,36,Kessel-Lo,4:33,13.23,M35,m
4186,Wouter,VERSCHUERE,1:13:03,591,34:36,1:00:00,1:09:05,1:13:03,BEL,1,32,Anzegem,4:33,13.22,SEH,m
23627,Joachim,VAN HOLM,1:13:05,592,33:44,1:00:00,1:08:47,1:13:05,BEL,1,39,Sint Michiels,4:33,13.22,M35,m
735,Kurt,TURELINCKX,1:13:05,593,38:06,1:01:33,1:09:22,1:13:05,BEL,1,38,Betekom,4:33,13.22,M35,m
6609,Yarne,RENDERS,1:13:05,594,34:57,1:00:10,1:08:53,1:13:05,BEL,1,16,Gierle,4:33,13.22,SEH,m
1083,Nils,VAN DE PUTTE,1:13:07,595,34:46,1:00:12,1:08:52,1:13:07,BEL,1,21,Kapellen,4:33,13.21,SEH,m
3114,Sean,MCKEOWN,1:13:07,596,36:25,1:00:36,1:09:01,1:13:07,GBR,1,34,Terheijden,4:33,13.21,SEH,m
2849,Brecht,HUBAU,1:13:08,597,35:44,1:00:28,1:09:01,1:13:08,BEL,1,27,Gentbrugge,4:33,13.21,SEH,m
14695,Karl,HAUTMAN,1:13:08,598,35:07,59:49,1:08:47,1:13:08,BEL,1,52,Zemst,4:33,13.21,M50,m
431,Chris,HEYLEN,1:13:09,599,35:31,1:00:41,1:08:52,1:13:09,BEL,1,54,Berlaar,4:33,13.2,M50,m
234,Bert,DECOCK,1:13:10,600,35:50,1:00:37,1:09:10,1:13:10,BEL,1,36,Meigem,4:33,13.2,M35,m
115,Jurgen,BREMS,1:13:11,601,35:46,1:00:19,1:09:05,1:13:11,BEL,1,42,Beveren,4:33,13.2,M40,m
32946,Achraf,SEBAOUI,1:13:12,602,34:56,1:00:19,1:08:45,1:13:12,BEL,1,21,Berchem,4:33,13.2,SEH,m
5726,Mark,VAN GORP,1:13:12,603,34:16,1:00:21,1:09:08,1:13:12,BEL,1,44,Vremde,4:33,13.19,M40,m
1488,Siebe,DE WINTER,1:13:13,604,36:45,1:00:49,1:09:13,1:13:13,BEL,1,22,Brasschaat,4:33,13.19,SEH,m
3193,Roland,VAN DE MOSSELAAR,1:13:15,605,35:20,59:54,1:09:03,1:13:15,NLD,1,50,Mierlo,4:34,13.18,M50,m
6324,Stefaan,DE CLERCQ,1:13:15,606,38:46,1:02:10,1:09:47,1:13:15,BEL,1,33,Borgerhout,4:34,13.18,SEH,m
301,Bert,DE VOS,1:13:15,607,32:30,59:11,1:08:31,1:13:15,BEL,1,35,Kontich,4:34,13.18,M35,m
3882,Stefan,VANFRAECHEM,1:13:16,608,35:38,1:00:46,1:08:55,1:13:16,BEL,1,47,Tervuren,4:34,13.18,M45,m
1010,Dirk,GOOSSEN,1:13:16,609,36:10,1:01:32,1:09:12,1:13:16,BEL,1,52,Wachtebeke,4:34,13.18,M50,m
2922,Roel,JORISSEN,1:13:16,610,36:19,1:01:17,1:09:36,1:13:16,BEL,1,28,Wilsele,4:34,13.18,SEH,m
1389,Silke,BÄUMER,1:13:17,611,36:46,1:00:50,1:09:14,1:13:17,BEL,1,27,Ekeren,4:34,13.18,SEF,f
8196,Vincent,JADIN,1:13:17,612,37:08,1:01:04,1:09:19,1:13:17,BEL,1,42,Lembeek,4:34,13.18,M40,m
322,Koen,DIERIKS,1:13:19,613,34:55,1:00:27,1:09:15,1:13:19,BEL,1,33,Puurs,4:34,13.17,SEH,m
1595,Juan,ROMERO GASPAR,1:13:19,614,36:15,1:01:05,1:09:21,1:13:19,ESP,1,53,Adeje,4:34,13.17,M50,m
3314,Bert,PLANCKAERT,1:13:19,615,35:23,1:00:33,1:09:17,1:13:19,BEL,1,30,Gentbrugge,4:34,13.17,SEH,m
6837,Alexander,VRINTS,1:13:19,616,38:09,1:01:57,1:09:52,1:13:19,BEL,1,26,Boechout,4:34,13.17,SEH,m
701,Peter,STRIK,1:13:21,617,35:21,1:01:42,1:09:44,1:13:21,NLD,1,55,Brussels,4:34,13.17,M55,m
23744,Dorien,HEYLEN,1:13:21,618,36:41,1:01:05,1:09:12,1:13:21,BEL,1,31,Messelbroek,4:34,13.17,SEF,f
23370,Salim,BOULAJHAF,1:13:22,619,33:39,59:32,1:08:53,1:13:22,BEL,1,28,Antwerpen,4:34,13.16,SEH,m
2549,Tom,DEVINCK,1:13:22,620,35:56,1:00:25,1:09:07,1:13:22,BEL,1,26,Veurne,4:34,13.16,SEH,m
23749,Benny,PEETERS,1:13:23,621,36:42,1:01:06,1:09:13,1:13:23,BEL,1,47,Aarschot,4:34,13.16,M45,m
8868,Joren,VAN DE VLIET,1:13:24,622,35:58,1:01:33,1:09:47,1:13:24,BEL,1,24,Turnhout,4:34,13.16,SEH,m
2345,Kevin,DE BACKER,1:13:25,623,36:50,1:01:03,1:09:26,1:13:25,BEL,1,39,Lint,4:34,13.16,M35,m
23054,Lorenzo,CLOETENS,1:13:25,624,38:03,1:01:53,1:09:38,1:13:25,BEL,1,26,Blankenberge,4:34,13.15,SEH,m
2436,Nicholas,DE LAET,1:13:26,625,36:17,1:00:56,1:09:24,1:13:26,NLD,1,24,Kapellen,4:34,13.15,SEH,m
1095,Korneel,SOMERS,1:13:28,626,34:25,1:00:43,1:09:39,1:13:28,BEL,1,18,Antwerpen,4:34,13.15,SEH,m
7930,Geert-Jan,VAN PELT,1:13:28,627,37:22,1:01:30,1:09:33,1:13:28,BEL,1,30,Lichtaart,4:34,13.15,SEH,m
24232,Dietrich,MARTENS,1:13:28,628,37:43,0,1:09:49,1:13:28,BEL,1,37,Zwijndrecht,4:34,13.14,M35,m
4064,Jore,VAN WAUWE,1:13:29,629,37:42,1:01:28,1:09:49,1:13:29,BEL,1,25,Zwijndrecht,4:34,13.14,SEH,m
1069,Britt,HEIRMAN,1:13:29,630,36:09,1:00:52,1:09:19,1:13:29,BEL,1,21,Schilde,4:34,13.14,SEF,f
22528,Kenny,GASTMANS,1:13:31,631,36:38,1:01:32,1:09:31,1:13:31,BEL,1,31,Opwijk,4:35,13.14,SEH,m
1519,Sam,LEDENT,1:13:31,632,34:41,1:00:17,1:09:20,1:13:31,BEL,1,28,Antwerpen,4:35,13.14,SEH,m
8284,Andy,DESCAMPS,1:13:32,633,34:47,1:00:15,1:09:21,1:13:32,BEL,1,44,Zonnebeke,4:35,13.13,M40,m
8860,Kris,VAN DEN BERGH,1:13:32,634,34:38,59:54,1:08:57,1:13:32,BEL,1,31,Antwerpen,4:35,13.13,SEH,m
3690,Bob,VAN BOUWEL,1:13:33,635,36:15,1:00:59,1:09:32,1:13:33,BEL,1,27,Antwerpen,4:35,13.13,SEH,m
4237,Steven,VYNCKIER,1:13:34,636,36:17,1:01:13,1:09:43,1:13:34,BEL,1,42,Wortegem-Petegem,4:35,13.13,M40,m
37163,Pascal,RIJDANT,1:13:34,637,34:27,1:00:41,1:09:22,1:13:34,BEL,1,49,Geraardsbergen,4:35,13.13,M45,m
36377,Nele,SCHERRE,1:13:34,638,36:29,1:01:15,1:09:32,1:13:34,BEL,1,37,Wanzele,4:35,13.13,F35,f
21839,Jonckheer,YANNICK,1:13:36,639,36:17,1:00:39,1:09:12,1:13:36,BEL,1,34,Berchem,4:35,13.12,SEH,m
1530,Gianni,DEBRUYNE,1:13:36,640,37:13,1:01:24,1:09:35,1:13:36,BEL,1,24,Edegem,4:35,13.12,SEH,m
2304,Jort,COLLIJN,1:13:37,641,35:27,1:00:47,1:09:53,1:13:37,BEL,1,32,Deurne,4:35,13.12,SEH,m
4832,Rik,SMETS,1:13:38,642,35:59,1:00:26,1:09:27,1:13:38,BEL,1,22,Wuustwezel,4:35,13.12,SEH,m
3135,Guy,MERTENS,1:13:39,643,36:41,1:01:01,1:09:28,1:13:39,BEL,1,40,Wilrijk,4:35,13.11,M40,m
21791,Tom,DEROOVER,1:13:39,644,34:53,1:00:07,1:09:13,1:13:39,BEL,1,32,Kallo,4:35,13.11,SEH,m
963,Rik,WITTERS,1:13:40,645,35:54,1:00:44,1:09:32,1:13:40,BEL,1,56,Meeuwen-Gruitrode,4:35,13.11,M55,m
2497,Wesley,DEPOORTER,1:13:41,646,35:51,1:00:33,1:09:26,1:13:41,BEL,1,25,Sint Amandsberg,4:35,13.11,SEH,m
4139,Stef,VERHOFSTEDE,1:13:41,647,35:41,1:00:52,1:09:29,1:13:41,BEL,1,26,Herenthout,4:35,13.11,SEH,m
6978,Jan,DEZEURE,1:13:41,648,0,0,0,1:13:41,BEL,1,66,Brasschaat,4:35,13.11,M65,m
8007,Yannick,DEFLEM,1:13:42,649,35:49,0,0,1:13:42,BEL,1,32,Rumst,4:35,13.1,SEH,m
36970,Jaouad,BOUTAGRAT,1:13:43,650,37:02,1:01:19,1:09:46,1:13:43,BEL,1,43,Hemiksem,4:35,13.1,M40,m
155,Rex,CASTELIJN,1:13:44,651,34:26,1:00:26,1:09:19,1:13:44,BEL,1,50,Temse,4:35,13.1,M50,m
44644,Nicolas,MARTINET,1:13:45,652,36:37,1:01:19,1:09:50,1:13:45,FRA,1,33,Feucherolles,4:35,13.1,SEH,m
9399,Vincent,GOES,1:13:46,653,37:51,1:02:09,1:10:01,1:13:46,BEL,1,16,'S-Gravenwezel,4:35,13.09,SEH,m
3881,Bart,VANFRAECHEM,1:13:48,654,33:11,1:00:21,1:09:36,1:13:48,BEL,1,38,Winksele,4:36,13.09,M35,m
7383,Ivo,FRANCK,1:13:50,655,37:15,1:01:34,1:10:02,1:13:50,BEL,1,48,Kontich,4:36,13.08,M45,m
22255,Ernest,BAELE,1:13:50,656,36:55,1:01:32,1:09:47,1:13:50,BEL,1,35,Brasschaat,4:36,13.08,M35,m
8293,Diederik,VANDENEEDE,1:13:51,657,36:50,1:00:59,1:09:29,1:13:51,BEL,1,45,Leefdaal,4:36,13.08,M45,m
14540,HEURCK Andres,VAN,1:13:51,658,36:59,1:01:49,1:09:56,1:13:51,BEL,1,13,Kontich,4:36,13.08,SEH,m
2110,Roel,BERNAERTS,1:13:52,659,35:31,1:00:57,1:09:40,1:13:52,BEL,1,37,Wuustwezel,4:36,13.08,M35,m
4313,Fabrizio,FRANGELLA,1:13:52,660,36:55,1:01:23,1:09:41,1:13:52,BEL,1,44,Strépy-Bracquegnies,4:36,13.07,M40,m
4316,Raf,DAEMS,1:13:53,661,36:49,1:01:41,1:10:03,1:13:53,BEL,1,38,Lier,4:36,13.07,M35,m
3955,Emelie,VAN ISACKER,1:13:54,662,36:28,1:01:24,1:09:53,1:13:54,BEL,1,24,Waregem,4:36,13.07,SEF,f
2263,Erik,CERESA,1:13:54,663,38:21,1:02:20,1:10:14,1:13:54,BEL,1,39,Korbeek-Lo,4:36,13.07,M35,m
8260,Nik,MAGNUS,1:13:55,664,36:04,1:02:26,1:10:14,1:13:55,BEL,1,33,Wilrijk,4:36,13.07,SEH,m
2884,Wouter,JANSEN,1:13:57,665,35:53,1:01:52,1:09:50,1:13:57,BEL,1,27,Minderhout,4:36,13.06,SEH,m
6683,Pascal,FLERACKERS,1:13:57,666,36:41,1:01:28,1:09:55,1:13:57,BEL,1,43,Houtvenne,4:36,13.06,M40,m
1396,Paul,PEETERS,1:13:58,667,35:52,1:01:21,1:09:50,1:13:58,BEL,1,54,Brasschaat,4:36,13.06,M50,m
23612,Stijn,DE WILDE-MONSIEUR,1:13:59,668,36:29,1:00:53,1:09:42,1:13:59,BEL,1,32,Aalst,4:36,13.05,SEH,m
1518,HEUCKELOM Jan,VAN,1:14:00,669,36:12,1:01:47,1:10:04,1:14:00,BEL,1,45,Hulshout,4:36,13.05,M45,m
4910,Levi,VAN SEMANG,1:14:01,670,37:17,1:01:41,1:10:19,1:14:01,BEL,1,20,Deurne,4:36,13.05,SEH,m
486,Jeroen,LAMBRECHTS,1:14:02,671,34:59,1:00:50,1:09:44,1:14:02,BEL,1,25,Merksem,4:36,13.05,SEH,m
1209,Bert,BERGMANS,1:14:02,672,34:59,1:00:50,1:09:44,1:14:02,BEL,1,25,Wijnegem,4:36,13.05,SEH,m
2630,Wim,EELEN,1:14:03,673,36:02,1:01:06,1:09:53,1:14:03,BEL,1,39,Brecht,4:36,13.04,M35,m
8875,Thomas,AERTSEN,1:14:03,674,37:12,1:01:34,1:09:58,1:14:03,BEL,1,28,Borgerhout,4:37,13.04,SEH,m
4024,Noor,VAN RIEL,1:14:03,675,37:12,1:01:35,1:09:58,1:14:03,BEL,1,27,Loenhout,4:37,13.04,SEF,f
4527,Thijs,WALCARIUS,1:14:03,676,37:41,1:01:50,1:10:15,1:14:03,BEL,1,29,De Pinte,4:37,13.04,SEH,m
14654,Wim,MATTENS,1:14:05,677,36:49,1:01:29,1:09:52,1:14:05,BEL,1,37,Denderleeuw,4:37,13.04,M35,m
964,Stijn,WITTERS,1:14:05,678,35:07,1:01:17,1:10:18,1:14:05,BEL,1,23,Meeuwen-Gruitrode,4:37,13.04,SEH,m
978,Timothy,DE JONGE,1:14:05,679,36:06,1:01:09,1:09:45,1:14:05,BEL,1,36,Gent,4:37,13.04,M35,m
1190,Frank,DE SMET,1:14:06,680,36:27,1:01:09,1:09:41,1:14:06,BEL,1,51,Willebroek,4:37,13.04,M50,m
4097,Stef,VERBRIGGHE,1:14:06,681,37:20,1:01:43,1:10:11,1:14:06,BEL,1,28,Mechelen,4:37,13.03,SEH,m
14715,Herrijgers,HENNY,1:14:06,682,35:58,1:01:57,1:10:10,1:14:06,BEL,1,41,Geel,4:37,13.03,M40,m
3234,Vincent,NOUWEN,1:14:07,683,36:25,1:01:39,1:09:59,1:14:07,BEL,1,24,Antwerpen,4:37,13.03,SEH,m
3008,Gaëtan,LEGON,1:14:08,684,35:57,1:01:19,1:10:09,1:14:08,BEL,1,23,Schoten,4:37,13.03,SEH,m
2114,Matthieu,BERTRAND,1:14:08,685,35:22,1:00:51,1:09:52,1:14:08,BEL,1,37,Elsene,4:37,13.03,M35,m
232,Tom,DE CLERCQ,1:14:09,686,35:35,1:01:00,1:09:53,1:14:09,BEL,1,41,Hamme,4:37,13.03,M40,m
16049,Sanne,DEVRIESE,1:14:09,687,35:57,1:01:48,1:10:26,1:14:09,BEL,1,31,Gent,4:37,13.02,SEF,f
1255,Wouter,NAUWELAERS,1:14:11,688,31:36,59:47,1:09:26,1:14:11,BEL,1,27,Bornem,4:37,13.02,SEH,m
23998,Stijn,DENOULET,1:14:12,689,35:37,1:00:22,1:09:25,1:14:12,BEL,1,44,Harelbeke,4:37,13.02,M40,m
3853,Joppe,VAN DIJCK,1:14:12,690,37:19,1:01:56,1:10:26,1:14:12,BEL,1,28,Berlaar,4:37,13.02,SEH,m
6733,Bryan,STERKEN,1:14:12,691,35:30,1:01:40,1:10:18,1:14:12,NLD,1,18,Lieshout,4:37,13.02,SEH,m
299,Peter,DESTOOP,1:14:12,692,34:57,1:02:11,1:10:00,1:14:12,BEL,1,46,Deurne,4:37,13.02,M45,m
6891,Peter,DECROCK,1:14:14,693,37:52,1:02:09,1:10:31,1:14:14,BEL,1,39,Gentbrugge,4:37,13.01,M35,m
37770,Geert,MESTDAGH,1:14:14,694,35:59,1:01:07,1:10:03,1:14:14,BEL,1,56,Brasschaat,4:37,13.01,M55,m
6861,Bjorn,VAN TICHELEN,1:14:15,695,37:38,1:01:41,1:10:15,1:14:15,BEL,1,39,Olen,4:37,13.01,M35,m
33845,Jasper,VAN LAERE,1:14:17,696,36:52,1:01:40,1:09:59,1:14:17,BEL,1,21,Muizen,4:37,13.0,SEH,m
7152,Mathias,CATTOIR,1:14:17,697,37:07,1:02:38,1:10:25,1:14:17,BEL,1,27,Gent,4:37,13.0,SEH,m
37657,Björn,MENTEN,1:14:17,698,36:32,1:02:06,1:10:18,1:14:17,BEL,1,40,Sint-Niklaas,4:37,13.0,M40,m
7707,Bart,SMET,1:14:18,699,36:35,1:02:09,1:10:30,1:14:18,BEL,1,48,Sint-Niklaas,4:37,13.0,M45,m
23781,Ilian,SMOLDERS,1:14:18,700,37:12,1:01:55,1:10:43,1:14:18,BEL,1,26,Zwijndrecht,4:37,13.0,SEH,m
634,Thijs,REYNIERS,1:14:19,701,30:30,1:01:57,1:10:41,1:14:19,BEL,1,31,Antwerpen,4:38,13.0,SEH,m
3736,Julien,VANDENBORRE,1:14:19,702,37:18,1:01:43,1:10:20,1:14:19,BEL,1,31,Uccle,4:38,13.0,SEH,m
3705,Tomas,VAN CLEYNENBREUGEL,1:14:19,703,35:01,1:00:52,1:10:09,1:14:19,BEL,1,29,Mechelen,4:38,12.99,SEH,m
1067,Siemen,GURNY,1:14:20,704,34:56,1:01:09,1:10:07,1:14:20,BEL,1,19,Vremde,4:38,12.99,SEH,m
568,Yves,MUYTERS,1:14:21,705,34:50,1:00:29,1:09:41,1:14:21,BEL,1,30,Mortsel,4:38,12.99,SEH,m
5673,Jan,MERCKX,1:14:21,706,36:18,1:01:10,1:10:01,1:14:21,BEL,1,31,Boechout,4:38,12.99,SEH,m
8153,Koen,HUS,1:14:21,707,37:10,1:01:58,1:10:25,1:14:21,BEL,1,43,Meerhout,4:38,12.99,M40,m
36637,Joeri,DE CAIGNY,1:14:22,708,35:53,1:01:38,1:10:23,1:14:22,BEL,1,28,Haasdonk,4:38,12.99,SEH,m
5569,Luc,VERVEKKEN,1:14:23,709,35:41,1:01:03,1:09:59,1:14:23,BEL,1,48,Itegem,4:38,12.99,M45,m
2094,Michael,BEIRINCKX,1:14:23,710,34:54,1:01:18,1:10:02,1:14:23,BEL,1,25,Berchem,4:38,12.98,SEH,m
9304,Mathias,HEYLEN,1:14:23,711,37:11,1:01:46,1:10:13,1:14:23,BEL,1,33,Antwerpen,4:38,12.98,SEH,m
24081,Dries,SABBE,1:14:23,712,34:57,1:01:14,1:10:20,1:14:23,BEL,1,29,Niel,4:38,12.98,SEH,m
1522,Pol,BLANCHARD,1:14:23,713,33:52,1:01:35,1:10:37,1:14:23,BEL,1,24,Vlezenbeek,4:38,12.98,SEH,m
24277,Verhoeven,MARNIX,1:14:23,714,35:57,1:01:24,1:10:32,1:14:23,BEL,1,24,Schilde,4:38,12.98,SEH,m
1333,Nick,VRANKEN,1:14:24,715,36:39,1:01:43,1:10:13,1:14:24,BEL,1,36,Beerzel,4:38,12.98,M35,m
23267,Tom,VERELLEN,1:14:24,716,36:20,1:01:50,1:10:23,1:14:24,BEL,1,26,Kasterlee,4:38,12.98,SEH,m
36792,Geert,DE RYCKE,1:14:24,717,36:30,1:02:02,1:10:31,1:14:24,BEL,1,41,Ganshoren,4:38,12.98,M40,m
2066,Roel,BAAKMAN,1:14:24,718,36:01,1:01:03,1:10:02,1:14:24,NLD,1,40,Antwerpen,4:38,12.98,M40,m
16779,Tim,LAMBRIGHS,1:14:25,719,37:19,1:02:01,1:10:24,1:14:25,BEL,1,37,Stevoort,4:38,12.98,M35,m
6872,Arne,DANIELS,1:14:26,720,36:41,1:01:45,1:10:25,1:14:26,BEL,1,18,Brasschaat,4:38,12.98,SEH,m
2336,Kees-Jan,DANKERS,1:14:26,721,35:57,1:01:35,1:10:27,1:14:26,NLD,1,43,Lier,4:38,12.97,M40,m
8309,Rik,COOLS,1:14:27,722,37:17,1:01:31,1:10:11,1:14:27,BEL,1,30,Retie,4:38,12.97,SEH,m
4163,Jan,VERMEULEN,1:14:27,723,36:18,1:01:36,1:10:23,1:14:27,BEL,1,42,Sint-Jans-Molenbeek,4:38,12.97,M40,m
31018,Jorn,DEMEY,1:14:27,724,36:49,1:02:29,1:10:36,1:14:27,BEL,1,27,Zaventem,4:38,12.97,SEH,m
23853,Pol,VAN DIONANT,1:14:27,725,37:40,1:02:38,1:10:27,1:14:27,BEL,1,35,Clabecq,4:38,12.97,M35,m
37203,Tom,CORDEMANS,1:14:27,726,35:55,1:01:45,1:10:26,1:14:27,BEL,1,38,Blaasveld,4:38,12.97,M35,m
6788,Wouter,BAETENS,1:14:28,727,35:48,1:01:15,1:10:17,1:14:28,BEL,1,29,Mechelen,4:38,12.97,SEH,m
198,Jo,CYPERS,1:14:28,728,35:11,1:01:04,1:10:17,1:14:28,BEL,1,36,Aarschot,4:38,12.97,M35,m
1072,Louis,LESCRINIER,1:14:30,729,35:13,1:01:31,1:10:32,1:14:30,BEL,1,19,S Gravenwezel,4:38,12.96,SEH,m
6171,Jan,CORNE,1:14:30,730,36:12,1:01:22,1:10:12,1:14:30,BEL,1,36,Wichelen,4:38,12.96,M35,m
3307,Ritchie,PIESSENS,1:14:32,731,37:11,1:01:57,1:10:30,1:14:32,NLD,1,36,Breda,4:38,12.96,M35,m
4170,Renaud,VERMEULEN,1:14:32,732,35:59,1:02:13,1:10:39,1:14:32,BEL,1,31,Mouscron,4:38,12.96,SEH,m
34864,Rik,VERWIMP,1:14:32,733,38:16,0,1:10:52,1:14:32,BEL,1,20,,4:38,12.96,SEH,m
6690,Kevin,HANNES,1:14:33,734,38:18,1:02:56,1:10:48,1:14:33,BEL,1,34,Laakdal,4:38,12.96,SEH,m
4155,Dries,VERMEIREN,1:14:34,735,37:33,1:02:39,1:10:55,1:14:34,BEL,1,17,Wuustwezel,4:38,12.95,SEH,m
3707,Patrick,VAN DAELE,1:14:34,736,36:57,1:01:33,1:10:23,1:14:34,BEL,1,58,Sint-Niklaas,4:38,12.95,M55,m
6193,Kevin,GEETS,1:14:34,737,37:26,1:01:25,1:10:41,1:14:34,BEL,1,30,Mechelen,4:38,12.95,SEH,m
1189,Kristof,DE PAU,1:14:34,738,33:50,59:57,1:09:37,1:14:34,BEL,1,38,Moerbeke-Waas,4:38,12.95,M35,m
3842,Arne,VAN DE WIELE,1:14:35,739,36:37,1:01:57,1:10:30,1:14:35,BEL,1,23,Duffel,4:38,12.95,SEH,m
37738,Tomas,VALASEK,1:14:35,740,36:30,1:02:19,1:10:39,1:14:35,SVK,1,46,Saint-Gilles,4:38,12.95,M45,m
34882,Jan,STICKENS,1:14:35,741,36:38,1:02:21,1:10:33,1:14:35,BEL,1,40,Vorselaar,4:38,12.95,M40,m
37297,Jo,SMAERS,1:14:35,742,37:01,1:02:13,1:10:41,1:14:35,BEL,1,52,Berchem,4:39,12.95,M50,m
23285,Jules,DELAERE,1:14:35,743,36:39,1:02:34,1:10:49,1:14:35,BEL,1,22,Wevelgem,4:39,12.95,SEH,m
22561,Els,DENOULET,1:14:36,744,37:02,1:02:16,1:10:36,1:14:36,BEL,1,39,Antwerpen,4:39,12.95,F35,f
1258,Michel,VERHELST,1:14:36,745,36:10,1:01:24,1:10:19,1:14:36,BEL,1,54,Kontich,4:39,12.95,M50,m
16357,Jan,VERMEULEN,1:14:36,746,35:42,1:01:00,1:10:02,1:14:36,BEL,1,39,Eksel,4:39,12.95,M35,m
1521,Hannes,DE SCHUTTER,1:14:36,747,36:07,1:02:34,1:10:30,1:14:36,BEL,1,20,Berlaar,4:39,12.95,SEH,m
2053,Maxim,ANDRIES,1:14:37,748,36:39,1:01:59,1:10:31,1:14:37,BEL,1,23,Duffel,4:39,12.94,SEH,m
23479,Charlotte,VANDERMERSCH,1:14:37,749,37:24,1:02:28,1:10:34,1:14:37,BEL,1,32,Sint-Stevens-Woluwe,4:39,12.94,SEF,f
8102,Benjamin,VERBOVEN,1:14:38,750,36:09,1:02:35,1:10:34,1:14:38,BEL,1,33,Kontich,4:39,12.94,SEH,m
38387,Jonas,ENGELS,1:14:38,751,36:13,0,1:10:17,1:14:38,BEL,1,28,Antwerpen,4:39,12.94,SEH,m
164,Miroslav,CIK,1:14:38,752,36:21,1:01:52,1:10:36,1:14:38,BEL,1,52,Boechout,4:39,12.94,M50,m
36902,Foeke,WAUTERS,1:14:38,753,36:50,1:01:04,1:10:20,1:14:38,BEL,1,25,Berchem,4:39,12.94,SEH,m
2854,Laurent,HULPIAU,1:14:39,754,36:09,1:01:52,1:10:24,1:14:39,BEL,1,27,Gent,4:39,12.94,SEH,m
862,Jonas,VAN OOSTERBOSCH,1:14:43,755,36:09,1:01:44,1:11:00,1:14:43,BEL,1,22,Lichtaart,4:39,12.93,SEH,m
1276,Dirk,VAN HOOF,1:14:43,756,34:45,1:00:43,1:10:01,1:14:43,BEL,1,52,Deurne,4:39,12.93,M50,m
1197,Tom,VANDERSMISSEN,1:14:43,757,37:15,1:02:01,1:10:34,1:14:43,BEL,1,24,Bilzen,4:39,12.93,SEH,m
24235,Forchini,BRUNO,1:14:44,758,36:15,1:01:30,1:10:16,1:14:44,ITA,1,52,Sovere,4:39,12.92,M50,m
1592,Manon,MERCIER,1:14:44,759,36:54,1:01:56,1:10:43,1:14:44,BEL,1,28,Antwerpen,4:39,12.92,SEF,f
29621,William,VANDE VYVERE,1:14:44,760,38:33,1:02:20,1:10:43,1:14:44,BEL,1,16,Aartselaar,4:39,12.92,SEH,m
35536,Wannes,BROOD,1:14:44,761,37:30,1:02:28,1:10:43,1:14:44,BEL,1,16,Antwerpen,4:39,12.92,SEH,m
19444,Natascha,CAERTS,1:14:44,762,36:44,1:01:33,1:10:30,1:14:44,BEL,1,34,Mol,4:39,12.92,SEF,f
314,Bert,D'HONDT,1:14:45,763,36:06,1:01:57,1:10:36,1:14:45,BEL,1,28,Sint-Amandsberg,4:39,12.92,SEH,m
182,Tom,COOLS,1:14:45,764,37:04,1:02:17,1:10:54,1:14:45,BEL,1,22,Wolvertem,4:39,12.92,SEH,m
7709,Michael,SZYNALIK,1:14:46,765,36:37,1:02:11,1:10:32,1:14:46,BEL,1,28,Borgerhout,4:39,12.92,SEH,m
8126,Daan,GOEMINNE,1:14:46,766,37:15,1:02:13,1:10:55,1:14:46,BEL,1,29,Wilrijk,4:39,12.92,SEH,m
878,Ludwig,VANTHILLO,1:14:47,767,37:36,1:02:39,1:10:49,1:14:47,BEL,1,42,Kalmthout,4:39,12.91,M40,m
1205,Wim,KELLENS,1:14:47,768,35:42,1:01:23,1:10:20,1:14:47,BEL,1,34,Sinaai,4:39,12.91,SEH,m
2231,Eric,CALUWAERTS,1:14:47,769,36:36,1:01:50,1:10:33,1:14:47,BEL,1,40,Berchem,4:39,12.91,M40,m
7899,Marlies,VERMEEREN,1:14:48,770,37:02,1:01:59,1:10:34,1:14:48,BEL,1,32,Mortsel,4:39,12.91,SEF,f
6636,Kevin,HUYGHE,1:14:48,771,36:21,1:01:15,1:10:20,1:14:48,BEL,1,37,Kapellen,4:39,12.91,M35,m
24122,Jef,GEERTS,1:14:48,772,35:10,1:01:59,1:10:32,1:14:48,BEL,1,21,Hoogstraten,4:39,12.91,SEH,m
9356,Glenn,DE BONT,1:14:48,773,37:12,1:02:32,1:10:49,1:14:48,BEL,1,41,Gent,4:39,12.91,M40,m
631,Koen,RENIER,1:14:50,774,35:29,1:03:31,1:10:52,1:14:50,BEL,1,47,Ranst,4:39,12.91,M45,m
32152,Thomas,LENS,1:14:51,775,36:25,1:01:57,1:10:37,1:14:51,BEL,1,36,Boortmeerbeek,4:39,12.9,M35,m
403,Nicholas,HAAGEN,1:14:51,776,34:58,1:00:44,1:10:08,1:14:51,BEL,1,30,Merksplas,4:40,12.9,SEH,m
4417,Thierry,COBBAUT,1:14:52,777,36:56,1:02:20,1:10:50,1:14:52,BEL,1,37,Stabroek,4:40,12.9,M35,m
21606,Niels,VAN BAKERGEM,1:14:52,778,36:53,1:02:01,1:10:40,1:14:52,NLD,1,33,Middelburg,4:40,12.9,SEH,m
24255,Yannick,CORTHALS,1:14:53,779,36:19,1:01:17,1:10:23,1:14:53,BEL,1,33,Antwerpen,4:40,12.9,SEH,m
81,Tom,BEKERS,1:14:54,780,36:11,1:01:46,1:10:34,1:14:54,BEL,1,32,Leuven,4:40,12.89,SEH,m
696,David,STEVENS,1:14:56,781,36:29,1:01:50,1:10:43,1:14:56,BEL,1,47,Borgerhout,4:40,12.89,M45,m
1285,Imre,VAN HERREWEGHE,1:14:56,782,36:16,1:02:14,1:10:42,1:14:56,BEL,1,30,Lebbeke,4:40,12.89,SEH,m
18856,Niels,VAN KLOOSTER,1:14:57,783,36:09,1:01:53,1:10:51,1:14:57,NLD,1,30,Brasschaat,4:40,12.89,SEH,m
34734,Levi,JACOBS,1:14:58,784,38:19,1:02:58,1:11:03,1:14:58,BEL,1,19,Westmalle,4:40,12.88,SEH,m
2201,Kris,BROUWERS,1:14:58,785,37:22,1:02:17,1:10:51,1:14:58,BEL,1,48,Arendonk,4:40,12.88,M45,m
4322,Boris,MUYLAERT,1:14:58,786,37:13,1:02:30,1:11:07,1:14:58,BEL,1,40,Denderwindeke,4:40,12.88,M40,m
2033,Jannes,AERTSEN,1:14:58,787,35:19,1:01:45,1:10:40,1:14:58,BEL,1,24,Heverlee,4:40,12.88,SEH,m
228,Michel,DECLERCK,1:15:01,788,35:45,1:02:08,1:10:45,1:15:01,BEL,1,36,Antwerpen,4:40,12.88,M35,m
995,Patricia,BONGAERTS,1:15:01,789,36:02,1:01:39,1:10:44,1:15:01,BEL,1,52,Antwerpen,4:40,12.87,F50,f
3932,Robin,VAN HOECK,1:15:02,790,36:28,1:02:17,1:11:02,1:15:02,BEL,1,26,Leuven,4:40,12.87,SEH,m
1193,Peter,HOLMSTOCK,1:15:02,791,35:35,1:01:22,1:10:35,1:15:02,BEL,1,50,Broechem,4:40,12.87,M50,m
3053,Wout,LOOS,1:15:03,792,36:36,1:02:01,1:10:46,1:15:03,BEL,1,31,Kasterlee,4:40,12.87,SEH,m
1447,Emmanuel,VERFAILLIE,1:15:03,793,37:23,1:02:56,1:11:10,1:15:03,BEL,1,46,Gullegem,4:40,12.87,M45,m
14758,Mathias,RAETS,1:15:04,794,35:55,1:01:54,1:10:26,1:15:04,BEL,1,29,Tessenderlo,4:40,12.87,SEH,m
3315,Johan,PLAS,1:15:04,795,38:02,1:02:35,1:11:10,1:15:04,BEL,1,50,Merchtem,4:40,12.87,M50,m
8295,Wouter,STEYFKENS,1:15:04,796,30:13,1:02:53,1:11:10,1:15:04,BEL,1,40,Tongeren,4:40,12.87,M40,m
8200,Gerd,TIMMERMANS,1:15:04,797,37:01,1:02:54,1:11:17,1:15:04,BEL,1,41,Deurne,4:40,12.87,M40,m
35534,Amine,BOUJOUH,1:15:05,798,34:38,1:02:02,1:10:40,1:15:05,BEL,1,19,Antwerpen,4:40,12.86,SEH,m
5315,Michael,BYLOOS,1:15:05,799,37:33,1:02:25,1:11:02,1:15:05,BEL,1,29,Tongeren,4:40,12.86,SEH,m
669,Michel,SCHROYEN,1:15:06,800,36:20,1:01:32,1:10:39,1:15:06,BEL,1,31,Gent,4:40,12.86,SEH,m
21265,Dieter,DUVAL,1:15:06,801,36:31,1:02:36,1:11:19,1:15:06,BEL,1,30,Nederokkerzeel,4:40,12.86,SEH,m
3191,Gregory,MORTELMANS,1:15:07,802,36:16,1:01:45,1:10:58,1:15:07,BEL,1,26,Antwerpen,4:40,12.86,SEH,m
3587,Bert,TAELMAN,1:15:07,803,33:19,1:00:54,1:10:31,1:15:07,BEL,1,38,Kessel-Lo,4:40,12.86,M35,m
3051,Gregory,LOOPMANS,1:15:07,804,36:18,1:01:14,1:10:36,1:15:07,BEL,1,34,Kalmthout,4:40,12.86,SEH,m
1328,Dennis,VERBOVEN,1:15:08,805,36:27,1:02:43,1:11:15,1:15:08,BEL,1,42,Bonheiden,4:41,12.86,M40,m
8266,Paulina,HACK,1:15:08,806,37:18,1:02:18,1:10:50,1:15:08,SWE,1,42,Kraainem,4:41,12.85,F40,f
7576,Laurens,VAN DEUN,1:15:08,807,38:06,1:02:12,1:11:11,1:15:08,BEL,1,25,Antwerpen,4:41,12.85,SEH,m
3379,Simon,ROBERTS,1:15:08,808,37:52,1:02:48,1:11:09,1:15:08,BEL,1,48,Lokeren,4:41,12.85,M45,m
633,Yf,REYKERS,1:15:09,809,36:02,1:01:34,1:10:58,1:15:09,BEL,1,29,Borgerhout,4:41,12.85,SEH,m
5694,Laurens,SCHELLEKENS,1:15:10,810,37:21,1:02:30,1:11:38,1:15:10,BEL,1,27,Merchtem,4:41,12.85,SEH,m
19977,Frits,DHAENENS,1:15:10,811,34:36,1:01:46,1:10:44,1:15:10,BEL,1,24,Kortrijk,4:41,12.85,SEH,m
254,Jan,DE KNIBBER,1:15:11,812,34:14,1:02:54,1:11:28,1:15:11,BEL,1,28,Melle,4:41,12.85,SEH,m
515,Benjamin,LION,1:15:11,813,31:35,56:50,1:10:55,1:15:11,BEL,1,20,Kalmthout,4:41,12.85,SEH,m
21400,Patrick,GILQUAIN,1:15:12,814,37:27,1:02:42,1:11:06,1:15:12,BEL,1,46,Chapelles A Wattines,4:41,12.84,M45,m
1222,Bart,BARTELS,1:15:12,815,36:40,1:02:14,1:10:59,1:15:12,BEL,1,36,Oud-Turnhout,4:41,12.84,M35,m
3262,Paula,PALANCO,1:15:13,816,37:50,1:02:30,1:11:02,1:15:13,ESP,1,27,Heverlee,4:41,12.84,SEF,f
1169,Christophe,KINDT,1:15:13,817,35:11,1:01:53,1:10:53,1:15:13,BEL,1,29,Meerdonk,4:41,12.84,SEH,m
34632,Tibo,VAN MEULDER,1:15:13,818,36:43,1:02:41,1:11:20,1:15:13,BEL,1,18,Bornem,4:41,12.84,SEH,m
24226,Ben,VERMEIREN,1:15:13,819,35:07,1:01:54,1:11:01,1:15:13,BEL,1,42,Brasschaat,4:41,12.84,M40,m
2088,Arthur,BECKERS,1:15:14,820,37:24,1:02:30,1:10:59,1:15:14,BEL,1,26,Linter,4:41,12.84,SEH,m
2272,Nico,CEUSTERS,1:15:14,821,36:07,1:02:23,1:10:52,1:15:14,BEL,1,27,Messelbroek,4:41,12.84,SEH,m
23715,Senne,ANTONISSEN,1:15:14,822,37:17,1:02:41,1:11:13,1:15:14,BEL,1,24,Zandhoven,4:41,12.84,SEH,m
5183,Michael,SCHOUWAERTS ZESTIEN,1:15:15,823,37:07,1:02:19,1:10:59,1:15:15,BEL,1,38,Brasschaat,4:41,12.83,M35,m
5245,Stefan,VAN GEEL,1:15:15,824,38:39,1:03:05,1:11:13,1:15:15,BEL,1,28,Essen,4:41,12.83,SEH,m
24246,Ricardo,HENRIQUES,1:15:16,825,35:47,1:01:28,1:10:56,1:15:16,PRT,1,28,Sint-Niklaas,4:41,12.83,SEH,m
5616,Johan,DE VREE,1:15:16,826,34:56,1:01:34,1:10:59,1:15:16,BEL,1,39,Borsbeek,4:41,12.83,M35,m
7998,Bart,VAN DE VELDE,1:15:16,827,35:51,1:02:24,1:11:04,1:15:16,BEL,1,35,Grobbendonk,4:41,12.83,M35,m
3927,Kristof,VANHEUSDEN,1:15:17,828,35:37,1:02:22,1:11:17,1:15:17,BEL,1,30,Antwerpen,4:41,12.83,SEH,m
6178,Antoine,DE CROMBRUGGHE,1:15:18,829,36:28,1:02:26,1:11:04,1:15:18,BEL,1,27,Sint Lambrechts Woluwe,4:41,12.83,SEH,m
4460,Niels,DE CLERCK,1:15:18,830,35:44,1:01:55,1:10:54,1:15:18,BEL,1,26,Kalmthout,4:41,12.83,SEH,m
3074,Robert,MAES,1:15:18,831,37:11,1:02:34,1:11:09,1:15:18,BEL,1,59,Reet,4:41,12.83,M55,m
22461,Felipe,OPDEBEECK,1:15:18,832,38:17,1:02:47,1:11:30,1:15:18,BEL,1,36,Mechelen,4:41,12.83,M35,m
6363,Andres,LOAIZA,1:15:18,833,37:18,1:02:36,1:11:33,1:15:18,BEL,1,29,,4:41,12.82,SEH,m
3989,Simon,VANMECHELEN,1:15:19,834,37:37,1:01:51,1:11:09,1:15:19,BEL,1,39,Sint-Truiden,4:41,12.82,M35,m
8446,Cyril,DHEUR,1:15:19,835,39:48,1:03:27,1:11:25,1:15:19,BEL,1,27,Antwerpen,4:41,12.82,SEH,m
5668,Karl,MAES,1:15:20,836,34:30,1:01:41,1:10:47,1:15:20,BEL,1,57,Anzegem,4:41,12.82,M55,m
16800,Piotr,LASOTA,1:15:21,837,35:45,1:02:04,1:11:11,1:15:21,POL,1,39,Antwerpen,4:41,12.82,M35,m
2772,Johannes,HAENICKE,1:15:23,838,37:31,1:02:53,1:11:17,1:15:23,DEU,1,35,Brussel,4:41,12.81,M35,m
4089,Kim,VERBESSELT,1:15:24,839,37:14,1:02:50,1:11:18,1:15:24,BEL,1,42,Buggenhout,4:42,12.81,M40,m
389,Aime,GOLVERS,1:15:24,840,36:54,1:02:27,1:11:10,1:15:24,BEL,1,60,Bonheiden,4:42,12.81,M60,m
21727,Jeroen,AVONTS,1:15:24,841,34:41,1:01:49,1:11:05,1:15:24,BEL,1,35,Antwerpen,4:42,12.81,M35,m
521,Yannick,LUYPAERT,1:15:25,842,35:31,1:01:28,1:10:50,1:15:25,BEL,1,24,Wilrijk,4:42,12.81,SEH,m
1498,Joris,ARTOIS,1:15:25,843,35:50,1:01:34,1:10:42,1:15:25,BEL,1,29,Pellenberg,4:42,12.81,SEH,m
2051,Louis,ANDRIES,1:15:25,844,34:18,1:01:00,1:11:04,1:15:25,BEL,1,25,Wielsbeke,4:42,12.81,SEH,m
1341,Koen,VAN DE WEYER,1:15:25,845,34:09,1:02:16,1:11:16,1:15:25,BEL,1,45,Lokeren,4:42,12.81,M45,m
23753,Willem,VAN ONGEVAL,1:15:26,846,39:41,1:03:14,1:11:24,1:15:26,BEL,1,26,Zandhoven,4:42,12.8,SEH,m
8343,Mattis,STEVENS,1:15:26,847,38:14,1:02:42,1:11:20,1:15:26,BEL,1,27,Zele,4:42,12.8,SEH,m
3467,Maxime,SCHNAPHAUF,1:15:27,848,37:53,1:03:03,1:11:35,1:15:27,BEL,1,19,'S-Gravenwezel,4:42,12.8,SEH,m
36785,Evert,JANSSENS,1:15:28,849,37:09,1:02:26,1:11:23,1:15:28,BEL,1,31,Antwerpen,4:42,12.8,SEH,m
384,Siemen,GITS,1:15:28,850,36:18,1:04:01,1:11:34,1:15:28,BEL,1,23,Wilrijk,4:42,12.8,SEH,m
516,Frederik,LION,1:15:29,851,37:16,1:02:14,1:11:12,1:15:29,BEL,1,47,Kalmthout,4:42,12.8,M45,m
1443,Bart,HANSSENS,1:15:29,852,37:23,1:02:57,1:11:16,1:15:29,BEL,1,46,Wevelgem,4:42,12.8,M45,m
36532,Thibaut,MAES,1:15:29,853,37:32,1:03:32,1:11:43,1:15:29,BEL,1,18,Kessel,4:42,12.79,SEH,m
6558,Gerald,VANDENHOVE,1:15:30,854,37:38,1:02:22,1:11:20,1:15:30,BEL,1,33,Ixelles,4:42,12.79,SEH,m
4289,Jasper,WOUTERS,1:15:30,855,36:01,1:02:08,1:11:17,1:15:30,BEL,1,31,Antwerpen,4:42,12.79,SEH,m
18285,Roel,VANHERREWEGEN,1:15:30,856,39:25,1:03:16,1:11:45,1:15:30,BEL,1,31,Landen,4:42,12.79,SEH,m
4724,Tibo,KREYDT,1:15:30,857,38:50,1:03:25,1:11:29,1:15:30,BEL,1,19,Emblem,4:42,12.79,SEH,m
8252,Cedric,HAVERHALS,1:15:31,858,36:30,1:02:37,1:11:30,1:15:31,BEL,1,35,Zandhoven,4:42,12.79,M35,m
545,Thijs,MERTENS,1:15:31,859,37:27,1:02:34,1:11:23,1:15:31,BEL,1,27,Heverlee,4:42,12.79,SEH,m
5007,Melanie,COISNE,1:15:31,860,36:40,1:02:29,1:11:20,1:15:31,BEL,1,35,Bois De Lessines,4:42,12.79,F35,f
219,Andy,DE BOECK,1:15:32,861,35:37,1:01:48,1:11:08,1:15:32,BEL,1,38,Mechelen,4:42,12.79,M35,m
22532,Mathieu,VANDERIVIERE,1:15:32,862,38:39,1:03:32,1:11:32,1:15:32,BEL,1,32,Brussel,4:42,12.79,SEH,m
9156,Glenn,VAN THOURNOUT,1:15:32,863,37:41,1:03:08,1:11:35,1:15:32,BEL,1,35,Sint-Michiels,4:42,12.79,M35,m
819,Christophe,VAN EYEN,1:15:32,864,36:08,1:02:20,1:11:02,1:15:32,BEL,1,39,Wijnegem,4:42,12.79,M35,m
24184,Hanne,DE KEERSMAEKER,1:15:33,865,37:24,1:02:56,1:11:23,1:15:33,BEL,1,31,Bornem,4:42,12.78,SEF,f
37797,Artico,HENRIQUE,1:15:34,866,38:27,1:02:57,1:11:04,1:15:34,BRA,1,27,Curitiba,4:42,12.78,SEH,m
20635,Hannes,VAN DE LAAR,1:15:34,867,35:46,1:02:34,1:11:25,1:15:34,BEL,1,26,Kalmthout,4:42,12.78,SEH,m
2967,Herke,KRANENBORG,1:15:35,868,36:20,1:03:02,1:11:24,1:15:35,NLD,1,42,Overijse,4:42,12.78,M40,m
3679,Dominique,VANBILLEMONT,1:15:36,869,34:44,1:01:02,1:11:01,1:15:36,BEL,1,33,Koksijde,4:42,12.78,SEH,m
2583,Nelis,D'HOLLANDER,1:15:36,870,36:26,1:02:14,1:11:18,1:15:36,BEL,1,31,Melsele,4:42,12.78,SEH,m
2128,Tim,BLOMME,1:15:36,871,36:10,1:01:59,1:11:10,1:15:36,BEL,1,32,Appels,4:42,12.78,SEH,m
14965,Hans,VAN KEER,1:15:37,872,34:46,1:00:36,1:10:59,1:15:37,BEL,1,45,Duffel,4:42,12.77,M45,m
2140,Mathis,BOGAERT,1:15:39,873,37:57,1:03:08,1:11:38,1:15:39,BEL,1,15,Rumbeke,4:42,12.77,SEH,m
471,Oussama,KASMI,1:15:39,874,35:16,1:01:31,1:11:24,1:15:39,BEL,1,23,Borgerhout,4:42,12.77,SEH,m
5493,Guy,VAN DE PERRE,1:15:40,875,34:56,1:01:04,1:11:01,1:15:40,BEL,1,36,Geel,4:43,12.76,M35,m
1118,Matthias,ZULKE,1:15:42,876,36:02,1:01:27,1:11:01,1:15:42,BEL,1,38,Brasschaat,4:43,12.76,M35,m
1142,Dirk,DEVELDER,1:15:42,877,37:45,1:02:45,1:11:33,1:15:42,BEL,1,38,Gent,4:43,12.76,M35,m
14636,Bert,MOENS,1:15:42,878,38:08,1:02:39,1:11:27,1:15:42,BEL,1,46,Dendermonde,4:43,12.76,M45,m
3596,Peter,TERSAGO,1:15:43,879,39:56,1:04:05,1:12:01,1:15:43,BEL,1,37,Berchem,4:43,12.76,M35,m
3236,Dieter,NUTTEN,1:15:44,880,37:00,1:03:34,1:11:43,1:15:44,BEL,1,37,Ieper,4:43,12.75,M35,m
1245,Nick,CEUSTERMANS,1:15:44,881,33:18,59:00,1:10:59,1:15:44,BEL,1,37,Schoten,4:43,12.75,M35,m
7738,Gregory,DUMOULEIN,1:15:44,882,36:48,1:02:45,1:11:23,1:15:44,BEL,1,34,8710,4:43,12.75,SEH,m
16057,Nikolas,DE WACHTER,1:15:45,883,37:55,1:02:44,1:11:28,1:15:45,BEL,1,41,Sint-Niklaas,4:43,12.75,M40,m
35179,Hakeem,OSMANU,1:15:45,884,37:49,1:02:57,1:11:39,1:15:45,BEL,1,18,Berchem,4:43,12.75,SEH,m
21386,Jeroen,PIETERS,1:15:45,885,35:49,1:02:05,1:11:25,1:15:45,BEL,1,38,Stekene,4:43,12.75,M35,m
5514,Sandra,VAN HOORENBEECK,1:15:45,886,37:59,1:02:56,1:11:31,1:15:45,BEL,1,36,Zoersel,4:43,12.75,F35,f
8202,Serge,MUYLLE,1:15:45,887,37:13,1:02:30,1:11:22,1:15:45,BEL,1,47,Keerbergen,4:43,12.75,M45,m
21911,Peter,VERMAELEN,1:15:45,888,37:15,1:02:56,1:11:55,1:15:45,BEL,1,45,Tremelo,4:43,12.75,M45,m
2134,Bert,BOEKAERTS,1:15:46,889,36:54,1:02:31,1:11:25,1:15:46,BEL,1,26,Berlaar,4:43,12.75,SEH,m
8822,Jelle,VAN DEN EEDE,1:15:46,890,36:19,1:02:03,1:11:13,1:15:46,BEL,1,32,Hombeek,4:43,12.75,SEH,m
125,Tycho,BROUCKE,1:15:46,891,35:35,1:02:09,1:11:21,1:15:46,BEL,1,17,Bornem,4:43,12.75,SEH,m
6594,Timothy,VERVAEKE,1:15:47,892,38:20,1:03:35,1:11:57,1:15:47,BEL,1,23,Waregem,4:43,12.74,SEH,m
20701,Bart,SCHRAUWEN,1:15:48,893,38:37,1:03:45,1:11:48,1:15:48,BEL,1,29,Antwerpen,4:43,12.74,SEH,m
3943,Filip,VAN HOVE,1:15:48,894,37:38,1:02:55,1:11:31,1:15:48,BEL,1,37,Londerzeel,4:43,12.74,M35,m
3485,David,SCOLIERS,1:15:49,895,37:29,1:02:53,1:11:42,1:15:49,BEL,1,35,Brasschaat,4:43,12.74,M35,m
6330,Sebastiaan,DHONT,1:15:50,896,34:22,1:00:38,1:11:16,1:15:50,BEL,1,24,,4:43,12.74,SEH,m
29856,Jeroen,ADRIAENSSEN,1:15:51,897,37:07,1:03:01,1:11:43,1:15:51,BEL,1,27,Malle,4:43,12.73,SEH,m
782,Philippe,VANDEPUTTE,1:15:52,898,35:48,1:02:14,1:11:28,1:15:52,BEL,1,51,Zwijndrecht,4:43,12.73,M50,m
3242,Freddy,NYS,1:15:52,899,35:57,1:01:35,1:11:04,1:15:52,BEL,1,60,Beveren,4:43,12.73,M60,m
14948,Evert,VAN OVERVELD,1:15:53,900,37:07,1:03:32,1:11:57,1:15:53,BEL,1,29,Zoersel,4:43,12.73,SEH,m
21950,Bart,REYNDERS,1:15:54,901,36:06,1:02:08,1:11:31,1:15:54,BEL,1,37,Boechout,4:43,12.72,M35,m
6768,Wesley,VANSEER,1:15:56,902,37:12,1:03:22,1:12:04,1:15:56,BEL,1,34,Genk,4:44,12.72,SEH,m
22821,Toon,GEYSEN,1:15:56,903,35:58,1:02:52,1:11:38,1:15:56,BEL,1,29,Hoogstraten,4:44,12.72,SEH,m
35138,Floris,VERMEULEN,1:15:57,904,36:39,1:02:12,1:11:22,1:15:57,BEL,1,36,,4:44,12.72,M35,m
2360,Bert,DE BLOCK,1:15:57,905,37:22,1:03:01,1:12:06,1:15:57,BEL,1,26,Waarschoot,4:44,12.72,SEH,m
1238,Benoit,LELOUP,1:15:57,906,35:20,1:03:07,1:11:52,1:15:57,BEL,1,44,Emblem,4:44,12.72,M40,m
6775,Jos,VERHOEVEN,1:15:58,907,36:38,1:02:37,1:11:47,1:15:58,NLD,1,62,Valkenswaard,4:44,12.71,M60,m
80,Dieter,BEKAERT,1:15:59,908,36:47,1:02:37,1:11:19,1:15:59,BEL,1,37,Burcht,4:44,12.71,M35,m
2295,Koen,CLEEREN,1:16:00,909,36:53,1:03:08,1:11:49,1:16:00,BEL,1,29,Antwerpen,4:44,12.71,SEH,m
424,Thierry,HERMANS,1:16:00,910,38:03,1:03:27,1:11:44,1:16:00,BEL,1,36,Wilrijk,4:44,12.71,M35,m
8072,Toon,BODEN,1:16:01,911,36:16,1:02:40,1:11:41,1:16:01,BEL,1,39,Kalmthout,4:44,12.71,M35,m
30325,Kevin,BOSSCHAERTS,1:16:01,912,39:22,1:04:14,1:12:00,1:16:01,BEL,1,29,Wommelgem,4:44,12.7,SEH,m
5646,Jonathan,JANSEN,1:16:01,913,36:27,1:02:57,1:12:02,1:16:01,BEL,1,20,Brecht,4:44,12.7,SEH,m
29833,Nick,VLOEMANS,1:16:03,914,39:08,1:03:51,1:12:15,1:16:03,BEL,1,35,Ravels,4:44,12.7,M35,m
24400,Stef,VAN MEEL,1:16:04,915,36:19,1:02:37,1:12:03,1:16:04,BEL,1,28,Mechelen,4:44,12.7,SEH,m
886,Bart,VAN WESENBEECK,1:16:04,916,33:07,1:01:18,1:11:23,1:16:04,BEL,1,40,Antwerpen,4:44,12.7,M40,m
23863,Kristof,VAN LOOY,1:16:05,917,37:22,1:02:59,1:11:51,1:16:05,BEL,1,29,Zoersel,4:44,12.7,SEH,m
6214,Raghuvir,KANE,1:16:06,918,38:04,1:03:31,1:12:02,1:16:06,IND,1,26,Zaragoza,4:44,12.69,SEH,m
34467,Jan Willem,ZEIJSEINK,1:16:06,919,36:38,1:03:09,1:11:44,1:16:06,NLD,1,58,Ovezande,4:44,12.69,M55,m
37622,Michael,CLOET,1:16:07,920,41:18,1:04:27,1:12:06,1:16:07,BEL,1,31,Heverlee,4:44,12.69,SEH,m
34770,Nassim,BENALI,1:16:08,921,39:41,1:04:09,1:12:16,1:16:08,NLD,1,22,,4:44,12.69,SEH,m
20418,Nils,PEETERS,1:16:08,922,38:35,1:03:27,1:12:09,1:16:08,BEL,1,32,Antwerpen,4:44,12.69,SEH,m
17252,Jurgen,PEERAER,1:16:10,923,39:21,1:03:52,1:12:15,1:16:10,BEL,1,28,Borsbeek,4:44,12.68,SEH,m
2485,Kenneth,DE NOEL,1:16:11,924,38:30,1:03:26,1:12:16,1:16:11,BEL,1,34,Ranst,4:44,12.68,SEH,m
19825,Jonas,VERMEULEN,1:16:12,925,35:53,1:03:12,1:12:14,1:16:12,BEL,1,35,Antwerpen,4:45,12.67,M35,m
22183,Siegmund,MEYERS,1:16:13,926,39:01,1:04:08,1:12:16,1:16:13,BEL,1,47,Antwerpen,4:45,12.67,M45,m
638,Walter,RODRIGUEZ RODRIGUEZ,1:16:13,927,38:07,1:03:35,1:12:02,1:16:13,BEL,1,51,Schilde,4:45,12.67,M50,m
17540,Britt,SCHOETERS,1:16:13,928,38:09,1:03:27,1:12:14,1:16:13,BEL,1,35,Merksem,4:45,12.67,F35,f
15890,Charlotte,DEMUNTER,1:16:13,929,36:26,1:03:14,1:12:06,1:16:13,BEL,1,27,Antwerpen,4:45,12.67,SEF,f
77,Brent,BECK,1:16:13,930,39:37,1:04:08,1:12:17,1:16:13,BEL,1,16,Sint- Gillis-Waas,4:45,12.67,SEH,m
8314,Wouter,CEYSSENS,1:16:14,931,38:05,1:03:57,1:12:17,1:16:14,BEL,1,39,Leuven,4:45,12.67,M35,m
637,Raf,RISBOURG,1:16:14,932,34:13,1:03:03,1:11:46,1:16:14,BEL,1,27,Essen,4:45,12.67,SEH,m
24301,Bart,HUBREGHT,1:16:15,933,35:28,1:01:57,1:11:37,1:16:15,BEL,1,35,Sijsele,4:45,12.67,M35,m
4856,Vincent,VAN AVERBEKE,1:16:15,934,35:20,1:03:22,1:12:27,1:16:15,BEL,1,23,Hove,4:45,12.67,SEH,m
588,Gert,PAEPEN,1:16:15,935,35:57,1:02:49,1:12:10,1:16:15,BEL,1,40,Mol,4:45,12.67,M40,m
38197,Kevin,ROOFTHOOFT,1:16:15,936,38:01,1:03:27,1:12:04,1:16:15,BEL,1,39,Bornem,4:45,12.67,M35,m
7936,Carl,BAETEN,1:16:17,937,37:36,1:02:46,1:11:50,1:16:17,BEL,1,54,Olv Waver,4:45,12.66,M50,m
3039,Peter,LIEVENS,1:16:18,938,36:08,1:02:34,1:11:35,1:16:18,BEL,1,53,Erembodegem,4:45,12.66,M50,m
690,Steven,SOMERS,1:16:18,939,37:24,1:03:06,1:12:01,1:16:18,BEL,1,54,Aartselaar,4:45,12.66,M50,m
572,Robin,NELISSEN,1:16:18,940,35:28,1:01:33,1:11:31,1:16:18,BEL,1,34,Werchter,4:45,12.66,SEH,m
1408,Jonas,STEENACKERS,1:16:18,941,34:21,1:02:30,1:11:58,1:16:18,BEL,1,26,Steenhuffel,4:45,12.66,SEH,m
967,Sil,WOUTERS,1:16:18,942,34:37,1:02:50,1:12:00,1:16:18,BEL,1,26,Heist-Op-Den-Berg,4:45,12.66,SEH,m
4651,Hicham,ELHARCHI,1:16:18,943,41:36,1:04:58,1:12:17,1:16:18,BEL,1,20,Aartselaar,4:45,12.66,SEH,m
8264,Mario,ORIS,1:16:19,944,39:43,1:03:56,1:12:19,1:16:19,BEL,1,52,Arendonk,4:45,12.66,M50,m
36773,Gilles,THEUNIS,1:16:19,945,37:11,1:03:28,1:12:24,1:16:19,BEL,1,24,Beauvechain,4:45,12.65,SEH,m
5747,Werner,VAN NUFFELEN,1:16:19,946,34:53,1:01:56,1:11:42,1:16:19,BEL,1,44,Pulderbos,4:45,12.65,M40,m
30305,Jelrik,BORMS,1:16:20,947,38:46,1:04:24,1:12:35,1:16:20,BEL,1,30,Eeklo,4:45,12.65,SEH,m
2955,Martijn,KNOOPS,1:16:20,948,37:54,1:03:46,1:12:06,1:16:20,BEL,1,29,Opglabbeek,4:45,12.65,SEH,m
7941,Thijs,HENDRICKX,1:16:20,949,35:43,1:02:27,1:11:32,1:16:20,BEL,1,33,Meerle,4:45,12.65,SEH,m
22423,Carl,CLOTTENS,1:16:20,950,37:50,1:03:22,1:12:12,1:16:20,BEL,1,37,Elsene,4:45,12.65,M35,m
24442,Stijn,VERMEIREN,1:16:20,951,36:24,1:02:52,1:11:55,1:16:20,BEL,1,22,Rijkevorsel,4:45,12.65,SEH,m
4211,Wout,VINCKEVLEUGEL,1:16:21,952,39:18,1:04:57,1:12:36,1:16:21,BEL,1,17,Schoten,4:45,12.65,SEH,m
855,Pieter,VAN LOKEREN,1:16:21,953,38:54,1:03:36,1:12:08,1:16:21,BEL,1,26,Zele,4:45,12.65,SEH,m
7686,Thomas,PHILIPPE,1:16:21,954,36:59,1:03:37,1:12:12,1:16:21,BEL,1,21,Borsbeek,4:45,12.65,SEH,m
368,Simon,GEERAERTS,1:16:22,955,36:34,1:02:33,1:11:53,1:16:22,BEL,1,27,Keerbergen,4:45,12.65,SEH,m
23411,Laurent,HARREWYN,1:16:22,956,37:48,1:03:46,1:12:30,1:16:22,BEL,1,28,Antwerpen,4:45,12.65,SEH,m
1463,Manuel,DEMAEREL,1:16:22,957,37:48,1:03:46,1:12:30,1:16:22,BEL,1,27,Antwerpen,4:45,12.65,SEH,m
18043,Francis,VANDENDRIESSCHE,1:16:23,958,38:38,1:04:07,1:12:19,1:16:23,BEL,1,25,Gent,4:45,12.64,SEH,m
38109,Sam,SCHOCKAERT,1:16:24,959,37:12,1:04:00,1:12:29,1:16:24,BEL,1,30,Antwerpen,4:45,12.64,SEH,m
1307,Vincent,SLEMBROUCK,1:16:24,960,36:48,1:02:45,1:12:06,1:16:24,BEL,1,28,Leuven,4:45,12.64,SEH,m
22714,Jurgen,BOSMANS,1:16:25,961,38:17,1:03:39,1:12:07,1:16:25,BEL,1,39,Tremelo,4:45,12.64,M35,m
1337,Patrick,DE WAARD,1:16:25,962,37:39,1:03:37,1:12:11,1:16:25,BEL,1,50,Lochristi,4:45,12.64,M50,m
1144,Steven,HELSEN,1:16:26,963,38:11,1:03:32,1:12:24,1:16:26,BEL,1,34,Nijlen,4:45,12.64,SEH,m
37325,37325, NR,1:16:27,964,None,None,None,1:16:27,BEL,1,0,,4:45,12.64,-,m
437,Danny,HEYRMAN,1:16:27,965,38:25,1:03:01,1:12:09,1:16:27,BEL,1,35,Beveren Waas,4:45,12.63,M35,m
8887,Jannah,VAN NEVEL,1:16:28,966,39:14,1:04:00,1:12:24,1:16:28,BEL,1,30,Gent,4:46,12.63,SEF,f
36992,Huibert,VAN GEENEN,1:16:28,967,38:09,1:04:04,1:12:20,1:16:28,NLD,1,36,Kerkdriel,4:46,12.63,M35,m
17712,Tom,STEURS,1:16:28,968,38:15,1:04:34,1:12:22,1:16:28,BEL,1,26,Vorselaar,4:46,12.63,SEH,m
36410,Carlo,CARDONE,1:16:28,969,36:12,1:03:44,1:12:10,1:16:28,BEL,1,30,Borgerhout,4:46,12.63,SEH,m
1477,Jeroen,HOFMAN,1:16:28,970,37:20,1:03:44,1:12:22,1:16:28,BEL,1,35,Dendermonde,4:46,12.63,M35,m
2343,Jeroen,DE BACKER,1:16:28,971,35:34,1:02:35,1:12:14,1:16:28,BEL,1,47,Kaprijke,4:46,12.63,M45,m
4593,Vincent,COOLS,1:16:30,972,37:12,1:04:28,1:12:18,1:16:30,BEL,1,22,Nijlen,4:46,12.63,SEH,m
21349,Jeroen,REGEER,1:16:31,973,38:29,1:03:59,1:12:28,1:16:31,NLD,1,29,Mortself,4:46,12.62,SEH,m
3877,Jonas,VAN ESBROECK,1:16:31,974,38:40,1:04:14,1:12:42,1:16:31,BEL,1,26,Beveren-Waas,4:46,12.62,SEH,m
373,Geert,GEUBBELMANS,1:16:31,975,36:15,1:03:06,1:12:10,1:16:31,BEL,1,47,Mol,4:46,12.62,M45,m
31343,Pieter,DOCHEZ,1:16:31,976,39:00,1:03:39,1:12:14,1:16:31,BEL,1,22,Kontich,4:46,12.62,SEH,m
7474,Wannes,MERTENS,1:16:32,977,37:35,1:03:23,1:12:15,1:16:32,BEL,1,32,Lichtaart,4:46,12.62,SEH,m
1206,Dries,NICOLAY,1:16:32,978,35:00,1:02:30,1:12:13,1:16:32,BEL,1,34,Lier,4:46,12.62,SEH,m
23921,Van Oevelen,WANNE,1:16:32,979,36:37,1:03:04,1:12:04,1:16:32,BEL,1,19,Essen,4:46,12.62,SEH,m
2918,Davy,JONNÉ,1:16:32,980,37:32,1:03:41,1:12:41,1:16:32,BEL,1,33,Nethen,4:46,12.62,SEH,m
5970,Piet,VANHALST,1:16:33,981,37:32,1:03:39,1:12:41,1:16:33,BEL,1,31,Leuven,4:46,12.62,SEH,m
2371,BRABANDERE Pieter,DE,1:16:33,982,36:52,1:04:26,1:12:25,1:16:33,BEL,1,18,Merksplas,4:46,12.62,SEH,m
23804,LANDEGHEM Jens,VAN,1:16:34,983,36:34,1:03:26,1:12:35,1:16:34,BEL,1,28,Sint-Pauwels,4:46,12.62,SEH,m
37932,STROOPER Niels,DE,1:16:34,984,37:35,1:04:43,1:12:59,1:16:34,BEL,1,22,Muizen,4:46,12.62,SEH,m
1384,Pieter,JORISSEN,1:16:35,985,36:43,1:02:45,1:12:11,1:16:35,BEL,1,39,Sint-Niklaas,4:46,12.61,M35,m
4346,Bert,RAVYSE,1:16:36,986,36:18,1:02:50,1:12:03,1:16:36,BEL,1,48,Sint-Denijs-Westrem,4:46,12.61,M45,m
37639,Sten,BORIES,1:16:36,987,38:00,1:03:16,1:12:13,1:16:36,BEL,1,33,Leuven,4:46,12.61,SEH,m
21504,Sebastiaan,VANBECELAERE,1:16:37,988,37:17,1:04:56,1:13:08,1:16:37,BEL,1,24,Gent,4:46,12.61,SEH,m
6770,Paul,VAN TUIJL,1:16:37,989,37:50,1:03:34,1:12:11,1:16:37,NLD,1,40,Eindhoven,4:46,12.61,M40,m
503,Rien,LEMMENS,1:16:37,990,33:35,1:03:12,1:12:37,1:16:37,BEL,1,24,Boechout,4:46,12.6,SEH,m
38041,Steven,LIEVENS,1:16:37,991,37:36,1:03:32,1:12:18,1:16:37,BEL,1,35,Aalst,4:46,12.6,M35,m
2314,Thomas,CORNELIS,1:16:38,992,36:26,1:02:39,1:12:04,1:16:38,BEL,1,31,Borgerhout,4:46,12.6,SEH,m
3597,Benoit,THALER,1:16:38,993,36:59,1:03:54,1:12:32,1:16:38,BEL,1,51,Edegem,4:46,12.6,M50,m
369,Steven,GEERAERTS,1:16:39,994,37:52,1:03:22,1:12:28,1:16:39,BEL,1,48,Deurne,4:46,12.6,M45,m
8863,Robin,LASTERS,1:16:40,995,38:51,1:04:12,1:12:45,1:16:40,BEL,1,25,Kontich,4:46,12.6,SEH,m
31178,Carolien,DE SUTTER,1:16:40,996,37:25,1:04:41,1:12:34,1:16:40,BEL,1,36,Heusden,4:46,12.6,F35,f
18947,Sjors,ZUIDERWIJK,1:16:41,997,38:29,1:04:43,1:12:57,1:16:41,NLD,1,27,Sint-Jans Molenbeek,4:46,12.59,SEH,m
5934,Jo,SWENNEN,1:16:41,998,38:11,1:03:29,1:12:31,1:16:41,BEL,1,33,Leuven,4:46,12.59,SEH,m
24367,Simon,BASTENIE,1:16:42,999,37:49,1:03:13,1:12:30,1:16:42,BEL,1,21,Boechout,4:46,12.59,SEH,m
902,Oliver,VERHEIJDEN,1:16:42,1000,38:28,1:03:50,1:12:22,1:16:42,NLD,1,32,Borgerhout,4:46,12.59,SEH,m
