runner id,name,lastname,time,rank,checkpt0,checkpt1,checkpt2,checkpt3,nationality,finished,age,city,pace,speed,category,sex
35711,Davy,CAPIAU,2:06:22,21001,59:34,1:42:22,1:58:20,2:06:22,BEL,1,28,Mortsel,7:52,7.64,SEH,m
30499,Samuel,CAULIER,2:06:22,21002,1:01:00,1:43:24,1:59:01,2:06:22,BEL,1,40,Buggenhout,7:52,7.64,M40,m
36431,Silviya,RUSEVA,2:06:22,21003,1:03:55,1:45:26,1:59:25,2:06:22,BEL,1,35,Burcht,7:52,7.64,F35,f
33350,Audrey,VAN CAMPENHOUT,2:06:23,21004,1:01:13,1:43:10,1:59:26,2:06:23,BEL,1,33,Overijse,7:52,7.64,SEF,f
32408,Zarah,MEYNTJENS,2:06:23,21005,1:01:37,1:44:38,1:59:49,2:06:23,BEL,1,35,Sint-Katelijne Waver,7:52,7.64,F35,f
38022,Tom,VAN HAAREN,2:06:23,21006,1:04:44,1:43:32,1:58:34,2:06:23,BEL,1,43,Mortsel,7:52,7.64,M40,m
38021,Florence,OKOU,2:06:23,21007,1:04:45,1:43:33,1:58:34,2:06:23,CIV,1,42,Mortsel,7:52,7.64,F40,f
32313,Steven,MARIS,2:06:23,21008,1:00:44,1:44:28,1:59:39,2:06:23,BEL,1,31,Herenthout,7:52,7.64,SEH,m
5521,Lune,VAN MIERLO,2:06:24,21009,59:33,1:44:58,2:00:22,2:06:24,BEL,1,26,Antwerpen,7:52,7.64,SEF,f
35705,Patricio,MARAMBIO,2:06:24,21010,58:49,1:43:22,1:59:09,2:06:24,BEL,1,34,Borgerhout,7:52,7.64,SEH,m
35293,Zakaria,ETTALBI,2:06:25,21011,1:01:38,1:45:00,2:00:26,2:06:25,BEL,1,16,,7:52,7.64,SEH,m
23693,Freya,VAN OPSTAL,2:06:25,21012,1:00:58,1:44:28,1:59:07,2:06:25,BEL,1,30,Antwerpen,7:52,7.64,SEF,f
21307,Marquita,SPEECKAERT,2:06:25,21013,1:01:41,1:44:13,1:59:17,2:06:25,BEL,1,51,Evergem,7:52,7.64,F50,f
30465,Cary,CAPPAERT,2:06:25,21014,1:02:58,1:45:56,1:59:49,2:06:25,BEL,1,55,Sint-Niklaas,7:52,7.64,F55,f
23694,Marie,MONSIEUR,2:06:25,21015,1:00:58,1:44:28,1:59:08,2:06:25,BEL,1,29,Antwerpen,7:52,7.64,SEF,f
3023,Jeroen,LEROUX,2:06:25,21016,1:01:38,1:44:39,1:59:50,2:06:25,BEL,1,36,Sint-Katelijne Waver,7:52,7.64,M35,m
18342,Conny,VAN IMMERSEEL,2:06:26,21017,52:55,1:40:09,1:58:33,2:06:26,BEL,1,52,Brecht,7:52,7.64,F50,f
38115,Luk,JANSSEN,2:06:26,21018,1:03:47,1:44:51,1:59:23,2:06:26,BEL,1,63,Antwerpen,7:52,7.64,M60,m
37626,Leen,JOCHEMS,2:06:26,21019,1:04:36,1:46:59,2:00:24,2:06:26,BEL,1,38,Sint Job In 'T Goor,7:52,7.64,F35,f
35299,Abdirashid,HUSSEIN Yahya,2:06:26,21020,1:00:39,1:42:13,2:00:29,2:06:26,SOM,1,13,,7:52,7.64,SEH,m
36907,Marilyn,SELS,2:06:27,21021,1:02:13,1:44:14,1:59:13,2:06:27,BEL,1,56,Brasschaat,7:52,7.64,F55,f
7235,Ingrid,ANDRIES,2:06:27,21022,1:03:24,1:44:54,1:59:03,2:06:27,BEL,1,46,Brugge,7:52,7.64,F45,f
30678,Marjan,CROES,2:06:28,21023,1:03:00,1:45:59,1:59:52,2:06:28,BEL,1,45,9140,7:52,7.64,F45,f
37627,Petrus,JOCHEMS,2:06:28,21024,1:04:37,1:47:00,2:00:25,2:06:28,BEL,1,67,Oelegem,7:52,7.64,M65,m
5252,Gert,VAN LEEUW,2:06:28,21025,57:52,1:43:33,1:58:57,2:06:28,BEL,1,42,Affligem,7:52,7.64,M40,m
33107,Lio,STEVENS,2:06:28,21026,1:00:58,1:44:41,1:59:33,2:06:28,BEL,1,23,Borgerhout,7:52,7.64,SEF,f
32624,Hélène,PEETERS,2:06:28,21027,1:01:41,1:43:21,1:58:55,2:06:28,BEL,1,24,Herenthout,7:52,7.64,SEF,f
32983,Debbie,SICHIEN,2:06:29,21028,59:34,1:45:01,1:59:59,2:06:29,BEL,1,40,Rumst,7:52,7.64,F40,f
19755,Evi,VAN OVERLOOP,2:06:29,21029,58:36,1:42:31,1:57:19,2:06:29,BEL,1,30,Antwerpen,7:52,7.64,SEF,f
20727,Hadeel,AL ZAIDI,2:06:30,21030,1:01:57,1:44:21,1:59:21,2:06:30,BEL,1,33,Essen,7:52,7.64,SEF,f
14787,Jouret,HILDE,2:06:30,21031,1:01:44,1:45:38,2:00:13,2:06:30,BEL,1,59,Beveren,7:52,7.64,F55,f
17203,Dave,OPDEBEECK,2:06:30,21032,1:00:26,1:43:35,1:59:16,2:06:30,BEL,1,36,Schoten,7:52,7.63,M35,m
20740,Katrijn,DECKERS,2:06:30,21033,1:01:58,1:44:21,1:59:21,2:06:30,BEL,1,40,Essen,7:52,7.63,F40,f
19748,Louis,KNOOP,2:06:31,21034,1:01:18,1:42:31,1:57:18,2:06:31,BEL,1,24,Essen,7:52,7.63,SEH,m
29855,Stef,CASTELYNS,2:06:31,21035,59:37,1:43:26,1:59:28,2:06:31,BEL,1,27,Arendonk,7:52,7.63,SEH,m
19556,Manon,LAANEN,2:06:32,21036,1:05:24,1:46:38,2:00:23,2:06:32,NLD,1,36,Duffel,7:52,7.63,F35,f
30549,Elise,CLAESSEN,2:06:32,21037,1:00:40,1:43:55,1:59:08,2:06:32,BEL,1,27,Lier,7:52,7.63,SEF,f
17743,Nikee,STORMS,2:06:32,21038,1:00:38,1:45:03,1:59:45,2:06:32,BEL,1,27,Rotselaar,7:52,7.63,SEF,f
34668,Toya,PANNEELS,2:06:32,21039,1:05:04,1:45:20,1:59:54,2:06:32,BEL,1,17,Puurs,7:52,7.63,SEF,f
36851,Robby,D'HOOGHE,2:06:33,21040,1:03:49,1:44:35,2:00:02,2:06:33,BEL,1,31,Boechout,7:52,7.63,SEH,m
19560,Greet,VERMAELEN,2:06:33,21041,1:05:24,1:46:39,2:00:23,2:06:33,BEL,1,34,Rumst,7:52,7.63,SEF,f
15023,Pieter,AERTS,2:06:33,21042,1:00:37,1:45:02,1:59:45,2:06:33,BEL,1,28,Herenthout,7:52,7.63,SEH,m
30563,Anja,CLEMHOUT,2:06:34,21043,0,1:45:03,1:59:45,2:06:34,BEL,1,48,Oombergen,7:52,7.63,F45,f
36328,Ilse,VERHAERT,2:06:34,21044,1:05:20,1:45:15,1:59:27,2:06:34,BEL,1,46,Stabroek,7:52,7.63,F45,f
19127,Mike,VAN DEN BROEK,2:06:34,21045,57:46,1:42:46,1:59:05,2:06:34,BEL,1,33,Muizen,7:52,7.63,SEH,m
34361,Cynthia,WENG,2:06:34,21046,1:04:46,1:45:08,1:59:45,2:06:34,NLD,1,39,Landgraaf,7:52,7.63,F35,f
31583,Mark,GOOSSENAERTS,2:06:34,21047,1:02:50,0,1:59:19,2:06:34,BEL,1,55,Kalmthout,7:52,7.63,M55,m
19749,Jurgen,MASSCHELEIN,2:06:34,21048,58:21,1:43:52,1:59:35,2:06:34,BEL,1,41,Ekeren,7:52,7.63,M40,m
7657,Katrien,VAN PRAET,2:06:35,21049,1:04:31,1:46:17,1:59:36,2:06:35,BEL,1,27,Antwerpen,7:52,7.63,SEF,f
35647,Akash,MORADIYA,2:06:35,21050,57:51,1:45:16,1:59:47,2:06:35,IND,1,27,Antwerp,7:52,7.63,SEH,m
24017,Abdlatif,KASMI,2:06:35,21051,59:37,1:45:27,1:59:26,2:06:35,BEL,1,48,Borgerhout,7:52,7.63,M45,m
33167,Orphae,TAVEIRNE,2:06:35,21052,1:04:08,1:45:22,2:00:20,2:06:35,BEL,1,28,Brugge,7:52,7.63,SEF,f
32217,Siska,LONY,2:06:35,21053,1:04:45,1:45:05,1:59:45,2:06:35,NLD,1,35,Heerlen,7:52,7.63,F35,f
36529,Cindy,JANSSENS,2:06:35,21054,1:03:53,1:45:09,1:59:16,2:06:35,BEL,1,42,Nijlen,7:52,7.63,F40,f
32061,Aurelie,LALLOYEAU,2:06:36,21055,1:00:19,1:43:58,1:59:53,2:06:36,FRA,1,33,Ferques,7:52,7.63,SEF,f
16795,Thierry,LANNOO,2:06:36,21056,1:05:17,1:45:05,2:00:17,2:06:36,BEL,1,38,Heule,7:52,7.63,M35,m
7550,Jolien,VANDECASTEELE,2:06:36,21057,58:09,1:43:13,1:59:56,2:06:36,BEL,1,26,Brussel,7:52,7.63,SEF,f
33453,Katrien,VAN DEN BOSSCHE,2:06:36,21058,1:05:17,1:45:05,2:00:17,2:06:36,BEL,1,36,De Pinte,7:52,7.63,F35,f
30243,Veerle,BOERSMA,2:06:37,21059,1:05:48,1:46:06,2:00:04,2:06:37,BEL,1,34,Affligem,7:52,7.63,SEF,f
23554,Stijn,VERFAILLIE,2:06:38,21060,58:30,1:46:20,2:00:05,2:06:38,BEL,1,39,Sint-Amandsberg,7:52,7.63,M35,m
2661,Doris,FRANCOIS,2:06:38,21061,1:02:20,1:45:32,1:59:57,2:06:38,BEL,1,53,Gentbrugge,7:52,7.63,F50,f
15308,Anja,BRAET,2:06:38,21062,1:00:15,1:45:45,2:00:17,2:06:38,BEL,1,45,Sint-Pauwels,7:52,7.63,F45,f
21649,Ilse,MAES,2:06:38,21063,1:01:18,1:44:48,1:59:27,2:06:38,BEL,1,32,Sint-Niklaas,7:53,7.63,SEF,f
20406,Esther,KINGANGAI,2:06:38,21064,1:02:30,1:45:21,1:59:53,2:06:38,BEL,1,53,Boom,7:53,7.63,F50,f
17112,Lisse,MOONS,2:06:38,21065,1:00:48,1:45:48,1:59:43,2:06:38,BEL,1,25,Lint,7:53,7.63,SEF,f
37184,Nadine,VERBERGHT,2:06:38,21066,1:01:23,1:44:08,1:59:55,2:06:38,BEL,1,43,Schoten,7:53,7.63,F40,f
19076,Hilde,RENDERS,2:06:38,21067,1:00:01,1:45:34,2:00:00,2:06:38,BEL,1,56,Antwerpen,7:53,7.63,F55,f
30009,Kristien,ADRIAENSEN,2:06:38,21068,1:01:01,1:43:46,1:59:42,2:06:38,BEL,1,37,Merksplas,7:53,7.63,F35,f
19066,Kirsten,DEVERS,2:06:38,21069,1:00:02,1:45:34,2:00:00,2:06:38,BEL,1,31,Hamme,7:53,7.63,SEF,f
32328,Alexandra,MARTIN,2:06:38,21070,1:04:09,1:45:27,1:59:51,2:06:38,BEL,1,28,Ingelmunster,7:53,7.63,SEF,f
36158,Joeri,VOETEN,2:06:39,21071,1:03:22,1:45:29,2:00:15,2:06:39,BEL,1,35,Wilrijk,7:53,7.63,M35,m
38056,Dominique,VAN GIEL,2:06:39,21072,1:00:21,1:45:03,1:59:37,2:06:39,BEL,1,33,Dessel,7:53,7.63,SEF,f
6793,Nicolas,DELAHAUT,2:06:40,21073,1:00:00,1:44:20,1:59:21,2:06:40,BEL,1,30,Oud Turnhout,7:53,7.63,SEH,m
33275,Louise,UYTTENHOVE,2:06:40,21074,1:04:11,1:45:28,1:59:52,2:06:40,BEL,1,25,Ingelmunster,7:53,7.62,SEF,f
123,Alexandra,BROUCKAERT,2:06:40,21075,1:01:05,1:45:23,2:00:05,2:06:40,BEL,1,23,Rotselaar,7:53,7.62,SEF,f
37961,Daniel,SAVIN,2:06:40,21076,59:22,1:44:00,1:59:02,2:06:40,BEL,1,17,Kapellen,7:53,7.62,SEH,m
18610,Ann,VERBOVEN,2:06:42,21077,1:00:27,1:45:50,2:00:02,2:06:42,BEL,1,50,Malle,7:53,7.62,F50,f
38323,Jamie,VAN DER JONCKHEYD,2:06:42,21078,1:00:11,1:43:45,1:59:57,2:06:42,BEL,1,26,Mortsel,7:53,7.62,SEH,m
30275,Nancy,BOLLÉ,2:06:42,21079,1:02:19,1:44:12,2:00:18,2:06:42,BEL,1,56,Wolvertem,7:53,7.62,F55,f
24388,Isabelle,MOYSON,2:06:42,21080,1:02:22,1:44:22,2:00:18,2:06:42,BEL,1,48,Meise,7:53,7.62,F45,f
36715,Jiaqian,SUN,2:06:43,21081,59:18,1:43:02,1:59:31,2:06:43,CHN,1,28,Leuven,7:53,7.62,SEH,m
36720,Man,ZHAO,2:06:43,21082,59:18,1:43:02,1:59:31,2:06:43,CHN,1,26,Leuven,7:53,7.62,SEF,f
31908,Charlotte,JANSSENS,2:06:43,21083,59:02,1:44:05,1:59:40,2:06:43,BEL,1,27,Wijnegem,7:53,7.62,SEF,f
9151,Nadine,WELLENS,2:06:43,21084,59:47,1:45:39,1:59:57,2:06:43,BEL,1,58,Paal,7:53,7.62,F55,f
30022,Charlotte,AERTS,2:06:44,21085,1:04:03,1:45:23,2:00:16,2:06:44,BEL,1,25,Ravels,7:53,7.62,SEF,f
327,Laurence,DOUCHY,2:06:44,21086,1:02:21,1:45:52,2:00:12,2:06:44,BEL,1,23,Kruishoutem,7:53,7.62,SEF,f
34362,An,WENS,2:06:44,21087,1:04:03,1:45:23,2:00:08,2:06:44,BEL,1,32,Ravels,7:53,7.62,SEF,f
31340,Sarah,DOBBELAERE,2:06:44,21088,59:30,1:41:56,1:57:45,2:06:44,BEL,1,25,Sint-Jan-In-Eremo,7:53,7.62,SEF,f
20610,Cedric,JACOBS,2:06:44,21089,1:01:43,1:46:08,2:00:00,2:06:44,BEL,1,32,Merksem,7:53,7.62,SEH,m
24198,Oswald,VERBERGT,2:06:44,21090,59:00,1:45:13,1:59:44,2:06:44,BEL,1,36,Antwerpen,7:53,7.62,M35,m
6478,Dorien,DE SCHRIJVER,2:06:44,21091,1:00:43,1:45:56,2:00:25,2:06:44,BEL,1,27,Wilrijk,7:53,7.62,SEF,f
36181,Peter,LOOS,2:06:44,21092,1:03:46,1:45:27,1:59:25,2:06:44,BEL,1,38,2070,7:53,7.62,M35,m
32981,Chris,SHAW,2:06:45,21093,59:44,1:44:33,1:59:40,2:06:45,GBR,1,52,Brecht,7:53,7.62,M50,m
35010,Mohamed,HAMED,2:06:45,21094,1:01:17,1:43:17,2:00:44,2:06:45,ESP,1,19,,7:53,7.62,SEH,m
35175,Nils,MERTENS,2:06:45,21095,1:01:55,1:43:43,2:00:29,2:06:45,BEL,1,18,Merksem,7:53,7.62,SEH,m
37466,Daniel,VAN MOL,2:06:46,21096,1:03:14,1:44:47,1:59:35,2:06:46,BEL,1,57,Mol,7:53,7.62,M55,m
15794,Kimberly,DE JAEGHER,2:06:46,21097,1:01:10,1:44:46,1:59:53,2:06:46,BEL,1,19,Deurne,7:53,7.62,SEF,f
31750,An,HERMANS,2:06:46,21098,1:06:03,1:45:48,2:00:17,2:06:46,BEL,1,33,Mol,7:53,7.62,SEF,f
36260,Jens,VERSTEVEN,2:06:47,21099,1:01:29,1:44:31,1:59:24,2:06:47,BEL,1,29,Borgerhout,7:53,7.62,SEH,m
33326,Debbie,VAN BEYLEN,2:06:47,21100,1:06:04,1:45:47,2:00:16,2:06:47,BEL,1,35,Mol,7:53,7.62,F35,f
908,Stephanie,VERLINDEN,2:06:47,21101,1:06:27,1:46:17,1:59:56,2:06:47,BEL,1,33,Duffel,7:53,7.62,SEF,f
31229,Aaike,DE VRIEZE,2:06:47,21102,1:00:03,1:44:00,1:59:35,2:06:47,BEL,1,41,Oostende,7:53,7.62,F40,f
37318,Harry,BLEEKER,2:06:47,21103,51:12,1:42:48,1:59:36,2:06:47,NLD,1,49,Antwerpen,7:53,7.62,M45,m
5609,Nathalie,DE RIDDER,2:06:47,21104,1:07:02,1:47:25,2:00:34,2:06:47,BEL,1,31,Ekeren,7:53,7.62,SEF,f
32441,Honoré,MONSIEUR,2:06:47,21105,1:05:47,1:46:06,2:00:14,2:06:47,BEL,1,58,Affligem,7:53,7.62,M55,m
21392,Wesley,DE BOCK,2:06:48,21106,1:00:11,1:45:41,2:00:15,2:06:48,BEL,1,26,Beveren,7:53,7.62,SEH,m
33455,Sylvia,VANDEN BOSSCHE,2:06:48,21107,1:05:48,1:46:05,2:00:13,2:06:48,BEL,1,40,Affligem,7:53,7.62,F40,f
31816,Ineke,HOHO,2:06:48,21108,1:03:51,1:45:35,1:59:51,2:06:48,BEL,1,46,Zulte,7:53,7.62,F45,f
31656,Griet,GYS,2:06:48,21109,1:05:56,1:47:00,2:00:25,2:06:48,BEL,1,43,Dessel,7:53,7.62,F40,f
37816,Jessica,WILTON,2:06:49,21110,1:04:22,1:44:44,2:00:38,2:06:49,CHE,1,25,Brasschaat,7:53,7.62,SEF,f
19277,Quinten,VERMORGEN,2:06:49,21111,57:55,1:45:19,2:00:56,2:06:49,BEL,1,23,Belsele,7:53,7.62,SEH,m
6378,Nikita,PAUWELS,2:06:49,21112,59:46,1:45:13,2:00:02,2:06:49,BEL,1,30,Meerdonk,7:53,7.62,SEF,f
33717,Gertjan,VAN GILS,2:06:49,21113,1:02:15,1:44:33,1:59:44,2:06:49,BEL,1,26,Antwerpen,7:53,7.62,SEH,m
33337,Ann,VAN BOVEN,2:06:49,21114,59:06,1:44:10,1:59:47,2:06:49,BEL,1,55,Schellebelle,7:53,7.62,F55,f
33444,Matthieu,VAN DEN BOGAERT,2:06:49,21115,1:01:19,1:45:11,1:59:51,2:06:49,BEL,1,38,Moerbeke,7:53,7.62,M35,m
19440,Wim,VERSCHUREN,2:06:50,21116,58:07,1:43:32,1:59:33,2:06:50,BEL,1,52,Sint-Niklaas,7:53,7.62,M50,m
7396,Amy,BELBA,2:06:50,21117,1:02:50,1:45:33,1:59:41,2:06:50,ALB,1,26,Wilsele,7:53,7.62,SEF,f
5659,Celine,LAMORT,2:06:50,21118,58:36,1:46:38,2:02:24,2:06:50,FRA,1,36,Antwerpen,7:53,7.62,F35,f
30422,Kim,BUYSE,2:06:50,21119,1:02:15,1:44:34,1:59:44,2:06:50,BEL,1,26,Antwerpen,7:53,7.61,SEF,f
17614,Anouk,SIMONS,2:06:50,21120,1:03:22,1:45:52,2:00:06,2:06:50,BEL,1,23,Bonheiden,7:53,7.61,SEF,f
31392,Michael,DUPONT,2:06:50,21121,1:01:53,1:45:24,1:59:38,2:06:50,NLD,1,56,Amersfoort,7:53,7.61,M55,m
30889,Nick,DE GROOF,2:06:50,21122,1:03:04,1:45:02,2:00:13,2:06:50,BEL,1,50,Kapellen,7:53,7.61,M50,m
35965,Alain,ANZEMPAMBER,2:06:51,21123,1:02:55,1:44:48,1:59:44,2:06:51,BEL,1,53,Brecht,7:53,7.61,M50,m
31840,Ellen,HSIA,2:06:51,21124,1:05:02,1:45:31,1:59:39,2:06:51,BEL,1,34,Stekene,7:53,7.61,SEF,f
18384,Walter,VAN LINDEN,2:06:51,21125,1:01:44,1:44:52,1:59:31,2:06:51,BEL,1,68,Antwerpen,7:53,7.61,M65,m
19674,Jan,VAN DE POEL,2:06:51,21126,1:00:39,1:44:52,2:00:18,2:06:51,BEL,1,41,Reet,7:53,7.61,M40,m
19520,Sofie,MARIEN,2:06:52,21127,1:00:14,1:44:47,1:59:45,2:06:52,BEL,1,45,Wilrijk,7:53,7.61,F45,f
1216,Axel,GERRITS,2:06:52,21128,1:01:25,1:44:32,1:58:45,2:06:52,BEL,1,66,Schilde,7:53,7.61,M65,m
32276,Ronny,MAES,2:06:52,21129,1:02:44,1:45:36,2:00:02,2:06:52,BEL,1,40,Olv Waver,7:53,7.61,M40,m
31800,Liesbeth,HOEDT,2:06:52,21130,1:00:22,1:46:47,2:00:43,2:06:52,BEL,1,29,Kessel-Lo,7:53,7.61,SEF,f
34652,Aiko,HERBOS,2:06:53,21131,1:04:42,1:44:55,2:00:21,2:06:53,BEL,1,17,Reet,7:53,7.61,SEH,m
19524,Sofie,VUYLSTEKE,2:06:53,21132,1:00:00,1:44:48,1:59:48,2:06:53,BEL,1,45,Hemiksem,7:53,7.61,F45,f
29978,Katrien,GELEYN,2:06:53,21133,1:03:09,1:45:47,2:00:03,2:06:53,BEL,1,54,Temse,7:53,7.61,F50,f
34309,Charlotte,VONK,2:06:53,21134,1:05:00,1:45:59,2:00:18,2:06:53,BEL,1,25,Antwerpen,7:53,7.61,SEF,f
6131,Christine,VERHEYEN,2:06:54,21135,1:04:11,1:46:02,2:00:11,2:06:54,BEL,1,41,Kruibeke,7:54,7.61,F40,f
31685,Joos,HARINCK,2:06:54,21136,1:03:36,1:44:43,1:59:36,2:06:54,NLD,1,26,Middelburg,7:54,7.61,SEH,m
19987,Bart,VAN QUICKENBORNE,2:06:54,21137,59:44,1:46:24,2:00:39,2:06:54,BEL,1,49,Wetteren,7:54,7.61,M45,m
6093,Els,REMON,2:06:54,21138,1:04:11,1:46:01,2:00:11,2:06:54,BEL,1,40,Bazel,7:54,7.61,F40,f
44804,Liese,ZEGERS,2:06:54,21139,1:03:58,1:45:39,1:59:58,2:06:54,BEL,1,26,Sint-Joris-Weert,7:54,7.61,SEF,f
19750,Leila,MELLAH,2:06:55,21140,56:22,1:40:48,1:58:55,2:06:55,NLD,1,33,Antwerpen,7:54,7.61,SEF,f
44805,Bethsabee,BELLINCK,2:06:55,21141,1:03:59,1:45:40,1:59:57,2:06:55,BEL,1,29,Korbeek-Lo,7:54,7.61,SEF,f
19753,Alain,RWANYAGASORE,2:06:55,21142,56:23,1:40:48,1:58:55,2:06:55,NLD,1,35,Wortel,7:54,7.61,M35,m
32803,Rose,ROELS,2:06:55,21143,1:00:57,1:44:36,1:59:28,2:06:55,BEL,1,51,Zele,7:54,7.61,F50,f
8223,Ieva,BALCERE,2:06:55,21144,1:02:20,1:45:20,2:00:06,2:06:55,BE,1,26,Merelbeke,7:54,7.61,SEF,f
8826,James,FINLAYSON,2:06:56,21145,1:01:40,1:46:39,2:01:18,2:06:56,GBR,1,49,Milton Keynes,7:54,7.61,M45,m
8825,Cairney,VICTORIA,2:06:56,21146,1:01:41,1:46:44,2:01:19,2:06:56,GBR,1,48,Milton Keynes,7:54,7.61,F45,f
24293,Dorothy,DERWEDUWEN,2:06:56,21147,1:00:58,1:44:35,1:59:29,2:06:56,BEL,1,31,Zele,7:54,7.61,SEF,f
31741,Elisabeth,HERBERT,2:06:56,21148,1:02:52,1:44:26,2:00:04,2:06:56,BEL,1,20,Deurle,7:54,7.61,SEF,f
5684,Marc,ONGENA,2:06:56,21149,58:13,1:43:22,1:59:25,2:06:56,BEL,1,58,Belsele,7:54,7.61,M55,m
31858,Willy,HUYGHE,2:06:57,21150,1:04:40,1:45:55,1:59:54,2:06:57,BEL,1,65,Wommelgem,7:54,7.61,M65,m
34847,Mike,VANLOMMEL,2:06:57,21151,1:03:36,1:46:00,2:00:47,2:06:57,BEL,1,20,,7:54,7.61,SEH,m
4808,Kaat,ROETS,2:06:57,21152,1:02:19,1:46:29,2:00:29,2:06:57,BEL,1,19,Duffel,7:54,7.61,SEF,f
5296,Alejandra,AVANDANO,2:06:57,21153,58:55,1:42:26,2:00:02,2:06:57,BEL,1,45,Schilde,7:54,7.61,F45,f
452,Daisy,JANSEN,2:06:57,21154,59:44,1:44:36,2:00:40,2:06:57,BEL,1,34,Vosselaar,7:54,7.61,SEF,f
21798,Hilde,LUYTENS,2:06:58,21155,1:00:31,1:45:18,1:59:27,2:06:58,BEL,1,54,Kallo,7:54,7.61,F50,f
31774,Petra,HEUTEN,2:06:58,21156,1:06:19,1:48:23,2:00:45,2:06:58,BEL,1,39,Wuustwezel,7:54,7.61,F35,f
21807,Isabel,WELTERS,2:06:58,21157,1:00:31,1:45:17,1:59:28,2:06:58,BEL,1,42,Kallo,7:54,7.61,F40,f
20101,Sahin,BALTA,2:06:59,21158,1:00:01,1:43:16,1:59:58,2:06:59,NLD,1,29,Ekeren,7:54,7.61,SEH,m
607,Martine,POSTELMANS,2:06:59,21159,1:01:37,1:47:03,2:00:32,2:06:59,BEL,1,49,Paal,7:54,7.61,F45,f
35688,Christel,CAUBERGHS,2:06:59,21160,1:02:45,1:45:57,2:00:07,2:06:59,BEL,1,54,Ekeren,7:54,7.61,F50,f
30202,An,BEYERS,2:06:59,21161,1:06:19,1:48:24,2:00:46,2:06:59,BEL,1,38,Wuustwezel,7:54,7.61,F35,f
23251,Houdda,HADDADI,2:07:00,21162,1:02:46,1:45:57,2:00:07,2:07:00,BEL,1,48,Ekeren,7:54,7.61,F45,f
5927,Guido,SEGHERS,2:07:00,21163,57:06,1:42:45,1:58:48,2:07:00,BEL,1,58,Leuven,7:54,7.6,M55,m
38191,Kim,LAUWEREYS,2:07:00,21164,1:02:46,1:45:59,2:00:07,2:07:00,BEL,1,41,Ekeren,7:54,7.6,M40,m
21004,Nathalie,DECUYPER,2:07:00,21165,1:03:54,1:45:07,1:59:59,2:07:00,BEL,1,25,Kessel-Lo,7:54,7.6,SEF,f
32352,Sven,MEERT,2:07:00,21166,56:50,1:44:33,1:59:50,2:07:00,BEL,1,41,Deurne,7:54,7.6,M40,m
34997,Marie,SCHRAUWEN,2:07:00,21167,1:05:55,1:45:53,2:00:22,2:07:00,BEL,1,33,,7:54,7.6,SEF,f
32729,Marcella,QUIST,2:07:00,21168,1:04:59,1:46:14,2:00:45,2:07:00,NLD,1,25,Boxtel,7:54,7.6,SEF,f
3966,Guido,VAN LAERHOVEN,2:07:00,21169,1:02:53,1:45:27,2:00:24,2:07:00,BEL,1,58,Wuustwezel,7:54,7.6,M55,m
33892,Pia,VAN LOOVEREN,2:07:00,21170,1:00:44,1:44:15,1:59:46,2:07:00,BEL,1,28,Zoersel,7:54,7.6,SEF,f
34602,Kris,VANSANTEN,2:07:01,21171,1:01:12,1:42:33,1:58:55,2:07:01,BEL,1,53,Keerbergen,7:54,7.6,M50,m
33853,Rosemarie,VAN LAERHOVEN,2:07:01,21172,1:02:53,1:45:27,2:00:25,2:07:01,BEL,1,18,Wuustwezel,7:54,7.6,SEF,f
30653,Gwenny,COURS,2:07:01,21173,1:01:46,1:45:35,2:00:13,2:07:01,BEL,1,42,Kalken,7:54,7.6,F40,f
34334,Kaat,WAGEMANS,2:07:01,21174,1:02:23,1:44:26,2:00:14,2:07:01,BEL,1,27,Leuven,7:54,7.6,SEF,f
44849,Peter,WAGEMANS,2:07:01,21175,1:02:23,1:44:26,2:00:13,2:07:01,BEL,1,56,Herenthout,7:54,7.6,M55,m
33722,Peter,VAN GOETHEM,2:07:01,21176,1:01:27,1:44:50,1:59:45,2:07:01,BEL,1,45,Hoboken,7:54,7.6,M45,m
31803,Tania,HOEFKENS,2:07:01,21177,1:01:57,1:45:42,2:00:32,2:07:01,BEL,1,44,Ham,7:54,7.6,F40,f
2761,Kim,GUILLIAMS,2:07:02,21178,1:02:42,1:46:11,2:00:10,2:07:02,BEL,1,24,Antwerpen,7:54,7.6,SEF,f
20116,Angela,SCHOONDERWOERD,2:07:02,21179,1:00:49,1:45:48,2:00:41,2:07:02,NLD,1,51,Wechelderzande,7:54,7.6,F50,f
30832,Pascal,DE CORTE,2:07:02,21180,1:01:59,1:44:09,2:00:02,2:07:02,BEL,1,45,Zottegem,7:54,7.6,M45,m
18641,Dorien,VERGAELEN,2:07:02,21181,59:58,1:46:36,2:00:22,2:07:02,BEL,1,26,Londerzeel,7:54,7.6,SEF,f
36126,Tine,BOECKX,2:07:02,21182,1:00:46,1:44:14,1:59:47,2:07:02,BEL,1,28,Antwerpen,7:54,7.6,SEF,f
36190,Tamara,LANGE,2:07:02,21183,59:19,1:44:49,2:00:18,2:07:02,NLD,1,39,Tessenderlo,7:54,7.6,F35,f
18193,Marc,VAN DRIESSCHE,2:07:02,21184,1:00:25,1:44:58,2:00:21,2:07:02,BEL,1,55,Mortsel,7:54,7.6,M55,m
36192,Marie-Jeanne,MARTENS,2:07:02,21185,59:18,1:44:50,2:00:18,2:07:02,BEL,1,55,Lommel,7:54,7.6,F55,f
18642,Marijke,VERGAELEN,2:07:02,21186,59:58,1:46:35,2:00:22,2:07:02,BEL,1,22,Londerzeel,7:54,7.6,SEF,f
6259,Dirk,STEURS,2:07:03,21187,1:01:00,1:46:37,2:01:16,2:07:03,BEL,1,50,Wilrijk,7:54,7.6,M50,m
30112,Laurens,BAKELANTS,2:07:03,21188,1:03:54,1:45:08,2:00:00,2:07:03,BEL,1,25,Geel,7:54,7.6,SEH,m
16150,Stefanie,DOMS,2:07:03,21189,59:59,1:46:36,2:00:22,2:07:03,BEL,1,24,Londerzeel,7:54,7.6,SEF,f
3443,Tim,SAP,2:07:03,21190,1:00:09,1:44:53,2:00:25,2:07:03,BEL,1,47,Hoogstraten,7:54,7.6,M45,m
38195,Koen,VERHAEGHE,2:07:03,21191,1:02:42,1:46:09,2:00:12,2:07:03,BEL,1,52,Antwerpen,7:54,7.6,M50,m
20348,Kristel,VAN SANTVOORT,2:07:04,21192,1:01:56,1:44:15,2:00:11,2:07:04,BEL,1,35,Reet,7:54,7.6,F35,f
18564,Maartje,VAN WAEYENBERGH,2:07:04,21193,1:02:11,1:45:33,2:00:09,2:07:04,BEL,1,21,Eppegem,7:54,7.6,SEF,f
24403,Marleen,MEUWIS,2:07:05,21194,1:02:53,1:44:59,2:00:14,2:07:05,BEL,1,28,Mechelen,7:54,7.6,SEF,f
17826,Erwin,TIELEMANS,2:07:05,21195,58:53,1:40:53,1:57:48,2:07:05,BEL,1,60,Schelle,7:54,7.6,M60,m
37200,Ingrid,BODEN,2:07:05,21196,1:02:39,1:45:22,2:00:12,2:07:05,BEL,1,55,Schoten,7:54,7.6,F55,f
6205,Paul,HEYLENS,2:07:05,21197,1:02:06,1:45:53,2:00:04,2:07:05,BEL,1,36,Antwerpen,7:54,7.6,M35,m
30402,Kenneth,BRYSSINCK,2:07:05,21198,1:02:29,1:44:52,1:59:47,2:07:05,BEL,1,28,Sint-Niklaas,7:54,7.6,SEH,m
5323,Sofie,COOLMAN,2:07:05,21199,56:24,1:44:26,2:00:03,2:07:05,BEL,1,32,Hoboken,7:54,7.6,SEF,f
8955,Dimitry,DECOSTER,2:07:06,21200,57:20,1:41:43,1:58:48,2:07:06,BEL,1,40,Vilvoorde,7:54,7.6,M40,m
22587,Jan,VERMEULEN,2:07:06,21201,1:00:49,1:46:26,2:00:39,2:07:06,BEL,1,57,Deurne,7:54,7.6,M55,m
37239,Ina,VAN DEN DRIES,2:07:06,21202,1:02:41,1:45:23,2:00:23,2:07:06,BEL,1,39,Schoten,7:54,7.6,F35,f
23085,Nancy,VAN APERS,2:07:06,21203,1:02:40,1:45:24,2:00:22,2:07:06,BEL,1,51,Schoten,7:54,7.6,F50,f
14995,Marc,VAN GYSEL,2:07:06,21204,1:04:17,1:45:50,2:00:02,2:07:06,BEL,1,51,Sint-Pauwels,7:54,7.6,M50,m
29711,Nadine,VERHEYEN,2:07:07,21205,1:01:37,1:45:58,2:00:15,2:07:07,BEL,1,53,Mechelen,7:54,7.6,F50,f
37491,Noortje,SCHALLEY,2:07:08,21206,1:03:18,1:45:36,2:00:15,2:07:08,BEL,1,25,Wijchmaal,7:54,7.6,SEF,f
6547,Johan,TACQ,2:07:08,21207,59:59,1:47:01,2:01:20,2:07:08,BEL,1,37,Molenstede,7:54,7.6,M35,m
19275,Nathalie,VAN KERCKHOVE,2:07:08,21208,1:00:35,1:45:11,1:59:58,2:07:08,BEL,1,27,Wachtebeke,7:54,7.6,SEF,f
44806,Peter,BRUYNINCKX,2:07:08,21209,1:00:57,1:45:09,2:00:31,2:07:08,BEL,1,55,Tienen Kumtich,7:54,7.6,M55,m
15567,Pieter,COX,2:07:08,21210,1:02:38,1:47:11,2:01:04,2:07:08,BEL,1,38,Wuustwezel,7:54,7.6,M35,m
44850,Willy,VERVOORT,2:07:08,21211,1:03:37,1:44:39,1:59:56,2:07:08,BEL,1,56,Lommel,7:54,7.6,M55,m
7700,Monique,WINDEY,2:07:09,21212,1:03:24,1:46:33,2:00:37,2:07:09,BEL,1,60,Wijnegem,7:54,7.6,F60,f
31275,Nathalie,DE WITTE,2:07:10,21213,1:04:12,1:45:56,2:00:20,2:07:10,BEL,1,31,Deurne,7:54,7.6,SEF,f
17250,Justine,PEELAERS,2:07:10,21214,1:03:05,1:45:58,2:00:40,2:07:10,BEL,1,27,Kuurne,7:54,7.6,SEF,f
35915,Frank,VANHAVERBEKE,2:07:10,21215,1:02:12,1:44:47,2:00:08,2:07:10,BEL,1,52,Deurne,7:55,7.59,M50,m
23044,Virginie,BEYST,2:07:11,21216,1:03:06,1:45:39,2:00:18,2:07:11,BEL,1,41,Rekkem,7:55,7.59,F40,f
4754,Jorien,MATTHÉ,2:07:11,21217,1:03:18,1:46:55,2:00:54,2:07:11,BEL,1,19,Zoersel,7:55,7.59,SEF,f
19589,Annelies,DEMEESTER,2:07:12,21218,1:03:07,1:45:40,2:00:18,2:07:12,BEL,1,33,Waregem,7:55,7.59,SEF,f
14627,Katrien,WUYTS,2:07:12,21219,1:00:14,1:45:39,2:00:00,2:07:12,BEL,1,37,Oeselgem,7:55,7.59,F35,f
30808,Hans,DE CLERCQ,2:07:12,21220,1:01:07,1:44:20,2:00:13,2:07:12,BEL,1,42,Nazareth,7:55,7.59,M40,m
7233,Louis,VANHAVERBEKE,2:07:13,21221,1:02:15,1:44:50,2:00:10,2:07:13,BEL,1,22,Deurne,7:55,7.59,SEH,m
9312,Krupinski,GRZEGORZ,2:07:13,21222,1:02:19,1:46:26,2:00:54,2:07:13,BEL,1,32,Antwerpen,7:55,7.59,SEH,m
23241,Annika,STRUYFS,2:07:13,21223,1:02:17,1:47:45,2:01:04,2:07:13,BEL,1,53,Brecht,7:55,7.59,F50,f
35856,Els,DENE,2:07:14,21224,1:03:31,1:45:34,2:00:26,2:07:14,BEL,1,38,Antwerpen,7:55,7.59,F35,f
18114,Ann,VANDERSCHAEGHE,2:07:14,21225,1:03:56,1:48:20,2:01:10,2:07:14,BEL,1,56,Lier,7:55,7.59,F55,f
5935,Caroline,TAELEMANS,2:07:14,21226,1:02:02,1:46:09,2:00:43,2:07:14,BEL,1,32,Leuven,7:55,7.59,SEF,f
23202,Stevie,RINNAERT,2:07:14,21227,1:00:03,1:44:54,2:00:38,2:07:14,BEL,1,31,Roeselare,7:55,7.59,SEF,f
34720,Maïté,HIEL,2:07:14,21228,1:03:55,1:46:04,2:00:26,2:07:14,BEL,1,18,Bornem,7:55,7.59,SEF,f
6125,Kelly,VAN MOL,2:07:14,21229,1:03:43,1:46:15,2:00:34,2:07:14,BEL,1,33,Oostmalle,7:55,7.59,SEF,f
44751,Günther,DE FLO,2:07:14,21230,1:02:36,1:47:06,2:00:37,2:07:14,BEL,1,46,Mariakerke,7:55,7.59,M45,m
44752,Dirk,VERDURME,2:07:14,21231,1:02:36,1:47:06,2:00:38,2:07:14,BEL,1,49,Gent,7:55,7.59,M45,m
4657,Dieter,EYZERMANS,2:07:14,21232,1:00:20,1:45:09,2:00:03,2:07:14,BEL,1,22,Antwerpen,7:55,7.59,SEH,m
31044,Katrien,DE NEVE,2:07:14,21233,1:04:27,1:45:56,2:00:35,2:07:14,BEL,1,38,Ninove,7:55,7.59,F35,f
32606,Sylvia,PAYNE,2:07:15,21234,1:04:28,1:45:56,2:00:35,2:07:15,BEL,1,36,Grimminge,7:55,7.59,F35,f
17782,Sara,TAEYMANS,2:07:15,21235,1:03:20,1:46:19,2:00:53,2:07:15,BEL,1,36,Nijlen,7:55,7.59,F35,f
34366,Evelien,WEYN,2:07:15,21236,1:03:43,0,2:00:07,2:07:15,BEL,1,29,Bazel,7:55,7.59,SEF,f
31556,Inge,GITS,2:07:15,21237,1:05:36,1:47:19,2:01:04,2:07:15,BEL,1,33,Messelbroek,7:55,7.59,SEF,f
8661,Patricia,VAN HOUT,2:07:16,21238,59:17,1:46:43,2:00:50,2:07:16,BEL,1,34,Lommel,7:55,7.59,SEF,f
31390,Denis,DUPONT,2:07:16,21239,1:01:59,1:46:05,2:00:31,2:07:16,BEL,1,48,Lippelo,7:55,7.59,M45,m
31528,Marie,GEUKENS,2:07:19,21240,1:02:46,1:46:29,2:00:51,2:07:19,BEL,1,30,Antwerpen,7:55,7.59,SEF,f
30338,Djamel,BOUTHIBA,2:07:20,21241,59:13,1:42:07,1:59:48,2:07:20,BEL,1,46,Evere,7:55,7.59,M45,m
4928,Pommelien,VERHEYEN,2:07:20,21242,1:01:51,1:46:13,2:00:36,2:07:20,BEL,1,19,Hove,7:55,7.59,SEF,f
33158,Linda,SZUMLANSKI,2:07:21,21243,1:02:46,1:45:56,2:00:44,2:07:21,BEL,1,49,Hasselt,7:55,7.58,F45,f
37552,Annick,VAN BETS,2:07:21,21244,1:05:46,1:48:35,2:01:05,2:07:21,BEL,1,17,Mechelen,7:55,7.58,SEF,f
34793,Aimée,ENDEMAN,2:07:22,21245,1:01:26,1:46:09,2:00:42,2:07:22,NLD,1,21,,7:55,7.58,SEF,f
32238,Sofie,LUYTEN,2:07:22,21246,1:02:19,1:45:19,2:00:22,2:07:22,BEL,1,19,Leest,7:55,7.58,SEF,f
44991,Samuel,WINTRAECKEN Seyit,2:07:22,21247,1:02:16,1:46:15,2:00:41,2:07:22,BEL,1,33,Mortsel,7:55,7.58,SEH,m
32747,Benny,RECK,2:07:22,21248,1:02:51,1:45:57,2:00:45,2:07:22,BEL,1,40,Hasselt,7:55,7.58,M40,m
18028,Jan,VAN DEN BROECK,2:07:22,21249,56:44,1:43:44,2:00:23,2:07:22,BEL,1,51,Heverlee,7:55,7.58,M50,m
2029,Peter,DE TROYER,2:07:23,21250,1:00:52,1:45:57,2:00:43,2:07:23,BEL,1,53,Sint-Niklaas,7:55,7.58,M50,m
37858,Geert,POTS,2:07:23,21251,59:50,1:45:02,2:00:18,2:07:23,BEL,1,49,Oostakker,7:55,7.58,M45,m
31154,Steven,DE SMEDT,2:07:23,21252,1:02:25,1:45:53,2:00:35,2:07:23,BEL,1,47,Ekeren,7:55,7.58,M45,m
31397,Marc,DUSCHEK,2:07:24,21253,1:05:25,1:44:59,1:59:30,2:07:24,BEL,1,47,Eikevliet,7:55,7.58,M45,m
44902,Suzy,DEROO,2:07:24,21254,1:02:25,1:45:54,2:00:15,2:07:24,BEL,1,38,Wilrijk,7:55,7.58,F35,f
34095,Nyssa,VERBRUGGEN,2:07:24,21255,1:05:26,1:44:59,2:00:14,2:07:24,BEL,1,30,Rumst,7:55,7.58,SEF,f
44705,Natalie,VAN COILLIE,2:07:24,21256,1:03:28,1:45:10,2:00:45,2:07:24,BEL,1,35,Aalter,7:55,7.58,F35,f
34022,Elien,VAN STEENBERGEN,2:07:24,21257,1:05:25,1:44:59,2:00:13,2:07:24,BEL,1,21,Eikevliet,7:55,7.58,SEF,f
44903,Lode,SMITS,2:07:25,21258,1:02:25,1:45:55,2:00:15,2:07:25,BEL,1,35,Wilrijk,7:55,7.58,M35,m
37998,Jan,MEURS Nick,2:07:25,21259,1:05:26,1:44:59,2:00:15,2:07:25,BEL,1,33,Malle,7:55,7.58,SEH,m
31333,Joelle,DINGEMANS,2:07:25,21260,1:04:25,1:45:26,2:00:00,2:07:25,BEL,1,27,Ekeren,7:55,7.58,SEF,f
34455,Jeroen,WYNANTS,2:07:25,21261,1:04:24,1:45:23,2:00:00,2:07:25,BEL,1,45,Ekeren,7:55,7.58,M45,m
31074,An-Sofie,DEPOORTER,2:07:26,21262,1:04:57,1:46:15,2:00:34,2:07:26,BEL,1,36,Ieper,7:55,7.58,F35,f
7154,Lena,CHIRON,2:07:26,21263,1:03:36,1:47:05,2:01:23,2:07:26,FRA,1,25,Henin Beaumont,7:55,7.58,SEF,f
376,Ronald,GEYSEMANS,2:07:27,21264,1:03:14,1:45:34,2:01:01,2:07:27,BEL,1,58,Temse,7:56,7.58,M55,m
32439,Katarine,MONDIRO,2:07:28,21265,1:01:12,1:45:24,2:00:14,2:07:28,FRA,1,26,Boom,7:56,7.58,SEF,f
37792,Roy,SZUSTAK James,2:07:28,21266,1:02:34,1:46:20,2:01:00,2:07:28,BEL,1,40,Antwerpen,7:56,7.58,M40,m
24432,Bart,BREUGELMANS,2:07:28,21267,1:02:33,1:45:44,2:00:14,2:07:28,BEL,1,31,Mol,7:56,7.58,SEH,m
34296,Guido,VITTIGLIO,2:07:28,21268,1:00:58,1:46:09,2:00:50,2:07:28,ITA,1,50,Hemiksem,7:56,7.58,M50,m
33721,Inga,VAN GOETHEM,2:07:29,21269,1:02:59,1:45:56,2:00:43,2:07:29,BEL,1,48,Vrasene,7:56,7.58,F45,f
37890,Maryline,BUSSCHOTS,2:07:30,21270,1:03:30,1:47:25,2:01:12,2:07:30,BEL,1,19,Kapellen,7:56,7.58,SEF,f
22809,Wilfried,EETEZONNE,2:07:31,21271,1:02:15,1:46:21,2:00:43,2:07:31,BEL,1,40,Antwerpen,7:56,7.57,M40,m
22807,Hans,BOECKX,2:07:31,21272,1:02:15,1:46:21,2:00:43,2:07:31,BEL,1,42,Antwerpen,7:56,7.57,M40,m
31917,Jidse,JANSSENS,2:07:31,21273,1:03:18,1:45:37,2:00:26,2:07:31,BEL,1,28,Belsele,7:56,7.57,SEF,f
21111,Koen,THIJS,2:07:31,21274,1:02:08,1:47:23,2:01:45,2:07:31,BEL,1,35,Genk,7:56,7.57,M35,m
21099,Peter,HAESEN,2:07:32,21275,1:02:08,1:47:23,2:01:45,2:07:32,BEL,1,35,Genk,7:56,7.57,M35,m
24357,Steven,FICHAUX,2:07:32,21276,1:02:29,1:45:21,1:59:45,2:07:32,BEL,1,40,Affligem,7:56,7.57,M40,m
31027,Kathleen,DE MULDER,2:07:32,21277,1:02:29,1:45:21,1:59:44,2:07:32,BEL,1,41,Asse,7:56,7.57,F40,f
35833,Inge,VAN DER AUWERA,2:07:32,21278,1:02:21,1:46:13,2:00:38,2:07:32,BEL,1,39,Tisselt,7:56,7.57,F35,f
32065,Robby,LAMBRECHT,2:07:32,21279,1:03:19,1:45:36,2:00:26,2:07:32,BEL,1,39,Waasmunster,7:56,7.57,M35,m
9236,Sven,APERS,2:07:32,21280,1:01:03,1:44:36,2:00:09,2:07:32,BEL,1,43,Beveren,7:56,7.57,M40,m
29733,Koen,HANSSENS,2:07:32,21281,59:34,1:46:21,2:01:04,2:07:32,BEL,1,36,Diegem,7:56,7.57,M35,m
20362,Margot,BORMS,2:07:33,21282,1:01:58,1:45:03,2:00:57,2:07:33,BEL,1,27,Deurne,7:56,7.57,SEF,f
30506,Brigitte,CERPENTIER,2:07:34,21283,1:03:01,1:46:00,2:00:46,2:07:34,BEL,1,51,Sint Niklaas,7:56,7.57,F50,f
21750,Larissa,EVYTCH,2:07:34,21284,1:05:28,1:47:09,2:01:25,2:07:34,BEL,1,41,Brasschaat,7:56,7.57,F40,f
20432,Thomas,VAN DEN BRANDE,2:07:34,21285,1:01:58,1:45:03,2:00:58,2:07:34,BEL,1,29,Mortsel,7:56,7.57,SEH,m
22710,Linda,VAN WEYENBERG,2:07:36,21286,1:01:31,1:45:14,2:00:20,2:07:36,BEL,1,46,Berlare,7:56,7.57,F45,f
8050,Marijke,LUYCKX,2:07:38,21287,57:58,1:44:20,2:00:25,2:07:38,BEL,1,58,Brasschaat,7:56,7.57,F55,f
32701,Jessie,POORTMANS,2:07:38,21288,1:03:53,1:44:46,2:00:11,2:07:38,BEL,1,25,Borsbeek,7:56,7.57,SEF,f
17786,Ulrike,TANGHE,2:07:38,21289,1:02:26,1:46:09,2:01:13,2:07:38,BEL,1,25,Ename,7:56,7.57,SEF,f
408,Stephan,HARDONK,2:07:38,21290,57:43,1:42:49,2:00:12,2:07:38,NLD,1,33,Poppel,7:56,7.57,SEH,m
23168,Debby,MOYSON,2:07:39,21291,55:22,1:41:01,1:59:34,2:07:39,BEL,1,0,,7:56,7.57,-,f
668,Eva,SCHRIJNEMAKERS,2:07:39,21292,57:44,1:42:51,2:00:11,2:07:39,NLD,1,27,Poppel,7:56,7.57,SEF,f
6497,Philippe,HEEREN,2:07:39,21293,0,1:47:55,2:01:55,2:07:39,BEL,1,27,Broechem,7:56,7.57,SEH,m
21122,Nienke,BIENSTMAN,2:07:41,21294,1:01:56,1:45:11,2:01:07,2:07:41,BEL,1,24,Geel,7:56,7.56,SEF,f
37712,Peter,DASSEN,2:07:41,21295,1:00:03,1:46:10,2:01:07,2:07:41,BEL,1,38,Geel,7:56,7.56,M35,m
24053,Maureen,SAKURAI,2:07:41,21296,1:02:04,1:45:42,2:01:00,2:07:41,BEL,1,42,Laeken,7:56,7.56,F40,f
7766,Sabrina,VAN DAMME,2:07:42,21297,1:03:00,1:46:49,2:01:04,2:07:42,BEL,1,47,Zele,7:56,7.56,F45,f
20084,Melissa,SMET,2:07:43,21298,1:05:14,1:46:49,2:01:06,2:07:43,BEL,1,27,Antwerpen,7:57,7.56,SEF,f
22872,Katrien,SAS,2:07:43,21299,1:01:51,1:46:06,2:00:48,2:07:43,BEL,1,28,Berchem,7:57,7.56,SEF,f
22866,Octavian,DUCA,2:07:43,21300,1:01:44,1:46:06,2:00:47,2:07:43,ROU,1,34,Antwerpen,7:57,7.56,SEH,m
38182,Dries,CALUWÉ,2:07:43,21301,58:00,1:42:20,1:59:30,2:07:43,BEL,1,26,Antwerpen,7:57,7.56,SEH,m
32368,Lynn,MELSE,2:07:44,21302,1:00:17,1:45:14,2:00:54,2:07:44,BEL,1,28,Hoboken,7:57,7.56,SEF,f
33702,Jolien,VANGEEL,2:07:44,21303,1:04:28,1:46:33,2:00:54,2:07:44,BEL,1,27,Mol,7:57,7.56,SEF,f
14561,Jan,WILLEMS,2:07:44,21304,1:04:19,1:45:45,2:00:43,2:07:44,BEL,1,61,Mol 2400,7:57,7.56,M60,m
20108,Glenn,JOOS,2:07:44,21305,57:24,1:44:43,2:02:10,2:07:44,BEL,1,23,Stabroek,7:57,7.56,SEH,m
20910,Stijn,GILLIS,2:07:45,21306,1:00:11,1:45:34,2:00:32,2:07:45,BEL,1,34,Kruibeke,7:57,7.56,SEH,m
7060,Eva,DE WAELE,2:07:46,21307,1:03:35,1:46:31,2:01:08,2:07:46,BEL,1,24,Schoten,7:57,7.56,SEF,f
4973,Jan,BEDDELEEM,2:07:46,21308,1:05:14,1:45:40,2:00:59,2:07:46,BEL,1,31,Buizingen,7:57,7.56,SEH,m
38035,Robin,CLAESEN,2:07:47,21309,1:00:17,1:44:43,2:01:00,2:07:47,BEL,1,25,Turnhout,7:57,7.56,SEF,f
901,Michel,VERGOTTE,2:07:47,21310,0,1:45:03,2:00:11,2:07:47,BEL,1,20,Waregem,7:57,7.56,SEH,m
30610,Ronald,COOLKENS,2:07:47,21311,55:14,1:47:37,2:01:31,2:07:47,BEL,1,56,Herselt,7:57,7.56,M55,m
34962,Kaat,VAN DEN EYNDE,2:07:47,21312,1:04:02,1:46:58,2:01:18,2:07:47,BEL,1,16,Melsele,7:57,7.56,SEF,f
32751,Thomas,REHER,2:07:48,21313,1:05:15,1:45:41,2:01:00,2:07:48,BEL,1,29,Rotselaar,7:57,7.56,SEH,m
3207,Kristof,MUYLAERT,2:07:49,21314,1:01:03,1:45:55,2:01:42,2:07:49,BEL,1,34,Leuven,7:57,7.56,SEH,m
31723,Els,HENDRICKX,2:07:49,21315,1:06:01,1:47:38,2:01:31,2:07:49,BEL,1,45,Asse,7:57,7.56,F45,f
3956,Matthias,VAN KERKHOVE,2:07:49,21316,1:05:50,1:45:24,2:00:38,2:07:49,BEL,1,26,Schaarbeek,7:57,7.56,SEH,m
23439,Brecht,MEIRESON,2:07:49,21317,58:06,1:44:57,2:01:01,2:07:49,BEL,1,24,Gent,7:57,7.56,SEH,m
1192,Raimund,FELDER,2:07:50,21318,1:01:20,1:45:22,2:01:48,2:07:50,DEU,1,56,Antwerpen,7:57,7.56,M55,m
33267,Nikki,TUTELEERS,2:07:50,21319,1:03:56,0,2:00:59,2:07:50,BEL,1,28,Mortsel,7:57,7.56,SEF,f
31542,Ellen,GIELIS,2:07:51,21320,1:04:41,1:46:15,2:00:38,2:07:51,BEL,1,36,Lier,7:57,7.55,F35,f
20908,Job,GILLIS,2:07:51,21321,1:00:18,1:45:40,2:00:39,2:07:51,BEL,1,32,Zwijndrecht,7:57,7.55,SEH,m
22049,Sofie,VAN DEN EYNDE,2:07:52,21322,1:05:28,1:46:25,2:01:01,2:07:52,BEL,1,36,Lier,7:57,7.55,F35,f
796,Alexander,VANDERVENNET,2:07:54,21323,1:00:30,1:44:35,2:01:17,2:07:54,BEL,1,39,Tervuren,7:57,7.55,M35,m
34000,Steven,VAN ROY,2:07:54,21324,1:00:18,1:44:19,2:00:39,2:07:54,BEL,1,47,Mechelen,7:57,7.55,M45,m
30324,Peggy,BOSSAERTS,2:07:54,21325,1:00:18,1:44:19,2:00:39,2:07:54,BEL,1,46,Koningshooikt,7:57,7.55,F45,f
35863,Roxanne,VAN LAER,2:07:54,21326,1:01:48,1:44:16,2:00:26,2:07:54,BEL,1,26,Berchem,7:57,7.55,SEF,f
20180,Jeroen,BENATS,2:07:54,21327,1:00:43,0,2:01:16,2:07:54,BEL,1,33,Herkdestad,7:57,7.55,SEH,m
16298,Marielle,FRIJTERS,2:07:54,21328,1:02:41,1:46:22,2:00:23,2:07:54,NLD,1,45,Breda,7:57,7.55,F45,f
2043,Glen,ALLEMAN,2:07:55,21329,1:03:12,1:45:49,2:01:45,2:07:55,BEL,1,26,Deurne,7:57,7.55,SEH,m
20080,Karen,RENTMEESTERS,2:07:55,21330,1:04:10,1:46:41,2:01:35,2:07:55,BEL,1,39,Waasmunster,7:57,7.55,F35,f
2458,Gauthier,DEMARET,2:07:55,21331,59:57,1:44:01,2:00:25,2:07:55,BEL,1,35,Bruxelles,7:57,7.55,M35,m
14747,Apiah,HUUDU,2:07:56,21332,1:00:55,1:46:23,2:02:26,2:07:56,BEL,1,29,Antwerpen,7:57,7.55,SEH,m
23840,Elly,SMEYERS,2:07:56,21333,1:02:37,1:45:49,2:01:23,2:07:56,BEL,1,49,Dessel,7:57,7.55,F45,f
30271,Alfons,BOLLANSEE,2:07:58,21334,1:02:13,1:46:31,2:01:21,2:07:58,BEL,1,52,Wijnegem,7:57,7.55,M50,m
35191,Damon,VAN DER GOTEN,2:07:58,21335,1:01:38,1:46:15,2:01:28,2:07:58,BEL,1,20,Deurne,7:58,7.55,SEH,m
30609,Kristoff,COOLEN,2:07:58,21336,1:07:20,1:47:39,2:00:48,2:07:58,BEL,1,49,Edegem,7:58,7.55,M45,m
35143,Joannic,BOSSAERTS,2:08:00,21337,1:01:40,1:46:17,2:01:31,2:08:00,BEL,1,20,Schilde,7:58,7.55,SEF,f
4900,Annebel,VAN LOOVEREN,2:08:00,21338,59:28,1:47:11,2:01:05,2:08:00,BEL,1,23,Brecht,7:58,7.55,SEF,f
4931,Sofie,VERMEIREN,2:08:00,21339,59:29,1:47:11,2:01:04,2:08:00,BEL,1,20,Brecht,7:58,7.55,SEF,f
22516,Lotte,SEIGNEUR,2:08:00,21340,1:03:28,1:47:33,2:01:47,2:08:00,BEL,1,29,Kluisbergen,7:58,7.55,SEF,f
8423,Robin,BERENDSEN,2:08:00,21341,59:18,1:44:27,2:00:11,2:08:00,BEL,1,24,Kessello,7:58,7.55,SEH,m
8424,Marc,BERENDSEN,2:08:01,21342,59:18,1:44:27,1:58:06,2:08:01,BEL,1,55,Kessello,7:58,7.54,M55,m
33434,Monia,VAN DEN BERGHE,2:08:01,21343,54:42,1:42:10,2:00:26,2:08:01,BEL,1,47,Izegem,7:58,7.54,F45,f
33979,Paulien,VANROBAEYS,2:08:01,21344,51:36,1:42:10,2:00:27,2:08:01,BEL,1,20,Izegem,7:58,7.54,SEF,f
5393,Vijay,URMALIYA,2:08:02,21345,1:01:20,1:47:30,2:02:06,2:08:02,BEL,1,40,Antwerpen,7:58,7.54,M40,m
23287,Annelore,VANDENDRIESSCHE,2:08:02,21346,51:50,1:42:10,2:00:27,2:08:02,BEL,1,49,Izegem,7:58,7.54,F45,f
19517,Etienne,CUYPERS,2:08:02,21347,59:54,1:45:47,2:01:10,2:08:02,BEL,1,72,Berchem,7:58,7.54,M70,m
15651,Barbara,DE BOECK,2:08:02,21348,1:01:23,1:46:17,2:00:41,2:08:02,BEL,1,28,Antwerpen,7:58,7.54,SEF,f
23585,Kelly,DE MAESSCHALCK,2:08:04,21349,1:02:30,1:46:32,2:00:57,2:08:04,BEL,1,36,Wetteren,7:58,7.54,F35,f
19628,Bente,LE BRUYN,2:08:04,21350,1:02:48,1:47:33,2:02:12,2:08:04,BEL,1,29,Deurne,7:58,7.54,SEF,f
8630,Johan,VAN RAEMDONCK,2:08:06,21351,55:29,1:48:30,2:01:27,2:08:06,BEL,1,50,Beveren,7:58,7.54,M50,m
37179,Greet,VAN OVERBERGHE,2:08:06,21352,1:06:40,1:47:47,2:01:40,2:08:06,BEL,1,54,Deinze,7:58,7.54,F50,f
30163,Charlotte,BELIEN,2:08:06,21353,1:03:52,1:46:58,2:01:12,2:08:06,BEL,1,29,Herent,7:58,7.54,SEF,f
17006,Judith,MEERS,2:08:07,21354,59:40,1:45:00,2:00:31,2:08:07,BEL,1,35,Bilzen,7:58,7.54,F35,f
34402,Sam,WINDEY,2:08:08,21355,1:04:12,1:45:58,2:01:10,2:08:08,BEL,1,44,Kuurne,7:58,7.54,M40,m
35723,Tung,LEUNG Wing,2:08:08,21356,1:05:39,1:46:24,2:01:14,2:08:08,BEL,1,40,Oelegem,7:58,7.54,M40,m
7157,Eva,DE BROUWER,2:08:09,21357,1:05:09,1:47:00,2:01:21,2:08:09,BEL,1,25,Berchem,7:58,7.54,SEF,f
36156,Kristof,PARREN,2:08:09,21358,1:04:22,1:45:53,2:00:35,2:08:09,BEL,1,41,Lint,7:58,7.54,M40,m
14999,Tony,DILLEN,2:08:09,21359,1:02:11,0,2:01:23,2:08:09,BEL,1,49,Zwijndrecht,7:58,7.54,M45,m
36157,Kimberley,VAN BERGEN,2:08:09,21360,1:04:25,1:45:54,2:00:38,2:08:09,BEL,1,27,Kapellen,7:58,7.54,SEF,f
29964,Stefanie,MATTHYS,2:08:09,21361,1:03:52,1:46:50,2:01:49,2:08:09,BEL,1,25,Steendorp,7:58,7.54,SEF,f
2894,Benny,JANSSENS,2:08:10,21362,1:05:20,0,2:01:16,2:08:10,BEL,1,64,Edegem,7:58,7.54,M60,m
33240,Breen,TOM Van Den,2:08:10,21363,1:02:03,1:44:26,2:01:06,2:08:10,BEL,1,36,Stekene,7:58,7.54,M35,m
33554,Kristien,VANDERHAEGEN,2:08:10,21364,1:03:12,1:46:29,2:01:03,2:08:10,BEL,1,41,Nokere,7:58,7.54,F40,f
30348,Meike,BRACKE,2:08:11,21365,1:02:04,1:44:27,2:01:07,2:08:11,BEL,1,16,Stekene,7:58,7.53,SEF,f
34110,Maud,VERCAUTEREN,2:08:11,21366,1:02:04,1:44:28,2:01:07,2:08:11,BEL,1,16,Hamme,7:58,7.53,SEF,f
36324,Greet,JUNIUS,2:08:11,21367,1:01:42,1:46:26,2:01:28,2:08:11,BEL,1,49,Wijnegem,7:58,7.53,F45,f
4787,Laura,PAUWELS,2:08:12,21368,1:00:39,1:45:57,2:01:33,2:08:12,BEL,1,20,Stabroek,7:58,7.53,SEF,f
35321,Onur,YUSEIN,2:08:12,21369,1:02:17,1:44:36,2:01:20,2:08:12,BGR,1,18,,7:58,7.53,SEH,m
35315,Leon,POPESCU,2:08:12,21370,1:02:16,1:44:36,2:01:20,2:08:12,ROU,1,23,,7:58,7.53,SEH,m
5101,Junaed,KABIR,2:08:13,21371,1:01:10,1:47:01,2:01:33,2:08:13,BEL,1,54,Brasschaat,7:58,7.53,M50,m
6028,Liesbeth,COTTEM,2:08:13,21372,1:02:18,1:46:42,2:01:21,2:08:13,BEL,1,32,Lokeren,7:58,7.53,SEF,f
37592,Janelle,GIELEN,2:08:13,21373,1:04:33,1:47:19,2:02:34,2:08:13,BEL,1,14,,7:58,7.53,SEF,f
34415,Ingrid,WOLLEBRANTS,2:08:13,21374,1:04:31,1:45:45,2:01:02,2:08:13,BEL,1,35,Duffel,7:58,7.53,F35,f
21661,Ann,VEREYCKEN,2:08:14,21375,1:02:58,1:45:21,2:01:18,2:08:14,BEL,1,39,Hemiksem,7:58,7.53,F35,f
5246,Jelle,VAN GOMPEL,2:08:14,21376,1:04:33,1:47:06,2:01:18,2:08:14,BEL,1,31,Brasschaat,7:59,7.53,SEH,m
33385,Anneleen,VAN DAMME,2:08:15,21377,1:05:27,1:46:53,2:01:09,2:08:15,BEL,1,26,Ruppelmonde,7:59,7.53,SEF,f
6050,Debby,DE WAEL,2:08:15,21378,1:02:13,1:46:41,2:01:16,2:08:15,BEL,1,42,Lokeren,7:59,7.53,F40,f
5238,Veerle,VANDERMARLIERE,2:08:15,21379,1:04:34,1:47:07,2:01:21,2:08:15,BEL,1,28,Brasschaat,7:59,7.53,SEF,f
31648,David,REQUENA CUBEROS,2:08:15,21380,1:03:55,1:45:30,2:01:27,2:08:15,BEL,1,39,Deurne,7:59,7.53,M35,m
33744,Ines,VAN HASSELT,2:08:15,21381,1:05:26,1:47:26,2:01:35,2:08:15,BEL,1,36,Loenhout,7:59,7.53,F35,f
30674,Gerald,CRIEL,2:08:16,21382,1:04:13,1:46:52,2:01:27,2:08:16,BEL,1,49,Brasschaat,7:59,7.53,M45,m
6384,Guy,QUICK,2:08:16,21383,1:01:43,1:48:16,2:02:10,2:08:16,BEL,1,46,,7:59,7.53,M45,m
33875,Stijn,VANLOMMEL,2:08:16,21384,1:01:41,1:45:40,2:01:36,2:08:16,BEL,1,21,Geel,7:59,7.53,SEH,m
6379,Nona,PENSAERT,2:08:16,21385,1:02:41,1:48:54,2:01:39,2:08:16,BEL,1,24,,7:59,7.53,SEF,f
6029,Marcia,COTTEM,2:08:16,21386,1:02:21,1:46:45,2:01:23,2:08:16,BEL,1,26,Lebbeke,7:59,7.53,SEF,f
33543,Barbara,VAN DER BREMPT,2:08:16,21387,1:03:10,1:46:28,2:01:49,2:08:16,BEL,1,28,Wilrijk,7:59,7.53,SEF,f
31847,Rony,HUNGENAERT,2:08:16,21388,1:00:49,1:46:23,2:01:30,2:08:16,BEL,1,64,Brugge,7:59,7.53,M60,m
24106,Martine,WILLEMS,2:08:17,21389,1:00:12,1:47:51,2:02:06,2:08:17,BEL,1,51,Destelbergen,7:59,7.53,F50,f
32517,Christel,NIJS,2:08:17,21390,1:01:36,1:43:49,2:00:40,2:08:17,BEL,1,54,Boutersem,7:59,7.53,F50,f
21627,Ine,VANDEKEYBUS,2:08:17,21391,1:06:39,1:48:27,2:02:20,2:08:17,BEL,1,24,Loenhout,7:59,7.53,SEF,f
18170,Christel,VAN DE WIEL,2:08:18,21392,1:04:35,1:47:35,2:01:47,2:08:18,BEL,1,49,Ninove,7:59,7.53,F45,f
38209,Bert,PIETERS,2:08:18,21393,1:02:43,1:46:35,2:02:01,2:08:18,BEL,1,35,Lovenjoel,7:59,7.53,M35,m
15191,William,BEYST,2:08:18,21394,1:02:59,1:46:55,2:01:10,2:08:18,BEL,1,38,Brasschaat,7:59,7.53,M35,m
1549,Gertjan,VERDICKT,2:08:19,21395,1:00:32,1:43:11,2:00:42,2:08:19,BEL,1,28,Londerzeel,7:59,7.53,SEH,m
19160,Jonathan,BADISCO,2:08:19,21396,1:00:39,1:46:27,2:01:31,2:08:19,BEL,1,35,Liedekerke,7:59,7.53,M35,m
19495,Katrien,NUYTS,2:08:19,21397,58:54,1:43:24,1:59:35,2:08:19,BEL,1,41,Antwerpen,7:59,7.53,F40,f
32793,Xena,RODRIGUEZ,2:08:19,21398,1:05:24,1:46:22,2:01:15,2:08:19,BEL,1,22,Zandbergen,7:59,7.53,SEF,f
159,Mark,CHARLE,2:08:20,21399,1:05:54,1:46:25,2:01:24,2:08:20,BEL,1,47,Lier,7:59,7.53,M45,m
8797,Awet,DESTA AREGAWI,2:08:21,21400,1:01:46,1:44:14,2:00:48,2:08:21,BEL,1,40,Gent,7:59,7.53,M40,m
29591,Bastien,LYBAERT,2:08:21,21401,1:02:52,1:47:14,2:01:51,2:08:21,BEL,1,24,De Pinte,7:59,7.52,SEH,m
37716,Julie,VAN HOVE,2:08:21,21402,1:04:34,1:47:20,2:02:34,2:08:21,BEL,1,14,Oostakker,7:59,7.52,SEF,f
21505,Vicky,VAN STAPPEN,2:08:22,21403,0,0,2:03:12,2:08:22,BEL,1,29,Lede,7:59,7.52,SEF,f
5225,Gert,VANDECRUYS,2:08:22,21404,1:01:08,1:46:19,2:01:23,2:08:22,BEL,1,57,Brasschaat,7:59,7.52,M55,m
36249,Huseyin,BUSER,2:08:23,21405,1:01:39,1:45:22,2:01:41,2:08:23,BEL,1,34,Antwerpen,7:59,7.52,SEH,m
30671,Mieke,CREUPELANDT,2:08:23,21406,1:04:06,1:46:11,2:01:14,2:08:23,BEL,1,47,Wakken,7:59,7.52,F45,f
31881,Els,JACOBS,2:08:23,21407,1:04:14,1:46:21,2:01:14,2:08:23,BEL,1,49,Meise,7:59,7.52,F45,f
2192,Elisabeth,BREURE,2:08:23,21408,59:01,1:46:25,2:01:16,2:08:23,NLD,1,27,Dinteloord,7:59,7.52,SEF,f
30116,Tine,BALCAEN,2:08:23,21409,1:04:15,1:46:22,2:01:15,2:08:23,BEL,1,20,Meise,7:59,7.52,SEF,f
15081,Leen,BACCAERT,2:08:24,21410,1:04:32,1:47:15,2:01:38,2:08:24,BEL,1,39,Duffel,7:59,7.52,F35,f
22683,Kristof,DE NOCKER,2:08:24,21411,59:29,1:45:07,2:01:05,2:08:24,BEL,1,28,Zaventem,7:59,7.52,SEH,m
23087,Anja,DE DOBBELEER,2:08:25,21412,1:01:16,1:46:58,2:01:24,2:08:25,BEL,1,47,Lennik,7:59,7.52,F45,f
14843,Jojanneke,SCHUURMAN,2:08:25,21413,1:03:33,1:47:22,2:01:57,2:08:25,NLD,1,26,Schore,7:59,7.52,SEF,f
33689,Luc,VAN ELSACKER,2:08:25,21414,1:03:06,1:46:23,2:01:28,2:08:25,BEL,1,64,Wommelgem,7:59,7.52,M60,m
4682,Asmita,GURUNG,2:08:26,21415,1:02:57,1:47:09,2:01:55,2:08:26,PRT,1,24,Deurne,7:59,7.52,SEF,f
34610,Marieke,COUSSENS,2:08:27,21416,1:00:58,1:48:06,2:02:12,2:08:27,BEL,1,41,Zele,7:59,7.52,F40,f
33621,Tom,VAN DE VEN,2:08:27,21417,55:55,1:47:22,2:02:07,2:08:27,BEL,1,38,Schriek,7:59,7.52,M35,m
9017,Erik,CLARYS,2:08:27,21418,59:38,1:44:34,2:01:01,2:08:27,BEL,1,50,Vosselaar,7:59,7.52,M50,m
34196,Steve,VERMAELEN,2:08:27,21419,1:01:10,1:47:22,2:02:06,2:08:27,BEL,1,37,Heist Op Den Berg,7:59,7.52,M35,m
2017,Safia,ABANAMAR,2:08:28,21420,1:01:03,1:47:04,2:01:53,2:08:28,BEL,1,32,Antwerpen,7:59,7.52,SEF,f
36085,Nathalie,VAN DAMME,2:08:28,21421,1:01:00,1:48:08,2:02:13,2:08:28,BEL,1,39,Zele,7:59,7.52,F35,f
8689,Katleen,MICHIELS,2:08:29,21422,1:00:23,1:48:02,2:02:19,2:08:29,BEL,1,38,Schoten,7:59,7.52,F35,f
30926,Elien,DE KERF,2:08:29,21423,1:03:17,1:46:48,2:01:27,2:08:29,BEL,1,31,Bazel,7:59,7.52,SEF,f
30927,Lisa,DE KERF,2:08:30,21424,1:03:16,1:46:48,2:01:27,2:08:30,BEL,1,27,Bazel,7:59,7.52,SEF,f
34026,Joost,VAN STICHEL,2:08:30,21425,1:04:27,1:46:32,2:01:17,2:08:30,BEL,1,56,Herdersem,7:59,7.52,M55,m
18506,Christel,VAN ROMPAEY,2:08:30,21426,58:42,1:47:32,2:02:00,2:08:30,BEL,1,63,Hoboken,7:59,7.52,F60,f
9302,Yuan,OLIVE,2:08:30,21427,1:03:43,1:48:47,2:02:30,2:08:30,BEL,1,56,Antwerp,8:00,7.52,F55,f
34791,Veerle,EMBRECHTS,2:08:31,21428,1:02:03,1:45:34,2:00:46,2:08:31,BEL,1,44,,8:00,7.52,F40,f
31918,Keshia,JANSSENS,2:08:31,21429,1:04:28,1:46:09,2:01:50,2:08:31,BEL,1,31,Essen,8:00,7.52,SEF,f
36807,Catrine,WOESTENBORGHS,2:08:31,21430,1:02:03,1:45:34,2:00:47,2:08:31,BEL,1,45,Vosselaar,8:00,7.52,F45,f
24113,Lieselotte,PEETERS,2:08:31,21431,1:03:11,1:47:43,2:02:15,2:08:31,BEL,1,22,Antwerpen,8:00,7.51,SEF,f
32819,Leen,ROMBOUTS,2:08:32,21432,1:03:15,1:45:37,2:01:10,2:08:32,BEL,1,57,Sint Lenaarts,8:00,7.51,F55,f
22125,Patrick,VANBENEDEN,2:08:32,21433,59:08,1:46:21,2:01:23,2:08:32,BEL,1,61,Antwerpen,8:00,7.51,M60,m
5628,Nicole,EHMKE,2:08:32,21434,1:01:25,1:47:13,2:01:14,2:08:32,USA,1,38,Brasschaat,8:00,7.51,F35,f
4776,Anouk,NULENS,2:08:33,21435,1:03:39,1:48:13,2:02:01,2:08:33,BEL,1,23,Lanaken,8:00,7.51,SEF,f
23128,Dieuwer,BOES,2:08:34,21436,1:03:32,1:47:38,2:02:08,2:08:34,BEL,1,26,Antwerpen,8:00,7.51,SEH,m
15830,Hilde,DE LAET,2:08:34,21437,59:01,1:45:12,2:01:04,2:08:34,BEL,1,48,Elewijt-Zemst,8:00,7.51,F45,f
4116,Joke,VERHAEGEN,2:08:34,21438,1:09:01,1:49:41,2:02:57,2:08:34,BEL,1,30,Antwerpen,8:00,7.51,SEF,f
34056,Carin,VAN WOENSEL,2:08:34,21439,1:02:46,1:45:26,2:01:18,2:08:34,BEL,1,56,Pulle,8:00,7.51,F55,f
31482,Michel,GALLEZ,2:08:35,21440,1:05:07,1:46:09,2:01:50,2:08:35,BEL,1,29,Drongen,8:00,7.51,SEH,m
30251,Nancy,BOEYKENS,2:08:35,21441,1:02:46,1:45:26,2:01:21,2:08:35,BEL,1,49,Massenhoven,8:00,7.51,F45,f
34465,Maria,ZAVRAZJINA,2:08:35,21442,1:04:40,1:47:48,2:02:05,2:08:35,BEL,1,25,Mont-Sainte-Geneviève,8:00,7.51,SEF,f
35252,Abrahim,NANIKHEL,2:08:35,21443,1:03:36,1:46:58,2:02:43,2:08:35,BEL,1,17,Deurne,8:00,7.51,SEH,m
34343,Henri,WARICHET,2:08:35,21444,1:04:42,1:47:48,2:02:05,2:08:35,BEL,1,26,Havré,8:00,7.51,SEH,m
31801,Christel,HOEFKENS,2:08:35,21445,1:01:57,1:45:42,2:00:49,2:08:35,BEL,1,48,Vorselaar,8:00,7.51,F45,f
34797,Anke,GEUENS,2:08:35,21446,1:06:23,1:47:42,2:02:24,2:08:35,BEL,1,20,,8:00,7.51,SEF,f
2757,Liesbeth,VAN EIJGEN,2:08:36,21447,1:01:39,1:46:19,2:01:53,2:08:36,NLD,1,49,Cn Den Helder,8:00,7.51,F45,f
22081,Sandra,DE WILDE,2:08:36,21448,1:00:27,1:45:47,2:00:58,2:08:36,BEL,1,43,Roosdaal,8:00,7.51,F40,f
22080,Kristien,DE WILDE,2:08:37,21449,1:00:27,1:45:47,2:00:56,2:08:37,BEL,1,40,Schepdaal,8:00,7.51,F40,f
36704,Pieter,MEEUSSEN,2:08:37,21450,1:04:04,1:46:15,2:01:31,2:08:37,BEL,1,40,Edegem,8:00,7.51,M40,m
35999,Johnny,OOMS,2:08:37,21451,1:02:38,1:46:23,2:01:43,2:08:37,BEL,1,42,Sint-Niklaas,8:00,7.51,M40,m
19344,Geoffrey,TOMBEUR,2:08:37,21452,59:14,1:45:08,2:01:15,2:08:37,BEL,1,32,Kontich,8:00,7.51,SEH,m
44900,Erik,VAN DOOREN,2:08:38,21453,1:04:04,1:46:23,2:01:25,2:08:38,BEL,1,54,Sinaai,8:00,7.51,M50,m
30372,Annelies,BREWAEYS,2:08:38,21454,1:06:32,1:47:39,2:02:06,2:08:38,BEL,1,26,Wemmel,8:00,7.51,SEF,f
23629,Hans,WOESTENBORGHS,2:08:39,21455,1:01:41,1:45:59,2:01:49,2:08:39,BEL,1,43,Beerse,8:00,7.51,M40,m
23318,Eduard,FATTA,2:08:39,21456,1:00:36,1:45:32,2:01:11,2:08:39,BEL,1,72,Westmalle,8:00,7.51,M70,m
34995,Klaas,VAN BROECKHOVEN,2:08:39,21457,1:01:03,1:46:16,2:01:27,2:08:39,BEL,1,15,,8:00,7.51,SEH,m
21397,Veerle,DERO,2:08:40,21458,1:04:37,1:47:07,2:02:28,2:08:40,BEL,1,44,Vollezele,8:00,7.51,F40,f
18594,Ann,VERBEECK,2:08:41,21459,1:02:55,1:46:50,2:02:17,2:08:41,BEL,1,45,Kruibeke,8:00,7.51,F45,f
30269,Melisa,BOLCA,2:08:41,21460,1:04:45,1:47:15,2:01:41,2:08:41,BEL,1,31,Vrasene,8:00,7.51,SEF,f
34836,Sean,VAN DEN EYNDEN,2:08:41,21461,1:03:37,1:45:51,2:00:15,2:08:41,BEL,1,23,,8:00,7.51,SEH,m
32091,Berit,LAUREYS,2:08:41,21462,1:04:45,1:47:15,2:01:40,2:08:41,BEL,1,37,Bornem,8:00,7.51,F35,f
38366,Moranne,WYCKMANS,2:08:41,21463,1:01:38,1:44:13,2:01:34,2:08:41,BEL,1,26,Antwerpen,8:00,7.51,SEF,f
23512,Jens,KIELMANN,2:08:41,21464,1:02:11,1:46:13,2:01:18,2:08:41,DEU,1,55,Puurs,8:00,7.5,M55,m
16475,Bart,HASENBROEKX,2:08:42,21465,53:16,0,0,2:08:42,BEL,1,54,Schoten,8:00,7.5,M50,m
4995,Lynn,CALLENS,2:08:44,21466,1:02:03,1:48:16,2:02:07,2:08:44,BEL,1,31,Oudenaarde,8:00,7.5,SEF,f
32752,Franca,REICHMANN,2:08:44,21467,1:00:55,1:44:25,1:59:54,2:08:44,NLD,1,57,Boechout,8:00,7.5,F55,f
34578,Max,ABRAM,2:08:44,21468,1:03:59,1:45:58,2:01:22,2:08:44,NLD,1,68,Alkmaar,8:00,7.5,M65,m
31382,Julie,DUCHI,2:08:44,21469,1:03:28,1:45:35,2:01:16,2:08:44,BEL,1,22,Westende,8:00,7.5,SEF,f
34806,Dasilva,HEYLEN,2:08:44,21470,1:03:51,1:45:50,2:03:01,2:08:44,BEL,1,19,,8:00,7.5,SEH,m
38208,Melinda,EDWARDS,2:08:45,21471,1:02:45,1:46:36,2:02:22,2:08:45,BEL,1,34,Lovenjoel,8:00,7.5,SEF,f
37350,Irma,LIPS,2:08:45,21472,1:02:42,1:46:50,2:01:22,2:08:45,NLD,1,55,Essen,8:00,7.5,F55,f
14985,Danny,BELLEMANS,2:08:47,21473,1:04:34,1:47:58,2:01:38,2:08:47,BEL,1,52,Stabroek,8:01,7.5,M50,m
34986,Elsa,KEZA,2:08:47,21474,1:00:36,0,2:01:06,2:08:47,BDI,1,16,Antwerpen,8:01,7.5,SEF,f
32831,Deborah,ROSSEEL,2:08:48,21475,1:04:13,1:45:48,2:01:12,2:08:48,BEL,1,31,Sint-Katelijne-Waver,8:01,7.5,SEF,f
31019,Katrien,DE MEY,2:08:48,21476,1:04:14,1:45:49,2:01:13,2:08:48,BEL,1,37,Beerzel,8:01,7.5,F35,f
37339,Brahim,BOURETTY,2:08:48,21477,1:02:45,1:46:52,2:01:25,2:08:48,NLD,1,53,Essen,8:01,7.5,M50,m
37356,Marc,VAN IMMERSEEL,2:08:48,21478,1:02:45,1:46:52,2:01:25,2:08:48,BEL,1,65,Kalmthout,8:01,7.5,M65,m
9060,Naomi,AFASI,2:08:48,21479,1:06:50,1:46:37,2:02:05,2:08:48,BEL,1,21,Sint-Niklaas,8:01,7.5,SEF,f
29841,Frank,ROMMES,2:08:48,21480,1:09:27,1:48:36,2:01:59,2:08:48,BEL,1,54,Mol,8:01,7.5,M50,m
29821,Els,WILMS,2:08:49,21481,1:09:27,1:48:36,2:01:59,2:08:49,BEL,1,52,Mol,8:01,7.5,F50,f
37249,Joris,VERMORGEN,2:08:49,21482,1:03:48,1:47:03,2:01:54,2:08:49,BEL,1,35,Temse,8:01,7.5,M35,m
31361,Natalie,DRAULANS,2:08:49,21483,1:04:16,1:48:04,2:02:17,2:08:49,BEL,1,44,Niel,8:01,7.5,F40,f
31574,Leen,GOETVINCK,2:08:50,21484,1:02:56,1:45:53,2:02:00,2:08:50,BEL,1,40,Schellebelle,8:01,7.5,F40,f
33829,Hannelore,VAN IMPE,2:08:50,21485,1:02:56,1:45:53,2:02:01,2:08:50,BEL,1,46,Aalst,8:01,7.5,F45,f
35171,Jari,LEYS,2:08:50,21486,1:05:30,1:48:52,2:03:13,2:08:50,BEL,1,18,Brasschaat,8:01,7.5,SEH,m
30272,Eva,BOLLANSÉE,2:08:50,21487,1:05:08,1:47:38,2:02:13,2:08:50,BEL,1,28,Antwerpen,8:01,7.5,SEF,f
18536,Davine,VAN STEENVOORT,2:08:51,21488,1:01:52,1:45:35,2:01:00,2:08:51,BEL,1,21,Kapellen,8:01,7.5,SEH,m
34023,Brenton,VAN STEEN,2:08:51,21489,1:03:21,1:45:55,2:02:07,2:08:51,BEL,1,33,Antwerpen,8:01,7.5,SEH,m
18539,Paul,VAN STEENVOORT,2:08:52,21490,1:01:52,1:45:35,2:01:00,2:08:52,BEL,1,54,Kapellen,8:01,7.49,M50,m
34801,Stef,GOOR,2:08:53,21491,52:31,1:39:54,2:00:27,2:08:53,BEL,1,20,,8:01,7.49,SEH,m
4584,Nina,CHARPENTIER,2:08:53,21492,1:02:31,1:47:45,2:02:26,2:08:53,BEL,1,19,Kalmthout,8:01,7.49,SEF,f
7009,Philippe,ROELS,2:08:53,21493,1:01:03,1:47:35,2:02:18,2:08:53,BEL,1,54,Brecht,8:01,7.49,M50,m
37022,Lien,COLLIER,2:08:54,21494,1:02:59,1:47:12,2:02:01,2:08:54,BEL,1,29,Liezele,8:01,7.49,SEF,f
32404,Petra,MEUS,2:08:54,21495,1:05:48,1:47:31,2:01:52,2:08:54,BEL,1,34,Ninove,8:01,7.49,SEF,f
34667,Evert,PALLEMANS,2:08:55,21496,1:03:17,1:48:36,2:03:14,2:08:55,BEL,1,17,Reet,8:01,7.49,SEH,m
36418,Cara,VAN MEERBEECK,2:08:56,21497,1:04:18,1:48:39,2:02:54,2:08:56,BEL,1,28,Berchem,8:01,7.49,SEF,f
34767,Naomi,APPELEN,2:08:58,21498,1:06:24,1:47:42,2:02:23,2:08:58,BEL,1,19,,8:01,7.49,SEF,f
21209,Tommy,ANTHONISSEN,2:08:58,21499,1:03:34,1:46:52,2:01:42,2:08:58,BEL,1,35,Antwerpen,8:01,7.49,M35,m
8030,Clint,PEPERMANS,2:08:59,21500,58:32,1:47:00,2:02:27,2:08:59,BEL,1,42,Bazel,8:01,7.49,M40,m
