runner id,name,lastname,time,rank,checkpt0,checkpt1,checkpt2,checkpt3,nationality,finished,age,city,pace,speed,category,sex
30023,Cindy,AERTS,1:40:48,9501,47:57,1:23:41,1:35:31,1:40:48,BEL,1,35,Turnhout,6:16,9.58,F35,f
1363,Britt,VAN DE CRUYS,1:40:48,9502,48:27,1:22:27,1:34:57,1:40:48,BEL,1,31,Berchem (Antwerpen),6:16,9.58,SEF,f
33445,Sven,VAN DEN BOGAERT,1:40:48,9503,49:53,1:24:36,1:35:35,1:40:48,BEL,1,46,Lochristi,6:16,9.58,M45,m
37790,Nathan,NEELS,1:40:48,9504,49:33,1:24:31,1:35:48,1:40:48,BEL,1,39,Gent,6:16,9.58,M35,m
30334,Christine,BOUILLIART,1:40:48,9505,47:56,1:23:41,1:35:31,1:40:48,BEL,1,52,Oud-Turnhout,6:16,9.58,F50,f
21766,Yves,VLYMINCK,1:40:48,9506,49:19,1:23:58,1:35:15,1:40:48,BEL,1,54,Brasschaat,6:16,9.58,M50,m
24139,Nico,BOUMANS,1:40:48,9507,48:31,1:25:09,1:35:57,1:40:48,BEL,1,26,Moerbeke-Waas,6:16,9.58,SEH,m
23544,Yeter,SIMSEK,1:40:48,9508,50:00,1:24:18,1:35:44,1:40:48,BEL,1,39,Huizingen,6:16,9.58,F35,f
23500,Bert,VAN DE BROEK,1:40:49,9509,48:35,1:22:29,1:34:52,1:40:49,BEL,1,17,Antwerpen,6:16,9.58,SEH,m
22150,Hassan,HUSSAINI,1:40:49,9510,52:07,1:23:03,1:35:37,1:40:49,AFG,1,17,Antwerpen,6:16,9.58,SEH,m
2435,Kristof,DE LAET,1:40:49,9511,47:56,1:23:48,1:35:51,1:40:49,BEL,1,45,Wilrijk,6:16,9.58,M45,m
16620,Charlotte,JANSSENS,1:40:49,9512,48:57,1:22:59,1:35:00,1:40:49,BEL,1,39,Lint,6:16,9.58,F35,f
19270,Bert,SERGOYNNE,1:40:49,9513,47:02,1:22:49,1:34:49,1:40:49,BEL,1,25,Lede,6:16,9.58,SEH,m
18543,Robbe,VANSTIPHOUT,1:40:49,9514,52:09,1:25:24,1:36:10,1:40:49,BEL,1,16,Brasschaat,6:16,9.58,SEH,m
20366,Guy,CASTEELS,1:40:49,9515,47:48,1:21:56,1:34:52,1:40:49,BEL,1,54,Berchem,6:16,9.58,M50,m
6988,Sarah,HEUNINCK,1:40:50,9516,48:31,1:23:12,1:34:59,1:40:50,BEL,1,33,Moorsel,6:16,9.58,SEF,f
36239,Floris,VAN GOOLEN,1:40:50,9517,47:46,1:23:17,1:34:51,1:40:50,BEL,1,33,Gent,6:16,9.58,SEH,m
35051,Sem,VAN CAUWENBERGHE,1:40:50,9518,50:39,1:26:13,1:36:26,1:40:50,BEL,1,18,Mortsel,6:16,9.58,SEH,m
35512,Alhasan,ABDULKAREEM,1:40:51,9519,46:41,1:22:21,1:35:01,1:40:51,BEL,1,18,,6:16,9.58,SEH,m
34571,Ken,VERVLIET,1:40:51,9520,52:33,1:26:12,1:36:07,1:40:51,BEL,1,28,Zoersel,6:16,9.58,SEH,m
17047,Marc,MERTENS,1:40:51,9521,49:39,1:24:04,1:35:39,1:40:51,BEL,1,64,Berchem,6:16,9.58,M60,m
20063,Avi,LEINER,1:40:51,9522,48:19,1:23:08,1:35:07,1:40:51,BEL,1,15,Antwerp,6:16,9.58,SEH,m
24101,Joke,DE BRUYN,1:40:51,9523,49:44,1:23:54,1:35:16,1:40:51,BEL,1,36,Kontich,6:16,9.58,F35,f
22382,Karolien,MARYNISSEN,1:40:51,9524,49:05,1:23:14,1:34:53,1:40:51,BEL,1,28,Terhagen,6:16,9.58,SEF,f
19667,Kim,DE RAEYMAECKER,1:40:51,9525,50:27,1:24:22,1:35:55,1:40:51,BEL,1,37,Bornem,6:16,9.58,F35,f
7066,Manu,GOEDERTIER,1:40:51,9526,42:51,1:23:41,1:35:43,1:40:51,BEL,1,24,Oudegem,6:16,9.58,SEH,m
30469,Gert,CARDON,1:40:51,9527,50:20,1:23:50,1:35:29,1:40:51,BEL,1,38,Aalst,6:16,9.58,M35,m
20664,Verbraeken,ANN,1:40:52,9528,49:51,1:24:29,1:35:47,1:40:52,BEL,1,51,Aartselaar,6:16,9.57,F50,f
20424,Werner,SCHIETTECAT,1:40:52,9528,45:52,1:21:45,1:34:20,1:40:52,BEL,1,38,Walem,6:16,9.57,M35,m
37437,Sanne,TUYBENS,1:40:52,9530,54:15,1:26:13,1:36:05,1:40:52,BEL,1,29,Lebbeke,6:16,9.57,SEF,f
16659,Ali,KADDOURI,1:40:52,9531,48:49,1:23:58,1:35:07,1:40:52,BEL,1,48,Borgerhout,6:16,9.57,M45,m
23668,Annemie,ZWAENEPOEL,1:40:53,9532,49:34,1:24:07,1:35:24,1:40:53,BEL,1,24,Schoten,6:17,9.57,SEF,f
29537,Chris,COENE,1:40:53,9533,48:25,1:24:16,1:35:33,1:40:53,BEL,1,50,Oedelem,6:17,9.57,M50,m
15018,Gunter,AERTS,1:40:53,9534,48:49,1:23:09,1:35:15,1:40:53,BEL,1,26,Wilrijk,6:17,9.57,SEH,m
15962,Dries,DE ROECK,1:40:53,9535,47:09,1:23:28,1:35:11,1:40:53,BEL,1,35,Kontich,6:17,9.57,M35,m
8978,Tien,VAN NGUYEN,1:40:53,9536,49:31,1:24:36,1:35:09,1:40:53,BEL,1,53,Schoten,6:17,9.57,M50,m
22425,Philippe,DE VOS,1:40:53,9537,51:20,1:24:31,1:35:38,1:40:53,BEL,1,26,Elsene,6:17,9.57,SEH,m
16793,Jean-Pierre,LANNERS,1:40:53,9538,49:56,1:23:36,1:35:17,1:40:53,LUX,1,45,Elewijt,6:17,9.57,M45,m
30076,Tim,ARNOUTS,1:40:53,9539,0,1:24:05,0,1:40:53,BEL,1,38,Antwerpen Linkeroever,6:17,9.57,M35,m
38127,Clara,VERHOEVEN,1:40:53,9540,50:41,1:24:08,1:35:12,1:40:53,BEL,1,27,Etterbeek,6:17,9.57,SEF,f
38074,Estelle,CLOETENS,1:40:53,9541,51:05,1:25:39,1:35:52,1:40:53,BEL,1,18,2800,6:17,9.57,SEF,f
3839,Philippe,VAN DE WAL,1:40:53,9542,48:15,1:23:45,1:35:27,1:40:53,BEL,1,55,Beveren,6:17,9.57,M55,m
21841,Jessy,BLASSIEAUX,1:40:54,9543,49:06,1:26:15,1:36:01,1:40:54,BEL,1,33,Kapelle Op Den Bos,6:17,9.57,SEF,f
37614,Kelle,MCQUADE,1:40:54,9544,49:50,1:24:29,1:36:02,1:40:54,GBR,1,35,Mk4 4El Milton Keynes,6:17,9.57,F35,f
5687,Gerald,PEETERS,1:40:54,9545,47:29,1:22:29,1:34:46,1:40:54,BEL,1,55,Wijnegem,6:17,9.57,M55,m
17419,Asiër,RIVERA FERNANDEZ,1:40:54,9546,50:52,1:24:48,1:35:33,1:40:54,ESP,1,26,Leuven,6:17,9.57,SEH,m
14808,Kai-Uwe,GUENTHER,1:40:54,9547,49:58,1:23:51,1:35:35,1:40:54,DEU,1,42,Pijnacker,6:17,9.57,M40,m
36847,Tim,CALLUY,1:40:54,9548,47:44,1:23:48,1:35:37,1:40:54,BEL,1,32,Kapellen,6:17,9.57,SEH,m
4962,Bert,AH MUNN,1:40:55,9549,48:38,1:23:17,1:35:30,1:40:55,BEL,1,43,Edegem,6:17,9.57,M40,m
5570,Alexander,AERTS,1:40:55,9550,50:11,1:24:06,1:35:47,1:40:55,BEL,1,26,Heverlee,6:17,9.57,SEH,m
44738,,NR 44738,1:40:55,9551,None,None,None,1:40:55,BEL,1,0,,6:17,9.57,-,m
3507,Niels,SIMONS,1:40:55,9552,49:10,1:24:39,1:35:20,1:40:55,BEL,1,29,Boom,6:17,9.57,SEH,m
29570,Nathan,VANDEKERCKVOORDE,1:40:55,9553,50:02,1:23:56,1:35:27,1:40:55,BEL,1,34,Wetteren,6:17,9.57,SEH,m
33647,Hannes,VAN DEYNSE,1:40:55,9554,45:15,1:21:34,1:35:00,1:40:55,BEL,1,21,Brecht,6:17,9.57,SEH,m
15316,Dimitri,BREES,1:40:55,9555,47:53,1:23:14,1:35:19,1:40:55,BEL,1,45,Oostmalle,6:17,9.57,M45,m
5929,Kristof,SPRIET,1:40:55,9556,54:19,1:24:53,1:35:52,1:40:55,BEL,1,46,Leuven,6:17,9.57,M45,m
7478,Christophe,PISSIERSSENS,1:40:55,9557,49:39,1:24:54,1:35:30,1:40:55,BEL,1,40,Kapellen,6:17,9.57,M40,m
5906,Sebastiaan,PIJPOPS,1:40:55,9558,51:18,1:24:44,1:35:43,1:40:55,BEL,1,28,Leuven,6:17,9.57,SEH,m
15989,Jana,DESLOOVERE,1:40:55,9559,48:44,1:24:19,1:35:37,1:40:55,BEL,1,24,Gent,6:17,9.57,SEF,f
35826,Evelien,PHILIPPAERTS,1:40:55,9560,51:19,1:24:45,1:35:45,1:40:55,BEL,1,28,Leuven,6:17,9.57,SEF,f
7315,Geert,DE SCHRIJVER,1:40:55,9561,46:19,1:22:19,1:34:54,1:40:55,BEL,1,53,Ninove,6:17,9.57,M50,m
1423,Koen,EYSSCHER,1:40:55,9562,45:26,1:21:51,1:34:13,1:40:55,BEL,1,48,Duffel,6:17,9.57,M45,m
7924,Joël,MOONEN,1:40:56,9563,49:09,1:24:32,1:35:49,1:40:56,BEL,1,52,Turnhout,6:17,9.57,M50,m
16588,Thomas,HUYSMAN,1:40:56,9564,46:44,1:22:03,1:34:34,1:40:56,BEL,1,30,Antwerpen,6:17,9.57,SEH,m
34418,Allan,WONG Tsz Lun,1:40:56,9565,46:29,1:20:12,1:33:56,1:40:56,CHN,1,45,Merksem,6:17,9.57,M45,m
32499,Caroline,NEETENS,1:40:56,9566,51:30,0,1:35:33,1:40:56,BEL,1,44,Zaventem,6:17,9.57,F40,f
17485,Stefan,SACK,1:40:56,9567,51:11,1:23:34,1:35:16,1:40:56,BEL,1,44,Knokke,6:17,9.57,M40,m
17708,Walter,STERKENS,1:40:56,9568,49:25,1:23:53,1:35:27,1:40:56,BEL,1,65,Zoersel,6:17,9.57,M65,m
23214,Stéphane,COLFS,1:40:56,9569,47:58,1:24:15,1:35:39,1:40:56,BEL,1,24,Deurne,6:17,9.57,SEH,m
19001,Frederik,MERTENS,1:40:57,9570,48:45,1:24:36,1:35:50,1:40:57,BEL,1,37,Kessel-Lo,6:17,9.57,M35,m
5615,Ann,DE VREE,1:40:57,9571,46:55,1:22:12,1:34:45,1:40:57,BEL,1,38,Merchtem,6:17,9.57,F35,f
2622,Nathan,DUHAYON,1:40:57,9572,50:08,1:24:11,1:35:19,1:40:57,BEL,1,22,Heuvelland,6:17,9.57,SEH,m
23514,Liesbeth,VAN GINNEKEN,1:40:57,9573,49:46,1:24:19,1:35:24,1:40:57,BEL,1,34,Turnhout,6:17,9.57,SEF,f
18341,Bjorn,VANHUMBEECK,1:40:57,9574,45:45,1:23:40,1:35:24,1:40:57,BEL,1,39,Kessel-Lo,6:17,9.57,M35,m
15109,Evert,BASTIAENS,1:40:57,9575,47:51,1:23:04,1:35:21,1:40:57,BEL,1,23,Lokeren,6:17,9.57,SEH,m
4043,Alexander,VAN STEENBERGEN,1:40:57,9576,45:54,1:22:43,1:35:49,1:40:57,BEL,1,24,Brasschaat,6:17,9.57,SEH,m
34065,Onno,VELDHUIZEN,1:40:57,9577,53:01,1:24:52,1:35:50,1:40:57,BEL,1,47,Antwerpen,6:17,9.57,M45,m
4284,Tommy,WOLBRINK,1:40:57,9578,48:42,1:25:23,1:35:59,1:40:57,NLD,1,46,Rotterdam,6:17,9.57,M45,m
36964,Véronique,GOOSSENS,1:40:57,9579,52:03,1:24:51,1:35:34,1:40:57,BEL,1,26,Antwerpen,6:17,9.57,SEF,f
38309,Cathy,BOEL,1:40:58,9580,47:56,1:23:00,1:34:38,1:40:58,BEL,1,34,Sint-Niklaas,6:17,9.57,SEF,f
20145,Karel,JORIS,1:40:58,9581,50:12,1:23:46,1:35:38,1:40:58,BEL,1,64,Broechem,6:17,9.57,M60,m
15221,Frederic,BOCHAR,1:40:58,9582,46:21,1:21:52,1:35:13,1:40:58,BEL,1,36,Mortsel,6:17,9.57,M35,m
21175,Isabelle,VAN DER AUWERA,1:40:58,9583,48:45,1:24:36,1:35:38,1:40:58,BEL,1,39,Kontich,6:17,9.57,F35,f
18799,Tim,VLEMS,1:40:58,9584,45:47,1:22:41,1:35:13,1:40:58,BEL,1,42,Lommel,6:17,9.57,M40,m
2527,Tom,DE SCHUTTER,1:40:58,9585,47:01,1:24:10,1:35:57,1:40:58,BEL,1,27,Kontich,6:17,9.57,SEH,m
38310,Vinnie,ANTONIS,1:40:58,9586,47:56,1:23:00,1:34:39,1:40:58,BEL,1,34,Sint-Niklaas,6:17,9.57,SEH,m
20172,Jan,WILLEKENS,1:40:58,9587,49:07,1:24:06,1:35:32,1:40:58,BEL,1,50,Kapellen (Antw.),6:17,9.57,M50,m
15927,Gerrit,DE PAUW,1:40:59,9588,50:06,1:23:29,1:35:51,1:40:59,BEL,1,53,Heindonk,6:17,9.56,M50,m
15363,Eef,BULTINCK,1:40:59,9589,50:31,1:24:28,1:35:28,1:40:59,BEL,1,36,Herent,6:17,9.56,F35,f
23001,Carole,VAN DEN BOGAERT,1:40:59,9590,48:31,1:23:54,1:35:43,1:40:59,BEL,1,27,Bruxelles,6:17,9.56,SEF,f
22585,Gert,VAN LOOY,1:40:59,9591,49:11,1:22:51,1:35:10,1:40:59,BEL,1,36,Willebroek,6:17,9.56,M35,m
4999,Chris,CEUPPENS,1:40:59,9592,51:35,1:25:08,1:35:57,1:40:59,BEL,1,49,Merksem,6:17,9.56,M45,m
34921,Hilde,ADRIAENSSENS,1:40:59,9593,47:17,1:23:22,1:35:28,1:40:59,BEL,1,50,Edegem,6:17,9.56,F50,f
30318,Annelies,BOSMANS,1:40:59,9594,49:45,1:24:34,1:35:46,1:40:59,BEL,1,27,Kalmthout,6:17,9.56,SEF,f
15268,Martin,BORGS,1:40:59,9595,47:58,1:24:33,1:35:39,1:40:59,BEL,1,26,Antwerpen,6:17,9.56,SEH,m
20953,Karoline,DE SMIT,1:40:59,9596,49:29,1:23:54,1:35:33,1:40:59,BEL,1,43,Edegem,6:17,9.56,F40,f
24167,Bo,GALLE,1:41:00,9597,50:11,1:24:31,1:36:02,1:41:00,BEL,1,27,Loppem,6:17,9.56,SEH,m
5387,Astrid,JOSTEN,1:41:00,9598,48:37,1:24:22,1:35:49,1:41:00,BEL,1,21,Beerse,6:17,9.56,SEF,f
21143,Geert,LAUREYSSEN,1:41:00,9599,49:33,1:24:42,1:36:03,1:41:00,BEL,1,48,Mol,6:17,9.56,M45,m
17198,Frederic,ONGHENA,1:41:00,9600,48:28,1:21:25,1:35:03,1:41:00,BEL,1,49,Heffen,6:17,9.56,M45,m
21617,Magnus,HELLMICH Thomas,1:41:00,9601,48:22,1:24:16,1:35:48,1:41:00,DEU,1,44,Krefeld,6:17,9.56,M40,m
302,Astrid,DEVULDER,1:41:00,9602,51:02,1:24:27,1:35:39,1:41:00,BEL,1,23,Knokke-Heist,6:17,9.56,SEF,f
20125,Glenn,VLOEMANS,1:41:01,9603,45:49,1:20:53,1:35:12,1:41:01,BEL,1,24,Ekeren,6:17,9.56,SEH,m
21982,Joris,LEMMENS,1:41:01,9604,47:20,1:23:15,1:35:12,1:41:01,BEL,1,53,Kapellen,6:17,9.56,M50,m
20655,Stefan,VOET,1:41:01,9605,46:46,1:22:19,1:35:03,1:41:01,BEL,1,44,Geel,6:17,9.56,M40,m
3208,Kamil,MUYLDERMANS,1:41:01,9606,46:29,1:22:50,1:35:44,1:41:01,BEL,1,28,Ottenburg,6:17,9.56,SEH,m
775,Mathias,VAN DEN EYNDE,1:41:01,9607,46:45,1:22:49,1:34:57,1:41:01,BEL,1,28,Maastricht,6:17,9.56,SEH,m
19309,Goubergen,NIKO Van,1:41:01,9608,49:04,1:23:33,1:35:12,1:41:01,BEL,1,43,Antwerpen,6:17,9.56,M40,m
18061,Katrien,VANDEN MEERSSCHE,1:41:01,9609,49:52,1:23:28,1:35:17,1:41:01,BEL,1,26,Dilbeek,6:17,9.56,SEF,f
16308,Pamela,GARCIA,1:41:01,9610,49:41,1:24:32,1:35:56,1:41:01,ESP,1,37,Haarlem,6:17,9.56,F35,f
3619,Andrew,THOMPSON,1:41:01,9611,49:41,1:24:33,1:35:55,1:41:01,AUS,1,32,Haarlem,6:17,9.56,SEH,m
18673,Sanne,VERHOEVEN,1:41:01,9612,48:57,1:23:27,1:35:15,1:41:01,BEL,1,25,Mol,6:17,9.56,SEF,f
30047,Andres,AMBROGIO,1:41:01,9613,46:55,1:23:28,1:35:35,1:41:01,BEL,1,40,Mechelen,6:17,9.56,M40,m
35886,Joke,BRAET,1:41:02,9614,48:22,1:22:32,1:35:07,1:41:02,BEL,1,38,Hove,6:17,9.56,F35,f
3981,Florian,VAN LOON,1:41:02,9615,48:31,1:23:01,1:35:03,1:41:02,BEL,1,25,Hove,6:17,9.56,SEH,m
8146,Liesbet,VERMEIREN,1:41:02,9616,49:15,1:25:06,1:35:53,1:41:02,BEL,1,35,Wilrijk,6:17,9.56,F35,f
35206,Ibrahim,AZGHAY,1:41:02,9617,48:27,1:24:06,1:36:34,1:41:02,BEL,1,17,Borgerhout,6:17,9.56,SEH,m
16095,Geert,DHAESE,1:41:02,9618,52:38,1:25:17,1:36:07,1:41:02,BEL,1,52,Oudenaarde,6:17,9.56,M50,m
9056,Kevin,BRUGGE,1:41:03,9619,48:03,1:21:59,1:35:32,1:41:03,BEL,1,37,Eke-Nazareth,6:17,9.56,M35,m
5322,Liesbeth,COENEN,1:41:03,9620,48:58,1:24:15,1:35:43,1:41:03,BEL,1,35,Balen,6:17,9.56,F35,f
36511,Christine,VERDEYEN,1:41:03,9621,47:40,1:21:51,1:34:48,1:41:03,BEL,1,32,Hever,6:17,9.56,SEF,f
2917,Jeroen,JONCKHEERE,1:41:03,9622,48:22,1:22:32,1:34:57,1:41:03,BEL,1,30,Deurne (Antwerpen),6:17,9.56,SEH,m
6897,Geert,LATTE,1:41:03,9623,44:02,1:21:41,1:34:52,1:41:03,BEL,1,45,Sint-Job,6:17,9.56,M45,m
19043,Kamal,FIGUIGUI,1:41:03,9624,48:38,1:25:00,1:36:13,1:41:03,BEL,1,46,Wandre - Liege,6:17,9.56,M45,m
6130,Paul,VERFAILLIE,1:41:03,9625,47:03,1:22:27,1:35:57,1:41:03,BEL,1,56,Schoten,6:17,9.56,M55,m
18498,Wouter,VAN RIEL,1:41:04,9626,0,1:26:18,1:36:36,1:41:04,NLD,1,42,Ellezelles,6:17,9.56,M40,m
29776,Kenny,DELVAUX,1:41:04,9627,49:52,1:24:02,1:35:35,1:41:04,BEL,1,36,Budingen,6:17,9.56,M35,m
33297,Frederik,VANAKEN,1:41:04,9628,48:53,1:24:22,1:35:36,1:41:04,BEL,1,29,Hoboken,6:17,9.56,SEH,m
16554,Ilse,HOLEMANS,1:41:04,9629,48:30,1:24:58,1:35:53,1:41:04,BEL,1,0,Boortmeerbeek,6:17,9.56,-,f
15885,Joris,DE MONDT,1:41:04,9630,46:33,1:20:27,1:34:52,1:41:04,BEL,1,42,Ekeren,6:17,9.56,M40,m
20829,Ann,WAEM,1:41:04,9631,47:08,1:23:06,1:35:12,1:41:04,BEL,1,44,Ekeren,6:17,9.56,F40,f
5892,Kristof,MOORTHAMERS,1:41:04,9632,50:45,1:25:01,1:35:53,1:41:04,BEL,1,38,Leuven,6:17,9.56,M35,m
17360,Jeroen,PROVOOST,1:41:04,9633,0,1:26:18,1:36:36,1:41:04,BEL,1,42,Ellezelles,6:17,9.56,M40,m
20583,Peter,BEEUSAERT,1:41:04,9634,48:14,1:23:44,1:35:54,1:41:04,BEL,1,37,Duffel,6:17,9.56,M35,m
5224,Ann,VANDECRUYS,1:41:04,9635,48:55,1:23:45,1:35:32,1:41:04,BEL,1,42,Kessel-Lo,6:17,9.56,F40,f
3883,Dimitri,VAN GAEVER,1:41:05,9636,49:15,1:24:20,1:35:33,1:41:05,BEL,1,34,Antwerpen,6:17,9.56,SEH,m
3639,Ken,TORFS,1:41:05,9637,49:15,1:24:20,1:35:34,1:41:05,BEL,1,39,Antwerpen,6:17,9.56,M35,m
6955,Leendert,WOUTERS,1:41:05,9638,46:24,1:23:10,1:35:22,1:41:05,BEL,1,36,Antwerpen,6:17,9.56,M35,m
38012,Julio,GREFF DE OLIVEIRA,1:41:05,9639,44:58,1:25:27,1:36:14,1:41:05,BRA,1,27,Amsterdam,6:17,9.56,SEH,m
6153,Shreya,ATHAVALE,1:41:05,9640,48:00,1:22:24,1:34:54,1:41:05,IND,1,25,Antwerp,6:17,9.55,SEF,f
29775,Sofie,STRAUVEN,1:41:05,9641,49:52,1:24:02,1:35:36,1:41:05,BEL,1,32,Budingen,6:17,9.55,SEF,f
7684,Ronald,PANNIER,1:41:05,9642,48:44,1:23:14,1:36:03,1:41:05,BEL,1,63,Deurne,6:17,9.55,M60,m
24168,Sebastien,BUESS,1:41:05,9643,50:11,1:24:31,1:36:03,1:41:05,BEL,1,37,Antwerpen,6:17,9.55,M35,m
37573,William,FONTEYN Luc,1:41:05,9644,48:57,1:24:22,1:35:57,1:41:05,BEL,1,47,Sint-Niklaas,6:17,9.55,M45,m
18284,Pieternel,VANHERPE,1:41:05,9645,47:31,1:23:50,1:35:17,1:41:05,BEL,1,28,Antwerpen,6:17,9.55,SEF,f
21978,Kristof,CAVEYE,1:41:06,9646,49:22,1:24:06,1:35:20,1:41:06,BEL,1,30,Sint-Gillis-Waas,6:17,9.55,SEH,m
18737,Goele,VERSMISSEN,1:41:06,9647,49:22,1:24:40,1:35:54,1:41:06,BEL,1,26,Mechelen,6:17,9.55,SEF,f
34579,Andy,CREMERS,1:41:06,9648,47:23,1:22:36,1:34:43,1:41:06,BEL,1,35,Berlaar,6:17,9.55,M35,m
16157,Marina,DON PORTO CARERO,1:41:06,9649,49:12,1:25:05,1:35:34,1:41:06,BEL,1,44,Brecht,6:17,9.55,F40,f
21681,Akira,MIYAJI,1:41:06,9650,51:51,1:25:52,1:35:50,1:41:06,JPN,1,28,Evere,6:17,9.55,SEH,m
15553,Tine,CORNU,1:41:06,9651,48:53,1:24:03,1:35:49,1:41:06,BEL,1,37,9120 Beveren,6:17,9.55,F35,f
18637,Yves,VERELST,1:41:06,9652,52:04,1:25:24,1:36:14,1:41:06,BEL,1,32,Mechelen,6:17,9.55,SEH,m
36757,Erik,VAN VALEN,1:41:06,9653,47:06,1:22:11,1:35:23,1:41:06,NLD,1,45,Sliedrecht,6:17,9.55,M45,m
15179,Joséphine,BEUSELINCK,1:41:07,9654,48:42,1:25:05,1:35:54,1:41:07,BEL,1,21,Beveren,6:17,9.55,SEF,f
988,Olivier,QUIVRON,1:41:07,9655,49:53,1:24:22,1:35:35,1:41:07,BEL,1,36,Stekene,6:17,9.55,M35,m
31802,Eline,HOEFKENS,1:41:07,9656,50:09,1:23:53,1:35:16,1:41:07,BEL,1,30,Boechout,6:17,9.55,SEF,f
8653,Vincent,GEERTS,1:41:07,9657,47:34,1:23:57,1:35:33,1:41:07,BEL,1,28,Schoten,6:17,9.55,SEH,m
32798,Dirk,ROELANDT,1:41:07,9658,49:59,1:24:07,1:35:43,1:41:07,BEL,1,52,Kessel,6:17,9.55,M50,m
35485,Sarah,BUVENS,1:41:07,9659,48:24,1:23:44,1:35:40,1:41:07,BEL,1,18,Antwerpen,6:17,9.55,SEF,f
35687,Mark,ALIX,1:41:08,9660,49:57,1:24:37,1:36:00,1:41:08,BEL,1,44,Emblem,6:17,9.55,M40,m
38095,Dave,HACHA,1:41:08,9661,48:54,1:25:26,1:36:06,1:41:08,BEL,1,24,Hoboken,6:17,9.55,SEH,m
4567,Valerie,BOONEN,1:41:08,9662,47:55,1:23:11,1:35:16,1:41:08,BEL,1,25,Kasterlee,6:17,9.55,SEF,f
5301,Anneleen,BERNAERTS,1:41:08,9663,51:01,1:24:31,1:35:59,1:41:08,BEL,1,42,Brecht,6:17,9.55,F40,f
19563,Leen,DEVRIENDT,1:41:09,9664,51:22,1:25:34,1:36:07,1:41:09,BEL,1,40,Merelbeke,6:17,9.55,F40,f
21870,Mauricio,OVERMAN,1:41:09,9665,49:22,1:25:26,1:35:29,1:41:09,NLD,1,31,Amsterdam,6:18,9.55,SEH,m
6371,Robin,MICHOLT,1:41:09,9666,48:43,1:23:13,1:35:17,1:41:09,BEL,1,39,Assebroek,6:18,9.55,M35,m
18589,Chris,VENSTERMANS,1:41:09,9667,47:46,1:22:35,1:35:11,1:41:09,BEL,1,53,Mechelen,6:18,9.55,M50,m
32917,Annika,SCHOOFS,1:41:09,9668,48:21,1:24:09,1:35:59,1:41:09,BEL,1,35,Kruibeke,6:18,9.55,F35,f
18963,Tino,MAES,1:41:09,9669,46:47,1:23:41,1:35:17,1:41:09,BEL,1,29,Zwijndrecht,6:18,9.55,SEH,m
18941,Álvaro,ZATO,1:41:09,9670,49:21,1:23:37,1:35:23,1:41:09,ESP,1,34,Bruxelles,6:18,9.55,SEH,m
7356,Sonja,VAN MEEL,1:41:09,9671,49:24,1:23:58,1:35:52,1:41:09,BEL,1,54,Herent,6:18,9.55,F50,f
5798,Joke,CLAEYS,1:41:10,9672,48:45,1:23:46,1:35:27,1:41:10,BEL,1,39,Leuven,6:18,9.55,F35,f
16390,Borja,GONZALEZ,1:41:10,9673,49:20,1:23:36,1:35:23,1:41:10,ESP,1,34,Antwerpen,6:18,9.55,SEH,m
30192,Paulien,BERRENS,1:41:10,9674,50:57,1:24:20,1:35:51,1:41:10,BEL,1,25,Retie,6:18,9.55,SEF,f
18169,Dorien,VANDEWEYER,1:41:10,9675,49:39,1:24:01,1:35:48,1:41:10,BEL,1,26,Lommel,6:18,9.55,SEF,f
7216,Jurgen,VAN ROMPAEY,1:41:10,9676,48:32,1:23:27,1:36:17,1:41:10,BEL,1,32,Sint-Gillis-Waas,6:18,9.55,SEH,m
21049,Frans,VERSCHUEREN,1:41:10,9677,47:28,1:22:43,1:35:13,1:41:10,BEL,1,29,Antwerpen,6:18,9.55,SEH,m
20897,Eveline,BOER,1:41:10,9678,51:06,1:25:41,1:36:11,1:41:10,NLD,1,31,Hellevoetsluis,6:18,9.55,SEF,f
18784,Brent,VIROUX,1:41:10,9679,47:21,1:24:56,1:36:11,1:41:10,BEL,1,19,Hove,6:18,9.55,SEH,m
31204,Maïté,DE VOCHT,1:41:10,9680,51:24,1:25:07,1:36:13,1:41:10,BEL,1,23,Wilrijk,6:18,9.55,SEF,f
22834,Mark,VORSSELMANS,1:41:10,9681,47:11,1:22:18,1:34:45,1:41:10,BEL,1,48,Wuustwezel,6:18,9.55,M45,m
44970,Dirk,MOUS,1:41:11,9682,49:38,1:24:00,1:36:00,1:41:11,BEL,1,52,Bilzen,6:18,9.55,M50,m
14661,Kim,DE HAES,1:41:11,9683,50:47,0,1:35:31,1:41:11,BEL,1,35,Wolvertem,6:18,9.55,M35,m
31111,Siegrid,DE RIDDER,1:41:11,9684,47:10,1:23:33,1:35:18,1:41:11,BEL,1,34,Opwijk,6:18,9.55,SEF,f
19409,Stephane,REUSENS,1:41:11,9685,47:25,1:23:01,1:35:25,1:41:11,BEL,1,33,Borsbeek,6:18,9.55,SEH,m
15824,Daisy,DE KUNST,1:41:11,9686,46:48,1:23:13,1:35:30,1:41:11,BEL,1,27,Boortmeerbeek,6:18,9.55,SEF,f
19077,Marc,ROELANDT,1:41:11,9687,48:35,1:23:31,1:35:24,1:41:11,BEL,1,54,Antwerpen,6:18,9.55,M50,m
15757,Lies,DEGEZELLE,1:41:11,9688,49:35,1:24:00,1:35:34,1:41:11,BEL,1,36,Izegem,6:18,9.54,F35,f
30368,Rudy,BREMS,1:41:11,9689,47:59,1:22:51,1:35:12,1:41:11,BEL,1,56,Herenthout,6:18,9.54,M55,m
38254,Jens,DE RIJCK,1:41:12,9690,48:08,1:23:16,1:35:12,1:41:12,BEL,1,27,2440,6:18,9.54,SEH,m
17604,Piet,SEUNTJENS,1:41:12,9691,46:52,1:23:23,1:35:19,1:41:12,BEL,1,50,Opwijk,6:18,9.54,M50,m
22414,Kyra,CORNELIS,1:41:12,9692,50:20,1:24:30,1:35:47,1:41:12,BEL,1,27,Gent,6:18,9.54,SEF,f
22774,Julie,VUYLSTEKE,1:41:12,9693,47:29,1:22:45,1:35:13,1:41:12,BEL,1,26,Antwerpen,6:18,9.54,SEF,f
32827,Siegfried,ROOS,1:41:12,9694,52:33,1:24:47,1:35:53,1:41:12,BEL,1,33,Bachte Maria Leerne,6:18,9.54,SEH,m
18145,Didier,VAN DE VELDE,1:41:12,9695,52:34,1:25:11,1:36:03,1:41:12,BEL,1,48,Oudenaarde,6:18,9.54,M45,m
20889,Danny,VAN DE VELDE,1:41:12,9696,49:24,1:24:29,1:35:39,1:41:12,BEL,1,53,Deurne,6:18,9.54,M50,m
30763,Francis,DE BOCK,1:41:12,9697,50:54,1:24:06,1:35:40,1:41:12,BEL,1,25,Keerbergen,6:18,9.54,SEH,m
37559,Alejandro,MATOS CALDERON Jose,1:41:13,9698,51:21,1:24:53,1:35:58,1:41:13,BEL,1,17,Edegem,6:18,9.54,SEH,m
20887,Jaimy,VAN DEN BERGH,1:41:13,9699,49:23,1:24:29,1:35:39,1:41:13,BEL,1,40,Deurne,6:18,9.54,F40,f
31109,Gertrude,DE RIDDER,1:41:13,9700,47:13,1:23:35,1:35:20,1:41:13,BEL,1,37,Zemst,6:18,9.54,F35,f
5800,Alexander,COLPAERT,1:41:13,9701,47:31,1:23:16,1:35:27,1:41:13,BEL,1,31,Leuven,6:18,9.54,SEH,m
29754,An,MOLENAERS,1:41:13,9702,50:09,1:24:53,1:36:10,1:41:13,BEL,1,37,Hasselt,6:18,9.54,F35,f
21003,Guy,WENSELAERS,1:41:14,9703,49:56,1:24:55,1:35:55,1:41:14,BEL,1,61,Kontich,6:18,9.54,M60,m
29755,Ingrid,ARIJS,1:41:14,9704,50:09,1:24:54,1:36:09,1:41:14,BEL,1,36,Hasselt,6:18,9.54,F35,f
20805,Lise,SCHEPERS,1:41:14,9705,46:19,1:24:44,1:36:05,1:41:14,BEL,1,25,Antwerpen,6:18,9.54,SEF,f
35084,Pieter,BOURDEAUD'HUI,1:41:14,9706,47:46,1:23:01,1:35:12,1:41:14,BEL,1,18,Berchem,6:18,9.54,SEH,m
18249,Amaryllis,VAN GOETHEM,1:41:14,9707,48:33,1:24:12,1:35:51,1:41:14,BEL,1,30,Berchem,6:18,9.54,SEF,f
38082,Willem,HOUBEN,1:41:14,9708,46:48,1:23:23,1:36:15,1:41:14,BEL,1,32,Maasmechelen,6:18,9.54,SEH,m
6288,Michael,VERMEIREN,1:41:14,9709,52:06,1:25:43,1:36:13,1:41:14,BEL,1,38,Watermaal-Bosvoorde,6:18,9.54,M35,m
19588,Kaat,DEJONGHE,1:41:14,9710,48:48,1:24:33,1:35:53,1:41:14,BEL,1,33,Waregem,6:18,9.54,SEF,f
37154,Christophe,OTTEVAERE,1:41:14,9711,48:51,1:23:30,1:35:37,1:41:14,BEL,1,51,Ere,6:18,9.54,M50,m
16880,Koen,LODEWYCKX,1:41:14,9712,49:03,1:25:42,1:36:11,1:41:14,BEL,1,25,Putte,6:18,9.54,SEH,m
36824,Bjorn,CLOPTEROP,1:41:14,9713,47:06,1:23:27,1:35:37,1:41:14,BEL,1,31,Moerbeke-Waas,6:18,9.54,SEH,m
7408,Robin,DE MEIRSMAN,1:41:14,9714,48:05,1:24:49,1:35:53,1:41:14,BEL,1,28,Leuven,6:18,9.54,SEH,m
17083,Elisabeth,MINJAUW,1:41:15,9715,47:41,1:23:48,1:36:08,1:41:15,BEL,1,41,Sint-Genesius Rode,6:18,9.54,F40,f
33170,Lobke,TAVERNIER,1:41:15,9716,50:20,1:24:58,1:35:59,1:41:15,BEL,1,25,Sint-Niklaas,6:18,9.54,SEF,f
18130,Katoo,VANDERVORST,1:41:15,9717,48:47,1:23:52,1:35:44,1:41:15,BEL,1,22,Zemst,6:18,9.54,SEF,f
16148,Jent,DOMS,1:41:15,9718,52:07,1:25:43,1:36:13,1:41:15,BEL,1,30,Brecht,6:18,9.54,SEH,m
9237,Marco,APERS,1:41:15,9719,51:21,1:25:37,1:36:10,1:41:15,BEL,1,14,Beveren,6:18,9.54,SEH,m
35105,Wassim,LOTFI,1:41:15,9720,46:38,0,1:36:35,1:41:15,BEL,1,15,Linkeroever,6:18,9.54,SEH,m
9037,Hans,CHIGGIATTO,1:41:15,9721,51:34,1:24:58,1:36:11,1:41:15,BEL,1,36,Kallo,6:18,9.54,M35,m
18345,Filip,VAN ISACKER,1:41:15,9722,45:59,1:23:00,1:35:43,1:41:15,BEL,1,49,Tienen,6:18,9.54,M45,m
3071,Ec,MAES Hans,1:41:15,9723,49:56,1:25:51,1:36:26,1:41:15,BEL,1,35,Deurne-Antwerpen,6:18,9.54,M35,m
8491,Tim,VERMOERE,1:41:16,9724,46:53,1:26:35,1:36:32,1:41:16,BEL,1,41,Wervik,6:18,9.54,M40,m
21071,Jake,DE WEVER,1:41:16,9725,47:15,1:24:17,1:35:37,1:41:16,BEL,1,42,Hemiksem,6:18,9.54,M40,m
20576,David,VOLLAND,1:41:16,9726,44:55,1:23:52,1:35:55,1:41:16,BEL,1,40,Deurne,6:18,9.54,M40,m
6912,Jef,WAUTERS,1:41:16,9727,48:40,1:24:19,1:35:46,1:41:16,BEL,1,15,Kapellen,6:18,9.54,SEH,m
21113,Peter,VAN DER KUYLEN,1:41:16,9728,46:42,1:23:09,1:35:17,1:41:16,BEL,1,43,Gierle,6:18,9.54,M40,m
7401,Nele,CASTELEIN,1:41:16,9729,48:05,1:24:50,1:35:54,1:41:16,BEL,1,25,Leuven,6:18,9.54,SEF,f
20158,Jürgen,ULLMER,1:41:16,9730,48:54,1:23:49,1:35:44,1:41:16,DEU,1,61,Ludwigshafen,6:18,9.54,M60,m
34570,Steven,VAN LOOVEREN,1:41:16,9731,51:42,1:25:51,1:36:25,1:41:16,BEL,1,39,Zoersel,6:18,9.54,M35,m
36287,Dieter,DE COCK,1:41:16,9732,44:50,1:21:46,1:35:20,1:41:16,BEL,1,40,Hemiksem,6:18,9.54,M40,m
23172,Joke,BOUQUILLON,1:41:17,9733,49:47,1:23:48,1:35:44,1:41:17,BEL,1,0,,6:18,9.54,-,f
31996,Marie,KEYMOLEN,1:41:17,9734,49:58,1:23:50,1:35:36,1:41:17,BEL,1,36,Waasmunster,6:18,9.54,F35,f
22459,Hanne,KERKHOFS,1:41:17,9735,48:41,1:24:27,1:35:43,1:41:17,BEL,1,35,Meeuwen,6:18,9.54,F35,f
23023,Katja,WILLEMS,1:41:17,9736,49:35,1:23:39,1:35:38,1:41:17,BEL,1,45,Hamme,6:18,9.54,F45,f
20543,Jeroen,DHONDT,1:41:17,9737,52:14,1:25:07,1:35:47,1:41:17,BEL,1,30,Boechout,6:18,9.54,SEH,m
3081,Jente,MAHIEU,1:41:17,9738,50:05,1:24:36,1:36:11,1:41:17,BEL,1,33,Antwerpen,6:18,9.54,SEF,f
19668,Michel,HOOFD,1:41:17,9739,48:10,1:23:31,1:35:29,1:41:17,BEL,1,29,Ruisbroek,6:18,9.54,SEH,m
8939,Bert,VAN HOOFSTAT,1:41:17,9740,49:36,1:26:13,1:36:17,1:41:17,BEL,1,45,Beigem,6:18,9.54,M45,m
4255,Tom,WAUTERS,1:41:17,9741,48:41,1:24:20,1:35:47,1:41:17,BEL,1,49,Brasschaat,6:18,9.54,M45,m
18779,Jochem,VINCKE,1:41:17,9742,48:03,1:23:46,1:35:40,1:41:17,BEL,1,37,Blankenberge,6:18,9.54,M35,m
36578,Debruyn,THOMAS,1:41:17,9743,45:41,1:22:33,1:35:16,1:41:17,BEL,1,38,Antwerpen,6:18,9.54,M35,m
20930,Patrick,VANDERHOYDONC,1:41:17,9744,46:11,1:22:33,1:35:34,1:41:17,BEL,1,55,Peer,6:18,9.54,M55,m
5634,Zara,GELDERS,1:41:17,9745,50:05,1:23:59,1:35:34,1:41:17,BEL,1,18,Genk,6:18,9.54,SEF,f
8110,Marc,CELIS,1:41:17,9746,47:39,1:23:11,1:35:27,1:41:17,BEL,1,57,Duffel,6:18,9.54,M55,m
20882,Bo,NORDGREN,1:41:17,9747,48:41,1:24:01,1:35:43,1:41:17,SWE,1,45,Antwerpen,6:18,9.54,M45,m
5444,Tanja,PIESSENS,1:41:18,9748,51:01,1:24:31,1:35:59,1:41:18,BEL,1,44,Brecht,6:18,9.53,F40,f
38350,Eva,BRIJS,1:41:18,9749,50:16,1:25:08,1:36:07,1:41:18,BEL,1,28,Hoboken,6:18,9.53,SEF,f
32476,Stéphanie,MUYLAERT,1:41:18,9750,49:04,1:24:11,1:35:49,1:41:18,BEL,1,27,Gent,6:18,9.53,SEF,f
30493,Emmelie,CATELYN,1:41:18,9751,49:04,1:24:11,1:35:48,1:41:18,BEL,1,27,Gentbrugge,6:18,9.53,SEF,f
8034,Daan,VAN SCHUYLENBERGH,1:41:18,9752,48:36,1:24:15,1:36:04,1:41:18,BEL,1,25,Gent,6:18,9.53,SEH,m
38314,Robin,STEYAERT,1:41:18,9753,51:17,1:25:23,1:36:12,1:41:18,BEL,1,23,Gentbrugge,6:18,9.53,SEH,m
16405,Vincent,GOOSSENS,1:41:18,9754,47:47,1:22:18,1:34:52,1:41:18,BEL,1,42,Temse,6:18,9.53,M40,m
22954,Steven,VERLINDEN,1:41:18,9755,47:50,1:23:14,1:35:33,1:41:18,BEL,1,46,Itegem,6:18,9.53,M45,m
22196,Jaroslaw,KULIK,1:41:18,9756,50:30,1:24:11,1:35:46,1:41:18,POL,1,35,Berchem,6:18,9.53,M35,m
8379,Thomas,BROUCKAERT,1:41:18,9757,48:50,1:24:23,1:36:22,1:41:18,BEL,1,31,Rijmenam,6:18,9.53,SEH,m
18239,Els,VAN GESTEL,1:41:18,9758,49:53,1:24:05,1:35:42,1:41:18,BEL,1,32,Kasterlee,6:18,9.53,SEF,f
17669,Angelo,SOMERS,1:41:18,9759,47:32,1:22:46,1:35:34,1:41:18,NLD,1,43,Dussen,6:18,9.53,M40,m
16822,Chris,LEE,1:41:19,9760,48:15,1:25:05,1:36:19,1:41:19,GBR,1,50,Brussels,6:18,9.53,M50,m
